adenau | 4 | 0.028169014084507043 | 0.05454924830628075
alt | 3 | 0.02112676056338028 | 0.06669719199612915
american | 1 | 0.007042253521126761 | 0.009746007640381766
appar | 1 | 0.007042253521126761 | 0.016099803263047295
architect | 1 | 0.007042253521126761 | 0.024002217249514225
author | 1 | 0.007042253521126761 | 0.013190034571483386
avuncular | 1 | 0.007042253521126761 | 0.0377058098484953
backhand | 1 | 0.007042253521126761 | 0.04258712802145266
believ | 1 | 0.007042253521126761 | 0.01172778552374927
bonn | 1 | 0.007042253521126761 | 0.01735107915908569
boom | 1 | 0.007042253521126761 | 0.021146829164245456
brentano | 1 | 0.007042253521126761 | 0.03485042176322654
britain | 1 | 0.007042253521126761 | 0.0017058958459844331
british | 1 | 0.007042253521126761 | 0.003509127423599001
bundestag | 1 | 0.007042253521126761 | 0.02570054159329512
cabinet | 1 | 0.007042253521126761 | 0.010016896941985964
candid | 2 | 0.014084507042253521 | 0.035098931233195275
canvass | 1 | 0.007042253521126761 | 0.0377058098484953
caucu | 1 | 0.007042253521126761 | 0.03125305821557872
caus | 1 | 0.007042253521126761 | 0.01297661661729093
cdu | 2 | 0.014084507042253521 | 0.0452698427463389
chancellor | 2 | 0.014084507042253521 | 0.031875810494760806
charl | 1 | 0.007042253521126761 | 0.01097701274164886
choic | 1 | 0.007042253521126761 | 0.020206467244354452
christian | 1 | 0.007042253521126761 | 0.01297661661729093
coat | 1 | 0.007042253521126761 | 0.026371740042621352
command | 1 | 0.007042253521126761 | 0.010156352063790047
commit | 2 | 0.014084507042253521 | 0.03219960652609459
conduct | 1 | 0.007042253521126761 | 0.02081922342033776
consid | 1 | 0.007042253521126761 | 0.01503767023674741
correspond | 1 | 0.007042253521126761 | 0.020206467244354452
crusti | 1 | 0.007042253521126761 | 0.04258712802145266
current | 1 | 0.007042253521126761 | 0.017963835335068998
de | 1 | 0.007042253521126761 | 0.0011946225159622458
deliber | 2 | 0.014084507042253521 | 0.04163844684067552
democrat | 1 | 0.007042253521126761 | 0.011056587074423039
der | 3 | 0.02112676056338028 | 0.06344048749273637
dig | 1 | 0.007042253521126761 | 0.03125305821557872
dinner | 1 | 0.007042253521126761 | 0.02263492137316945
disun | 1 | 0.007042253521126761 | 0.03485042176322654
dont | 1 | 0.007042253521126761 | 0.01503767023674741
dozen | 1 | 0.007042253521126761 | 0.018635033784395228
easi | 1 | 0.007042253521126761 | 0.022232397332043054
econom | 2 | 0.014084507042253521 | 0.013781239110226006
eighti | 1 | 0.007042253521126761 | 0.011468532191899156
elect | 1 | 0.007042253521126761 | 0.005636254273843604
enemi | 1 | 0.007042253521126761 | 0.013753715611437869
erhard | 3 | 0.02112676056338028 | 0.04597544721419127
europ | 1 | 0.007042253521126761 | 0.004798564535383285
faction | 1 | 0.007042253521126761 | 0.02081922342033776
fall | 1 | 0.007042253521126761 | 0.014366471787421176
feud | 1 | 0.007042253521126761 | 0.024524104377357334
field | 1 | 0.007042253521126761 | 0.013299218983708493
fit | 1 | 0.007042253521126761 | 0.021146829164245456
foreign | 3 | 0.02112676056338028 | 0.015510553521221633
formid | 1 | 0.007042253521126761 | 0.026371740042621352
free | 1 | 0.007042253521126761 | 0.011468532191899156
gaull | 1 | 0.007042253521126761 | 0.003319880816196914
gerhard | 1 | 0.007042253521126761 | 0.029969103590269178
german | 2 | 0.014084507042253521 | 0.011648117661520468
germani | 2 | 0.014084507042253521 | 0.011801211636688128
great | 1 | 0.007042253521126761 | 0.007786829270682913
grin | 1 | 0.007042253521126761 | 0.028883535422471584
guess | 1 | 0.007042253521126761 | 0.024002217249514225
gusto | 1 | 0.007042253521126761 | 0.0377058098484953
half | 1 | 0.007042253521126761 | 0.011906079946173848
happen | 1 | 0.007042253521126761 | 0.017753603200212086
heinrich | 1 | 0.007042253521126761 | 0.02794317350258058
heir | 1 | 0.007042253521126761 | 0.026371740042621352
hundr | 2 | 0.014084507042253521 | -0.014579949159282
impishli | 1 | 0.007042253521126761 | 0.04258712802145266
influenc | 1 | 0.007042253521126761 | 0.01715812863663418
job | 2 | 0.014084507042253521 | 0.019896382969248484
johnson | 1 | 0.007042253521126761 | 0.03282449167553794
june | 1 | 0.007042253521126761 | 0.0009617995422940191
konrad | 1 | 0.007042253521126761 | 0.020506182838853016
lay | 1 | 0.007042253521126761 | 0.01964278620439997
lead | 1 | 0.007042253521126761 | 0.012276810463676818
leader | 1 | 0.007042253521126761 | 0.003266731480736471
loyalti | 1 | 0.007042253521126761 | 0.021490421869663993
ludwig | 2 | 0.014084507042253521 | 0.037747554212109916
lyndon | 1 | 0.007042253521126761 | 0.03485042176322654
meet | 2 | 0.014084507042253521 | 0.015473412516452251
mention | 1 | 0.007042253521126761 | 0.024524104377357334
mere | 1 | 0.007042253521126761 | 0.01503767023674741
mind | 1 | 0.007042253521126761 | 0.013872075599581398
minist | 3 | 0.02112676056338028 | 0.0020435836575750234
misconcept | 1 | 0.007042253521126761 | 0.04258712802145266
miseri | 1 | 0.007042253521126761 | 0.03485042176322654
mood | 1 | 0.007042253521126761 | 0.023061855329623217
name | 1 | 0.007042253521126761 | 0.012568255647922272
needl | 1 | 0.007042253521126761 | 0.03485042176322654
next | 2 | 0.014084507042253521 | 0.015674623181909667
nine | 2 | 0.014084507042253521 | -0.0075108022287136795
object | 1 | 0.007042253521126761 | 0.016099803263047295
offer | 1 | 0.007042253521126761 | 0.011996948994314043
old | 2 | 0.014084507042253521 | 0.006533462961472942
open | 1 | 0.007042253521126761 | 0.009358262730642136
pal | 1 | 0.007042253521126761 | 0.026371740042621352
pari | 1 | 0.007042253521126761 | 0.010743546492938292
parti | 1 | 0.007042253521126761 | -0.0007718789192906856
paunchi | 1 | 0.007042253521126761 | 0.0377058098484953
petul | 1 | 0.007042253521126761 | 0.04258712802145266
pleasur | 1 | 0.007042253521126761 | 0.028883535422471584
polit | 1 | 0.007042253521126761 | 0.0028804049979755785
politician | 1 | 0.007042253521126761 | 0.011996948994314043
popular | 1 | 0.007042253521126761 | 0.014366471787421176
prefer | 1 | 0.007042253521126761 | 0.024002217249514225
press | 1 | 0.007042253521126761 | 0.009421422378408055
psych | 1 | 0.007042253521126761 | 0.04258712802145266
reflect | 1 | 0.007042253521126761 | 0.027113715505000413
relax | 1 | 0.007042253521126761 | 0.025087785417311815
remark | 1 | 0.007042253521126761 | 0.017963835335068998
report | 1 | 0.007042253521126761 | 0.01172778552374927
retort | 1 | 0.007042253521126761 | 0.022232397332043054
river | 1 | 0.007042253521126761 | 0.013872075599581398
schroder | 1 | 0.007042253521126761 | 0.025087785417311815
sein | 1 | 0.007042253521126761 | 0.03125305821557872
seventh | 1 | 0.007042253521126761 | -0.0012058305679257127
sigh | 1 | 0.007042253521126761 | 0.02351635195735259
sign | 1 | 0.007042253521126761 | 0.011137070847828834
sixti | 2 | 0.014084507042253521 | 0.005171824929988882
splendid | 1 | 0.007042253521126761 | 0.04258712802145266
spread | 1 | 0.007042253521126761 | 0.01735107915908569
stupid | 2 | 0.014084507042253521 | 0.05776707084494317
suggest | 1 | 0.007042253521126761 | 0.011640302988548165
take | 1 | 0.007042253521126761 | 0.01678739811913121
think | 1 | 0.007042253521126761 | 0.013992458933097597
thousand | 3 | 0.02112676056338028 | -0.0401473181462385
top | 1 | 0.007042253521126761 | 0.009485153614463815
twenti | 1 | 0.007042253521126761 | -0.011226706071934465
uncl | 1 | 0.007042253521126761 | 0.024524104377357334
von | 1 | 0.007042253521126761 | 0.01937700924677429
voter | 1 | 0.007042253521126761 | 0.018635033784395228
want | 1 | 0.007042253521126761 | 0.0070247617732164865
wear | 1 | 0.007042253521126761 | 0.015779645699126467
west | 4 | 0.028169014084507043 | 0.006908557849837043
western | 1 | 0.007042253521126761 | 0.0066725757128315456
who | 1 | 0.007042253521126761 | 0.029969103590269178
whoever | 1 | 0.007042253521126761 | 0.03485042176322654
wide | 1 | 0.007042253521126761 | 0.018873777106054958
wisecrack | 1 | 0.007042253521126761 | 0.04258712802145266
