akvavit | 4 | 0.0425531914893617 | 0.19834373693303778
alarm | 1 | 0.010638297872340425 | 0.03625866861096829
altogeth | 1 | 0.010638297872340425 | 0.052646381812533706
amidst | 1 | 0.010638297872340425 | 0.04527247563636407
ampl | 1 | 0.010638297872340425 | 0.049585934233259445
ask | 1 | 0.010638297872340425 | 0.025090348137578104
auster | 1 | 0.010638297872340425 | 0.03358511086329908
bar | 1 | 0.010638297872340425 | 0.026819272919469322
bare | 1 | 0.010638297872340425 | 0.031450316230722995
bootlegg | 1 | 0.010638297872340425 | 0.06433374658559869
bottl | 2 | 0.02127659574468085 | 0.0660198553165923
brannvin | 1 | 0.010638297872340425 | 0.06433374658559869
buy | 1 | 0.010638297872340425 | 0.028511450521912805
caught | 2 | 0.02127659574468085 | 0.06290063246144599
close | 1 | 0.010638297872340425 | 0.015666608516413775
control | 1 | 0.010638297872340425 | 0.011100275245753391
copenhagen | 1 | 0.010638297872340425 | 0.049585934233259445
countri | 1 | 0.010638297872340425 | 0.00303532761985214
cupboard | 1 | 0.010638297872340425 | 0.052646381812533706
custom | 1 | 0.010638297872340425 | 0.02815079571685237
declin | 1 | 0.010638297872340425 | 0.03246425431374773
demand | 1 | 0.010638297872340425 | 0.013492007297178176
denmark | 1 | 0.010638297872340425 | 0.03882422240689263
desper | 1 | 0.010638297872340425 | 0.026510894867626218
direst | 1 | 0.010638297872340425 | 0.06433374658559869
disast | 1 | 0.010638297872340425 | 0.037047051293454696
distilleri | 2 | 0.02127659574468085 | 0.11391968081885814
dollar | 2 | 0.02127659574468085 | 0.010273441951565628
done | 1 | 0.010638297872340425 | 0.02591972623831972
dri | 1 | 0.010638297872340425 | 0.037047051293454696
drink | 2 | 0.02127659574468085 | 0.05776952486959732
drought | 1 | 0.010638297872340425 | 0.047212066666086995
end | 1 | 0.010638297872340425 | 0.00823800660087799
fast | 1 | 0.010638297872340425 | 0.02967314511728506
favorit | 1 | 0.010638297872340425 | 0.03483812188092018
ferri | 1 | 0.010638297872340425 | 0.043632574787137925
fifti | 1 | 0.010638297872340425 | 0.0020153087719448795
foremen | 1 | 0.010638297872340425 | 0.06433374658559869
forti | 1 | 0.010638297872340425 | 0.004313458596895366
fulli | 1 | 0.010638297872340425 | 0.03625866861096829
furtiv | 1 | 0.010638297872340425 | 0.06433374658559869
gone | 1 | 0.010638297872340425 | 0.03052466328402481
govern | 3 | 0.031914893617021274 | -0.015523935921927627
hard | 1 | 0.010638297872340425 | 0.01707149917612725
height | 1 | 0.010638297872340425 | 0.03625866861096829
hop | 1 | 0.010638297872340425 | 0.04221202805708981
hundr | 1 | 0.010638297872340425 | -0.011012514790521512
laid | 1 | 0.010638297872340425 | 0.035524701893021995
line | 1 | 0.010638297872340425 | 0.01611460304141513
liqueur | 1 | 0.010638297872340425 | 0.06433374658559869
liquor | 3 | 0.031914893617021274 | 0.13089772436141375
monopoli | 1 | 0.010638297872340425 | 0.04527247563636407
mutter | 1 | 0.010638297872340425 | 0.04221202805708981
nine | 1 | 0.010638297872340425 | -0.005673052747219906
normal | 1 | 0.010638297872340425 | 0.031450316230722995
packag | 1 | 0.010638297872340425 | 0.037898569460194445
popular | 1 | 0.010638297872340425 | 0.021702542487380922
quart | 1 | 0.010638297872340425 | 0.05695984040942907
queue | 1 | 0.010638297872340425 | 0.052646381812533706
ration | 1 | 0.010638297872340425 | 0.03483812188092018
relief | 1 | 0.010638297872340425 | 0.037898569460194445
reserv | 1 | 0.010638297872340425 | 0.024571303837903295
restrict | 2 | 0.02127659574468085 | 0.06492850862749545
result | 1 | 0.010638297872340425 | 0.018403021973510292
run | 1 | 0.010638297872340425 | 0.01385574522003221
sale | 1 | 0.010638297872340425 | 0.037898569460194445
seek | 1 | 0.010638297872340425 | 0.024827660769595427
sell | 1 | 0.010638297872340425 | 0.02967314511728506
shop | 1 | 0.010638297872340425 | 0.03300992765829615
shortag | 1 | 0.010638297872340425 | 0.03419317909563895
someth | 1 | 0.010638297872340425 | 0.027136857633827637
south | 1 | 0.010638297872340425 | 0.004313458596895366
standard | 1 | 0.010638297872340425 | 0.027136857633827637
state | 1 | 0.010638297872340425 | -0.008948939154458352
staterun | 1 | 0.010638297872340425 | 0.06433374658559869
stock | 1 | 0.010638297872340425 | 0.03300992765829615
stockholm | 1 | 0.010638297872340425 | 0.05695984040942907
store | 2 | 0.02127659574468085 | 0.06717022172659816
strike | 1 | 0.010638297872340425 | 0.01826211530595688
swede | 5 | 0.05319148936170213 | 0.236060333330435
sweden | 3 | 0.031914893617021274 | 0.11951448146975208
swedish | 1 | 0.010638297872340425 | 0.037047051293454696
thousand | 4 | 0.0425531914893617 | -0.08086410179809742
tight | 1 | 0.010638297872340425 | 0.035524701893021995
troubl | 1 | 0.010638297872340425 | 0.017985780344220065
turn | 2 | 0.02127659574468085 | 0.01771141322207005
twenti | 2 | 0.02127659574468085 | -0.033918984302440294
unless | 1 | 0.010638297872340425 | 0.02967314511728506
vacat | 1 | 0.010638297872340425 | 0.037047051293454696
vow | 1 | 0.010638297872340425 | 0.035524701893021995
wait | 1 | 0.010638297872340425 | 0.024320979397369314
whiski | 1 | 0.010638297872340425 | 0.043632574787137925
wine | 2 | 0.02127659574468085 | 0.07104940378604399
wors | 1 | 0.010638297872340425 | 0.03419317909563895
