age | 1 | 0.005988023952095809 | 0.012325677440011997
alpin | 1 | 0.005988023952095809 | 0.0296332927567555
arctic | 1 | 0.005988023952095809 | 0.03206122753584631
armi | 1 | 0.005988023952095809 | 0.003443721589070678
arrest | 1 | 0.005988023952095809 | 0.01130831793824315
asian | 1 | 0.005988023952095809 | 0.012667943391149416
auld | 1 | 0.005988023952095809 | 0.036211809455366936
austrian | 1 | 0.005988023952095809 | 0.019609481777284412
babi | 1 | 0.005988023952095809 | 0.019995939987689032
baltic | 1 | 0.005988023952095809 | 0.03206122753584631
barcelona | 1 | 0.005988023952095809 | 0.026574456686300468
beauvai | 1 | 0.005988023952095809 | 0.036211809455366936
belat | 1 | 0.005988023952095809 | 0.027910645616325676
bernard | 1 | 0.005988023952095809 | 0.03206122753584631
blanket | 1 | 0.005988023952095809 | 0.0296332927567555
blitz | 2 | 0.011976047904191617 | 0.059266585513511
blizzard | 2 | 0.011976047904191617 | 0.053148913372600935
block | 1 | 0.005988023952095809 | 0.015649011823719354
blown | 1 | 0.005988023952095809 | 0.026574456686300468
boulogn | 1 | 0.005988023952095809 | 0.03206122753584631
bound | 1 | 0.005988023952095809 | 0.01798113617558596
box | 1 | 0.005988023952095809 | 0.01798113617558596
bread | 1 | 0.005988023952095809 | 0.022423874766779834
britain | 1 | 0.005988023952095809 | 0.001450522216346045
bu | 1 | 0.005988023952095809 | 0.01858043832263376
buri | 1 | 0.005988023952095809 | 0.019995939987689032
camp | 1 | 0.005988023952095809 | 0.01458954650540152
canal | 1 | 0.005988023952095809 | 0.017702573207712347
car | 2 | 0.011976047904191617 | 0.01788617110713458
cardboard | 1 | 0.005988023952095809 | 0.0296332927567555
centuri | 1 | 0.005988023952095809 | 0.010686780251526723
channel | 1 | 0.005988023952095809 | 0.02548271083723487
circu | 1 | 0.005988023952095809 | 0.026574456686300468
citi | 1 | 0.005988023952095809 | 0.007445216373131866
coal | 1 | 0.005988023952095809 | 0.01647625935953263
coast | 1 | 0.005988023952095809 | 0.017181546998193607
collid | 1 | 0.005988023952095809 | 0.0296332927567555
columnist | 1 | 0.005988023952095809 | 0.026574456686300468
complet | 1 | 0.005988023952095809 | 0.0158453580681684
contin | 1 | 0.005988023952095809 | 0.01670224934745387
daili | 1 | 0.005988023952095809 | 0.012907496293027855
day | 1 | 0.005988023952095809 | 0.006794714331198959
dead | 1 | 0.005988023952095809 | 0.011795417575691967
destin | 1 | 0.005988023952095809 | 0.0296332927567555
discov | 1 | 0.005988023952095809 | 0.017702573207712347
dog | 1 | 0.005988023952095809 | 0.017702573207712347
dorset | 1 | 0.005988023952095809 | 0.036211809455366936
drift | 1 | 0.005988023952095809 | 0.02133212891771424
drove | 1 | 0.005988023952095809 | 0.01798113617558596
drown | 1 | 0.005988023952095809 | 0.02548271083723487
dug | 1 | 0.005988023952095809 | 0.02548271083723487
effect | 1 | 0.005988023952095809 | 0.012437606380204528
en | 1 | 0.005988023952095809 | 0.022423874766779834
end | 1 | 0.005988023952095809 | 0.0046369617992965935
english | 1 | 0.005988023952095809 | 0.014922300105130926
europ | 3 | 0.017964071856287425 | 0.01224064965313341
eve | 1 | 0.005988023952095809 | 0.019609481777284412
express | 1 | 0.005988023952095809 | 0.013689653073968357
fifti | 1 | 0.005988023952095809 | 0.0011343654165438244
foot | 1 | 0.005988023952095809 | 0.01743639498872532
franc | 1 | 0.005988023952095809 | 0.00305411923369905
french | 1 | 0.005988023952095809 | 0.0041932014869988585
froze | 1 | 0.005988023952095809 | 0.0296332927567555
gale | 1 | 0.005988023952095809 | 0.03206122753584631
gather | 1 | 0.005988023952095809 | 0.01743639498872532
gurkha | 1 | 0.005988023952095809 | 0.02548271083723487
hardi | 2 | 0.011976047904191617 | 0.059266585513511
helicopt | 1 | 0.005988023952095809 | 0.013417423289077596
herald | 1 | 0.005988023952095809 | 0.026574456686300468
highway | 1 | 0.005988023952095809 | 0.02185315512723298
hit | 1 | 0.005988023952095809 | 0.016048361371615593
horror | 1 | 0.005988023952095809 | 0.02548271083723487
howl | 1 | 0.005988023952095809 | 0.026574456686300468
hundr | 3 | 0.017964071856287425 | -0.01859598305944351
ice | 3 | 0.017964071856287425 | 0.06727162430033949
icebox | 1 | 0.005988023952095809 | 0.036211809455366936
inhabit | 1 | 0.005988023952095809 | 0.023054776058144065
isol | 1 | 0.005988023952095809 | 0.017702573207712347
lang | 1 | 0.005988023952095809 | 0.0296332927567555
liter | 1 | 0.005988023952095809 | 0.022423874766779834
london | 2 | 0.011976047904191617 | 0.014695695969356182
lost | 1 | 0.005988023952095809 | 0.01035858721862256
low | 1 | 0.005988023952095809 | 0.01647625935953263
main | 1 | 0.005988023952095809 | 0.013974850972107607
marseil | 1 | 0.005988023952095809 | 0.036211809455366936
meat | 1 | 0.005988023952095809 | 0.022423874766779834
mediterranean | 1 | 0.005988023952095809 | 0.0208528312669745
memori | 1 | 0.005988023952095809 | 0.01798113617558596
minu | 1 | 0.005988023952095809 | 0.036211809455366936
mock | 1 | 0.005988023952095809 | 0.026574456686300468
moist | 1 | 0.005988023952095809 | 0.036211809455366936
monasteri | 1 | 0.005988023952095809 | 0.0296332927567555
monk | 1 | 0.005988023952095809 | 0.01355199128819172
mostli | 1 | 0.005988023952095809 | 0.016937103917234
munich | 1 | 0.005988023952095809 | 0.018273292847259204
netherland | 1 | 0.005988023952095809 | 0.026574456686300468
new | 1 | 0.005988023952095809 | -0.0015938674684480084
nine | 1 | 0.005988023952095809 | -0.0031932153187944384
nineti | 1 | 0.005988023952095809 | 0.012107907115635502
northern | 1 | 0.005988023952095809 | 0.013830554256065327
old | 2 | 0.011976047904191617 | 0.005555399643887173
pari | 1 | 0.005988023952095809 | 0.009135231149684057
passeng | 1 | 0.005988023952095809 | 0.018904194138623435
path | 1 | 0.005988023952095809 | 0.0208528312669745
pension | 1 | 0.005988023952095809 | 0.0296332927567555
piccadilli | 1 | 0.005988023952095809 | 0.03206122753584631
place | 1 | 0.005988023952095809 | 0.015458899857763782
platform | 1 | 0.005988023952095809 | 0.020409070954676766
policemen | 1 | 0.005988023952095809 | 0.023760063696805046
portsmouth | 1 | 0.005988023952095809 | 0.0296332927567555
quietest | 1 | 0.005988023952095809 | 0.036211809455366936
ran | 1 | 0.005988023952095809 | 0.019995939987689032
reach | 1 | 0.005988023952095809 | 0.012001921624022322
rescu | 1 | 0.005988023952095809 | 0.019609481777284412
rescuer | 1 | 0.005988023952095809 | 0.0296332927567555
result | 2 | 0.011976047904191617 | 0.02071717443724512
retreat | 1 | 0.005988023952095809 | 0.019995939987689032
river | 1 | 0.005988023952095809 | 0.011795417575691967
road | 2 | 0.011976047904191617 | 0.021715756580227768
rout | 1 | 0.005988023952095809 | 0.0158453580681684
savag | 2 | 0.011976047904191617 | 0.04081814190935353
save | 1 | 0.005988023952095809 | 0.01442985640311313
sea | 1 | 0.005988023952095809 | 0.014753612219102805
servic | 1 | 0.005988023952095809 | 0.01121547849790803
seventi | 1 | 0.005988023952095809 | 0.007445216373131866
shelter | 1 | 0.005988023952095809 | 0.02548271083723487
sing | 1 | 0.005988023952095809 | 0.020409070954676766
sixti | 1 | 0.005988023952095809 | 0.0021987998205341953
skate | 1 | 0.005988023952095809 | 0.036211809455366936
skater | 1 | 0.005988023952095809 | 0.036211809455366936
smother | 1 | 0.005988023952095809 | 0.036211809455366936
snow | 4 | 0.023952095808383235 | 0.07432175329053504
snowbal | 1 | 0.005988023952095809 | 0.036211809455366936
social | 1 | 0.005988023952095809 | 0.009897742660921194
soul | 1 | 0.005988023952095809 | 0.022423874766779834
southern | 1 | 0.005988023952095809 | 0.013417423289077596
st | 1 | 0.005988023952095809 | 0.019995939987689032
station | 1 | 0.005988023952095809 | 0.013417423289077596
storm | 1 | 0.005988023952095809 | 0.018273292847259204
strand | 1 | 0.005988023952095809 | 0.0296332927567555
stranger | 1 | 0.005988023952095809 | 0.022423874766779834
switzerland | 1 | 0.005988023952095809 | 0.0208528312669745
syne | 1 | 0.005988023952095809 | 0.0296332927567555
talk | 1 | 0.005988023952095809 | 0.006621136266089663
temperatur | 1 | 0.005988023952095809 | 0.02548271083723487
thoroughli | 1 | 0.005988023952095809 | 0.026574456686300468
thousand | 3 | 0.017964071856287425 | -0.03413724057943633
throw | 1 | 0.005988023952095809 | 0.020409070954676766
total | 1 | 0.005988023952095809 | 0.01169477614864777
tradit | 1 | 0.005988023952095809 | 0.010686780251526723
train | 2 | 0.011976047904191617 | 0.020401997092126877
trap | 1 | 0.005988023952095809 | 0.01924646008976085
travel | 1 | 0.005988023952095809 | 0.014122710927738574
troop | 1 | 0.005988023952095809 | 0.0056372856595550734
trusti | 1 | 0.005988023952095809 | 0.03206122753584631
turn | 2 | 0.011976047904191617 | 0.009969298460326854
valley | 1 | 0.005988023952095809 | 0.0208528312669745
vienna | 1 | 0.005988023952095809 | 0.024559652874197396
villag | 1 | 0.005988023952095809 | 0.01035858721862256
warm | 1 | 0.005988023952095809 | 0.01858043832263376
weather | 1 | 0.005988023952095809 | 0.018273292847259204
western | 1 | 0.005988023952095809 | 0.005673687133066345
weymouth | 1 | 0.005988023952095809 | 0.036211809455366936
wiltshir | 1 | 0.005988023952095809 | 0.036211809455366936
wind | 1 | 0.005988023952095809 | 0.019609481777284412
winter | 1 | 0.005988023952095809 | 0.01743639498872532
yugoslav | 1 | 0.005988023952095809 | 0.019995939987689032
