accept | 1 | 0.004273504273504274 | 0.006120733599166746
affabl | 1 | 0.004273504273504274 | 0.01818637910178728
agreement | 2 | 0.008547008547008548 | 0.015622773280941636
ahead | 1 | 0.004273504273504274 | 0.010773554078761183
aim | 2 | 0.008547008547008548 | 0.017130947959074598
aircraft | 1 | 0.004273504273504274 | 0.013735721517051548
alli | 7 | 0.029914529914529916 | 0.04696686988024145
allianc | 1 | 0.004273504273504274 | 0.008957813933610472
aloof | 1 | 0.004273504273504274 | 0.019919135974044395
announc | 1 | 0.004273504273504274 | 0.006293423933943996
anxiou | 1 | 0.004273504273504274 | 0.013491454791239803
asia | 1 | 0.004273504273504274 | 0.00849115029273444
attend | 2 | 0.008547008547008548 | 0.0245240884504131
attitud | 1 | 0.004273504273504274 | 0.013735721517051548
away | 1 | 0.004273504273504274 | 0.006120733599166746
badli | 1 | 0.004273504273504274 | 0.013735721517051548
base | 1 | 0.004273504273504274 | 0.00849115029273444
believ | 1 | 0.004273504273504274 | 0.007116861300736737
beset | 1 | 0.004273504273504274 | 0.019919135974044395
bomb | 1 | 0.004273504273504274 | 0.009211760174938683
bomber | 2 | 0.008547008547008548 | 0.027471443034103097
britain | 4 | 0.017094017094017096 | 0.004140807010765633
brusqu | 1 | 0.004273504273504274 | 0.021148546540077647
chang | 1 | 0.004273504273504274 | 0.008070466220882932
charl | 3 | 0.01282051282051282 | 0.019983792427104335
charm | 1 | 0.004273504273504274 | 0.013491454791239803
chat | 1 | 0.004273504273504274 | 0.01600336361560783
civil | 1 | 0.004273504273504274 | 0.007938963406067746
clamor | 1 | 0.004273504273504274 | 0.01818637910178728
command | 1 | 0.004273504273504274 | 0.0061632563805905415
commit | 2 | 0.008547008547008548 | 0.01953993216540783
comtwenti | 1 | 0.004273504273504274 | 0.0061632563805905415
concern | 1 | 0.004273504273504274 | 0.009575682432803241
confer | 1 | 0.004273504273504274 | 0.0055289828544440745
control | 1 | 0.004273504273504274 | 0.0044590849277812775
cooper | 3 | 0.01282051282051282 | 0.03232066223628354
coordin | 1 | 0.004273504273504274 | 0.016956968535754027
cordial | 1 | 0.004273504273504274 | 0.016956968535754027
count | 1 | 0.004273504273504274 | 0.011032633659173298
countri | 2 | 0.008547008547008548 | 0.0024386392843256514
cours | 2 | 0.008547008547008548 | 0.015497997217512981
couv | 1 | 0.004273504273504274 | 0.01427060674335072
creat | 1 | 0.004273504273504274 | 0.008718115358178662
crew | 1 | 0.004273504273504274 | 0.012443922919303968
cri | 1 | 0.004273504273504274 | 0.008137766891686946
crisi | 1 | 0.004273504273504274 | 0.00820614441880849
daunt | 1 | 0.004273504273504274 | 0.02288130341233476
de | 7 | 0.029914529914529916 | 0.00507459308062595
dean | 1 | 0.004273504273504274 | 0.015224211663496915
decemb | 1 | 0.004273504273504274 | 0.011308439305060354
defens | 1 | 0.004273504273504274 | 0.005108298782592569
deleg | 1 | 0.004273504273504274 | 0.006857781720324622
demand | 1 | 0.004273504273504274 | 0.005419866179208328
deni | 1 | 0.004273504273504274 | 0.011032633659173298
detail | 1 | 0.004273504273504274 | 0.012443922919303968
deterr | 1 | 0.004273504273504274 | 0.012633887716615224
diplomat | 1 | 0.004273504273504274 | 0.005794975627423651
dismiss | 1 | 0.004273504273504274 | 0.013994801097463663
due | 1 | 0.004273504273504274 | 0.012832691202234424
east | 1 | 0.004273504273504274 | 0.0039208267697572845
elyse | 1 | 0.004273504273504274 | 0.01600336361560783
enthusiasm | 1 | 0.004273504273504274 | 0.015596055154905588
enthusiast | 1 | 0.004273504273504274 | 0.013994801097463663
europ | 1 | 0.004273504273504274 | 0.0029119494189078056
european | 1 | 0.004273504273504274 | 0.0055289828544440745
event | 1 | 0.004273504273504274 | 0.009481755481013604
evermount | 1 | 0.004273504273504274 | 0.02584347085062512
exchang | 1 | 0.004273504273504274 | 0.010298230851794413
exclud | 2 | 0.008547008547008548 | 0.03044842332699383
expect | 1 | 0.004273504273504274 | 0.007626890179508388
fifteen | 1 | 0.004273504273504274 | 0.012633887716615224
fifti | 1 | 0.004273504273504274 | 0.0008095684810376867
fighterbomb | 1 | 0.004273504273504274 | 0.02584347085062512
financi | 1 | 0.004273504273504274 | 0.013735721517051548
fleet | 2 | 0.008547008547008548 | 0.020158057478054204
fold | 1 | 0.004273504273504274 | 0.017527615512781904
forc | 4 | 0.017094017094017096 | 0.004089396394287762
foreign | 2 | 0.008547008547008548 | 0.0062749247863631685
franc | 6 | 0.02564102564102564 | 0.013077895180198494
frapp | 1 | 0.004273504273504274 | 0.014565448074491538
french | 3 | 0.01282051282051282 | 0.0089777519016514
futur | 1 | 0.004273504273504274 | 0.00834627186676999
gaull | 5 | 0.021367521367521368 | 0.010073142647435081
gaullist | 1 | 0.004273504273504274 | 0.011032633659173298
gener | 2 | 0.008547008547008548 | 0.0031969992467930377
german | 2 | 0.008547008547008548 | 0.007068515845879943
germani | 1 | 0.004273504273504274 | 0.003580709513695971
gimmick | 1 | 0.004273504273504274 | 0.02288130341233476
gimmickri | 1 | 0.004273504273504274 | 0.02584347085062512
govern | 1 | 0.004273504273504274 | -0.002078703670457546
grand | 1 | 0.004273504273504274 | 0.010901130844358111
grave | 1 | 0.004273504273504274 | 0.01226204422520655
greater | 1 | 0.004273504273504274 | 0.010901130844358111
greatli | 1 | 0.004273504273504274 | 0.01818637910178728
headlin | 1 | 0.004273504273504274 | 0.012832691202234424
high | 1 | 0.004273504273504274 | 0.006519588042723238
hint | 1 | 0.004273504273504274 | 0.011032633659173298
home | 1 | 0.004273504273504274 | 0.0036513475562225113
honor | 1 | 0.004273504273504274 | 0.011168311857098854
hope | 1 | 0.004273504273504274 | 0.0044590849277812775
hundr | 5 | 0.021367521367521368 | -0.02211915363908167
inclin | 1 | 0.004273504273504274 | 0.01600336361560783
includ | 1 | 0.004273504273504274 | 0.009769966082703915
independ | 1 | 0.004273504273504274 | 0.005455929720429972
indic | 2 | 0.008547008547008548 | 0.023839962743801676
insist | 1 | 0.004273504273504274 | 0.006908356325653695
integr | 1 | 0.004273504273504274 | 0.014565448074491538
inter | 2 | 0.008547008547008548 | 0.04229709308015529
isnt | 1 | 0.004273504273504274 | 0.021148546540077647
itali | 1 | 0.004273504273504274 | 0.007626890179508388
iv | 1 | 0.004273504273504274 | 0.016453622229530167
januari | 2 | 0.008547008547008548 | 0.015253780359016776
launch | 1 | 0.004273504273504274 | 0.010298230851794413
le | 1 | 0.004273504273504274 | 0.007336063413504047
leak | 1 | 0.004273504273504274 | 0.01818637910178728
limit | 1 | 0.004273504273504274 | 0.011603280636201172
london | 1 | 0.004273504273504274 | 0.005243976980518125
lord | 1 | 0.004273504273504274 | 0.00987052376394406
man | 1 | 0.004273504273504274 | 0.010649675716054978
march | 1 | 0.004273504273504274 | 0.0033312564956536317
mauric | 1 | 0.004273504273504274 | 0.016956968535754027
mcnamara | 1 | 0.004273504273504274 | 0.015596055154905588
meet | 3 | 0.01282051282051282 | 0.014084772931642432
mere | 1 | 0.004273504273504274 | 0.009125423818880906
minist | 1 | 0.004273504273504274 | 0.0004133744720450903
minut | 1 | 0.004273504273504274 | 0.008641113197910808
mirag | 1 | 0.004273504273504274 | 0.019919135974044395
misjudg | 1 | 0.004273504273504274 | 0.02584347085062512
missil | 3 | 0.01282051282051282 | 0.028169545863284864
mix | 1 | 0.004273504273504274 | 0.013260398290084779
money | 1 | 0.004273504273504274 | 0.008796530480692323
multiman | 1 | 0.004273504273504274 | 0.021148546540077647
murvil | 1 | 0.004273504273504274 | 0.015596055154905588
nato | 7 | 0.029914529914529916 | 0.038961881858039296
natocontrol | 1 | 0.004273504273504274 | 0.02584347085062512
new | 1 | 0.004273504273504274 | -0.0011375037061146043
news | 1 | 0.004273504273504274 | 0.008796530480692323
next | 1 | 0.004273504273504274 | 0.004755975409895669
nine | 4 | 0.017094017094017096 | -0.009115674499806346
ninth | 1 | 0.004273504273504274 | 0.006120733599166746
note | 1 | 0.004273504273504274 | 0.013491454791239803
nuclear | 5 | 0.021367521367521368 | 0.026567331929765417
offer | 1 | 0.004273504273504274 | 0.0072801998170623685
offici | 3 | 0.01282051282051282 | 0.0077558265195446716
old | 1 | 0.004273504273504274 | 0.001982375513951192
oneket | 1 | 0.004273504273504274 | 0.006206206533810633
oper | 1 | 0.004273504273504274 | 0.007938963406067746
organ | 1 | 0.004273504273504274 | 0.006908356325653695
ottawa | 1 | 0.004273504273504274 | 0.0189655310538982
outlin | 1 | 0.004273504273504274 | 0.017527615512781904
palac | 1 | 0.004273504273504274 | 0.006036936712891634
pari | 6 | 0.02564102564102564 | 0.03911752825633942
partner | 1 | 0.004273504273504274 | 0.012633887716615224
plan | 5 | 0.021367521367521368 | 0.02131444811531498
plane | 1 | 0.004273504273504274 | 0.008796530480692323
planner | 1 | 0.004273504273504274 | 0.0189655310538982
pleas | 1 | 0.004273504273504274 | 0.012832691202234424
point | 1 | 0.004273504273504274 | 0.010773554078761183
polari | 5 | 0.021367521367521368 | 0.051491154258972056
polici | 1 | 0.004273504273504274 | 0.005565983122577042
policymak | 1 | 0.004273504273504274 | 0.017527615512781904
posit | 1 | 0.004273504273504274 | 0.00820614441880849
practic | 1 | 0.004273504273504274 | 0.011453317731024804
present | 2 | 0.008547008547008548 | 0.015622773280941636
presid | 1 | 0.004273504273504274 | 0.0018713691618005054
press | 2 | 0.008547008547008548 | 0.011434546818238838
problem | 1 | 0.004273504273504274 | 0.006249592736648318
produc | 1 | 0.004273504273504274 | 0.009575682432803241
progress | 1 | 0.004273504273504274 | 0.00987052376394406
propos | 1 | 0.004273504273504274 | 0.007687508277764612
pur | 1 | 0.004273504273504274 | 0.02584347085062512
push | 1 | 0.004273504273504274 | 0.010529287352949437
rank | 1 | 0.004273504273504274 | 0.011453317731024804
rather | 1 | 0.004273504273504274 | 0.010298230851794413
readi | 1 | 0.004273504273504274 | 0.009299876786916184
reason | 1 | 0.004273504273504274 | 0.007392666946623793
recept | 1 | 0.004273504273504274 | 0.011919981371900838
reject | 1 | 0.004273504273504274 | 0.010901130844358111
remain | 1 | 0.004273504273504274 | 0.005794975627423651
report | 1 | 0.004273504273504274 | 0.007116861300736737
retort | 1 | 0.004273504273504274 | 0.013491454791239803
return | 1 | 0.004273504273504274 | 0.005678945759620442
role | 1 | 0.004273504273504274 | 0.012633887716615224
rusk | 2 | 0.008547008547008548 | 0.026520796580169557
schedul | 3 | 0.01282051282051282 | 0.029920514260794485
scheme | 1 | 0.004273504273504274 | 0.010649675716054978
seato | 1 | 0.004273504273504274 | 0.017527615512781904
secretari | 3 | 0.01282051282051282 | 0.01969888041704395
secur | 1 | 0.004273504273504274 | 0.007392666946623793
servic | 1 | 0.004273504273504274 | 0.008004209013464278
session | 1 | 0.004273504273504274 | 0.009769966082703915
seventh | 1 | 0.004273504273504274 | -0.0007317433360916718
seventi | 1 | 0.004273504273504274 | 0.005313466385953084
shown | 1 | 0.004273504273504274 | 0.013260398290084779
sink | 1 | 0.004273504273504274 | 0.0189655310538982
sixti | 3 | 0.01282051282051282 | 0.00470768679524629
skeptic | 1 | 0.004273504273504274 | 0.013491454791239803
snap | 1 | 0.004273504273504274 | 0.013041196177317466
snub | 1 | 0.004273504273504274 | 0.021148546540077647
south | 1 | 0.004273504273504274 | 0.001732756872257113
speak | 2 | 0.008547008547008548 | 0.020596461703588826
state | 11 | 0.04700854700854701 | -0.039543602930384336
stiffli | 1 | 0.004273504273504274 | 0.017527615512781904
strike | 1 | 0.004273504273504274 | 0.007336063413504047
structur | 1 | 0.004273504273504274 | 0.01600336361560783
sub | 1 | 0.004273504273504274 | 0.014882148810191204
submarin | 3 | 0.01282051282051282 | 0.037901663149845666
substanti | 1 | 0.004273504273504274 | 0.019919135974044395
suggest | 1 | 0.004273504273504274 | 0.007063773608435212
surfac | 1 | 0.004273504273504274 | 0.013491454791239803
talk | 1 | 0.004273504273504274 | 0.004725340839474247
technic | 1 | 0.004273504273504274 | 0.013735721517051548
term | 2 | 0.008547008547008548 | 0.016836194317440673
thaw | 1 | 0.004273504273504274 | 0.017527615512781904
theyr | 1 | 0.004273504273504274 | 0.016956968535754027
thirti | 1 | 0.004273504273504274 | 0.003287425298357952
thousand | 6 | 0.02564102564102564 | -0.0487258049296228
tone | 1 | 0.004273504273504274 | 0.01600336361560783
top | 1 | 0.004273504273504274 | 0.005755947919888298
translat | 1 | 0.004273504273504274 | 0.014565448074491538
treati | 1 | 0.004273504273504274 | 0.009481755481013604
twenti | 2 | 0.008547008547008548 | -0.013625574890723881
unit | 10 | 0.042735042735042736 | -0.036295818486172395
war | 1 | 0.004273504273504274 | 0.0013697625276029093
warhead | 1 | 0.004273504273504274 | 0.016956968535754027
washington | 2 | 0.008547008547008548 | 0.012586847867887992
weapon | 1 | 0.004273504273504274 | 0.00834627186676999
west | 1 | 0.004273504273504274 | 0.0010480931780735684
western | 2 | 0.008547008547008548 | 0.008098339754034869
what | 1 | 0.004273504273504274 | 0.017527615512781904
win | 1 | 0.004273504273504274 | 0.006661264142368112
wish | 1 | 0.004273504273504274 | 0.013735721517051548
within | 1 | 0.004273504273504274 | 0.008957813933610472
wont | 1 | 0.004273504273504274 | 0.014565448074491538
