abb | 4 | 0.01932367149758454 | 0.08575718389588749
ad | 1 | 0.004830917874396135 | 0.014990015458356704
air | 1 | 0.004830917874396135 | 0.0076399229970613245
amman | 1 | 0.004830917874396135 | 0.02251728414457192
ancient | 1 | 0.004830917874396135 | 0.012947228739419342
approach | 1 | 0.004830917874396135 | 0.015527337367101747
arab | 1 | 0.004830917874396135 | 0.003943302232810103
arid | 1 | 0.004830917874396135 | 0.02251728414457192
armi | 1 | 0.004830917874396135 | 0.0027782681419072615
ban | 1 | 0.004830917874396135 | 0.008974480372076581
basman | 1 | 0.004830917874396135 | 0.025865821248726245
batter | 1 | 0.004830917874396135 | 0.017630323218588925
bc | 1 | 0.004830917874396135 | 0.02251728414457192
biblic | 2 | 0.00966183574879227 | 0.03962765246368082
bodi | 1 | 0.004830917874396135 | 0.011902672659855883
book | 1 | 0.004830917874396135 | 0.011044309484795727
british | 1 | 0.004830917874396135 | 0.002407227507976126
brown | 1 | 0.004830917874396135 | 0.013861441298059576
built | 1 | 0.004830917874396135 | 0.011044309484795727
burgon | 1 | 0.004830917874396135 | 0.029214358352880568
burial | 1 | 0.004830917874396135 | 0.02251728414457192
capit | 1 | 0.004830917874396135 | 0.006919090155579799
car | 1 | 0.004830917874396135 | 0.007214953079448006
caravan | 1 | 0.004830917874396135 | 0.029214358352880568
cascad | 1 | 0.004830917874396135 | 0.029214358352880568
centuri | 1 | 0.004830917874396135 | 0.008621701942052959
church | 1 | 0.004830917874396135 | 0.013861441298059576
citi | 2 | 0.00966183574879227 | 0.01201305443780697
clergyman | 1 | 0.004830917874396135 | 0.029214358352880568
cliff | 1 | 0.004830917874396135 | 0.02251728414457192
cloudburst | 2 | 0.00966183574879227 | 0.05173164249745249
clung | 1 | 0.004830917874396135 | 0.02251728414457192
color | 1 | 0.004830917874396135 | 0.013116752023531759
comfort | 1 | 0.004830917874396135 | 0.019168747040417593
cours | 1 | 0.004830917874396135 | 0.008759737557724728
creat | 1 | 0.004830917874396135 | 0.009855260839680226
cri | 2 | 0.00966183574879227 | 0.018398429494248743
crimstwenti | 1 | 0.004830917874396135 | 0.029214358352880568
dame | 2 | 0.00966183574879227 | 0.04503456828914384
dawdl | 1 | 0.004830917874396135 | 0.029214358352880568
deep | 1 | 0.004830917874396135 | 0.01278345312745953
describ | 1 | 0.004830917874396135 | 0.012178800262947423
desert | 2 | 0.00966183574879227 | 0.028563572228869197
direct | 1 | 0.004830917874396135 | 0.013292441125806515
disappear | 1 | 0.004830917874396135 | 0.015527337367101747
disast | 1 | 0.004830917874396135 | 0.01682329865499875
driver | 2 | 0.00966183574879227 | 0.03226398046322771
drop | 1 | 0.004830917874396135 | 0.011902672659855883
eager | 1 | 0.004830917874396135 | 0.013474761550844424
elabor | 1 | 0.004830917874396135 | 0.017209978402213902
embalm | 1 | 0.004830917874396135 | 0.029214358352880568
enter | 1 | 0.004830917874396135 | 0.012323017476230906
entranc | 1 | 0.004830917874396135 | 0.018599746868164534
fall | 1 | 0.004830917874396135 | 0.009855260839680226
fame | 1 | 0.004830917874396135 | 0.012038763852931712
feet | 2 | 0.00966183574879227 | 0.02732846719012635
fifti | 1 | 0.004830917874396135 | 0.0009151643698686892
flash | 1 | 0.004830917874396135 | 0.016131990231613855
flew | 1 | 0.004830917874396135 | 0.012038763852931712
flood | 3 | 0.014492753623188406 | 0.049395867383058255
floodwat | 1 | 0.004830917874396135 | 0.029214358352880568
floor | 1 | 0.004830917874396135 | 0.012323017476230906
flourish | 1 | 0.004830917874396135 | 0.020558515506368225
foot | 1 | 0.004830917874396135 | 0.014067043300082745
forbad | 1 | 0.004830917874396135 | 0.025865821248726245
foreign | 1 | 0.004830917874396135 | 0.0035466966183791814
franc | 1 | 0.004830917874396135 | 0.0024639512658344988
french | 1 | 0.004830917874396135 | 0.0033829210064193686
frenchwomen | 3 | 0.014492753623188406 | 0.07172115783156766
funnel | 1 | 0.004830917874396135 | 0.021439295973971872
gaili | 1 | 0.004830917874396135 | 0.02251728414457192
gape | 1 | 0.004830917874396135 | 0.02251728414457192
gorg | 5 | 0.024154589371980676 | 0.09299873434082266
gradual | 1 | 0.004830917874396135 | 0.01582020993626327
ground | 1 | 0.004830917874396135 | 0.008901833621523246
group | 2 | 0.00966183574879227 | 0.015504549976386102
guid | 1 | 0.004830917874396135 | 0.017209978402213902
half | 2 | 0.00966183574879227 | 0.016334911616972814
heard | 4 | 0.01932367149758454 | 0.05113381250983812
helicopt | 1 | 0.004830917874396135 | 0.010824684489255837
higher | 2 | 0.00966183574879227 | 0.026949523101688848
hill | 1 | 0.004830917874396135 | 0.013292441125806515
histori | 1 | 0.004830917874396135 | 0.010614611484716036
hold | 1 | 0.004830917874396135 | 0.0079851353834485
holi | 1 | 0.004830917874396135 | 0.01582020993626327
home | 1 | 0.004830917874396135 | 0.004127610280947186
hundr | 3 | 0.014492753623188406 | -0.015002556381290175
hussein | 2 | 0.00966183574879227 | 0.02556690625491906
impregn | 1 | 0.004830917874396135 | 0.02251728414457192
inaccess | 1 | 0.004830917874396135 | 0.025865821248726245
index | 1 | 0.004830917874396135 | 0.025865821248726245
instant | 1 | 0.004830917874396135 | 0.01981382623184041
italian | 2 | 0.00966183574879227 | 0.021649368978511673
jean | 1 | 0.004830917874396135 | 0.01682329865499875
jesu | 1 | 0.004830917874396135 | 0.02251728414457192
john | 1 | 0.004830917874396135 | 0.010126224446690098
jordan | 2 | 0.00966183574879227 | 0.0208265882216005
journey | 1 | 0.004830917874396135 | 0.019168747040417593
june | 1 | 0.004830917874396135 | 0.0006597851932644961
king | 1 | 0.004830917874396135 | 0.00604628808429728
knee | 1 | 0.004830917874396135 | 0.021439295973971872
land | 1 | 0.004830917874396135 | 0.006167572727442576
landrov | 1 | 0.004830917874396135 | 0.029214358352880568
larger | 1 | 0.004830917874396135 | 0.018090758869817546
ledg | 3 | 0.014492753623188406 | 0.07172115783156766
lie | 1 | 0.004830917874396135 | 0.011274396677980532
life | 1 | 0.004830917874396135 | 0.00633417261184436
light | 1 | 0.004830917874396135 | 0.011044309484795727
line | 1 | 0.004830917874396135 | 0.007317742443927643
litter | 1 | 0.004830917874396135 | 0.01981382623184041
manag | 1 | 0.004830917874396135 | 0.009276511082131334
memor | 1 | 0.004830917874396135 | 0.025865821248726245
midst | 1 | 0.004830917874396135 | 0.021439295973971872
mile | 1 | 0.004830917874396135 | 0.012323017476230906
minor | 1 | 0.004830917874396135 | 0.01450652048948239
mose | 1 | 0.004830917874396135 | 0.029214358352880568
muddi | 2 | 0.00966183574879227 | 0.04503456828914384
nabataean | 1 | 0.004830917874396135 | 0.029214358352880568
narrow | 2 | 0.00966183574879227 | 0.03526064643717785
nine | 1 | 0.004830917874396135 | -0.0025761688803800542
notr | 2 | 0.00966183574879227 | 0.04503456828914384
old | 1 | 0.004830917874396135 | 0.0022409462331622167
oncom | 1 | 0.004830917874396135 | 0.029214358352880568
oneia | 1 | 0.004830917874396135 | 0.029214358352880568
oper | 1 | 0.004830917874396135 | 0.008974480372076581
palac | 1 | 0.004830917874396135 | 0.006824363240660107
parisian | 1 | 0.004830917874396135 | 0.018599746868164534
parti | 3 | 0.014492753623188406 | -0.0015885044425982225
person | 1 | 0.004830917874396135 | 0.007369969091774094
petra | 7 | 0.033816425120772944 | 0.13869678362288287
pilgrim | 2 | 0.00966183574879227 | 0.04111703101273645
pilgrimag | 1 | 0.004830917874396135 | 0.021439295973971872
place | 1 | 0.004830917874396135 | 0.012471672832108944
poet | 1 | 0.004830917874396135 | 0.012323017476230906
polic | 1 | 0.004830917874396135 | 0.004154523542055667
pour | 1 | 0.004830917874396135 | 0.011902672659855883
pray | 1 | 0.004830917874396135 | 0.018599746868164534
prayer | 1 | 0.004830917874396135 | 0.01682329865499875
priest | 1 | 0.004830917874396135 | 0.013116752023531759
prophet | 1 | 0.004830917874396135 | 0.021439295973971872
public | 1 | 0.004830917874396135 | 0.008292941250048053
quarter | 1 | 0.004830917874396135 | 0.014281786114434598
quit | 1 | 0.004830917874396135 | 0.010614611484716036
rage | 1 | 0.004830917874396135 | 0.018090758869817546
rain | 2 | 0.00966183574879227 | 0.03050241952802042
ravin | 1 | 0.004830917874396135 | 0.025865821248726245
reach | 3 | 0.014492753623188406 | 0.029048129147996055
record | 1 | 0.004830917874396135 | 0.01071850619592842
red | 2 | 0.00966183574879227 | 0.0004679769768076813
remain | 2 | 0.00966183574879227 | 0.013101684027218688
rest | 1 | 0.004830917874396135 | 0.01041329411080025
roar | 1 | 0.004830917874396135 | 0.01474222176566322
rock | 3 | 0.014492753623188406 | 0.042845358343303795
rod | 1 | 0.004830917874396135 | 0.025865821248726245
romant | 1 | 0.004830917874396135 | 0.020558515506368225
rose | 3 | 0.014492753623188406 | 0.036536400788842266
rush | 2 | 0.00966183574879227 | 0.023282956708404755
save | 1 | 0.004830917874396135 | 0.011641478354202378
saw | 1 | 0.004830917874396135 | 0.014067043300082745
scrambl | 1 | 0.004830917874396135 | 0.018599746868164534
septemb | 1 | 0.004830917874396135 | 0.01525120976401021
serpentin | 1 | 0.004830917874396135 | 0.029214358352880568
seventh | 1 | 0.004830917874396135 | -0.0008271881190601506
sever | 1 | 0.004830917874396135 | 0.008974480372076581
shipment | 1 | 0.004830917874396135 | 0.021439295973971872
shriek | 1 | 0.004830917874396135 | 0.019168747040417593
silk | 1 | 0.004830917874396135 | 0.020558515506368225
siq | 6 | 0.028985507246376812 | 0.12335109303820936
sixti | 2 | 0.00966183574879227 | 0.0035478219326493775
sodden | 1 | 0.004830917874396135 | 0.025865821248726245
southern | 1 | 0.004830917874396135 | 0.010824684489255837
specialist | 1 | 0.004830917874396135 | 0.01981382623184041
sprinkl | 2 | 0.00966183574879227 | 0.04503456828914384
steinmann | 4 | 0.01932367149758454 | 0.09006913657828768
stream | 1 | 0.004830917874396135 | 0.01450652048948239
struck | 1 | 0.004830917874396135 | 0.015527337367101747
submerg | 1 | 0.004830917874396135 | 0.025865821248726245
subsid | 1 | 0.004830917874396135 | 0.025865821248726245
suddenli | 1 | 0.004830917874396135 | 0.01031569649090885
survivor | 1 | 0.004830917874396135 | 0.018599746868164534
swept | 1 | 0.004830917874396135 | 0.014281786114434598
templ | 1 | 0.004830917874396135 | 0.01525120976401021
thousand | 9 | 0.043478260869565216 | -0.08262201705457779
thunder | 1 | 0.004830917874396135 | 0.016465289127686085
tomb | 2 | 0.00966183574879227 | 0.0478141052210451
torrent | 1 | 0.004830917874396135 | 0.025865821248726245
torrenti | 1 | 0.004830917874396135 | 0.029214358352880568
tourist | 1 | 0.004830917874396135 | 0.01278345312745953
tradit | 1 | 0.004830917874396135 | 0.008621701942052959
travel | 2 | 0.00966183574879227 | 0.022787369323017795
tutelag | 1 | 0.004830917874396135 | 0.029214358352880568
twenti | 7 | 0.033816425120772944 | -0.053909883263298826
vast | 1 | 0.004830917874396135 | 0.012471672832108944
vatican | 1 | 0.004830917874396135 | 0.018090758869817546
vicar | 2 | 0.00966183574879227 | 0.05173164249745249
violet | 1 | 0.004830917874396135 | 0.025865821248726245
wall | 1 | 0.004830917874396135 | 0.008901833621523246
water | 4 | 0.01932367149758454 | 0.03907285967750973
wide | 1 | 0.004830917874396135 | 0.012947228739419342
william | 1 | 0.004830917874396135 | 0.01682329865499875
within | 2 | 0.00966183574879227 | 0.020252448893380195
women | 1 | 0.004830917874396135 | 0.008554135555701559
work | 1 | 0.004830917874396135 | 0.003092755592203667
worst | 1 | 0.004830917874396135 | 0.014067043300082745
wrote | 2 | 0.00966183574879227 | 0.025894457478838683
yard | 1 | 0.004830917874396135 | 0.013861441298059576
young | 1 | 0.004830917874396135 | 0.006463004723352385
