accord | 1 | 0.0044444444444444444 | 0.009490440771636143
action | 1 | 0.0044444444444444444 | 0.008830796304443816
advanc | 1 | 0.0044444444444444444 | 0.011473939005540229
advis | 1 | 0.0044444444444444444 | 0.01026534471450182
aid | 1 | 0.0044444444444444444 | 0.006067737564098037
air | 1 | 0.0044444444444444444 | 0.007028729157296419
alli | 1 | 0.0044444444444444444 | 0.006977934953635872
ammunit | 1 | 0.0044444444444444444 | 0.019724152296054124
approv | 1 | 0.0044444444444444444 | 0.012067411861649219
armi | 2 | 0.008888888888888889 | 0.005112013381109361
artilleri | 1 | 0.0044444444444444444 | 0.013790814221688168
asia | 2 | 0.008888888888888889 | 0.01766159260888763
ask | 2 | 0.008888888888888889 | 0.02096437977717637
attack | 2 | 0.008888888888888889 | 0.012556828362814599
away | 1 | 0.0044444444444444444 | 0.006365562943133416
barrag | 1 | 0.0044444444444444444 | 0.01711176711871137
base | 1 | 0.0044444444444444444 | 0.008830796304443816
bazooka | 1 | 0.0044444444444444444 | 0.021994488401680747
beckon | 1 | 0.0044444444444444444 | 0.026877209684650124
bedraggl | 1 | 0.0044444444444444444 | 0.023796555548828147
bitterli | 1 | 0.0044444444444444444 | 0.01275252599421481
blaze | 1 | 0.0044444444444444444 | 0.01763524727718419
break | 1 | 0.0044444444444444444 | 0.009671871858392831
bribe | 1 | 0.0044444444444444444 | 0.01891383426585877
build | 1 | 0.0044444444444444444 | 0.006454454795163058
cadr | 1 | 0.0044444444444444444 | 0.01763524727718419
call | 1 | 0.0044444444444444444 | 0.005945964345484195
canada | 1 | 0.0044444444444444444 | 0.01822872013329318
capit | 1 | 0.0044444444444444444 | 0.006365562943133416
center | 1 | 0.0044444444444444444 | 0.009148391699920015
children | 1 | 0.0044444444444444444 | 0.009066839972505809
china | 1 | 0.0044444444444444444 | 0.0032193875551460877
chines | 1 | 0.0044444444444444444 | 0.002845335144827374
chunk | 1 | 0.0044444444444444444 | 0.020715901413006166
civil | 1 | 0.0044444444444444444 | 0.008256521942310455
close | 1 | 0.0044444444444444444 | 0.006545160891301755
cloud | 1 | 0.0044444444444444444 | 0.014841431013084746
coalit | 1 | 0.0044444444444444444 | 0.00995870973011537
commiss | 1 | 0.0044444444444444444 | 0.0133459988503238
commit | 1 | 0.0044444444444444444 | 0.010160764726012069
communist | 5 | 0.022222222222222223 | -0.002246580374919306
complet | 1 | 0.0044444444444444444 | 0.011760776877262766
confer | 1 | 0.0044444444444444444 | 0.005750142168621837
consist | 1 | 0.0044444444444444444 | 0.013139243225279831
consolid | 1 | 0.0044444444444444444 | 0.016643498160232143
control | 2 | 0.008888888888888889 | 0.009274896649785057
crisi | 1 | 0.0044444444444444444 | 0.008534390195560827
danc | 1 | 0.0044444444444444444 | 0.011760776877262766
darl | 1 | 0.0044444444444444444 | 0.020715901413006166
de | 6 | 0.02666666666666667 | 0.004523637260443704
death | 1 | 0.0044444444444444444 | 0.005750142168621837
defect | 1 | 0.0044444444444444444 | 0.014554593141362208
defi | 1 | 0.0044444444444444444 | 0.01711176711871137
demand | 1 | 0.0044444444444444444 | 0.005636660826376661
desper | 1 | 0.0044444444444444444 | 0.011075662744697175
determin | 1 | 0.0044444444444444444 | 0.00931612649095489
diplomat | 1 | 0.0044444444444444444 | 0.006026774652520597
doctor | 1 | 0.0044444444444444444 | 0.011337176078132434
dont | 1 | 0.0044444444444444444 | 0.009490440771636143
drive | 1 | 0.0044444444444444444 | 0.01037244494374209
duti | 1 | 0.0044444444444444444 | 0.009765442565938753
effort | 1 | 0.0044444444444444444 | 0.00890809293871879
end | 1 | 0.0044444444444444444 | 0.0034416560910334715
evacu | 1 | 0.0044444444444444444 | 0.01763524727718419
eventu | 1 | 0.0044444444444444444 | 0.011473939005540229
evil | 1 | 0.0044444444444444444 | 0.016643498160232143
famili | 1 | 0.0044444444444444444 | 0.006977934953635872
fear | 1 | 0.0044444444444444444 | 0.007514059343807495
felt | 1 | 0.0044444444444444444 | 0.011615044331382808
fester | 1 | 0.0044444444444444444 | 0.01891383426585877
fight | 1 | 0.0044444444444444444 | 0.005636660826376661
fire | 1 | 0.0044444444444444444 | 0.0049143544730532165
fish | 1 | 0.0044444444444444444 | 0.014285150377733608
fli | 1 | 0.0044444444444444444 | 0.009861025700254147
foe | 1 | 0.0044444444444444444 | 0.012229045835741996
food | 1 | 0.0044444444444444444 | 0.008830796304443816
foot | 1 | 0.0044444444444444444 | 0.012941679836076126
forc | 4 | 0.017777777777777778 | 0.004252972250059272
forecast | 1 | 0.0044444444444444444 | 0.023796555548828147
foreign | 2 | 0.008888888888888889 | 0.006525921777817694
former | 1 | 0.0044444444444444444 | 0.007571407809744863
fortnight | 2 | 0.008888888888888889 | 0.024134823723298438
franc | 2 | 0.008888888888888889 | 0.0045336703291354785
full | 1 | 0.0044444444444444444 | 0.009231467846640693
gener | 1 | 0.0044444444444444444 | 0.0016624396083323796
geneva | 2 | 0.008888888888888889 | 0.018804858189528463
gloomi | 1 | 0.0044444444444444444 | 0.020715901413006166
grassi | 1 | 0.0044444444444444444 | 0.023796555548828147
group | 1 | 0.0044444444444444444 | 0.0071320929891376065
guarante | 1 | 0.0044444444444444444 | 0.014031112982889393
gun | 1 | 0.0044444444444444444 | 0.00875482104506915
gunfir | 1 | 0.0044444444444444444 | 0.01822872013329318
half | 1 | 0.0044444444444444444 | 0.007514059343807495
hang | 1 | 0.0044444444444444444 | 0.0133459988503238
headquart | 1 | 0.0044444444444444444 | 0.009671871858392831
heart | 1 | 0.0044444444444444444 | 0.009490440771636143
heavi | 1 | 0.0044444444444444444 | 0.00995870973011537
hold | 1 | 0.0044444444444444444 | 0.007346324552772619
hope | 3 | 0.013333333333333334 | 0.013912344974677585
hostil | 1 | 0.0044444444444444444 | 0.011615044331382808
hous | 1 | 0.0044444444444444444 | 0.004238319903286736
hundr | 1 | 0.0044444444444444444 | -0.004600783956928987
india | 1 | 0.0044444444444444444 | 0.006545160891301755
induc | 1 | 0.0044444444444444444 | 0.020715901413006166
ineffectu | 1 | 0.0044444444444444444 | 0.020715901413006166
inflict | 1 | 0.0044444444444444444 | 0.019724152296054124
insid | 1 | 0.0044444444444444444 | 0.00931612649095489
intern | 1 | 0.0044444444444444444 | 0.008606659177213184
intervent | 1 | 0.0044444444444444444 | 0.016643498160232143
jarr | 6 | 0.02666666666666667 | 0.08732755884817325
join | 1 | 0.0044444444444444444 | 0.007401535752766206
khang | 1 | 0.0044444444444444444 | 0.023796555548828147
khay | 1 | 0.0044444444444444444 | 0.023796555548828147
kong | 10 | 0.044444444444444446 | 0.09231467846640694
lackey | 2 | 0.008888888888888889 | 0.04143180282601233
lao | 13 | 0.057777777777777775 | 0.08752019962937461
laotian | 3 | 0.013333333333333334 | 0.0400379965509714
launch | 1 | 0.0044444444444444444 | 0.010710160085866189
le | 10 | 0.044444444444444446 | 0.07629505950044209
leader | 1 | 0.0044444444444444444 | 0.0020616705345092396
left | 1 | 0.0044444444444444444 | 0.004637448324892528
level | 1 | 0.0044444444444444444 | 0.012571094907458122
link | 1 | 0.0044444444444444444 | 0.012941679836076126
look | 1 | 0.0044444444444444444 | 0.008189686931801388
loss | 1 | 0.0044444444444444444 | 0.012396780626776871
major | 1 | 0.0044444444444444444 | 0.005418037518862119
massiv | 1 | 0.0044444444444444444 | 0.011911450440265795
meanwhil | 1 | 0.0044444444444444444 | 0.013790814221688168
militari | 2 | 0.008888888888888889 | 0.0077945616356277884
minh | 4 | 0.017777777777777778 | 0.03472049096576315
mission | 1 | 0.0044444444444444444 | 0.009861025700254147
mortar | 1 | 0.0044444444444444444 | 0.014285150377733608
moscow | 1 | 0.0044444444444444444 | 0.002987083428276057
nation | 1 | 0.0044444444444444444 | -0.0016777637549293771
neutral | 3 | 0.013333333333333334 | 0.03111733483122627
neutralist | 9 | 0.04 | 0.07491939636602563
north | 2 | 0.008888888888888889 | 0.012218163062972194
octob | 1 | 0.0044444444444444444 | 0.014031112982889393
offic | 1 | 0.0044444444444444444 | 0.002987083428276057
offici | 1 | 0.0044444444444444444 | 0.0026886865267754865
old | 1 | 0.0044444444444444444 | 0.0020616705345092396
onset | 1 | 0.0044444444444444444 | 0.021994488401680747
open | 1 | 0.0044444444444444444 | 0.005906103590005259
oppos | 1 | 0.0044444444444444444 | 0.00995870973011537
optimist | 1 | 0.0044444444444444444 | 0.01822872013329318
order | 1 | 0.0044444444444444444 | 0.004490753673922883
pathet | 5 | 0.022222222222222223 | 0.057369695027701145
patient | 1 | 0.0044444444444444444 | 0.014841431013084746
peacemak | 1 | 0.0044444444444444444 | 0.01822872013329318
peke | 1 | 0.0044444444444444444 | 0.00524372323818087
phouma | 1 | 0.0044444444444444444 | 0.01583318013003679
pinch | 1 | 0.0044444444444444444 | 0.020715901413006166
plain | 6 | 0.02666666666666667 | 0.053448557632312745
plaintiv | 1 | 0.0044444444444444444 | 0.019724152296054124
plateau | 3 | 0.013333333333333334 | 0.05290574183155257
poland | 1 | 0.0044444444444444444 | 0.012941679836076126
polic | 1 | 0.0044444444444444444 | 0.0038221616586912137
polici | 1 | 0.0044444444444444444 | 0.0057886224474801235
polit | 2 | 0.008888888888888889 | 0.00363571119744473
premier | 1 | 0.0044444444444444444 | 0.003373800659341079
presenc | 1 | 0.0044444444444444444 | 0.01621989736110181
prompt | 1 | 0.0044444444444444444 | 0.016643498160232143
prospect | 1 | 0.0044444444444444444 | 0.01275252599421481
rage | 1 | 0.0044444444444444444 | 0.016643498160232143
raini | 2 | 0.008888888888888889 | 0.03944830459210825
rank | 1 | 0.0044444444444444444 | 0.011911450440265795
ration | 1 | 0.0044444444444444444 | 0.014554593141362208
realist | 1 | 0.0044444444444444444 | 0.01763524727718419
red | 9 | 0.04 | 0.0019374246839838005
reinforc | 1 | 0.0044444444444444444 | 0.014031112982889393
right | 2 | 0.008888888888888889 | 0.01048744647636174
road | 1 | 0.0044444444444444444 | 0.00805895855310675
satellit | 1 | 0.0044444444444444444 | 0.0133459988503238
scale | 1 | 0.0044444444444444444 | 0.015148065997471198
seashor | 1 | 0.0044444444444444444 | 0.026877209684650124
season | 2 | 0.008888888888888889 | 0.0266919977006476
send | 1 | 0.0044444444444444444 | 0.012067411861649219
sensibl | 1 | 0.0044444444444444444 | 0.01763524727718419
shudder | 1 | 0.0044444444444444444 | 0.023796555548828147
slice | 1 | 0.0044444444444444444 | 0.01891383426585877
slowli | 3 | 0.013333333333333334 | 0.04285545113320083
soldier | 1 | 0.0044444444444444444 | 0.006684788430116774
south | 1 | 0.0044444444444444444 | 0.0018020671471473972
southeast | 2 | 0.008888888888888889 | 0.02215132548939435
souvanna | 3 | 0.013333333333333334 | 0.04366377942408663
spread | 1 | 0.0044444444444444444 | 0.010950458847067414
squeez | 1 | 0.0044444444444444444 | 0.014841431013084746
stalem | 1 | 0.0044444444444444444 | 0.020715901413006166
stall | 1 | 0.0044444444444444444 | 0.014841431013084746
state | 4 | 0.017777777777777778 | -0.014954671653672622
stronghold | 1 | 0.0044444444444444444 | 0.01583318013003679
summer | 1 | 0.0044444444444444444 | 0.009765442565938753
suppli | 1 | 0.0044444444444444444 | 0.007931965786688722
support | 1 | 0.0044444444444444444 | 0.0042931902847191785
takeov | 1 | 0.0044444444444444444 | 0.01763524727718419
territori | 1 | 0.0044444444444444444 | 0.009402429094764232
thoughout | 1 | 0.0044444444444444444 | 0.026877209684650124
thousand | 1 | 0.0044444444444444444 | -0.008445806187801285
threaten | 1 | 0.0044444444444444444 | 0.00890809293871879
top | 1 | 0.0044444444444444444 | 0.00598618583668383
totter | 1 | 0.0044444444444444444 | 0.01891383426585877
town | 2 | 0.008888888888888889 | 0.018133679945011617
transform | 1 | 0.0044444444444444444 | 0.01621989736110181
treacher | 1 | 0.0044444444444444444 | 0.023796555548828147
tri | 1 | 0.0044444444444444444 | 0.0032193875551460877
troop | 4 | 0.017777777777777778 | 0.016736474758145728
troubl | 1 | 0.0044444444444444444 | 0.007514059343807495
turn | 1 | 0.0044444444444444444 | 0.003699717428610188
twenti | 2 | 0.008888888888888889 | -0.014170597886352835
undertak | 2 | 0.008888888888888889 | 0.03944830459210825
unglu | 1 | 0.0044444444444444444 | 0.026877209684650124
unit | 4 | 0.017777777777777778 | -0.015099060490247717
upcom | 1 | 0.0044444444444444444 | 0.023796555548828147
urg | 1 | 0.0044444444444444444 | 0.009402429094764232
vientian | 3 | 0.013333333333333334 | 0.051335301356134115
viet | 4 | 0.017777777777777778 | 0.024107098610082388
vietnam | 1 | 0.0044444444444444444 | 0.004376787315641383
war | 1 | 0.0044444444444444444 | 0.0014245530287070257
weather | 1 | 0.0044444444444444444 | 0.013562844024410162
western | 1 | 0.0044444444444444444 | 0.004211136672098131
wing | 1 | 0.0044444444444444444 | 0.009402429094764232
wish | 1 | 0.0044444444444444444 | 0.014285150377733608
withdraw | 1 | 0.0044444444444444444 | 0.012571094907458122
wive | 1 | 0.0044444444444444444 | 0.0133459988503238
xiengkhouang | 4 | 0.017777777777777778 | 0.08286360565202466
