abroad | 1 | 0.006211180124223602 | 0.015133256313056233
adult | 1 | 0.006211180124223602 | 0.028950793900163897
agent | 1 | 0.006211180124223602 | 0.012785019456409958
ambassador | 1 | 0.006211180124223602 | 0.012341174959626451
american | 2 | 0.012422360248447204 | 0.01719171534079765
appear | 1 | 0.006211180124223602 | 0.012559133467770985
arrang | 1 | 0.006211180124223602 | 0.01709028144746552
arrest | 1 | 0.006211180124223602 | 0.011729745935941652
ask | 2 | 0.012422360248447204 | 0.029298046272451448
asylum | 1 | 0.006211180124223602 | 0.023259547118336842
author | 1 | 0.006211180124223602 | 0.011633446640687209
away | 2 | 0.012422360248447204 | 0.017791946114348055
babushka | 1 | 0.006211180124223602 | 0.037561317882275014
back | 1 | 0.006211180124223602 | 0.013263038345454236
believ | 1 | 0.006211180124223602 | 0.010343761145170162
border | 1 | 0.006211180124223602 | 0.010190390880633695
brother | 1 | 0.006211180124223602 | 0.01074462152490663
brush | 1 | 0.006211180124223602 | 0.023913960259068685
bu | 2 | 0.012422360248447204 | 0.03854575403577438
budapest | 1 | 0.006211180124223602 | 0.020340269918052774
cake | 1 | 0.006211180124223602 | 0.037561317882275014
call | 1 | 0.006211180124223602 | 0.008309577501453067
cardin | 1 | 0.006211180124223602 | 0.024645531909108336
cathol | 1 | 0.006211180124223602 | 0.012671049651017433
chernogorsk | 1 | 0.006211180124223602 | 0.037561317882275014
children | 2 | 0.012422360248447204 | 0.025342099302034866
circumst | 1 | 0.006211180124223602 | 0.023913960259068685
clad | 1 | 0.006211180124223602 | 0.024645531909108336
cluster | 1 | 0.006211180124223602 | 0.03325605589121946
coat | 1 | 0.006211180124223602 | 0.023259547118336842
coffe | 1 | 0.006211180124223602 | 0.02547491944093767
compound | 1 | 0.006211180124223602 | 0.023259547118336842
consid | 1 | 0.006211180124223602 | 0.013263038345454236
correspond | 1 | 0.006211180124223602 | 0.01782185309750517
cri | 1 | 0.006211180124223602 | 0.011827561817731336
danger | 1 | 0.006211180124223602 | 0.013647357623206333
demonstr | 1 | 0.006211180124223602 | 0.010501014610911094
deni | 1 | 0.006211180124223602 | 0.016035007926997212
depart | 1 | 0.006211180124223602 | 0.013917451486186077
dilapid | 1 | 0.006211180124223602 | 0.037561317882275014
diplomat | 1 | 0.006211180124223602 | 0.00842251116035487
door | 1 | 0.006211180124223602 | 0.01434597863827894
drove | 2 | 0.012422360248447204 | 0.037302481258669
east | 1 | 0.006211180124223602 | 0.005698592944864624
embarrass | 1 | 0.006211180124223602 | 0.01996371947198796
embassi | 5 | 0.031055900621118012 | 0.05210945113600175
evangelist | 1 | 0.006211180124223602 | 0.037561317882275014
except | 1 | 0.006211180124223602 | 0.01419982648045165
explain | 2 | 0.012422360248447204 | 0.025570038912819917
faith | 1 | 0.006211180124223602 | 0.01643586830673368
februari | 1 | 0.006211180124223602 | 0.014806276601966656
fifti | 1 | 0.006211180124223602 | 0.0011766399041168861
flabbergast | 1 | 0.006211180124223602 | 0.037561317882275014
foreign | 5 | 0.031055900621118012 | 0.02280019254672331
forlorn | 2 | 0.012422360248447204 | 0.06651211178243892
foy | 1 | 0.006211180124223602 | 0.03073763907067185
gate | 1 | 0.006211180124223602 | 0.01996371947198796
god | 1 | 0.006211180124223602 | 0.013780936537622253
guard | 1 | 0.006211180124223602 | 0.011926942819883143
help | 5 | 0.031055900621118012 | 0.0352396674941064
home | 1 | 0.006211180124223602 | 0.005306927504074953
hotel | 1 | 0.006211180124223602 | 0.014967615026831629
hundr | 2 | 0.012422360248447204 | -0.012859334041105864
hungari | 1 | 0.006211180124223602 | 0.016864395458826547
immin | 1 | 0.006211180124223602 | 0.027564809109392407
imprison | 1 | 0.006211180124223602 | 0.02162995541356982
inquir | 1 | 0.006211180124223602 | 0.03325605589121946
insid | 1 | 0.006211180124223602 | 0.013019431431458698
invit | 1 | 0.006211180124223602 | 0.015843879612296878
iron | 1 | 0.006211180124223602 | 0.013388520999600318
israel | 2 | 0.012422360248447204 | 0.027834902972372153
josef | 1 | 0.006211180124223602 | 0.023259547118336842
kohler | 1 | 0.006211180124223602 | 0.027564809109392407
late | 1 | 0.006211180124223602 | 0.013647357623206333
legat | 1 | 0.006211180124223602 | 0.027564809109392407
let | 1 | 0.006211180124223602 | 0.02116965744988211
listen | 1 | 0.006211180124223602 | 0.016864395458826547
live | 1 | 0.006211180124223602 | 0.006116628236144789
local | 1 | 0.006211180124223602 | 0.011353195489876839
lunchroom | 2 | 0.012422360248447204 | 0.06651211178243892
mean | 1 | 0.006211180124223602 | 0.015478410668055057
meanwhil | 1 | 0.006211180124223602 | 0.01927287701788719
mindszenti | 1 | 0.006211180124223602 | 0.03073763907067185
ministri | 2 | 0.012422360248447204 | 0.029935230053663258
mob | 1 | 0.006211180124223602 | 0.015303436276957565
mongolian | 1 | 0.006211180124223602 | 0.03073763907067185
moscow | 2 | 0.012422360248447204 | 0.008348990948597675
newsmen | 1 | 0.006211180124223602 | 0.0186512406293345
nine | 1 | 0.006211180124223602 | -0.003312217131917212
nineteen | 1 | 0.006211180124223602 | 0.022127115088560727
notion | 1 | 0.006211180124223602 | 0.028950793900163897
offici | 2 | 0.012422360248447204 | 0.007514962341919061
old | 1 | 0.006211180124223602 | 0.0028812165854942787
peasant | 4 | 0.024844720496894408 | 0.05256016264153918
pentacost | 1 | 0.006211180124223602 | 0.037561317882275014
person | 1 | 0.006211180124223602 | 0.009475674546566693
photograph | 1 | 0.006211180124223602 | 0.01782185309750517
polici | 1 | 0.006211180124223602 | 0.008089689755795203
prevent | 1 | 0.006211180124223602 | 0.016232204810938705
primat | 1 | 0.006211180124223602 | 0.037561317882275014
probabl | 1 | 0.006211180124223602 | 0.01213060631567812
protest | 1 | 0.006211180124223602 | 0.010662353035776067
qualifi | 1 | 0.006211180124223602 | 0.023259547118336842
quietli | 1 | 0.006211180124223602 | 0.018086198528677815
regul | 1 | 0.006211180124223602 | 0.023913960259068685
remov | 1 | 0.006211180124223602 | 0.018362296432844483
repli | 1 | 0.006211180124223602 | 0.012449198206284023
request | 1 | 0.006211180124223602 | 0.022127115088560727
roman | 1 | 0.006211180124223602 | 0.016864395458826547
rule | 1 | 0.006211180124223602 | 0.008365787659961873
russia | 1 | 0.006211180124223602 | 0.006275897991507134
russian | 1 | 0.006211180124223602 | 0.005553295556201856
sanctuari | 1 | 0.006211180124223602 | 0.027564809109392407
sect | 2 | 0.012422360248447204 | 0.04533511684780009
seventh | 1 | 0.006211180124223602 | -0.001063527581648765
sever | 1 | 0.006211180124223602 | 0.011538617621241318
shabbi | 1 | 0.006211180124223602 | 0.028950793900163897
sheepskin | 1 | 0.006211180124223602 | 0.037561317882275014
shoot | 1 | 0.006211180124223602 | 0.015303436276957565
siberian | 4 | 0.024844720496894408 | 0.10572950831846516
sidewalk | 1 | 0.006211180124223602 | 0.023259547118336842
sister | 1 | 0.006211180124223602 | 0.02074113029778924
situat | 1 | 0.006211180124223602 | 0.015133256313056233
slam | 1 | 0.006211180124223602 | 0.03325605589121946
snow | 2 | 0.012422360248447204 | 0.03854575403577438
soviet | 2 | 0.012422360248447204 | 0.004861867928278575
speak | 1 | 0.006211180124223602 | 0.014967615026831629
stand | 1 | 0.006211180124223602 | 0.011445214656244174
startl | 1 | 0.006211180124223602 | 0.02116965744988211
state | 5 | 0.031055900621118012 | -0.026124232314257298
stick | 1 | 0.006211180124223602 | 0.018362296432844483
street | 1 | 0.006211180124223602 | 0.008143936215228463
strode | 1 | 0.006211180124223602 | 0.02643237707961629
suddenli | 1 | 0.006211180124223602 | 0.013263038345454236
swirl | 1 | 0.006211180124223602 | 0.027564809109392407
sympathet | 1 | 0.006211180124223602 | 0.022667558423900044
tale | 1 | 0.006211180124223602 | 0.02116965744988211
tatter | 1 | 0.006211180124223602 | 0.02643237707961629
tchaikovski | 1 | 0.006211180124223602 | 0.037561317882275014
testament | 1 | 0.006211180124223602 | 0.03073763907067185
thirti | 1 | 0.006211180124223602 | 0.004777997017489197
thousand | 3 | 0.018633540372670808 | -0.03540943588053334
threaten | 1 | 0.006211180124223602 | 0.012449198206284023
town | 1 | 0.006211180124223602 | 0.012671049651017433
train | 1 | 0.006211180124223602 | 0.010581159982562696
travel | 1 | 0.006211180124223602 | 0.014649023136225724
twelv | 1 | 0.006211180124223602 | 0.013516591106449607
twenti | 3 | 0.018633540372670808 | -0.029705445879776908
unit | 4 | 0.024844720496894408 | -0.021101171492582213
unless | 1 | 0.006211180124223602 | 0.01732469342251426
upris | 1 | 0.006211180124223602 | 0.02074113029778924
urg | 1 | 0.006211180124223602 | 0.013140040660384796
vagu | 1 | 0.006211180124223602 | 0.022127115088560727
violenc | 1 | 0.006211180124223602 | 0.022667558423900044
visitor | 1 | 0.006211180124223602 | 0.01643586830673368
wail | 1 | 0.006211180124223602 | 0.028950793900163897
want | 2 | 0.012422360248447204 | 0.012391505239711068
whole | 1 | 0.006211180124223602 | 0.013780936537622253
winter | 1 | 0.006211180124223602 | 0.018086198528677815
women | 2 | 0.012422360248447204 | 0.021996348571804006
yell | 1 | 0.006211180124223602 | 0.027564809109392407
