abraham | 1 | 0.007246376811594203 | 0.033775926216857884
absolv | 1 | 0.007246376811594203 | 0.03879873187308937
amnesti | 2 | 0.014492753623188406 | 0.05944147869552123
anniversari | 1 | 0.007246376811594203 | 0.022485023187535057
announc | 1 | 0.007246376811594203 | 0.010671457974948515
appli | 1 | 0.007246376811594203 | 0.02713613830472632
area | 1 | 0.007246376811594203 | 0.013245394738189647
arm | 1 | 0.007246376811594203 | 0.0103786352333697
assault | 1 | 0.007246376811594203 | 0.02713613830472632
attack | 2 | 0.014492753623188406 | 0.020473089721980323
bamboo | 1 | 0.007246376811594203 | 0.03586057891578383
battalion | 1 | 0.007246376811594203 | 0.025814967603320853
beat | 1 | 0.007246376811594203 | 0.021422679171651898
begin | 1 | 0.007246376811594203 | 0.0167369750779921
cadr | 1 | 0.007246376811594203 | 0.028753120560626393
caus | 2 | 0.014492753623188406 | 0.02670550086456974
celebr | 1 | 0.007246376811594203 | 0.017655465698565607
citi | 2 | 0.014492753623188406 | 0.018019581656710457
civil | 1 | 0.007246376811594203 | 0.013461720558114872
clemenc | 2 | 0.014492753623188406 | 0.07172115783156766
communist | 3 | 0.021739130434782608 | -0.002197741671116712
complex | 1 | 0.007246376811594203 | 0.02419798534742078
compound | 1 | 0.007246376811594203 | 0.02713613830472632
confid | 1 | 0.007246376811594203 | 0.015189336670035148
cong | 4 | 0.028985507246376812 | 0.042986202538505554
control | 1 | 0.007246376811594203 | 0.0075610570514552085
core | 1 | 0.007246376811594203 | 0.033775926216857884
cover | 1 | 0.007246376811594203 | 0.016566464227193593
dark | 1 | 0.007246376811594203 | 0.0167369750779921
day | 1 | 0.007246376811594203 | 0.00822258908195816
declar | 2 | 0.014492753623188406 | 0.042201129900248234
deed | 2 | 0.014492753623188406 | 0.05427227660945264
defect | 1 | 0.007246376811594203 | 0.023730314904394905
defector | 1 | 0.007246376811594203 | 0.033775926216857884
depart | 1 | 0.007246376811594203 | 0.016237026733883757
depend | 1 | 0.007246376811594203 | 0.01746221753130357
desert | 1 | 0.007246376811594203 | 0.021422679171651898
desper | 1 | 0.007246376811594203 | 0.01805814577939757
driven | 1 | 0.007246376811594203 | 0.02713613830472632
drove | 1 | 0.007246376811594203 | 0.021759780734223588
edg | 1 | 0.007246376811594203 | 0.025814967603320853
effect | 1 | 0.007246376811594203 | 0.015051306271696784
emancip | 2 | 0.014492753623188406 | 0.06431788792191562
encourag | 2 | 0.014492753623188406 | 0.04099270078518953
entitl | 1 | 0.007246376811594203 | 0.028753120560626393
event | 1 | 0.007246376811594203 | 0.01607775929389263
favor | 1 | 0.007246376811594203 | 0.015769356290857874
februari | 2 | 0.014492753623188406 | 0.034547978737922196
feel | 1 | 0.007246376811594203 | 0.014524064573998028
fenc | 1 | 0.007246376811594203 | 0.029720739347760615
fifti | 2 | 0.014492753623188406 | 0.0027454931096060676
fire | 1 | 0.007246376811594203 | 0.008012534466934592
follow | 1 | 0.007246376811594203 | 0.01243941187507208
forc | 2 | 0.014492753623188406 | 0.0034670969429831024
fortifi | 1 | 0.007246376811594203 | 0.03083777325955234
gain | 1 | 0.007246376811594203 | 0.01607775929389263
gener | 1 | 0.007246376811594203 | 0.0027104993614114883
gestur | 1 | 0.007246376811594203 | 0.023730314904394905
govern | 6 | 0.043478260869565216 | -0.021148550386394162
great | 1 | 0.007246376811594203 | 0.008012534466934592
grenad | 1 | 0.007246376811594203 | 0.025234947982498125
guerrilla | 1 | 0.007246376811594203 | 0.014032596484586714
hamlet | 2 | 0.014492753623188406 | 0.04575362929203063
hard | 1 | 0.007246376811594203 | 0.011628412482289576
hit | 1 | 0.007246376811594203 | 0.019420843109129015
hundr | 2 | 0.014492753623188406 | -0.015002556381290175
incap | 1 | 0.007246376811594203 | 0.03215894396095781
inform | 1 | 0.007246376811594203 | 0.017273989368961098
initi | 1 | 0.007246376811594203 | 0.021422679171651898
interpret | 1 | 0.007246376811594203 | 0.028753120560626393
issu | 1 | 0.007246376811594203 | 0.014152374034957806
keep | 1 | 0.007246376811594203 | 0.01967512803529764
lighter | 1 | 0.007246376811594203 | 0.03586057891578383
lincoln | 1 | 0.007246376811594203 | 0.03215894396095781
manag | 1 | 0.007246376811594203 | 0.013914766623197003
militari | 1 | 0.007246376811594203 | 0.006354262202957436
minor | 1 | 0.007246376811594203 | 0.021759780734223588
moat | 1 | 0.007246376811594203 | 0.04382153752932085
move | 1 | 0.007246376811594203 | 0.008718732554983236
network | 1 | 0.007246376811594203 | 0.024697933691529127
new | 1 | 0.007246376811594203 | -0.0019288106321073723
ngodinhdiem | 6 | 0.043478260869565216 | 0.035957232781215355
nine | 1 | 0.007246376811594203 | -0.003864253320570081
northeast | 1 | 0.007246376811594203 | 0.022876814646015316
offens | 1 | 0.007246376811594203 | 0.02211333264849483
offer | 1 | 0.007246376811594203 | 0.012344686646323147
offici | 2 | 0.014492753623188406 | 0.008767456065572238
open | 1 | 0.007246376811594203 | 0.009629516722834663
opportun | 1 | 0.007246376811594203 | 0.02211333264849483
order | 1 | 0.007246376811594203 | 0.007321880990091657
peopl | 1 | 0.007246376811594203 | 0.0029125020391524664
popular | 1 | 0.007246376811594203 | 0.014782891259520339
presid | 1 | 0.007246376811594203 | 0.0031731911874008567
previous | 1 | 0.007246376811594203 | 0.029720739347760615
proclaim | 1 | 0.007246376811594203 | 0.022876814646015316
proclam | 2 | 0.014492753623188406 | 0.0557992406044936
program | 3 | 0.021739130434782608 | 0.04245712210487342
propiti | 1 | 0.007246376811594203 | 0.03586057891578383
quangngai | 1 | 0.007246376811594203 | 0.04382153752932085
red | 6 | 0.043478260869565216 | 0.002105896395634566
redeem | 1 | 0.007246376811594203 | 0.029720739347760615
reform | 1 | 0.007246376811594203 | 0.01848452621434636
rehabilit | 1 | 0.007246376811594203 | 0.03879873187308937
repli | 1 | 0.007246376811594203 | 0.014524064573998028
result | 1 | 0.007246376811594203 | 0.012535391779057735
run | 1 | 0.007246376811594203 | 0.00943797138176107
saigon | 1 | 0.007246376811594203 | 0.009565104060390852
sentenc | 1 | 0.007246376811594203 | 0.018268200394421133
seventh | 2 | 0.014492753623188406 | -0.0024815643571804522
sever | 1 | 0.007246376811594203 | 0.013461720558114872
sink | 1 | 0.007246376811594203 | 0.03215894396095781
south | 3 | 0.021739130434782608 | 0.008814458871916616
speed | 1 | 0.007246376811594203 | 0.022876814646015316
stamp | 1 | 0.007246376811594203 | 0.02211333264849483
state | 3 | 0.021739130434782608 | -0.01828696261998011
strateg | 1 | 0.007246376811594203 | 0.019175179691189294
success | 1 | 0.007246376811594203 | 0.012535391779057735
support | 1 | 0.007246376811594203 | 0.006999766768563878
surround | 1 | 0.007246376811594203 | 0.02211333264849483
sympath | 1 | 0.007246376811594203 | 0.03586057891578383
tactic | 1 | 0.007246376811594203 | 0.01848452621434636
term | 1 | 0.007246376811594203 | 0.014274164747395351
that | 1 | 0.007246376811594203 | 0.0278996203022468
theyr | 1 | 0.007246376811594203 | 0.028753120560626393
thousand | 2 | 0.014492753623188406 | -0.027540672351525932
turn | 1 | 0.007246376811594203 | 0.006032147981429654
twenti | 3 | 0.021739130434782608 | -0.03465635352640639
unit | 3 | 0.021739130434782608 | -0.018463525056009435
urg | 1 | 0.007246376811594203 | 0.015330047437115597
usual | 1 | 0.007246376811594203 | 0.014398037452897527
viet | 4 | 0.028985507246376812 | 0.03930505208165607
vietnam | 2 | 0.014492753623188406 | 0.014272132551004511
vietnames | 1 | 0.007246376811594203 | 0.01379882212068656
villag | 3 | 0.021739130434782608 | 0.037606175337173205
violent | 1 | 0.007246376811594203 | 0.025814967603320853
wait | 2 | 0.014492753623188406 | 0.03313292845438719
war | 2 | 0.014492753623188406 | 0.004645281615348997
wholesal | 1 | 0.007246376811594203 | 0.033775926216857884
