airport | 1 | 0.022222222222222223 | 0.05355080042933094
anasta | 1 | 0.022222222222222223 | 0.1343860484232506
arriv | 1 | 0.022222222222222223 | 0.038147529750221044
beard | 1 | 0.022222222222222223 | 0.08555883559355686
cabl | 1 | 0.022222222222222223 | 0.07420715506542373
castro | 1 | 0.022222222222222223 | 0.08817623638592094
celebr | 1 | 0.022222222222222223 | 0.05414342814226786
comrad | 1 | 0.022222222222222223 | 0.058803884386313836
crisi | 1 | 0.022222222222222223 | 0.04267195097780414
cuban | 1 | 0.022222222222222223 | 0.08817623638592094
fall | 1 | 0.022222222222222223 | 0.04533419986252904
fidel | 1 | 0.022222222222222223 | 0.09456917132929385
fourteen | 1 | 0.022222222222222223 | 0.06376262997107406
giant | 1 | 0.022222222222222223 | 0.08109948680550906
greet | 1 | 0.022222222222222223 | 0.058803884386313836
havana | 1 | 0.022222222222222223 | 0.11898277774414073
hop | 1 | 0.022222222222222223 | 0.08817623638592094
hundr | 1 | 0.022222222222222223 | -0.023003919784644937
jet | 1 | 0.022222222222222223 | 0.05355080042933094
khrushchev | 1 | 0.022222222222222223 | 0.013539841558290727
line | 1 | 0.022222222222222223 | 0.033661615242067164
may | 1 | 0.022222222222222223 | 0.04835935929196415
mikoyan | 1 | 0.022222222222222223 | 0.1343860484232506
missil | 1 | 0.022222222222222223 | 0.04882721282969377
moscow | 1 | 0.022222222222222223 | 0.014935417141380287
murmansk | 1 | 0.022222222222222223 | 0.1343860484232506
nikita | 1 | 0.022222222222222223 | 0.035143645786482096
nonstop | 1 | 0.022222222222222223 | 0.10997244200840375
old | 1 | 0.022222222222222223 | 0.010308352672546197
pal | 1 | 0.022222222222222223 | 0.08321749080116071
promis | 1 | 0.022222222222222223 | 0.03096470730863899
secretli | 1 | 0.022222222222222223 | 0.09456917132929385
seventh | 1 | 0.022222222222222223 | -0.0038050653476766933
show | 1 | 0.022222222222222223 | 0.04615733923320347
shut | 1 | 0.022222222222222223 | 0.07738717381299426
soviet | 1 | 0.022222222222222223 | 0.008697341516142786
suddenli | 1 | 0.022222222222222223 | 0.04745220385818071
telephon | 1 | 0.022222222222222223 | 0.06285547453729061
thousand | 2 | 0.044444444444444446 | -0.08445806187801286
trip | 1 | 0.022222222222222223 | 0.049793548650576856
tu | 1 | 0.022222222222222223 | 0.10357950706503084
tumult | 1 | 0.022222222222222223 | 0.1343860484232506
twenti | 3 | 0.06666666666666667 | -0.10627948414764626
wait | 1 | 0.022222222222222223 | 0.05080382363006035
world | 1 | 0.022222222222222223 | 0.007933616104938167
