abingdon | 1 | 0.007874015748031496 | 0.04761710377201793
acceler | 1 | 0.007874015748031496 | 0.03896661331006432
accus | 2 | 0.015748031496062992 | 0.03600270965909788
act | 1 | 0.007874015748031496 | 0.013942567401812777
agenc | 1 | 0.007874015748031496 | 0.024028660673167612
airport | 1 | 0.007874015748031496 | 0.018974693065510962
amount | 1 | 0.007874015748031496 | 0.025308337283386315
atom | 1 | 0.007874015748031496 | 0.021665632386157076
attent | 1 | 0.007874015748031496 | 0.025785696510287375
branch | 1 | 0.007874015748031496 | 0.028736038631873285
britain | 1 | 0.007874015748031496 | 0.0019073796073211771
british | 1 | 0.007874015748031496 | 0.003923591292528017
briton | 1 | 0.007874015748031496 | 0.021665632386157076
brussel | 2 | 0.015748031496062992 | 0.047288972304296926
certain | 1 | 0.007874015748031496 | 0.021379272983236806
chap | 2 | 0.015748031496062992 | 0.0843185039131706
charg | 1 | 0.007874015748031496 | 0.011435057707966047
children | 1 | 0.007874015748031496 | 0.016063299163888243
classifi | 1 | 0.007874015748031496 | 0.03670140014115266
colleagu | 1 | 0.007874015748031496 | 0.02485827103267806
commun | 1 | 0.007874015748031496 | 0.011759805412958561
concret | 1 | 0.007874015748031496 | 0.02742065213846253
cosmic | 1 | 0.007874015748031496 | 0.03896661331006432
cotswold | 1 | 0.007874015748031496 | 0.04761710377201793
culham | 1 | 0.007874015748031496 | 0.04761710377201793
day | 1 | 0.007874015748031496 | 0.008934781837088394
enemi | 1 | 0.007874015748031496 | 0.015378170211213994
england | 1 | 0.007874015748031496 | 0.022928172937930143
english | 1 | 0.007874015748031496 | 0.019622237146117043
enrico | 1 | 0.007874015748031496 | 0.0421592519565853
espionag | 1 | 0.007874015748031496 | 0.025785696510287375
euratom | 2 | 0.015748031496062992 | 0.07793322662012864
europ | 2 | 0.015748031496062992 | 0.010730648252353174
expect | 1 | 0.007874015748031496 | 0.014052695291377657
expert | 1 | 0.007874015748031496 | 0.017470321122497502
fluent | 1 | 0.007874015748031496 | 0.03896661331006432
formal | 1 | 0.007874015748031496 | 0.020327844694854734
frequent | 1 | 0.007874015748031496 | 0.025308337283386315
ft | 1 | 0.007874015748031496 | 0.020577834445363243
fusion | 1 | 0.007874015748031496 | 0.04761710377201793
gener | 1 | 0.007874015748031496 | 0.0029452670226361053
gilbertwenti | 1 | 0.007874015748031496 | 0.04761710377201793
giusepp | 4 | 0.031496062992125984 | 0.11794604995440101
grab | 1 | 0.007874015748031496 | 0.024028660673167612
group | 1 | 0.007874015748031496 | 0.012635597815401273
guess | 1 | 0.007874015748031496 | 0.026837124798669443
handsom | 1 | 0.007874015748031496 | 0.02196280032302989
headlin | 1 | 0.007874015748031496 | 0.023644486152148463
hire | 1 | 0.007874015748031496 | 0.02742065213846253
hous | 1 | 0.007874015748031496 | 0.007508834474326895
hundr | 1 | 0.007874015748031496 | -0.008150995199283638
inform | 2 | 0.015748031496062992 | 0.037540323353017824
instal | 1 | 0.007874015748031496 | 0.021102963378423652
institut | 1 | 0.007874015748031496 | 0.025308337283386315
involv | 1 | 0.007874015748031496 | 0.020836022026646635
italian | 1 | 0.007874015748031496 | 0.017643383380125655
jolli | 2 | 0.015748031496062992 | 0.07340280028230532
kind | 1 | 0.007874015748031496 | 0.017470321122497502
laboratori | 1 | 0.007874015748031496 | 0.034944364304032895
leav | 1 | 0.007874015748031496 | 0.015119982629930601
line | 1 | 0.007874015748031496 | 0.011927343983409623
london | 1 | 0.007874015748031496 | 0.009662130814497962
march | 1 | 0.007874015748031496 | 0.006137905669157085
maria | 1 | 0.007874015748031496 | 0.03670140014115266
martelli | 3 | 0.023622047244094488 | 0.09373064497716005
meet | 1 | 0.007874015748031496 | 0.00865049046195362
nearbi | 1 | 0.007874015748031496 | 0.026293873842079273
nice | 2 | 0.015748031496062992 | 0.06248709665144003
nine | 1 | 0.007874015748031496 | -0.004198952427076151
nuclear | 1 | 0.007874015748031496 | 0.009790166411913555
offici | 1 | 0.007874015748031496 | 0.004763421012003814
one03 | 1 | 0.007874015748031496 | 0.04761710377201793
one980 | 1 | 0.007874015748031496 | 0.04761710377201793
onetelli | 1 | 0.007874015748031496 | 0.0421592519565853
particl | 1 | 0.007874015748031496 | 0.04761710377201793
peac | 1 | 0.007874015748031496 | 0.011277572143346603
physic | 1 | 0.007874015748031496 | 0.026837124798669443
physicist | 1 | 0.007874015748031496 | 0.03670140014115266
pisa | 2 | 0.015748031496062992 | 0.0843185039131706
power | 1 | 0.007874015748031496 | 0.004561512109536588
prepar | 1 | 0.007874015748031496 | 0.016354962720426424
project | 1 | 0.007874015748031496 | 0.018770161676508912
pure | 1 | 0.007874015748031496 | 0.028050909679199036
ray | 1 | 0.007874015748031496 | 0.0421592519565853
research | 3 | 0.023622047244094488 | 0.07888162152623783
result | 1 | 0.007874015748031496 | 0.013621134374094231
return | 1 | 0.007874015748031496 | 0.010463569352371523
rome | 1 | 0.007874015748031496 | 0.018570808857734974
room | 1 | 0.007874015748031496 | 0.015119982629930601
russian | 1 | 0.007874015748031496 | 0.007040004602744086
scandal | 1 | 0.007874015748031496 | 0.022928172937930143
scienc | 1 | 0.007874015748031496 | 0.02742065213846253
scientif | 1 | 0.007874015748031496 | 0.032294976614102085
scientist | 1 | 0.007874015748031496 | 0.024028660673167612
scotland | 1 | 0.007874015748031496 | 0.024432544880943603
secret | 2 | 0.015748031496062992 | 0.02973998575884419
seri | 1 | 0.007874015748031496 | 0.020836022026646635
seventh | 1 | 0.007874015748031496 | -0.001348251501145285
son | 1 | 0.007874015748031496 | 0.015248018227346194
special | 2 | 0.015748031496062992 | 0.02973998575884419
spent | 1 | 0.007874015748031496 | 0.018570808857734974
spoke | 1 | 0.007874015748031496 | 0.028736038631873285
strongli | 1 | 0.007874015748031496 | 0.026293873842079273
studi | 1 | 0.007874015748031496 | 0.020577834445363243
suggest | 1 | 0.007874015748031496 | 0.01301514192420346
talk | 1 | 0.007874015748031496 | 0.00870653351525176
taller | 1 | 0.007874015748031496 | 0.04761710377201793
team | 1 | 0.007874015748031496 | 0.021379272983236806
term | 1 | 0.007874015748031496 | 0.015510509725516208
thermonuclear | 1 | 0.007874015748031496 | 0.04761710377201793
thirti | 1 | 0.007874015748031496 | 0.00605714582532095
thousand | 6 | 0.047244094488188976 | -0.08977825475221839
trace | 1 | 0.007874015748031496 | 0.033508761494631674
trajectori | 1 | 0.007874015748031496 | 0.04761710377201793
transmit | 1 | 0.007874015748031496 | 0.03670140014115266
trip | 1 | 0.007874015748031496 | 0.017643383380125655
twenti | 5 | 0.03937007874015748 | -0.06276347489034229
univers | 1 | 0.007874015748031496 | 0.015782054418989982
violat | 1 | 0.007874015748031496 | 0.02485827103267806
war | 1 | 0.007874015748031496 | 0.0025238144209376438
wife | 1 | 0.007874015748031496 | 0.012452472916470034
wonder | 1 | 0.007874015748031496 | 0.022593057863766395
word | 1 | 0.007874015748031496 | 0.03896661331006432
work | 2 | 0.015748031496062992 | 0.010081896182459199
world | 1 | 0.007874015748031496 | 0.0028111238167103742
yard | 1 | 0.007874015748031496 | 0.022593057863766395
yield | 1 | 0.007874015748031496 | 0.025785696510287375
