accompani | 1 | 0.00684931506849315 | 0.02637087398431547
advanc | 1 | 0.00684931506849315 | 0.01768244024826405
agre | 1 | 0.00684931506849315 | 0.009878095842864292
aid | 1 | 0.00684931506849315 | 0.009350965424123687
airport | 2 | 0.0136986301369863 | 0.03301076738794373
ambassador | 1 | 0.00684931506849315 | 0.013609103893834648
ankara | 1 | 0.00684931506849315 | 0.029148032259028924
announc | 1 | 0.00684931506849315 | 0.010086720551663663
annual | 1 | 0.00684931506849315 | 0.015658712762689833
anxiou | 1 | 0.00684931506849315 | 0.021623290555822693
arriv | 2 | 0.0136986301369863 | 0.023515600530958174
assur | 2 | 0.0136986301369863 | 0.03301076738794373
autoput | 1 | 0.00684931506849315 | 0.04142035739072793
band | 1 | 0.00684931506849315 | 0.01859703882788407
banner | 1 | 0.00684931506849315 | 0.021623290555822693
belgrad | 4 | 0.0273972602739726 | 0.08972009470702731
blueand | 1 | 0.00684931506849315 | 0.04142035739072793
boost | 1 | 0.00684931506849315 | 0.017267203112535042
bother | 1 | 0.00684931506849315 | 0.02637087398431547
call | 2 | 0.0136986301369863 | 0.01832660243471156
carpet | 1 | 0.00684931506849315 | 0.030396810045288887
chat | 1 | 0.00684931506849315 | 0.025649226616796108
chief | 1 | 0.00684931506849315 | 0.008240993784847168
chilli | 1 | 0.00684931506849315 | 0.030396810045288887
citi | 1 | 0.00684931506849315 | 0.00851610365967823
claus | 2 | 0.0136986301369863 | 0.06779123137504339
commerc | 1 | 0.00684931506849315 | 0.02637087398431547
comtwenti | 1 | 0.00684931506849315 | 0.009878095842864292
congress | 2 | 0.0136986301369863 | 0.02819709770523292
courtesi | 1 | 0.00684931506849315 | 0.033895615687521696
crowd | 1 | 0.00684931506849315 | 0.010753666880603228
dean | 1 | 0.00684931506849315 | 0.02440044883053615
decis | 1 | 0.00684931506849315 | 0.014357044249759249
delhi | 1 | 0.00684931506849315 | 0.025649226616796108
diplomat | 1 | 0.00684931506849315 | 0.009287837649432426
dollar | 1 | 0.00684931506849315 | 0.0033072039159149622
either | 1 | 0.00684931506849315 | 0.01632746940353857
elimin | 2 | 0.0136986301369863 | 0.044860047353513656
embassi | 1 | 0.00684931506849315 | 0.011492632373830523
end | 1 | 0.00684931506849315 | 0.005303922058099528
equip | 1 | 0.00684931506849315 | 0.019104627678252026
except | 1 | 0.00684931506849315 | 0.015658712762689833
fanfar | 1 | 0.00684931506849315 | 0.029148032259028924
favor | 2 | 0.0136986301369863 | 0.029810563947101187
fifti | 2 | 0.0136986301369863 | 0.002595055130997516
finnish | 1 | 0.00684931506849315 | 0.04142035739072793
flag | 1 | 0.00684931506849315 | 0.014905281973550594
foreign | 2 | 0.0136986301369863 | 0.010057071232938227
friendli | 1 | 0.00684931506849315 | 0.020901643188303332
georg | 1 | 0.00684931506849315 | 0.01668804292056201
greet | 1 | 0.00684931506849315 | 0.01812448491358988
hand | 1 | 0.00684931506849315 | 0.005928689238042416
head | 1 | 0.00684931506849315 | 0.006965303134615359
home | 1 | 0.00684931506849315 | 0.005852159781890873
hundr | 2 | 0.0136986301369863 | -0.014180498497383863
import | 1 | 0.00684931506849315 | 0.012621092874351451
improv | 1 | 0.00684931506849315 | 0.01994436961039129
inconclus | 1 | 0.00684931506849315 | 0.03667277396223516
jet | 1 | 0.00684931506849315 | 0.016505383693971865
karachi | 1 | 0.00684931506849315 | 0.03192519053374238
kekkonen | 1 | 0.00684931506849315 | 0.04142035739072793
kennan | 1 | 0.00684931506849315 | 0.04142035739072793
koca | 1 | 0.00684931506849315 | 0.04142035739072793
lead | 1 | 0.00684931506849315 | 0.011940459492069233
levi | 1 | 0.00684931506849315 | 0.024996417166081555
line | 1 | 0.00684931506849315 | 0.010375155382828918
lunch | 1 | 0.00684931506849315 | 0.027177607105249604
march | 1 | 0.00684931506849315 | 0.005339137123170888
marshal | 1 | 0.00684931506849315 | 0.021623290555822693
matter | 1 | 0.00684931506849315 | 0.020901643188303332
mile | 1 | 0.00684931506849315 | 0.017471675462875327
militari | 2 | 0.0136986301369863 | 0.012012166904220906
minist | 1 | 0.00684931506849315 | 0.0006625316880722678
minut | 1 | 0.00684931506849315 | 0.013849455399391293
modern | 1 | 0.00684931506849315 | 0.01476405397901131
moscow | 1 | 0.00684931506849315 | 0.00460338199563091
nation | 4 | 0.0273972602739726 | -0.010342379311208488
natur | 1 | 0.00684931506849315 | 0.01768244024826405
new | 2 | 0.0136986301369863 | -0.0036462447565865394
next | 1 | 0.00684931506849315 | 0.007622590725449221
nine | 2 | 0.0136986301369863 | -0.007305026825187276
ninth | 1 | 0.00684931506849315 | 0.009809942891815195
notic | 1 | 0.00684931506849315 | 0.023852211106744802
offer | 1 | 0.00684931506849315 | 0.011668265460223247
offici | 2 | 0.0136986301369863 | 0.008287047514034033
oneket | 1 | 0.00684931506849315 | 0.009946933759669095
ostentati | 1 | 0.00684931506849315 | 0.033895615687521696
pack | 1 | 0.00684931506849315 | 0.01768244024826405
paid | 1 | 0.00684931506849315 | 0.01965286540204337
part | 1 | 0.00684931506849315 | 0.02125296712246464
pleasant | 1 | 0.00684931506849315 | 0.025649226616796108
popov | 3 | 0.02054794520547945 | 0.1016868470625651
posit | 1 | 0.00684931506849315 | 0.013152313657542372
presid | 1 | 0.00684931506849315 | 0.0029993176976802617
problem | 1 | 0.00684931506849315 | 0.010016470550518535
rais | 1 | 0.00684931506849315 | 0.01272409203438255
recept | 1 | 0.00684931506849315 | 0.019104627678252026
record | 1 | 0.00684931506849315 | 0.015196786181898512
red | 1 | 0.00684931506849315 | 0.0003317508020520206
relat | 1 | 0.00684931506849315 | 0.01409854885261646
repay | 1 | 0.00684931506849315 | 0.033895615687521696
restor | 1 | 0.00684931506849315 | 0.019104627678252026
retir | 1 | 0.00684931506849315 | 0.019373262699849843
rise | 1 | 0.00684931506849315 | 0.015347326638876427
rout | 1 | 0.00684931506849315 | 0.01812448491358988
rusk | 9 | 0.06164383561643835 | 0.19127670410218175
secretari | 2 | 0.0136986301369863 | 0.021048118801772986
serv | 1 | 0.00684931506849315 | 0.013609103893834648
sharpli | 1 | 0.00684931506849315 | 0.024996417166081555
sixteen | 1 | 0.00684931506849315 | 0.023852211106744802
sixti | 1 | 0.00684931506849315 | 0.002515065548145278
smooth | 1 | 0.00684931506849315 | 0.030396810045288887
spare | 1 | 0.00684931506849315 | 0.020901643188303332
squeez | 1 | 0.00684931506849315 | 0.022872068342082656
state | 12 | 0.0821917808219178 | -0.06913974908376042
statu | 1 | 0.00684931506849315 | 0.01812448491358988
stop | 1 | 0.00684931506849315 | 0.013042722278457158
sucrin | 1 | 0.00684931506849315 | 0.04142035739072793
summer | 1 | 0.00684931506849315 | 0.015049483406412462
swing | 1 | 0.00684931506849315 | 0.023344622256376846
talk | 1 | 0.00684931506849315 | 0.007573491482445025
tariff | 1 | 0.00684931506849315 | 0.02024883373758878
teheran | 1 | 0.00684931506849315 | 0.024996417166081555
thousand | 8 | 0.0547945205479452 | -0.10412637765782407
tito | 5 | 0.03424657534246575 | 0.08437853563664958
touch | 1 | 0.00684931506849315 | 0.01768244024826405
trade | 2 | 0.0136986301369863 | 0.020898405506811473
trip | 3 | 0.02054794520547945 | 0.046041979916629276
twenti | 4 | 0.0273972602739726 | -0.04367650033464915
unalign | 1 | 0.00684931506849315 | 0.03667277396223516
unfurl | 1 | 0.00684931506849315 | 0.03192519053374238
unit | 9 | 0.06164383561643835 | -0.052355475158821274
urho | 1 | 0.00684931506849315 | 0.04142035739072793
villa | 1 | 0.00684931506849315 | 0.02024883373758878
vintag | 1 | 0.00684931506849315 | 0.03192519053374238
visit | 3 | 0.02054794520547945 | 0.03068825933107679
wall | 1 | 0.00684931506849315 | 0.012621092874351451
warm | 1 | 0.00684931506849315 | 0.02125296712246464
washington | 2 | 0.0136986301369863 | 0.020173441103327326
west | 1 | 0.00684931506849315 | 0.001679820573076815
white | 1 | 0.00684931506849315 | 0.007192876063576457
whole | 1 | 0.00684931506849315 | 0.015196786181898512
wife | 1 | 0.00684931506849315 | 0.010831945619121193
worri | 1 | 0.00684931506849315 | 0.01859703882788407
yugoslav | 4 | 0.0273972602739726 | 0.09148827336833062
yugoslavia | 4 | 0.0273972602739726 | 0.07977747844156516
