abdel | 1 | 0.004784688995215311 | 0.011923560371085476
abl | 1 | 0.004784688995215311 | 0.010615936758646808
aboard | 1 | 0.004784688995215311 | 0.0156688203674952
accept | 1 | 0.004784688995215311 | 0.006852878766531189
achiev | 2 | 0.009569377990430622 | 0.019697494090736876
action | 1 | 0.004784688995215311 | 0.009506838126793583
administr | 1 | 0.004784688995215311 | 0.009506838126793583
admit | 1 | 0.004784688995215311 | 0.010412302239896587
ali | 1 | 0.004784688995215311 | 0.016662310151123162
allegi | 1 | 0.004784688995215311 | 0.02123413524694822
amer | 1 | 0.004784688995215311 | 0.02230180774127458
announc | 1 | 0.004784688995215311 | 0.007046225839918157
arab | 2 | 0.009569377990430622 | 0.007811134566427669
arabia | 5 | 0.023923444976076555 | 0.05156822681664238
argument | 1 | 0.004784688995215311 | 0.012991232865411838
arm | 1 | 0.004784688995215311 | 0.006852878766531189
armi | 3 | 0.014354066985645933 | 0.00825504553169574
badr | 1 | 0.004784688995215311 | 0.01746161199161678
bagpip | 1 | 0.004784688995215311 | 0.02893479511505396
balanc | 1 | 0.004784688995215311 | 0.01235232668060551
band | 1 | 0.004784688995215311 | 0.012991232865411838
basic | 1 | 0.004784688995215311 | 0.01510526517296705
blare | 1 | 0.004784688995215311 | 0.02036178330056566
bunker | 5 | 0.023923444976076555 | 0.08730805995808391
cairo | 1 | 0.004784688995215311 | 0.008745763032871633
carl | 1 | 0.004784688995215311 | 0.02367827698745535
casualti | 1 | 0.004784688995215311 | 0.018421758859856738
central | 1 | 0.004784688995215311 | 0.007145910466247546
centuri | 1 | 0.004784688995215311 | 0.008539197617248624
chief | 1 | 0.004784688995215311 | 0.005756866471711418
civil | 1 | 0.004784688995215311 | 0.00888860017712848
clear | 1 | 0.004784688995215311 | 0.009674739178522147
command | 1 | 0.004784688995215311 | 0.006900488005063094
commit | 1 | 0.004784688995215311 | 0.010938622312692419
congo | 1 | 0.004784688995215311 | 0.008213582960573909
consolid | 1 | 0.004784688995215311 | 0.017917641560058525
consult | 1 | 0.004784688995215311 | 0.01630772655230153
conting | 2 | 0.009569377990430622 | 0.03924844047838244
convey | 1 | 0.004784688995215311 | 0.02893479511505396
cost | 1 | 0.004784688995215311 | 0.009760952123511036
countri | 2 | 0.009569377990430622 | 0.002730342548000968
cut | 3 | 0.014354066985645933 | 0.027796626529277033
danger | 2 | 0.009569377990430622 | 0.021026072510394445
decis | 2 | 0.009569377990430622 | 0.020058645554687563
develop | 1 | 0.004784688995215311 | 0.009848747045368438
devic | 1 | 0.004784688995215311 | 0.017917641560058525
digniti | 1 | 0.004784688995215311 | 0.017917641560058525
diplomaci | 1 | 0.004784688995215311 | 0.02367827698745535
diplomat | 1 | 0.004784688995215311 | 0.006488154530225523
diseas | 1 | 0.004784688995215311 | 0.01746161199161678
dollar | 1 | 0.004784688995215311 | 0.0023102955584860503
doubl | 2 | 0.009569377990430622 | 0.024124513439522644
drive | 1 | 0.004784688995215311 | 0.01116650771455488
dutch | 1 | 0.004784688995215311 | 0.01746161199161678
dwindl | 1 | 0.004784688995215311 | 0.02036178330056566
east | 1 | 0.004784688995215311 | 0.004389825187192366
egypt | 3 | 0.014354066985645933 | 0.016716319470716372
egyptian | 2 | 0.009569377990430622 | 0.018071665987431637
eighth | 1 | 0.004784688995215311 | 0.013728795926786278
el | 1 | 0.004784688995215311 | 0.013165240732258127
ellsworth | 1 | 0.004784688995215311 | 0.02561830142816427
embroil | 1 | 0.004784688995215311 | 0.02367827698745535
emerg | 1 | 0.004784688995215311 | 0.009506838126793583
end | 1 | 0.004784688995215311 | 0.0037051321554188088
everyon | 1 | 0.004784688995215311 | 0.011788771486077359
expansionist | 1 | 0.004784688995215311 | 0.02367827698745535
expeditionari | 1 | 0.004784688995215311 | 0.02230180774127458
extens | 1 | 0.004784688995215311 | 0.01962422023919122
feisal | 1 | 0.004784688995215311 | 0.01704528961367597
feudal | 1 | 0.004784688995215311 | 0.01962422023919122
fight | 2 | 0.009569377990430622 | 0.01213635106157654
forc | 2 | 0.009569377990430622 | 0.0022892793212041535
former | 1 | 0.004784688995215311 | 0.008151037115754038
formid | 1 | 0.004784688995215311 | 0.017917641560058525
fuel | 1 | 0.004784688995215311 | 0.01746161199161678
gain | 1 | 0.004784688995215311 | 0.010615936758646808
gamal | 1 | 0.004784688995215311 | 0.012504234328043692
gener | 2 | 0.009569377990430622 | 0.0035794154246390946
give | 2 | 0.009569377990430622 | 0.020627290726656953
gradual | 1 | 0.004784688995215311 | 0.0156688203674952
grandios | 1 | 0.004784688995215311 | 0.02123413524694822
grip | 1 | 0.004784688995215311 | 0.018421758859856738
group | 1 | 0.004784688995215311 | 0.00767809053854527
gun | 1 | 0.004784688995215311 | 0.009425046579619897
hail | 1 | 0.004784688995215311 | 0.015378750406651013
half | 1 | 0.004784688995215311 | 0.008089298336634862
hand | 1 | 0.004784688995215311 | 0.004141572386383697
hold | 1 | 0.004784688995215311 | 0.007908722604659519
home | 1 | 0.004784688995215311 | 0.004088111617971615
horn | 1 | 0.004784688995215311 | 0.01510526517296705
ignor | 1 | 0.004784688995215311 | 0.01235232668060551
imam | 3 | 0.014354066985645933 | 0.04003744939270042
increasingli | 1 | 0.004784688995215311 | 0.01235232668060551
indonesia | 1 | 0.004784688995215311 | 0.010938622312692419
indonesian | 1 | 0.004784688995215311 | 0.01414511830472709
intervent | 1 | 0.004784688995215311 | 0.017917641560058525
iraq | 1 | 0.004784688995215311 | 0.008341182228909609
irian | 1 | 0.004784688995215311 | 0.02367827698745535
isol | 1 | 0.004784688995215311 | 0.01414511830472709
job | 2 | 0.009569377990430622 | 0.013518116658532461
june | 1 | 0.004784688995215311 | 0.0006534714593576589
kennedi | 1 | 0.004784688995215311 | 0.0071965425683075315
larg | 1 | 0.004784688995215311 | 0.00896165028301742
lead | 1 | 0.004784688995215311 | 0.008341182228909609
leav | 1 | 0.004784688995215311 | 0.009187740641154001
lieut | 1 | 0.004784688995215311 | 0.0156688203674952
limit | 1 | 0.004784688995215311 | 0.012991232865411838
lost | 1 | 0.004784688995215311 | 0.008276957251243862
major | 1 | 0.004784688995215311 | 0.0058328155107367306
mess | 1 | 0.004784688995215311 | 0.01746161199161678
middl | 1 | 0.004784688995215311 | 0.007622128625802728
militari | 1 | 0.004784688995215311 | 0.00419563724405802
mind | 1 | 0.004784688995215311 | 0.009425046579619897
miracl | 1 | 0.004784688995215311 | 0.01746161199161678
moham | 2 | 0.009569377990430622 | 0.026330481464516255
mountain | 1 | 0.004784688995215311 | 0.009590052206754678
nasser | 7 | 0.03349282296650718 | 0.018842233104733784
nation | 6 | 0.028708133971291867 | -0.010837229995955306
new | 1 | 0.004784688995215311 | -0.0012735687427311835
number | 1 | 0.004784688995215311 | 0.010513036255197223
observ | 2 | 0.009569377990430622 | 0.022102416849405834
obtain | 1 | 0.004784688995215311 | 0.018985314054384892
oil | 1 | 0.004784688995215311 | 0.009760952123511036
oneey | 1 | 0.004784688995215311 | 0.018985314054384892
oppon | 1 | 0.004784688995215311 | 0.0156688203674952
oppos | 1 | 0.004784688995215311 | 0.010721098991750997
parti | 1 | 0.004784688995215311 | -0.0005244344810491739
path | 1 | 0.004784688995215311 | 0.016662310151123162
peopl | 1 | 0.004784688995215311 | 0.001923087470827944
pit | 1 | 0.004784688995215311 | 0.01962422023919122
plan | 1 | 0.004784688995215311 | 0.004772804649745172
polici | 1 | 0.004784688995215311 | 0.0062317705774307544
polit | 1 | 0.004784688995215311 | 0.001957021577571924
port | 1 | 0.004784688995215311 | 0.01630772655230153
poverti | 1 | 0.004784688995215311 | 0.01962422023919122
premier | 1 | 0.004784688995215311 | 0.0036320820495298694
presid | 1 | 0.004784688995215311 | 0.0020952171476618098
princ | 1 | 0.004784688995215311 | 0.008213582960573909
privileg | 1 | 0.004784688995215311 | 0.02036178330056566
pro | 1 | 0.004784688995215311 | 0.008816648610790966
project | 1 | 0.004784688995215311 | 0.011405792023524553
promis | 2 | 0.009569377990430622 | 0.013334084486973726
propos | 1 | 0.004784688995215311 | 0.008607066684195783
pull | 1 | 0.004784688995215311 | 0.011788771486077359
quiet | 1 | 0.004784688995215311 | 0.013533475378842474
remov | 1 | 0.004784688995215311 | 0.01414511830472709
republ | 1 | 0.004784688995215311 | 0.010029322777343782
republican | 3 | 0.014354066985645933 | 0.038469995441049815
restor | 1 | 0.004784688995215311 | 0.013345816464233473
return | 2 | 0.009569377990430622 | 0.012716490983264913
royalist | 5 | 0.023923444976076555 | 0.06766737689421237
saudi | 6 | 0.028708133971291867 | 0.057041028760761496
save | 1 | 0.004784688995215311 | 0.011530076647463599
scheme | 1 | 0.004784688995215311 | 0.011923560371085476
settlement | 2 | 0.009569377990430622 | 0.03261545310460306
sinai | 1 | 0.004784688995215311 | 0.02893479511505396
sixti | 1 | 0.004784688995215311 | 0.001756935741766558
skirl | 1 | 0.004784688995215311 | 0.02893479511505396
snatch | 1 | 0.004784688995215311 | 0.018421758859856738
soldier | 1 | 0.004784688995215311 | 0.0071965425683075315
spine | 1 | 0.004784688995215311 | 0.02893479511505396
spread | 1 | 0.004784688995215311 | 0.011788771486077359
staff | 1 | 0.004784688995215311 | 0.012205093864018171
state | 3 | 0.014354066985645933 | -0.012074645174915096
steam | 1 | 0.004784688995215311 | 0.016662310151123162
stir | 1 | 0.004784688995215311 | 0.01630772655230153
sukarno | 1 | 0.004784688995215311 | 0.011284654186279146
suppli | 2 | 0.009569377990430622 | 0.017078395234497248
support | 2 | 0.009569377990430622 | 0.009243711139347513
sure | 1 | 0.004784688995215311 | 0.011530076647463599
swedish | 1 | 0.004784688995215311 | 0.016662310151123162
swelter | 1 | 0.004784688995215311 | 0.02230180774127458
switch | 1 | 0.004784688995215311 | 0.017917641560058525
syria | 1 | 0.004784688995215311 | 0.008089298336634862
tact | 1 | 0.004784688995215311 | 0.01962422023919122
talk | 1 | 0.004784688995215311 | 0.005290572997306094
team | 2 | 0.009569377990430622 | 0.025982465730823676
thousand | 8 | 0.03827751196172249 | -0.07273900066048954
throne | 1 | 0.004784688995215311 | 0.01510526517296705
tie | 1 | 0.004784688995215311 | 0.011530076647463599
token | 1 | 0.004784688995215311 | 0.018985314054384892
tor | 1 | 0.004784688995215311 | 0.02893479511505396
train | 1 | 0.004784688995215311 | 0.008151037115754038
tribe | 1 | 0.004784688995215311 | 0.012991232865411838
tribesmen | 1 | 0.004784688995215311 | 0.011530076647463599
trip | 1 | 0.004784688995215311 | 0.010721098991750997
troop | 2 | 0.009569377990430622 | 0.009008867991824853
troopship | 1 | 0.004784688995215311 | 0.02893479511505396
troubl | 2 | 0.009569377990430622 | 0.016178596673269725
twenti | 6 | 0.028708133971291867 | -0.04576628503965629
ultim | 1 | 0.004784688995215311 | 0.01484657033435329
unalter | 1 | 0.004784688995215311 | 0.02893479511505396
undoubtedli | 1 | 0.004784688995215311 | 0.018985314054384892
unit | 10 | 0.04784688995215311 | -0.04063742356825043
uniti | 1 | 0.004784688995215311 | 0.0074580660732733875
unquestion | 1 | 0.004784688995215311 | 0.02561830142816427
unspecifi | 1 | 0.004784688995215311 | 0.02561830142816427
uppermost | 1 | 0.004784688995215311 | 0.02893479511505396
veteran | 1 | 0.004784688995215311 | 0.01414511830472709
victori | 2 | 0.009569377990430622 | 0.018850093159239793
von | 1 | 0.004784688995215311 | 0.013165240732258127
war | 2 | 0.009569377990430622 | 0.003067219439799816
washington | 1 | 0.004784688995215311 | 0.007046225839918157
weapon | 1 | 0.004784688995215311 | 0.009344629745570225
west | 1 | 0.004784688995215311 | 0.0011734631754507896
winner | 1 | 0.004784688995215311 | 0.02230180774127458
wit | 1 | 0.004784688995215311 | 0.012062256719761322
yemen | 8 | 0.03827751196172249 | 0.0694072985435031
yemeni | 2 | 0.009569377990430622 | 0.03261545310460306
