abroad | 1 | 0.0038910505836575876 | 0.009480366795338731
accord | 1 | 0.0038910505836575876 | 0.00830875164831958
act | 2 | 0.007782101167315175 | 0.013779813696733251
africa | 6 | 0.023346303501945526 | 0.022407218143515033
african | 5 | 0.019455252918287938 | 0.018914365054716945
agricultur | 1 | 0.0038910505836575876 | 0.009696591897108421
aim | 2 | 0.007782101167315175 | 0.015597828102815002
albert | 1 | 0.0038910505836575876 | 0.016558804318358846
alon | 1 | 0.0038910505836575876 | 0.009275527365434365
amid | 1 | 0.0038910505836575876 | 0.013261925484167391
apartheid | 1 | 0.0038910505836575876 | 0.012506454610856272
area | 1 | 0.0038910505836575876 | 0.0071123131278994995
arm | 1 | 0.0038910505836575876 | 0.005572963666167387
arrest | 2 | 0.007782101167315175 | 0.014696413196004716
author | 1 | 0.0038910505836575876 | 0.007287879023932455
bare | 1 | 0.0038910505836575876 | 0.01150322850462242
basutoland | 3 | 0.011673151750972763 | 0.05776762517951169
bay | 1 | 0.0038910505836575876 | 0.023530631046872676
believ | 1 | 0.0038910505836575876 | 0.006479943752421776
benoni | 1 | 0.0038910505836575876 | 0.023530631046872676
bill | 4 | 0.01556420233463035 | 0.04067525252235225
black | 6 | 0.023346303501945526 | 0.02515701664132943
bleak | 1 | 0.0038910505836575876 | 0.01595899622564578
blow | 1 | 0.0038910505836575876 | 0.011684240238610331
bomb | 1 | 0.0038910505836575876 | 0.008387361404418878
british | 2 | 0.007782101167315175 | 0.003877790615961542
brunett | 1 | 0.0038910505836575876 | 0.01925587505983723
butcher | 1 | 0.0038910505836575876 | 0.018136489563915906
call | 1 | 0.0038910505836575876 | 0.005205610808303284
camp | 1 | 0.0038910505836575876 | 0.009480366795338731
cape | 2 | 0.007782101167315175 | 0.02914231195371387
chase | 1 | 0.0038910505836575876 | 0.01595899622564578
chief | 1 | 0.0038910505836575876 | 0.004681654056761427
chocol | 1 | 0.0038910505836575876 | 0.016558804318358846
choos | 1 | 0.0038910505836575876 | 0.01355028335246981
circumst | 1 | 0.0038910505836575876 | 0.014981119072801785
citizen | 1 | 0.0038910505836575876 | 0.008082024379354694
clearli | 1 | 0.0038910505836575876 | 0.011005822389797967
coincid | 1 | 0.0038910505836575876 | 0.016558804318358846
comment | 1 | 0.0038910505836575876 | 0.012506454610856272
commun | 2 | 0.007782101167315175 | 0.011622531419811184
comparison | 1 | 0.0038910505836575876 | 0.018136489563915906
congress | 3 | 0.011673151750972763 | 0.024027877032863854
conniv | 1 | 0.0038910505836575876 | 0.02083356030539429
continu | 1 | 0.0038910505836575876 | 0.007937894917563451
countri | 1 | 0.0038910505836575876 | 0.0011101976508408606
coup | 1 | 0.0038910505836575876 | 0.0067310664027625195
court | 1 | 0.0038910505836575876 | 0.007409484251574884
crisi | 1 | 0.0038910505836575876 | 0.007471742389109674
custodi | 1 | 0.0038910505836575876 | 0.017268226718335323
date | 2 | 0.007782101167315175 | 0.019173955179690023
death | 2 | 0.007782101167315175 | 0.010068342318598548
demand | 1 | 0.0038910505836575876 | 0.004934819789629372
describ | 1 | 0.0038910505836575876 | 0.009809383869377885
design | 1 | 0.0038910505836575876 | 0.007731241900777661
detent | 2 | 0.007782101167315175 | 0.02996223814560357
determin | 1 | 0.0038910505836575876 | 0.008156141869513037
directli | 1 | 0.0038910505836575876 | 0.012506454610856272
dispens | 1 | 0.0038910505836575876 | 0.017268226718335323
disrupt | 1 | 0.0038910505836575876 | 0.017268226718335323
dread | 1 | 0.0038910505836575876 | 0.013861733576880458
drew | 1 | 0.0038910505836575876 | 0.013261925484167391
dub | 1 | 0.0038910505836575876 | 0.014981119072801785
east | 1 | 0.0038910505836575876 | 0.0035699356580669436
either | 1 | 0.0038910505836575876 | 0.009275527365434365
embarrass | 1 | 0.0038910505836575876 | 0.012506454610856272
empow | 1 | 0.0038910505836575876 | 0.017268226718335323
enclav | 1 | 0.0038910505836575876 | 0.018136489563915906
endless | 1 | 0.0038910505836575876 | 0.014571155976856934
endlessli | 1 | 0.0038910505836575876 | 0.02083356030539429
entri | 1 | 0.0038910505836575876 | 0.012284048331323398
escap | 1 | 0.0038910505836575876 | 0.009586977589845011
ex | 1 | 0.0038910505836575876 | 0.007937894917563451
exist | 1 | 0.0038910505836575876 | 0.010564854742689004
expir | 1 | 0.0038910505836575876 | 0.02083356030539429
face | 1 | 0.0038910505836575876 | 0.011164662835402071
factori | 1 | 0.0038910505836575876 | 0.008987169497131945
feed | 1 | 0.0038910505836575876 | 0.014200299246100808
fifteen | 1 | 0.0038910505836575876 | 0.01150322850462242
finess | 1 | 0.0038910505836575876 | 0.023530631046872676
fled | 1 | 0.0038910505836575876 | 0.012284048331323398
forc | 1 | 0.0038910505836575876 | 0.0009308548212678368
freedom | 2 | 0.007782101167315175 | 0.016164048758709387
giant | 1 | 0.0038910505836575876 | 0.014200299246100808
govern | 2 | 0.007782101167315175 | -0.0037853436489265813
group | 1 | 0.0038910505836575876 | 0.006244050282318917
grow | 1 | 0.0038910505836575876 | 0.009586977589845011
hack | 1 | 0.0038910505836575876 | 0.01925587505983723
harm | 1 | 0.0038910505836575876 | 0.017268226718335323
head | 1 | 0.0038910505836575876 | 0.003956942636785379
helen | 1 | 0.0038910505836575876 | 0.01925587505983723
hendrik | 2 | 0.007782101167315175 | 0.03311760863671769
hold | 1 | 0.0038910505836575876 | 0.006431607098730892
hous | 1 | 0.0038910505836575876 | 0.0037105913550175705
human | 1 | 0.0038910505836575876 | 0.009586977589845011
hundr | 1 | 0.0038910505836575876 | -0.004027923697700475
hustl | 1 | 0.0038910505836575876 | 0.014571155976856934
imprison | 1 | 0.0038910505836575876 | 0.01355028335246981
incit | 1 | 0.0038910505836575876 | 0.02083356030539429
indefinit | 1 | 0.0038910505836575876 | 0.014981119072801785
instal | 1 | 0.0038910505836575876 | 0.010428312642256046
intervent | 1 | 0.0038910505836575876 | 0.014571155976856934
island | 1 | 0.0038910505836575876 | 0.00830875164831958
jail | 1 | 0.0038910505836575876 | 0.006999521155630035
jeer | 1 | 0.0038910505836575876 | 0.016558804318358846
johann | 1 | 0.0038910505836575876 | 0.018136489563915906
johannesburg | 1 | 0.0038910505836575876 | 0.016558804318358846
judg | 1 | 0.0038910505836575876 | 0.010428312642256046
justic | 2 | 0.007782101167315175 | 0.01761231552628807
kaw | 1 | 0.0038910505836575876 | 0.02083356030539429
kenya | 1 | 0.0038910505836575876 | 0.007409484251574884
key | 1 | 0.0038910505836575876 | 0.009696591897108421
kragdadigheid | 1 | 0.0038910505836575876 | 0.023530631046872676
leader | 1 | 0.0038910505836575876 | 0.0018049644757376611
learn | 1 | 0.0038910505836575876 | 0.009480366795338731
leav | 1 | 0.0038910505836575876 | 0.007471742389109674
leballo | 2 | 0.007782101167315175 | 0.04166712061078858
lectur | 1 | 0.0038910505836575876 | 0.014571155976856934
life | 1 | 0.0038910505836575876 | 0.005101843309929115
list | 1 | 0.0038910505836575876 | 0.011164662835402071
lone | 1 | 0.0038910505836575876 | 0.014571155976856934
luthuli | 1 | 0.0038910505836575876 | 0.023530631046872676
mail | 1 | 0.0038910505836575876 | 0.014200299246100808
make | 1 | 0.0038910505836575876 | 0.011330264447926569
mau | 2 | 0.007782101167315175 | 0.022011644779595933
maximum | 1 | 0.0038910505836575876 | 0.015439418822437519
mean | 1 | 0.0038910505836575876 | 0.009696591897108421
measur | 1 | 0.0038910505836575876 | 0.009177014493900163
meet | 1 | 0.0038910505836575876 | 0.004274755987035446
member | 2 | 0.007782101167315175 | 0.009486836122521219
menac | 1 | 0.0038910505836575876 | 0.013261925484167391
mere | 1 | 0.0038910505836575876 | 0.00830875164831958
milit | 2 | 0.007782101167315175 | 0.03627297912783181
minist | 5 | 0.019455252918287938 | 0.0018818993474426287
mountain | 1 | 0.0038910505836575876 | 0.007798914051407501
mouth | 1 | 0.0038910505836575876 | 0.015439418822437519
move | 1 | 0.0038910505836575876 | 0.004681654056761427
murder | 1 | 0.0038910505836575876 | 0.008987169497131945
natal | 1 | 0.0038910505836575876 | 0.023530631046872676
nation | 5 | 0.019455252918287938 | -0.007344296592589686
nationalist | 3 | 0.011673151750972763 | 0.02564853592221268
new | 2 | 0.007782101167315175 | -0.0020714075270880728
nine | 2 | 0.007782101167315175 | -0.004149937418199776
nineti | 1 | 0.0038910505836575876 | 0.007867784001210618
nobel | 1 | 0.0038910505836575876 | 0.02083356030539429
novemb | 1 | 0.0038910505836575876 | 0.011005822389797967
offic | 1 | 0.0038910505836575876 | 0.002615150861331179
offici | 1 | 0.0038910505836575876 | 0.002353908437838461
offshoot | 1 | 0.0038910505836575876 | 0.023530631046872676
onetim | 1 | 0.0038910505836575876 | 0.01150322850462242
open | 1 | 0.0038910505836575876 | 0.005170713259732231
oper | 1 | 0.0038910505836575876 | 0.007228472517586975
oppos | 1 | 0.0038910505836575876 | 0.00871871474426443
order | 1 | 0.0038910505836575876 | 0.0039315936833955204
paarl | 1 | 0.0038910505836575876 | 0.023530631046872676
pan | 2 | 0.007782101167315175 | 0.030878837644875038
panga | 1 | 0.0038910505836575876 | 0.01925587505983723
parliament | 2 | 0.007782101167315175 | 0.013257328849747814
parti | 1 | 0.0038910505836575876 | -0.0004264856285574994
pattern | 1 | 0.0038910505836575876 | 0.013861733576880458
paw | 1 | 0.0038910505836575876 | 0.01925587505983723
penalti | 1 | 0.0038910505836575876 | 0.01595899622564578
place | 1 | 0.0038910505836575876 | 0.010045277339480746
polic | 1 | 0.0038910505836575876 | 0.0033462504793989223
polit | 2 | 0.007782101167315175 | 0.0031830156397862426
poqo | 7 | 0.027237354085603113 | 0.10486783350961248
postal | 1 | 0.0038910505836575876 | 0.01595899622564578
potlako | 1 | 0.0038910505836575876 | 0.023530631046872676
power | 2 | 0.007782101167315175 | 0.004508264886468068
presenc | 1 | 0.0038910505836575876 | 0.014200299246100808
present | 1 | 0.0038910505836575876 | 0.0071123131278994995
pretoria | 2 | 0.007782101167315175 | 0.04166712061078858
prime | 2 | 0.007782101167315175 | 0.00843990310339588
prison | 3 | 0.011673151750972763 | 0.019439831257265328
prizewin | 1 | 0.0038910505836575876 | 0.023530631046872676
progress | 1 | 0.0038910505836575876 | 0.008987169497131945
promin | 1 | 0.0038910505836575876 | 0.012073670038442948
promis | 1 | 0.0038910505836575876 | 0.005421835910072974
pronounc | 1 | 0.0038910505836575876 | 0.011874085235378548
provid | 1 | 0.0038910505836575876 | 0.010168813130588062
provis | 1 | 0.0038910505836575876 | 0.016558804318358846
pylon | 1 | 0.0038910505836575876 | 0.023530631046872676
ram | 1 | 0.0038910505836575876 | 0.016558804318358846
rand | 1 | 0.0038910505836575876 | 0.02083356030539429
read | 1 | 0.0038910505836575876 | 0.008467592093923684
rebel | 2 | 0.007782101167315175 | 0.013257328849747814
receiv | 2 | 0.007782101167315175 | 0.018161868578536734
releas | 1 | 0.0038910505836575876 | 0.010045277339480746
repeat | 1 | 0.0038910505836575876 | 0.010564854742689004
repetit | 1 | 0.0038910505836575876 | 0.02083356030539429
repres | 1 | 0.0038910505836575876 | 0.009275527365434365
reserv | 1 | 0.0038910505836575876 | 0.008987169497131945
riot | 2 | 0.007782101167315175 | 0.019393183794216843
robben | 1 | 0.0038910505836575876 | 0.023530631046872676
robert | 1 | 0.0038910505836575876 | 0.01150322850462242
rose | 1 | 0.0038910505836575876 | 0.009809383869377885
round | 1 | 0.0038910505836575876 | 0.01150322850462242
rug | 1 | 0.0038910505836575876 | 0.014981119072801785
rule | 1 | 0.0038910505836575876 | 0.005240824176085065
run | 1 | 0.0038910505836575876 | 0.005067860119389213
rural | 1 | 0.0038910505836575876 | 0.013261925484167391
sabotag | 2 | 0.007782101167315175 | 0.02914231195371387
saboteur | 1 | 0.0038910505836575876 | 0.01925587505983723
scheme | 1 | 0.0038910505836575876 | 0.009696591897108421
sea | 2 | 0.007782101167315175 | 0.019173955179690023
secur | 2 | 0.007782101167315175 | 0.013462132805525039
seem | 1 | 0.0038910505836575876 | 0.009177014493900163
sentenc | 2 | 0.007782101167315175 | 0.01961876773875577
sever | 1 | 0.0038910505836575876 | 0.007228472517586975
shoot | 2 | 0.007782101167315175 | 0.019173955179690023
shout | 1 | 0.0038910505836575876 | 0.008633193706448182
shrug | 1 | 0.0038910505836575876 | 0.012073670038442948
sixti | 1 | 0.0038910505836575876 | 0.001428792101280975
skin | 1 | 0.0038910505836575876 | 0.012284048331323398
slim | 1 | 0.0038910505836575876 | 0.016558804318358846
sobukw | 4 | 0.01556420233463035 | 0.07254595825566362
south | 7 | 0.027237354085603113 | 0.011043796718899419
spare | 1 | 0.0038910505836575876 | 0.011874085235378548
spear | 4 | 0.01556420233463035 | 0.05002581844342509
spectacular | 1 | 0.0038910505836575876 | 0.013861733576880458
step | 1 | 0.0038910505836575876 | 0.007731241900777661
stronger | 1 | 0.0038910505836575876 | 0.016558804318358846
subvers | 1 | 0.0038910505836575876 | 0.011874085235378548
suffer | 1 | 0.0038910505836575876 | 0.009080934289268367
surviv | 1 | 0.0038910505836575876 | 0.010168813130588062
suspect | 1 | 0.0038910505836575876 | 0.009925543259065361
suspici | 1 | 0.0038910505836575876 | 0.01355028335246981
suzman | 1 | 0.0038910505836575876 | 0.02083356030539429
tabl | 1 | 0.0038910505836575876 | 0.010428312642256046
tame | 1 | 0.0038910505836575876 | 0.018136489563915906
terror | 1 | 0.0038910505836575876 | 0.011330264447926569
terrorist | 1 | 0.0038910505836575876 | 0.012742348080959132
thank | 1 | 0.0038910505836575876 | 0.012284048331323398
thirti | 1 | 0.0038910505836575876 | 0.002993219921462104
thousand | 7 | 0.027237354085603113 | -0.051759318076992314
tongu | 1 | 0.0038910505836575876 | 0.015439418822437519
total | 1 | 0.0038910505836575876 | 0.007599329248343102
tough | 1 | 0.0038910505836575876 | 0.009275527365434365
town | 2 | 0.007782101167315175 | 0.015875789835126903
train | 1 | 0.0038910505836575876 | 0.006628664424873907
transkei | 1 | 0.0038910505836575876 | 0.012506454610856272
tri | 1 | 0.0038910505836575876 | 0.002818529960731011
trial | 4 | 0.01556420233463035 | 0.029886969556438697
tribal | 1 | 0.0038910505836575876 | 0.011330264447926569
turn | 1 | 0.0038910505836575876 | 0.00323905222349141
twenti | 3 | 0.011673151750972763 | -0.018609248197058684
type | 1 | 0.0038910505836575876 | 0.011874085235378548
unauthor | 1 | 0.0038910505836575876 | 0.023530631046872676
univers | 1 | 0.0038910505836575876 | 0.007798914051407501
urg | 1 | 0.0038910505836575876 | 0.008231698623820826
verwoerd | 2 | 0.007782101167315175 | 0.02598694146259975
vorster | 3 | 0.011673151750972763 | 0.05440946869174772
vote | 1 | 0.0038910505836575876 | 0.005496666112127013
warn | 1 | 0.0038910505836575876 | 0.008231698623820826
white | 5 | 0.019455252918287938 | 0.020431126561909783
wine | 1 | 0.0038910505836575876 | 0.012993470731299875
xhosa | 1 | 0.0038910505836575876 | 0.01925587505983723
