abl | 2 | 0.00796812749003984 | 0.0176791297414915
acut | 1 | 0.00398406374501992 | 0.01634048617526281
addit | 1 | 0.00398406374501992 | 0.009497253119189768
admiss | 1 | 0.00398406374501992 | 0.01330407162527517
admit | 1 | 0.00398406374501992 | 0.008670004653937797
agre | 1 | 0.00398406374501992 | 0.005745824673538592
ahead | 1 | 0.00398406374501992 | 0.010043871133187715
allow | 1 | 0.00398406374501992 | 0.008351109404242432
altern | 1 | 0.00398406374501992 | 0.013578943623231154
amintor | 1 | 0.00398406374501992 | 0.01491947046235949
answer | 1 | 0.00398406374501992 | 0.008927130236159196
anti | 1 | 0.00398406374501992 | 0.006078022318714094
approxim | 1 | 0.00398406374501992 | 0.02133157369914874
area | 1 | 0.00398406374501992 | 0.007282328581156061
attack | 1 | 0.00398406374501992 | 0.005628060521181842
backbench | 1 | 0.00398406374501992 | 0.015808488595085428
balanc | 1 | 0.00398406374501992 | 0.010285403491022117
bar | 1 | 0.00398406374501992 | 0.010043871133187715
becom | 1 | 0.00398406374501992 | 0.011431547205969452
belgium | 1 | 0.00398406374501992 | 0.012362283664859912
believ | 1 | 0.00398406374501992 | 0.0066348428062645275
bigger | 1 | 0.00398406374501992 | 0.017681013014391147
birmingham | 1 | 0.00398406374501992 | 0.018570031147117083
bit | 1 | 0.00398406374501992 | 0.012577690920916786
breath | 1 | 0.00398406374501992 | 0.01634048617526281
britain | 11 | 0.043824701195219126 | 0.010615973352301532
brown | 1 | 0.00398406374501992 | 0.011431547205969452
brussel | 4 | 0.01593625498007968 | 0.04785417914458733
businessmen | 2 | 0.00796812749003984 | 0.023202214845554806
call | 1 | 0.00398406374501992 | 0.0053300477200555535
camera | 2 | 0.00796812749003984 | 0.027748389016611485
capabl | 1 | 0.00398406374501992 | 0.014193089758001105
celebr | 1 | 0.00398406374501992 | 0.009706989109171529
certainli | 1 | 0.00398406374501992 | 0.012157927910327835
chequer | 1 | 0.00398406374501992 | 0.024093116251180387
chief | 1 | 0.00398406374501992 | 0.004793566105927038
clear | 1 | 0.00398406374501992 | 0.008055858519167843
clearli | 1 | 0.00398406374501992 | 0.011268909777601902
come | 1 | 0.00398406374501992 | 0.008351109404242432
comtwenti | 8 | 0.03187250996015936 | 0.04596659738830874
confid | 4 | 0.01593625498007968 | 0.03340443761696973
consequ | 1 | 0.00398406374501992 | 0.017681013014391147
conserv | 2 | 0.00796812749003984 | 0.017340009307875593
consider | 1 | 0.00398406374501992 | 0.01330407162527517
contin | 1 | 0.00398406374501992 | 0.011112651956274087
continu | 1 | 0.00398406374501992 | 0.008127645393680506
count | 1 | 0.00398406374501992 | 0.010285403491022117
couv | 1 | 0.00398406374501992 | 0.01330407162527517
critic | 2 | 0.00796812749003984 | 0.014924182543032993
cross | 1 | 0.00398406374501992 | 0.00883956487074575
crucial | 1 | 0.00398406374501992 | 0.017681013014391147
crunch | 2 | 0.00796812749003984 | 0.037140062294234166
date | 1 | 0.00398406374501992 | 0.009816148368885131
de | 2 | 0.00796812749003984 | 0.0013516844403716247
decis | 2 | 0.00796812749003984 | 0.016702218808484864
declin | 1 | 0.00398406374501992 | 0.012157927910327835
depress | 1 | 0.00398406374501992 | 0.013874194508305742
deputi | 2 | 0.00796812749003984 | 0.015832104928285726
dismantl | 1 | 0.00398406374501992 | 0.01634048617526281
doubl | 1 | 0.00398406374501992 | 0.010043871133187715
drumfir | 1 | 0.00398406374501992 | 0.019716174862064416
due | 1 | 0.00398406374501992 | 0.011963544786146833
eas | 1 | 0.00398406374501992 | 0.011963544786146833
easi | 1 | 0.00398406374501992 | 0.012577690920916786
echo | 1 | 0.00398406374501992 | 0.014193089758001105
econom | 1 | 0.00398406374501992 | 0.0038982787921356434
economi | 1 | 0.00398406374501992 | 0.007916052464142863
edward | 1 | 0.00398406374501992 | 0.013578943623231154
elabor | 1 | 0.00398406374501992 | 0.014193089758001105
elect | 3 | 0.01195219123505976 | 0.009565913628117033
embarrass | 1 | 0.00398406374501992 | 0.012805413685219369
entri | 3 | 0.01195219123505976 | 0.03773307276275036
estat | 1 | 0.00398406374501992 | 0.013578943623231154
europ | 1 | 0.00398406374501992 | 0.0027147257530853643
european | 1 | 0.00398406374501992 | 0.0051545099121112084
excel | 1 | 0.00398406374501992 | 0.018570031147117083
except | 1 | 0.00398406374501992 | 0.009108255232480938
faith | 1 | 0.00398406374501992 | 0.010542529073243516
fall | 1 | 0.00398406374501992 | 0.008127645393680506
fanfani | 1 | 0.00398406374501992 | 0.009108255232480938
fate | 3 | 0.01195219123505976 | 0.037086850994579736
fayat | 1 | 0.00398406374501992 | 0.024093116251180387
februari | 1 | 0.00398406374501992 | 0.009497253119189768
foreign | 3 | 0.01195219123505976 | 0.008774894820770804
forti | 1 | 0.00398406374501992 | 0.0016153988370843201
franc | 1 | 0.00398406374501992 | 0.0020320235538953835
full | 1 | 0.00398406374501992 | 0.008275220181251618
futur | 1 | 0.00398406374501992 | 0.007780986521211862
gaitskel | 6 | 0.02390438247011952 | 0.06577375250299479
gallup | 1 | 0.00398406374501992 | 0.01695463231003276
gaull | 1 | 0.00398406374501992 | 0.001878179585258812
gener | 3 | 0.01195219123505976 | 0.004470704125993451
georg | 1 | 0.00398406374501992 | 0.009706989109171529
gerhard | 1 | 0.00398406374501992 | 0.01695463231003276
germani | 1 | 0.00398406374501992 | 0.003338191339461582
govern | 4 | 0.01593625498007968 | -0.0077516599025827205
great | 2 | 0.00796812749003984 | 0.008810595668820507
grow | 1 | 0.00398406374501992 | 0.009816148368885131
hailsham | 1 | 0.00398406374501992 | 0.014193089758001105
happenst | 1 | 0.00398406374501992 | 0.024093116251180387
hard | 1 | 0.00398406374501992 | 0.006393310448430126
harold | 2 | 0.00796812749003984 | 0.014924182543032993
heath | 3 | 0.01195219123505976 | 0.042579269274003316
henri | 1 | 0.00398406374501992 | 0.011112651956274087
home | 1 | 0.00398406374501992 | 0.003404045132095887
hope | 1 | 0.00398406374501992 | 0.004157075191636728
hospit | 1 | 0.00398406374501992 | 0.009016663526406442
hugh | 1 | 0.00398406374501992 | 0.012805413685219369
hundr | 3 | 0.01195219123505976 | -0.012372626178992296
hung | 1 | 0.00398406374501992 | 0.01453974863046975
immin | 1 | 0.00398406374501992 | 0.017681013014391147
inabl | 1 | 0.00398406374501992 | 0.02133157369914874
interview | 2 | 0.00796812749003984 | 0.027748389016611485
itali | 1 | 0.00398406374501992 | 0.007110327896434113
job | 2 | 0.00796812749003984 | 0.011256121042363685
jokingli | 1 | 0.00398406374501992 | 0.018570031147117083
june | 1 | 0.00398406374501992 | 0.0005441256374731103
labor | 7 | 0.027888446215139442 | 0.028543592061354626
latest | 1 | 0.00398406374501992 | 0.009600741112828257
lead | 2 | 0.00796812749003984 | 0.013890893114279747
leader | 2 | 0.00796812749003984 | 0.0036962220738213456
leaderless | 1 | 0.00398406374501992 | 0.02133157369914874
learn | 1 | 0.00398406374501992 | 0.009706989109171529
like | 1 | 0.00398406374501992 | 0.009497253119189768
line | 1 | 0.00398406374501992 | 0.006034950939812837
london | 1 | 0.00398406374501992 | 0.004888807224865502
longest | 1 | 0.00398406374501992 | 0.01634048617526281
lord | 2 | 0.00796812749003984 | 0.018404004468230355
lower | 1 | 0.00398406374501992 | 0.010962292083832465
luck | 1 | 0.00398406374501992 | 0.01533923347294844
macmillan | 11 | 0.043824701195219126 | 0.054850191107350225
march | 9 | 0.035856573705179286 | 0.027950701911739238
master | 1 | 0.00398406374501992 | 0.011963544786146833
mauric | 1 | 0.00398406374501992 | 0.015808488595085428
medic | 1 | 0.00398406374501992 | 0.013046946043053773
meet | 2 | 0.00796812749003984 | 0.00875388277823195
membership | 1 | 0.00398406374501992 | 0.010542529073243516
middlesex | 1 | 0.00398406374501992 | 0.018570031147117083
militari | 1 | 0.00398406374501992 | 0.003493578422343132
minist | 5 | 0.0199203187250996 | 0.0019268849892141655
ministeri | 2 | 0.00796812749003984 | 0.037140062294234166
murvil | 1 | 0.00398406374501992 | 0.01453974863046975
name | 1 | 0.00398406374501992 | 0.007110327896434113
nassau | 1 | 0.00398406374501992 | 0.01453974863046975
negoti | 2 | 0.00796812749003984 | 0.015300699553794313
new | 1 | 0.00398406374501992 | -0.0010604616224335354
news | 1 | 0.00398406374501992 | 0.00820074953180081
next | 2 | 0.00796812749003984 | 0.008867715106897102
nine | 4 | 0.01593625498007968 | -0.008498278218942968
ninth | 8 | 0.03187250996015936 | 0.045649455369084255
north | 1 | 0.00398406374501992 | 0.005476268305117019
northeast | 1 | 0.00398406374501992 | 0.012577690920916786
obstacl | 1 | 0.00398406374501992 | 0.014193089758001105
octob | 1 | 0.00398406374501992 | 0.012577690920916786
offic | 1 | 0.00398406374501992 | 0.0026776644277375014
offici | 1 | 0.00398406374501992 | 0.002410177165436193
onek | 1 | 0.00398406374501992 | 0.01533923347294844
oneket | 8 | 0.03187250996015936 | 0.046286926817902405
overwhelm | 1 | 0.00398406374501992 | 0.01533923347294844
paid | 1 | 0.00398406374501992 | 0.011431547205969452
pain | 1 | 0.00398406374501992 | 0.012157927910327835
parti | 2 | 0.00796812749003984 | -0.0008733610082810944
peopl | 1 | 0.00398406374501992 | 0.0016012959418447823
perform | 1 | 0.00398406374501992 | 0.010411892328928812
periocard | 1 | 0.00398406374501992 | 0.024093116251180387
persuad | 1 | 0.00398406374501992 | 0.011268909777601902
pleurisi | 1 | 0.00398406374501992 | 0.024093116251180387
pneumonia | 1 | 0.00398406374501992 | 0.02133157369914874
polit | 1 | 0.00398406374501992 | 0.0016295518315240325
poll | 1 | 0.00398406374501992 | 0.010162807241353777
posit | 2 | 0.00796812749003984 | 0.015300699553794313
power | 1 | 0.00398406374501992 | 0.0023080160872954053
precari | 1 | 0.00398406374501992 | 0.01634048617526281
prepar | 1 | 0.00398406374501992 | 0.008275220181251618
pressur | 2 | 0.00796812749003984 | 0.01859601683141012
prime | 2 | 0.00796812749003984 | 0.008641653775190205
pro | 1 | 0.00398406374501992 | 0.007341352827312
problem | 2 | 0.00796812749003984 | 0.01165262709462714
promis | 1 | 0.00398406374501992 | 0.005551441549357587
promptli | 1 | 0.00398406374501992 | 0.011778206078438096
questitwenti | 1 | 0.00398406374501992 | 0.019716174862064416
reason | 1 | 0.00398406374501992 | 0.006891968388485926
reinvest | 1 | 0.00398406374501992 | 0.024093116251180387
relax | 1 | 0.00398406374501992 | 0.014193089758001105
relief | 1 | 0.00398406374501992 | 0.014193089758001105
reluct | 1 | 0.00398406374501992 | 0.011963544786146833
resign | 1 | 0.00398406374501992 | 0.007780986521211862
resist | 1 | 0.00398406374501992 | 0.009816148368885131
return | 1 | 0.00398406374501992 | 0.005294315967136189
revers | 1 | 0.00398406374501992 | 0.01330407162527517
reviv | 1 | 0.00398406374501992 | 0.012805413685219369
rome | 1 | 0.00398406374501992 | 0.009396385358296183
rose | 1 | 0.00398406374501992 | 0.010043871133187715
rush | 1 | 0.00398406374501992 | 0.009600741112828257
salisburi | 1 | 0.00398406374501992 | 0.018570031147117083
scale | 1 | 0.00398406374501992 | 0.013578943623231154
scarc | 1 | 0.00398406374501992 | 0.01330407162527517
schroder | 1 | 0.00398406374501992 | 0.014193089758001105
seek | 2 | 0.00796812749003984 | 0.01859601683141012
seem | 1 | 0.00398406374501992 | 0.009396385358296183
select | 1 | 0.00398406374501992 | 0.015808488595085428
settl | 1 | 0.00398406374501992 | 0.009600741112828257
seventh | 3 | 0.01195219123505976 | -0.0020465490913798945
sever | 1 | 0.00398406374501992 | 0.0074012646893221205
sixth | 1 | 0.00398406374501992 | 0.01491947046235949
sixti | 3 | 0.01195219123505976 | 0.004388839482420844
slump | 1 | 0.00398406374501992 | 0.017681013014391147
snap | 2 | 0.00796812749003984 | 0.02431585582065567
socialist | 1 | 0.00398406374501992 | 0.004376941389115975
solut | 1 | 0.00398406374501992 | 0.011601107422777403
sort | 1 | 0.00398406374501992 | 0.009600741112828257
spent | 1 | 0.00398406374501992 | 0.009396385358296183
spokesman | 1 | 0.00398406374501992 | 0.012805413685219369
spokesmen | 1 | 0.00398406374501992 | 0.019716174862064416
spread | 1 | 0.00398406374501992 | 0.009816148368885131
stand | 1 | 0.00398406374501992 | 0.007341352827312
stop | 1 | 0.00398406374501992 | 0.007586603397030857
straiten | 1 | 0.00398406374501992 | 0.024093116251180387
studi | 1 | 0.00398406374501992 | 0.010411892328928812
suffer | 1 | 0.00398406374501992 | 0.00929800841570506
suggest | 1 | 0.00398406374501992 | 0.006585350694716491
support | 2 | 0.00796812749003984 | 0.007696954693719642
sympath | 1 | 0.00398406374501992 | 0.019716174862064416
system | 1 | 0.00398406374501992 | 0.008351109404242432
talk | 3 | 0.01195219123505976 | 0.01321589350323076
task | 2 | 0.00796812749003984 | 0.022537819555203804
ted | 1 | 0.00398406374501992 | 0.02133157369914874
telegraph | 1 | 0.00398406374501992 | 0.01491947046235949
televis | 1 | 0.00398406374501992 | 0.012805413685219369
term | 4 | 0.01593625498007968 | 0.03139178860781767
thirti | 1 | 0.00398406374501992 | 0.003064770995281915
thousand | 17 | 0.06772908366533864 | -0.1287060106308363
tori | 4 | 0.01593625498007968 | 0.022824727684542127
tragic | 1 | 0.00398406374501992 | 0.017681013014391147
tribut | 1 | 0.00398406374501992 | 0.017681013014391147
tv | 2 | 0.00796812749003984 | 0.02108505814648703
twenti | 15 | 0.05976095617529881 | -0.0952704539172128
unemploy | 1 | 0.00398406374501992 | 0.010542529073243516
urg | 2 | 0.00796812749003984 | 0.01685694459220679
view | 1 | 0.00398406374501992 | 0.00883956487074575
virtual | 1 | 0.00398406374501992 | 0.009600741112828257
visit | 2 | 0.00796812749003984 | 0.011900360856141332
visitor | 1 | 0.00398406374501992 | 0.010542529073243516
want | 1 | 0.00398406374501992 | 0.003974168015126458
washington | 1 | 0.00398406374501992 | 0.005867176097780458
weapon | 1 | 0.00398406374501992 | 0.007780986521211862
west | 1 | 0.00398406374501992 | 0.000977106787526753
wife | 1 | 0.00398406374501992 | 0.006300653627058543
within | 1 | 0.00398406374501992 | 0.008351109404242432
work | 2 | 0.00796812749003984 | 0.005101198466821985
worth | 1 | 0.00398406374501992 | 0.012577690920916786
