advanc | 1 | 0.009009009009009009 | 0.023257984470689653
african | 1 | 0.009009009009009009 | 0.00875854381813019
agre | 1 | 0.009009009009009009 | 0.012992810748271952
ambiti | 1 | 0.009009009009009009 | 0.03008398178327989
antoin | 1 | 0.009009009009009009 | 0.03833885324160561
armi | 2 | 0.018018018018018018 | 0.01036218928603249
arrang | 1 | 0.009009009009009009 | 0.024788606423801342
assassin | 1 | 0.009009009009009009 | 0.0244609699898295
assembl | 1 | 0.009009009009009009 | 0.018712434824271675
back | 2 | 0.018018018018018018 | 0.03847475988501139
choos | 1 | 0.009009009009009009 | 0.03137317857283551
comit | 1 | 0.009009009009009009 | 0.054480830441858356
couli | 1 | 0.009009009009009009 | 0.054480830441858356
discont | 1 | 0.009009009009009009 | 0.03574712285915714
disgruntl | 1 | 0.009009009009009009 | 0.044583422435839355
divid | 1 | 0.009009009009009009 | 0.022711816706577626
doctor | 1 | 0.009009009009009009 | 0.02298076232053872
doubl | 1 | 0.009009009009009009 | 0.022711816706577626
dunion | 1 | 0.009009009009009009 | 0.054480830441858356
duti | 1 | 0.009009009009009009 | 0.019794816012038013
egalit | 1 | 0.009009009009009009 | 0.048236261247624625
elect | 1 | 0.009009009009009009 | 0.007210343305277404
elector | 1 | 0.009009009009009009 | 0.03574712285915714
faction | 1 | 0.009009009009009009 | 0.02663360113232398
fifti | 3 | 0.02702702702702703 | 0.005119973636832937
french | 3 | 0.02702702702702703 | 0.018926071576454307
gain | 1 | 0.009009009009009009 | 0.01998856560862327
govern | 1 | 0.009009009009009009 | -0.004382132062045637
grandest | 1 | 0.009009009009009009 | 0.048236261247624625
grunitzki | 1 | 0.009009009009009009 | 0.044583422435839355
hand | 1 | 0.009009009009009009 | 0.007798095754542276
happi | 1 | 0.009009009009009009 | 0.023257984470689653
head | 1 | 0.009009009009009009 | 0.009161569888773355
hundr | 1 | 0.009009009009009009 | -0.009325913426207406
independ | 1 | 0.009009009009009009 | 0.011501689680906426
januari | 1 | 0.009009009009009009 | 0.016078309027071736
justic | 1 | 0.009009009009009009 | 0.020389031938090243
juvento | 2 | 0.018018018018018018 | 0.09647252249524925
label | 1 | 0.009009009009009009 | 0.0399813897892989
letter | 1 | 0.009009009009009009 | 0.021950038436054538
list | 1 | 0.009009009009009009 | 0.02584971485313813
low | 1 | 0.009009009009009009 | 0.024788606423801342
major | 1 | 0.009009009009009009 | 0.01098250848417997
makeup | 1 | 0.009009009009009009 | 0.048236261247624625
manpow | 1 | 0.009009009009009009 | 0.04199169205339088
meatchi | 1 | 0.009009009009009009 | 0.054480830441858356
member | 1 | 0.009009009009009009 | 0.01098250848417997
militari | 1 | 0.009009009009009009 | 0.007899893549622759
mother | 1 | 0.009009009009009009 | 0.021025226237315044
mulatto | 1 | 0.009009009009009009 | 0.04199169205339088
name | 1 | 0.009009009009009009 | 0.016078309027071736
nation | 1 | 0.009009009009009009 | -0.0034008724762081967
nationalism | 1 | 0.009009009009009009 | 0.054480830441858356
new | 1 | 0.009009009009009009 | -0.0023979807858632196
nicola | 1 | 0.009009009009009009 | 0.044583422435839355
nine | 1 | 0.009009009009009009 | -0.00480420683097902
none | 1 | 0.009009009009009009 | 0.023544008779830015
northern | 1 | 0.009009009009009009 | 0.02080813117804423
olympio | 5 | 0.04504504504504504 | 0.13526350186138986
onetim | 1 | 0.009009009009009009 | 0.02663360113232398
optimism | 1 | 0.009009009009009009 | 0.054480830441858356
organ | 1 | 0.009009009009009009 | 0.01456356198381049
outcom | 1 | 0.009009009009009009 | 0.03833885324160561
overthrow | 1 | 0.009009009009009009 | 0.025481949136739436
packag | 1 | 0.009009009009009009 | 0.03209428404737187
pari | 1 | 0.009009009009009009 | 0.013743996414389528
parti | 3 | 0.02702702702702703 | -0.0029623461226831716
pay | 1 | 0.009009009009009009 | 0.01837872967399826
polit | 1 | 0.009009009009009009 | 0.0036848424298426318
poll | 1 | 0.009009009009009009 | 0.02298076232053872
presid | 4 | 0.036036036036036036 | 0.015780194013020478
pro | 1 | 0.009009009009009009 | 0.01660071675365146
provision | 1 | 0.009009009009009009 | 0.04199169205339088
prussian | 1 | 0.009009009009009009 | 0.048236261247624625
puppet | 1 | 0.009009009009009009 | 0.03373682059506515
rank | 1 | 0.009009009009009009 | 0.024144831973511745
regim | 2 | 0.018018018018018018 | 0.022551020422514178
republ | 1 | 0.009009009009009009 | 0.018884040184368022
rubber | 1 | 0.009009009009009009 | 0.026233134802857012
sergeant | 1 | 0.009009009009009009 | 0.03209428404737187
sixti | 1 | 0.009009009009009009 | 0.003308104234497393
slate | 1 | 0.009009009009009009 | 0.054480830441858356
son | 1 | 0.009009009009009009 | 0.01744593076462132
stamp | 1 | 0.009009009009009009 | 0.027492251400831412
stay | 1 | 0.009009009009009009 | 0.016736193126304977
succeed | 1 | 0.009009009009009009 | 0.022196876041352866
suspens | 1 | 0.009009009009009009 | 0.044583422435839355
sylvanu | 1 | 0.009009009009009009 | 0.04199169205339088
tall | 1 | 0.009009009009009009 | 0.028956385900811368
tenacit | 1 | 0.009009009009009009 | 0.054480830441858356
term | 1 | 0.009009009009009009 | 0.017746258875140166
thirti | 1 | 0.009009009009009009 | 0.006930247926268115
thousand | 5 | 0.04504504504504504 | -0.08559938703852654
ticket | 1 | 0.009009009009009009 | 0.03373682059506515
togo | 2 | 0.018018018018018018 | 0.0693720288596407
togolais | 1 | 0.009009009009009009 | 0.054480830441858356
togoles | 2 | 0.018018018018018018 | 0.08398338410678176
train | 1 | 0.009009009009009009 | 0.015347448262996343
tribesman | 1 | 0.009009009009009009 | 0.044583422435839355
union | 1 | 0.009009009009009009 | 0.010356147559417718
unit | 1 | 0.009009009009009009 | -0.007651550924112019
variou | 1 | 0.009009009009009009 | 0.03373682059506515
vice | 1 | 0.009009009009009009 | 0.025128609378601764
vigil | 1 | 0.009009009009009009 | 0.04199169205339088
virtual | 1 | 0.009009009009009009 | 0.02170978395783687
voter | 1 | 0.009009009009009009 | 0.02383941258904615
west | 1 | 0.009009009009009009 | 0.0022094937267496846
whole | 1 | 0.009009009009009009 | 0.01998856560862327
wing | 1 | 0.009009009009009009 | 0.019058977894792363
world | 1 | 0.009009009009009009 | 0.003216330853353311
youth | 1 | 0.009009009009009009 | 0.022711816706577626
