absurd | 1 | 0.004032258064516129 | 0.019954676977331325
accept | 2 | 0.008064516129032258 | 0.011550416630685633
achiev | 1 | 0.004032258064516129 | 0.008299952147104852
act | 1 | 0.004032258064516129 | 0.007139943790444446
adamantli | 1 | 0.004032258064516129 | 0.02438456523808983
admiss | 1 | 0.004032258064516129 | 0.01346500797558092
admit | 1 | 0.004032258064516129 | 0.008774883742493494
adopt | 2 | 0.008064516129032258 | 0.027486410076056608
advis | 1 | 0.004032258064516129 | 0.009313316777269796
afraid | 1 | 0.004032258064516129 | 0.015099947927629968
agre | 1 | 0.004032258064516129 | 0.005815330617170107
agricultur | 2 | 0.008064516129032258 | 0.020096968689974713
alien | 1 | 0.004032258064516129 | 0.014042027506390085
ambassador | 1 | 0.004032258064516129 | 0.008011811163305882
angri | 1 | 0.004032258064516129 | 0.00982441236452441
appar | 1 | 0.004032258064516129 | 0.009218435739325466
appear | 1 | 0.004032258064516129 | 0.00815330842060939
apprehens | 1 | 0.004032258064516129 | 0.018794668620670918
approach | 1 | 0.004032258064516129 | 0.012960317883024442
arm | 1 | 0.004032258064516129 | 0.0057752083153428165
associ | 1 | 0.004032258064516129 | 0.010048484344987356
atlant | 1 | 0.004032258064516129 | 0.010806759472015337
attempt | 1 | 0.004032258064516129 | 0.008299952147104852
attitud | 1 | 0.004032258064516129 | 0.012960317883024442
becom | 1 | 0.004032258064516129 | 0.011569832051202952
behavior | 1 | 0.004032258064516129 | 0.015524788716572816
believ | 1 | 0.004032258064516129 | 0.006715103001501598
beyond | 1 | 0.004032258064516129 | 0.01230499961892051
block | 1 | 0.004032258064516129 | 0.010537842639359403
boldest | 1 | 0.004032258064516129 | 0.021589616929380374
britain | 7 | 0.028225806451612902 | 0.006837340608502123
british | 1 | 0.004032258064516129 | 0.0020092584441574923
broad | 2 | 0.008064516129032258 | 0.027486410076056608
brussel | 1 | 0.004032258064516129 | 0.012108265085979253
case | 1 | 0.004032258064516129 | 0.005657182580261715
caucu | 1 | 0.004032258064516129 | 0.017894896236339428
center | 1 | 0.004032258064516129 | 0.008299952147104852
charl | 1 | 0.004032258064516129 | 0.006285225037557008
clear | 1 | 0.004032258064516129 | 0.00815330842060939
committe | 1 | 0.004032258064516129 | 0.008452130888971171
common | 2 | 0.008064516129032258 | 0.013330024390111607
commonwealth | 1 | 0.004032258064516129 | 0.014715632686483496
commun | 4 | 0.016129032258064516 | 0.02408863366847963
competit | 1 | 0.004032258064516129 | 0.017894896236339428
comtwenti | 11 | 0.04435483870967742 | 0.06396863678887119
concern | 1 | 0.004032258064516129 | 0.009035119714822413
concess | 2 | 0.008064516129032258 | 0.02460999923784102
confer | 1 | 0.004032258064516129 | 0.005216862854596424
congr | 1 | 0.004032258064516129 | 0.02438456523808983
consult | 1 | 0.004032258064516129 | 0.013743205038028304
continent | 1 | 0.004032258064516129 | 0.015524788716572816
cost | 2 | 0.008064516129032258 | 0.016451927369466185
couv | 2 | 0.008064516129032258 | 0.02693001595116184
cut | 3 | 0.012096774193548387 | 0.023425382841205242
dawn | 1 | 0.004032258064516129 | 0.01174144339966584
de | 9 | 0.036290322580645164 | 0.006156159578224799
deadlock | 2 | 0.008064516129032258 | 0.03199944062392292
dealt | 1 | 0.004032258064516129 | 0.01653815334673776
deathblow | 2 | 0.008064516129032258 | 0.04317923385876075
deepli | 1 | 0.004032258064516129 | 0.01272984040786336
demand | 2 | 0.008064516129032258 | 0.010227811983344746
depth | 1 | 0.004032258064516129 | 0.018794668620670918
design | 2 | 0.008064516129032258 | 0.016023622326611763
desper | 1 | 0.004032258064516129 | 0.010048484344987356
destini | 1 | 0.004032258064516129 | 0.015524788716572816
determin | 1 | 0.004032258064516129 | 0.008452130888971171
develop | 1 | 0.004032258064516129 | 0.008299952147104852
disappoint | 1 | 0.004032258064516129 | 0.015099947927629968
discuss | 1 | 0.004032258064516129 | 0.008530429622265936
disintegr | 1 | 0.004032258064516129 | 0.019954676977331325
distrust | 1 | 0.004032258064516129 | 0.01653815334673776
domin | 1 | 0.004032258064516129 | 0.009716879110160856
durat | 1 | 0.004032258064516129 | 0.02438456523808983
econom | 3 | 0.012096774193548387 | 0.011836306171282819
effect | 1 | 0.004032258064516129 | 0.008375323651186112
effort | 1 | 0.004032258064516129 | 0.008081939158111805
efta | 1 | 0.004032258064516129 | 0.017894896236339428
enter | 1 | 0.004032258064516129 | 0.010285744425724991
envisag | 1 | 0.004032258064516129 | 0.019954676977331325
europ | 13 | 0.05241935483870968 | 0.03571834730773203
european | 2 | 0.008064516129032258 | 0.010433725709192848
eve | 1 | 0.004032258064516129 | 0.013204772003252003
exclus | 1 | 0.004032258064516129 | 0.015099947927629968
expand | 1 | 0.004032258064516129 | 0.014042027506390085
expans | 1 | 0.004032258064516129 | 0.014715632686483496
explos | 1 | 0.004032258064516129 | 0.01192068437777404
faith | 1 | 0.004032258064516129 | 0.010670059666871462
farm | 1 | 0.004032258064516129 | 0.009218435739325466
farmer | 1 | 0.004032258064516129 | 0.010948256729318847
februari | 1 | 0.004032258064516129 | 0.00961213924563158
flatli | 1 | 0.004032258064516129 | 0.017159728668621865
follow | 1 | 0.004032258064516129 | 0.006921930801451399
forc | 2 | 0.008064516129032258 | 0.0019292716860147907
foreign | 6 | 0.024193548387096774 | 0.01776208548397961
form | 2 | 0.008064516129032258 | 0.015229750771666177
founder | 1 | 0.004032258064516129 | 0.01653815334673776
framework | 1 | 0.004032258064516129 | 0.01653815334673776
franc | 8 | 0.03225806451612903 | 0.016452835871862623
free | 1 | 0.004032258064516129 | 0.0065666595614906455
french | 1 | 0.004032258064516129 | 0.002823647775519392
frustrat | 1 | 0.004032258064516129 | 0.01230499961892051
fulli | 1 | 0.004032258064516129 | 0.013743205038028304
furious | 1 | 0.004032258064516129 | 0.019954676977331325
gaull | 6 | 0.024193548387096774 | 0.01140539699757972
gerhard | 1 | 0.004032258064516129 | 0.017159728668621865
germani | 4 | 0.016129032258064516 | 0.01351429074523963
govern | 4 | 0.016129032258064516 | -0.007845429982049446
grand | 1 | 0.004032258064516129 | 0.010285744425724991
grant | 1 | 0.004032258064516129 | 0.010948256729318847
great | 1 | 0.004032258064516129 | 0.004458587727568442
happen | 1 | 0.004032258064516129 | 0.010165369574314985
heavili | 1 | 0.004032258064516129 | 0.01174144339966584
high | 1 | 0.004032258064516129 | 0.006151546782246925
histor | 1 | 0.004032258064516129 | 0.013204772003252003
histori | 1 | 0.004032258064516129 | 0.008859776521517013
hope | 3 | 0.012096774193548387 | 0.012622087174606679
hundr | 1 | 0.004032258064516129 | -0.00417409834802025
ideal | 1 | 0.004032258064516129 | 0.012511827418870313
ii | 1 | 0.004032258064516129 | 0.008610278925879565
imperil | 1 | 0.004032258064516129 | 0.017894896236339428
increasingli | 2 | 0.008064516129032258 | 0.02081964738908509
inde | 1 | 0.004032258064516129 | 0.010537842639359403
inevit | 1 | 0.004032258064516129 | 0.01230499961892051
inner | 1 | 0.004032258064516129 | 0.01599972031196146
insist | 1 | 0.004032258064516129 | 0.00651836846856034
integr | 1 | 0.004032258064516129 | 0.013743205038028304
intent | 1 | 0.004032258064516129 | 0.011405227234589022
interest | 3 | 0.012096774193548387 | 0.0224723883510466
intern | 1 | 0.004032258064516129 | 0.007808460947068414
irreproach | 1 | 0.004032258064516129 | 0.02438456523808983
irresist | 1 | 0.004032258064516129 | 0.02438456523808983
irrit | 1 | 0.004032258064516129 | 0.017894896236339428
isol | 1 | 0.004032258064516129 | 0.01192068437777404
issu | 2 | 0.008064516129032258 | 0.015750222716324012
januari | 1 | 0.004032258064516129 | 0.007196339927439365
join | 1 | 0.004032258064516129 | 0.006715103001501598
juli | 1 | 0.004032258064516129 | 0.009510051310211055
kennedi | 3 | 0.012096774193548387 | 0.01819448463842267
level | 1 | 0.004032258064516129 | 0.011405227234589022
liber | 1 | 0.004032258064516129 | 0.007808460947068414
lifetim | 1 | 0.004032258064516129 | 0.017894896236339428
lisbon | 1 | 0.004032258064516129 | 0.017894896236339428
lowest | 1 | 0.004032258064516129 | 0.01599972031196146
maintain | 1 | 0.004032258064516129 | 0.009218435739325466
major | 2 | 0.008064516129032258 | 0.009831116465677232
march | 12 | 0.04838709677419355 | 0.03771842032175563
mauric | 1 | 0.004032258064516129 | 0.01599972031196146
meet | 2 | 0.008064516129032258 | 0.008859776521517013
member | 1 | 0.004032258064516129 | 0.004915558232838616
minist | 4 | 0.016129032258064516 | 0.0015601552654605018
ministeri | 1 | 0.004032258064516129 | 0.018794668620670918
murvil | 2 | 0.008064516129032258 | 0.029431265372966992
mutter | 1 | 0.004032258064516129 | 0.01599972031196146
narrow | 2 | 0.008064516129032258 | 0.029431265372966992
nation | 2 | 0.008064516129032258 | -0.003044329394025079
negoti | 3 | 0.012096774193548387 | 0.023228682991949835
new | 4 | 0.016129032258064516 | -0.004293159148884151
nine | 1 | 0.004032258064516129 | -0.002150269992897868
ninth | 11 | 0.04435483870967742 | 0.06352729146877098
non | 1 | 0.004032258064516129 | 0.01192068437777404
oneket | 11 | 0.04435483870967742 | 0.06441441781463132
oneward | 1 | 0.004032258064516129 | 0.02438456523808983
outer | 2 | 0.008064516129032258 | 0.029431265372966992
palai | 1 | 0.004032258064516129 | 0.018794668620670918
partner | 2 | 0.008064516129032258 | 0.02384136875554808
partnership | 1 | 0.004032258064516129 | 0.014042027506390085
perman | 1 | 0.004032258064516129 | 0.01230499961892051
plain | 1 | 0.004032258064516129 | 0.008081939158111805
polici | 4 | 0.016129032258064516 | 0.02100709759166174
polit | 2 | 0.008064516129032258 | 0.003298528304133324
popul | 1 | 0.004032258064516129 | 0.007430159514739161
posit | 1 | 0.004032258064516129 | 0.007742894330649944
possibl | 1 | 0.004032258064516129 | 0.005979935433784039
potent | 1 | 0.004032258064516129 | 0.017159728668621865
power | 1 | 0.004032258064516129 | 0.0023359356367384948
predict | 1 | 0.004032258064516129 | 0.010670059666871462
prepar | 1 | 0.004032258064516129 | 0.008375323651186112
presid | 1 | 0.004032258064516129 | 0.001765727354279509
press | 1 | 0.004032258064516129 | 0.0053945241037659025
price | 1 | 0.004032258064516129 | 0.008375323651186112
pride | 1 | 0.004032258064516129 | 0.01346500797558092
probabl | 1 | 0.004032258064516129 | 0.007875111358162006
produc | 1 | 0.004032258064516129 | 0.009035119714822413
promis | 1 | 0.004032258064516129 | 0.005618596084228849
protectionist | 1 | 0.004032258064516129 | 0.02438456523808983
rapidli | 1 | 0.004032258064516129 | 0.01653815334673776
readi | 1 | 0.004032258064516129 | 0.008774883742493494
realiti | 1 | 0.004032258064516129 | 0.01436478035991241
reason | 2 | 0.008064516129032258 | 0.013950677947661028
reced | 1 | 0.004032258064516129 | 0.02438456523808983
reciproc | 1 | 0.004032258064516129 | 0.019954676977331325
regard | 1 | 0.004032258064516129 | 0.010409823694542545
reli | 1 | 0.004032258064516129 | 0.013743205038028304
remain | 1 | 0.004032258064516129 | 0.005467839906520703
repeatedli | 1 | 0.004032258064516129 | 0.01346500797558092
rest | 1 | 0.004032258064516129 | 0.008691741455385692
return | 1 | 0.004032258064516129 | 0.005358360111899933
rich | 1 | 0.004032258064516129 | 0.009125736069064585
room | 1 | 0.004032258064516129 | 0.007742894330649944
say | 1 | 0.004032258064516129 | 0.015099947927629968
schroder | 5 | 0.020161290322580645 | 0.07182390179956205
scope | 1 | 0.004032258064516129 | 0.02438456523808983
seek | 2 | 0.008064516129032258 | 0.01882096864791911
self | 2 | 0.008064516129032258 | 0.016750647302372225
seven | 1 | 0.004032258064516129 | 0.02438456523808983
seventh | 3 | 0.012096774193548387 | -0.002071305733614329
sever | 1 | 0.004032258064516129 | 0.007490796117015534
shock | 1 | 0.004032258064516129 | 0.01230499961892051
six | 1 | 0.004032258064516129 | 0.021589616929380374
sixti | 1 | 0.004032258064516129 | 0.0014806434275371396
slowdown | 1 | 0.004032258064516129 | 0.019954676977331325
splinter | 1 | 0.004032258064516129 | 0.01653815334673776
spread | 1 | 0.004032258064516129 | 0.009934892099153903
stagnat | 1 | 0.004032258064516129 | 0.019954676977331325
state | 7 | 0.028225806451612902 | -0.023743556304974173
statesmen | 1 | 0.004032258064516129 | 0.01653815334673776
stir | 1 | 0.004032258064516129 | 0.013743205038028304
strateg | 1 | 0.004032258064516129 | 0.010670059666871462
suit | 1 | 0.004032258064516129 | 0.01192068437777404
sunder | 1 | 0.004032258064516129 | 0.02438456523808983
swallow | 1 | 0.004032258064516129 | 0.014042027506390085
tariff | 4 | 0.016129032258064516 | 0.04768273751109616
thousand | 17 | 0.06854838709677419 | -0.13026293817878998
tie | 1 | 0.004032258064516129 | 0.009716879110160856
tire | 2 | 0.008064516129032258 | 0.026409544006504006
top | 1 | 0.004032258064516129 | 0.005431015376023636
trade | 6 | 0.024193548387096774 | 0.03690928069348155
traumat | 1 | 0.004032258064516129 | 0.02438456523808983
tri | 1 | 0.004032258064516129 | 0.0029208153222091524
twenti | 19 | 0.07661290322580645 | -0.12213569750838382
undermin | 1 | 0.004032258064516129 | 0.01653815334673776
uneasi | 1 | 0.004032258064516129 | 0.01346500797558092
uniform | 1 | 0.004032258064516129 | 0.013743205038028304
unit | 7 | 0.028225806451612902 | -0.02397280269368967
unless | 1 | 0.004032258064516129 | 0.011247079197680629
urg | 1 | 0.004032258064516129 | 0.008530429622265936
varyingli | 1 | 0.004032258064516129 | 0.02438456523808983
veto | 2 | 0.008064516129032258 | 0.025023654837740626
war | 1 | 0.004032258064516129 | 0.0012924372236253257
warn | 1 | 0.004032258064516129 | 0.008530429622265936
washington | 1 | 0.004032258064516129 | 0.005938150002189092
wave | 1 | 0.004032258064516129 | 0.008452130888971171
weapon | 1 | 0.004032258064516129 | 0.007875111358162006
west | 2 | 0.008064516129032258 | 0.0019778532553968954
western | 2 | 0.008064516129032258 | 0.007641175413081286
widespread | 1 | 0.004032258064516129 | 0.014715632686483496
work | 1 | 0.004032258064516129 | 0.002581453256395803
world | 2 | 0.008064516129032258 | 0.0028791348767920766
