accord | 1 | 0.008064516129032258 | 0.01722055785175913
assembl | 3 | 0.024193548387096774 | 0.050251941907116675
beaten | 1 | 0.008064516129032258 | 0.03199944062392292
campaign | 1 | 0.008064516129032258 | 0.013133319122981291
candid | 1 | 0.008064516129032258 | 0.020096968689974713
capit | 1 | 0.008064516129032258 | 0.011550416630685633
center | 1 | 0.008064516129032258 | 0.016599904294209704
chanc | 1 | 0.008064516129032258 | 0.020096968689974713
charl | 1 | 0.008064516129032258 | 0.012570450075114016
charm | 1 | 0.008064516129032258 | 0.02545968081572672
citi | 1 | 0.008064516129032258 | 0.010027025276717914
comment | 1 | 0.008064516129032258 | 0.025920635766048885
confid | 1 | 0.008064516129032258 | 0.016904261777942343
constitu | 1 | 0.008064516129032258 | 0.02808405501278017
de | 4 | 0.03225806451612903 | 0.005472141847310932
deal | 1 | 0.008064516129032258 | 0.016904261777942343
debr | 7 | 0.056451612903225805 | 0.17226999466488715
deni | 1 | 0.008064516129032258 | 0.02081964738908509
determin | 1 | 0.008064516129032258 | 0.016904261777942343
dour | 1 | 0.008064516129032258 | 0.03307630669347552
eas | 1 | 0.008064516129032258 | 0.024216530171958506
elect | 1 | 0.008064516129032258 | 0.006454420216820901
employ | 1 | 0.008064516129032258 | 0.023139664102405904
expect | 1 | 0.008064516129032258 | 0.01439267985487873
eye | 1 | 0.008064516129032258 | 0.014981592234031067
faction | 1 | 0.008064516129032258 | 0.02384136875554808
flew | 1 | 0.008064516129032258 | 0.020096968689974713
fling | 1 | 0.008064516129032258 | 0.04876913047617966
franc | 2 | 0.016129032258064516 | 0.008226417935931311
french | 2 | 0.016129032258064516 | 0.011294591102077568
friction | 1 | 0.008064516129032258 | 0.04317923385876075
fruitlessli | 1 | 0.008064516129032258 | 0.04876913047617966
fussi | 1 | 0.008064516129032258 | 0.04317923385876075
garag | 1 | 0.008064516129032258 | 0.03431945733724373
gaull | 4 | 0.03225806451612903 | 0.01520719599677296
gaullist | 2 | 0.016129032258064516 | 0.04163929477817018
georg | 1 | 0.008064516129032258 | 0.01964882472904882
give | 1 | 0.008064516129032258 | 0.017383482910771384
hold | 1 | 0.008064516129032258 | 0.013330024390111607
humili | 1 | 0.008064516129032258 | 0.02808405501278017
hundr | 3 | 0.024193548387096774 | -0.0250445900881215
indian | 1 | 0.008064516129032258 | 0.014740842531211058
ineffect | 1 | 0.008064516129032258 | 0.04317923385876075
intern | 1 | 0.008064516129032258 | 0.015616921894136828
island | 2 | 0.016129032258064516 | 0.03444111570351826
job | 1 | 0.008064516129032258 | 0.011392283796908405
juli | 1 | 0.008064516129032258 | 0.01902010262042211
kindli | 1 | 0.008064516129032258 | 0.04876913047617966
la | 1 | 0.008064516129032258 | 0.02460999923784102
landslid | 1 | 0.008064516129032258 | 0.03307630669347552
leadership | 1 | 0.008064516129032258 | 0.016904261777942343
legitim | 1 | 0.008064516129032258 | 0.03990935395466265
life | 1 | 0.008064516129032258 | 0.010573981698804698
local | 1 | 0.008064516129032258 | 0.014740842531211058
lost | 1 | 0.008064516129032258 | 0.013950677947661028
luckless | 1 | 0.008064516129032258 | 0.03990935395466265
meet | 1 | 0.008064516129032258 | 0.008859776521517013
michel | 2 | 0.016129032258064516 | 0.05386003190232368
mistress | 1 | 0.008064516129032258 | 0.02872956071982482
nation | 1 | 0.008064516129032258 | -0.003044329394025079
nine | 2 | 0.016129032258064516 | -0.008601079971591472
nod | 1 | 0.008064516129032258 | 0.035789792472678855
novemb | 1 | 0.008064516129032258 | 0.022810454469178044
obscur | 1 | 0.008064516129032258 | 0.02808405501278017
ocean | 1 | 0.008064516129032258 | 0.02693001595116184
offer | 1 | 0.008064516129032258 | 0.013738441590262855
offic | 1 | 0.008064516129032258 | 0.005420111059371878
oppon | 1 | 0.008064516129032258 | 0.026409544006504006
opportun | 1 | 0.008064516129032258 | 0.02460999923784102
opposit | 1 | 0.008064516129032258 | 0.012941297762548076
organ | 1 | 0.008064516129032258 | 0.01303673693712068
own | 1 | 0.008064516129032258 | 0.02218980091162862
owner | 1 | 0.008064516129032258 | 0.025920635766048885
pari | 1 | 0.008064516129032258 | 0.01230309356449385
parti | 1 | 0.008064516129032258 | -0.0008839258591877205
partli | 1 | 0.008064516129032258 | 0.02545968081572672
perman | 1 | 0.008064516129032258 | 0.02460999923784102
plagu | 1 | 0.008064516129032258 | 0.02693001595116184
pleasur | 1 | 0.008064516129032258 | 0.03307630669347552
polit | 1 | 0.008064516129032258 | 0.003298528304133324
poll | 2 | 0.016129032258064516 | 0.041142977702899965
pompid | 2 | 0.016129032258064516 | 0.05745912143964964
poor | 1 | 0.008064516129032258 | 0.022810454469178044
predict | 1 | 0.008064516129032258 | 0.021340119333742923
premier | 1 | 0.008064516129032258 | 0.006121815712514054
premiership | 1 | 0.008064516129032258 | 0.035789792472678855
presid | 2 | 0.016129032258064516 | 0.007062909417118036
promenad | 1 | 0.008064516129032258 | 0.04317923385876075
ran | 1 | 0.008064516129032258 | 0.02693001595116184
regist | 1 | 0.008064516129032258 | 0.030199895855259937
releg | 1 | 0.008064516129032258 | 0.03990935395466265
replac | 1 | 0.008064516129032258 | 0.01922427849126316
reunion | 2 | 0.016129032258064516 | 0.06039979171051987
rock | 1 | 0.008064516129032258 | 0.02384136875554808
run | 1 | 0.008064516129032258 | 0.01050354879583087
rush | 1 | 0.008064516129032258 | 0.01943375822032171
safe | 1 | 0.008064516129032258 | 0.024216530171958506
saw | 1 | 0.008064516129032258 | 0.02348288679933168
sent | 1 | 0.008064516129032258 | 0.014168651112079732
seventh | 1 | 0.008064516129032258 | -0.0013808704890762192
seventi | 1 | 0.008064516129032258 | 0.010027025276717914
shadow | 1 | 0.008064516129032258 | 0.02808405501278017
sixti | 2 | 0.016129032258064516 | 0.0059225737101485584
solidli | 1 | 0.008064516129032258 | 0.03431945733724373
st | 1 | 0.008064516129032258 | 0.02693001595116184
steam | 1 | 0.008064516129032258 | 0.02808405501278017
supposedli | 1 | 0.008064516129032258 | 0.03199944062392292
swamp | 1 | 0.008064516129032258 | 0.03431945733724373
sweati | 1 | 0.008064516129032258 | 0.04876913047617966
tactic | 1 | 0.008064516129032258 | 0.020571488851449982
talent | 1 | 0.008064516129032258 | 0.026409544006504006
thirti | 1 | 0.008064516129032258 | 0.006203689675933554
thousand | 4 | 0.03225806451612903 | -0.06130020620178352
travel | 1 | 0.008064516129032258 | 0.01902010262042211
tri | 1 | 0.008064516129032258 | 0.005841630644418305
twenti | 1 | 0.008064516129032258 | -0.012856389211408822
undeni | 1 | 0.008064516129032258 | 0.03990935395466265
unr | 1 | 0.008064516129032258 | 0.03990935395466265
view | 1 | 0.008064516129032258 | 0.017892990181912764
vigor | 1 | 0.008064516129032258 | 0.027486410076056608
volcan | 1 | 0.008064516129032258 | 0.04876913047617966
voter | 1 | 0.008064516129032258 | 0.021340119333742923
waggish | 1 | 0.008064516129032258 | 0.04876913047617966
wife | 1 | 0.008064516129032258 | 0.012753742422513663
