accus | 1 | 0.0043859649122807015 | 0.010027070453301383
admir | 1 | 0.0043859649122807015 | 0.011322966123888382
admit | 1 | 0.0043859649122807015 | 0.009544610386571872
adulter | 1 | 0.0043859649122807015 | 0.021705087238500738
adulteri | 4 | 0.017543859649122806 | 0.07465987210207409
aitken | 1 | 0.0043859649122807015 | 0.026523562188799463
anyth | 1 | 0.0043859649122807015 | 0.012233665092214015
appeal | 1 | 0.0043859649122807015 | 0.011754720829209666
appetit | 1 | 0.0043859649122807015 | 0.021705087238500738
argyl | 5 | 0.021929824561403508 | 0.097323119881846
baron | 1 | 0.0043859649122807015 | 0.026523562188799463
baronetci | 1 | 0.0043859649122807015 | 0.026523562188799463
basi | 1 | 0.0043859649122807015 | 0.014097187872763428
beauti | 2 | 0.008771929824561403 | 0.02446733018442803
beaverbrook | 1 | 0.0043859649122807015 | 0.02348344297581725
braun | 2 | 0.008771929824561403 | 0.0469668859516345
britain | 1 | 0.0043859649122807015 | 0.001062443904078024
brother | 1 | 0.0043859649122807015 | 0.007587210813640208
burk | 1 | 0.0043859649122807015 | 0.02348344297581725
businessman | 1 | 0.0043859649122807015 | 0.017403204549852815
camembert | 1 | 0.0043859649122807015 | 0.026523562188799463
campbel | 3 | 0.013157894736842105 | 0.0613299712885051
carrick | 1 | 0.0043859649122807015 | 0.026523562188799463
case | 1 | 0.0043859649122807015 | 0.006153426666249584
castl | 1 | 0.0043859649122807015 | 0.01688661228820201
charg | 2 | 0.008771929824561403 | 0.012739055516769193
charl | 1 | 0.0043859649122807015 | 0.0068365605671672726
charm | 1 | 0.0043859649122807015 | 0.013846493075219795
chic | 1 | 0.0043859649122807015 | 0.021705087238500738
chief | 1 | 0.0043859649122807015 | 0.0052771275990688
clan | 1 | 0.0043859649122807015 | 0.021705087238500738
clew | 1 | 0.0043859649122807015 | 0.026523562188799463
coast | 1 | 0.0043859649122807015 | 0.012584729599554088
cohan | 1 | 0.0043859649122807015 | 0.026523562188799463
cole | 2 | 0.008771929824561403 | 0.0469668859516345
columnist | 1 | 0.0043859649122807015 | 0.0194646239763692
comb | 2 | 0.008771929824561403 | 0.04088664752567007
commend | 1 | 0.0043859649122807015 | 0.02348344297581725
commit | 1 | 0.0043859649122807015 | 0.010027070453301383
complet | 1 | 0.0043859649122807015 | 0.011606029813088257
condon | 1 | 0.0043859649122807015 | 0.02348344297581725
confess | 1 | 0.0043859649122807015 | 0.013846493075219795
conspiraci | 1 | 0.0043859649122807015 | 0.014948749339609733
coolidg | 1 | 0.0043859649122807015 | 0.026523562188799463
cost | 1 | 0.0043859649122807015 | 0.008947539446551784
counselor | 1 | 0.0043859649122807015 | 0.02348344297581725
court | 3 | 0.013157894736842105 | 0.02505575595598349
cryptic | 1 | 0.0043859649122807015 | 0.026523562188799463
daughter | 2 | 0.008771929824561403 | 0.022376005417366646
decre | 1 | 0.0043859649122807015 | 0.014948749339609733
describ | 1 | 0.0043859649122807015 | 0.011057068659781212
diari | 1 | 0.0043859649122807015 | 0.021705087238500738
discov | 1 | 0.0043859649122807015 | 0.012966358445999832
divorc | 4 | 0.017543859649122806 | 0.059794997358438934
dollar | 2 | 0.008771929824561403 | 0.004235541857224425
dozen | 1 | 0.0043859649122807015 | 0.011606029813088257
drag | 1 | 0.0043859649122807015 | 0.014097187872763428
drop | 1 | 0.0043859649122807015 | 0.01080637386223758
duchess | 3 | 0.013157894736842105 | 0.05220961364955845
duke | 5 | 0.021929824561403508 | 0.06692192775202382
dunoon | 1 | 0.0043859649122807015 | 0.026523562188799463
dunstaffnag | 1 | 0.0043859649122807015 | 0.026523562188799463
earl | 1 | 0.0043859649122807015 | 0.021705087238500738
earldom | 1 | 0.0043859649122807015 | 0.02348344297581725
edinburgh | 1 | 0.0043859649122807015 | 0.02348344297581725
embassi | 1 | 0.0043859649122807015 | 0.007359317221838844
english | 1 | 0.0043859649122807015 | 0.010929930340161686
estim | 1 | 0.0043859649122807015 | 0.011462214800706718
evid | 1 | 0.0043859649122807015 | 0.0091935458792318
expens | 1 | 0.0043859649122807015 | 0.014097187872763428
face | 1 | 0.0043859649122807015 | 0.012584729599554088
famili | 1 | 0.0043859649122807015 | 0.0068861200200354
favor | 1 | 0.0043859649122807015 | 0.009544610386571872
fifti | 2 | 0.008771929824561403 | 0.0016617458294984093
forget | 1 | 0.0043859649122807015 | 0.015624848812536304
forti | 2 | 0.008771929824561403 | 0.0035567114746330205
gather | 1 | 0.0043859649122807015 | 0.012771394575075123
gentleman | 1 | 0.0043859649122807015 | 0.020443323762835034
germani | 1 | 0.0043859649122807015 | 0.0036749387114248114
goe | 1 | 0.0043859649122807015 | 0.013846493075219795
golfer | 1 | 0.0043859649122807015 | 0.026523562188799463
gossip | 1 | 0.0043859649122807015 | 0.020443323762835034
govern | 1 | 0.0043859649122807015 | -0.002133406398627481
grant | 1 | 0.0043859649122807015 | 0.011908630126627517
great | 1 | 0.0043859649122807015 | 0.004849691914197252
grosvenor | 1 | 0.0043859649122807015 | 0.026523562188799463
ground | 1 | 0.0043859649122807015 | 0.008081927893225052
habit | 1 | 0.0043859649122807015 | 0.016006477658982048
harvey | 3 | 0.013157894736842105 | 0.0651152617155022
headlin | 1 | 0.0043859649122807015 | 0.013170393602293223
heir | 1 | 0.0043859649122807015 | 0.01642450476338698
henri | 1 | 0.0043859649122807015 | 0.012233665092214015
hereditari | 2 | 0.008771929824561403 | 0.043410174477001476
histori | 1 | 0.0043859649122807015 | 0.009636949900597453
home | 1 | 0.0043859649122807015 | 0.0037474356498073138
hotel | 1 | 0.0043859649122807015 | 0.010569236926841632
hottest | 1 | 0.0043859649122807015 | 0.026523562188799463
hous | 1 | 0.0043859649122807015 | 0.004182552536138227
household | 1 | 0.0043859649122807015 | 0.01798886855259195
husband | 1 | 0.0043859649122807015 | 0.0143630853368706
ian | 1 | 0.0043859649122807015 | 0.021705087238500738
inscrib | 1 | 0.0043859649122807015 | 0.02348344297581725
insist | 1 | 0.0043859649122807015 | 0.007090155176328791
ireland | 1 | 0.0043859649122807015 | 0.009278712922464702
isl | 1 | 0.0043859649122807015 | 0.021705087238500738
janet | 1 | 0.0043859649122807015 | 0.02348344297581725
jilt | 1 | 0.0043859649122807015 | 0.02348344297581725
john | 1 | 0.0043859649122807015 | 0.0091935458792318
joke | 1 | 0.0043859649122807015 | 0.01688661228820201
judg | 5 | 0.021929824561403508 | 0.058773604146048326
june | 1 | 0.0043859649122807015 | 0.0005990155044111872
keeper | 1 | 0.0043859649122807015 | 0.026523562188799463
king | 1 | 0.0043859649122807015 | 0.005489393129164635
letter | 1 | 0.0043859649122807015 | 0.010686202922816024
libel | 1 | 0.0043859649122807015 | 0.016006477658982048
litig | 1 | 0.0043859649122807015 | 0.026523562188799463
live | 1 | 0.0043859649122807015 | 0.004319198008856628
london | 3 | 0.013157894736842105 | 0.016145929124226858
longest | 1 | 0.0043859649122807015 | 0.01798886855259195
lord | 2 | 0.008771929824561403 | 0.020260548778622014
louis | 2 | 0.008771929824561403 | 0.0469668859516345
lurid | 1 | 0.0043859649122807015 | 0.026523562188799463
lyric | 1 | 0.0043859649122807015 | 0.020443323762835034
malici | 1 | 0.0043859649122807015 | 0.02348344297581725
margaret | 1 | 0.0043859649122807015 | 0.015624848812536304
marit | 1 | 0.0043859649122807015 | 0.026523562188799463
marquis | 1 | 0.0043859649122807015 | 0.026523562188799463
marri | 2 | 0.008771929824561403 | 0.021859860680323372
master | 1 | 0.0043859649122807015 | 0.013170393602293223
mickey | 1 | 0.0043859649122807015 | 0.026523562188799463
mix | 1 | 0.0043859649122807015 | 0.013609356139823848
moral | 1 | 0.0043859649122807015 | 0.010569236926841632
motto | 1 | 0.0043859649122807015 | 0.01798886855259195
mous | 1 | 0.0043859649122807015 | 0.026523562188799463
mr | 4 | 0.017543859649122806 | 0.04642411925235303
mussolini | 1 | 0.0043859649122807015 | 0.018664968025518522
nation | 1 | 0.0043859649122807015 | -0.0016556879160487272
new | 2 | 0.008771929824561403 | -0.002334876028340503
nine | 2 | 0.008771929824561403 | -0.00467778033542694
nude | 1 | 0.0043859649122807015 | 0.017403204549852815
number | 1 | 0.0043859649122807015 | 0.009636949900597453
observ | 1 | 0.0043859649122807015 | 0.010130274389311007
offic | 1 | 0.0043859649122807015 | 0.0029477796989566354
old | 1 | 0.0043859649122807015 | 0.0020345432906341177
one2 | 1 | 0.0043859649122807015 | 0.021705087238500738
one40000 | 1 | 0.0043859649122807015 | 0.026523562188799463
one935 | 1 | 0.0043859649122807015 | 0.026523562188799463
one958 | 1 | 0.0043859649122807015 | 0.02348344297581725
one95two | 1 | 0.0043859649122807015 | 0.0194646239763692
one960 | 1 | 0.0043859649122807015 | 0.021705087238500738
one9two | 1 | 0.0043859649122807015 | 0.02348344297581725
pari | 1 | 0.0043859649122807015 | 0.00669115614911069
partner | 1 | 0.0043859649122807015 | 0.012966358445999832
petit | 1 | 0.0043859649122807015 | 0.016006477658982048
photograph | 2 | 0.008771929824561403 | 0.025169459199108176
plan | 1 | 0.0043859649122807015 | 0.0043750709289330746
pornograph | 1 | 0.0043859649122807015 | 0.02348344297581725
porter | 2 | 0.008771929824561403 | 0.043410174477001476
press | 1 | 0.0043859649122807015 | 0.005867727972517297
promiscu | 1 | 0.0043859649122807015 | 0.021705087238500738
read | 1 | 0.0043859649122807015 | 0.009544610386571872
relat | 1 | 0.0043859649122807015 | 0.009028018124921067
rememb | 1 | 0.0043859649122807015 | 0.014646149026070473
resum | 1 | 0.0043859649122807015 | 0.017403204549852815
rich | 1 | 0.0043859649122807015 | 0.009926239233017617
right | 1 | 0.0043859649122807015 | 0.005174726879783752
rocket | 1 | 0.0043859649122807015 | 0.011908630126627517
satisfi | 1 | 0.0043859649122807015 | 0.0143630853368706
savoy | 1 | 0.0043859649122807015 | 0.026523562188799463
scientist | 1 | 0.0043859649122807015 | 0.013384385550404766
scotland | 1 | 0.0043859649122807015 | 0.013609356139823848
scottish | 1 | 0.0043859649122807015 | 0.018664968025518522
sculptor | 1 | 0.0043859649122807015 | 0.018664968025518522
self | 1 | 0.0043859649122807015 | 0.009110001164448052
sensat | 1 | 0.0043859649122807015 | 0.018664968025518522
sevenetim | 1 | 0.0043859649122807015 | 0.026523562188799463
seventh | 1 | 0.0043859649122807015 | -0.0007509997396730315
sexual | 1 | 0.0043859649122807015 | 0.015273784305196233
sheriff | 1 | 0.0043859649122807015 | 0.026523562188799463
shown | 1 | 0.0043859649122807015 | 0.013609356139823848
sigismund | 1 | 0.0043859649122807015 | 0.026523562188799463
signal | 1 | 0.0043859649122807015 | 0.015273784305196233
sixti | 1 | 0.0043859649122807015 | 0.001610524429952678
song | 1 | 0.0043859649122807015 | 0.013609356139823848
spare | 1 | 0.0043859649122807015 | 0.013384385550404766
specif | 1 | 0.0043859649122807015 | 0.01642450476338698
standard | 1 | 0.0043859649122807015 | 0.011188002708683323
state | 2 | 0.008771929824561403 | -0.00737894982911478
stem | 1 | 0.0043859649122807015 | 0.021705087238500738
stepmoth | 1 | 0.0043859649122807015 | 0.026523562188799463
street | 1 | 0.0043859649122807015 | 0.005750761976542906
succumb | 1 | 0.0043859649122807015 | 0.026523562188799463
suit | 1 | 0.0043859649122807015 | 0.012966358445999832
suspici | 1 | 0.0043859649122807015 | 0.015273784305196233
sustain | 1 | 0.0043859649122807015 | 0.021705087238500738
sweeni | 6 | 0.02631578947368421 | 0.11198980815311113
take | 1 | 0.0043859649122807015 | 0.010455309354897507
tarbert | 1 | 0.0043859649122807015 | 0.026523562188799463
tast | 1 | 0.0043859649122807015 | 0.014948749339609733
thirti | 1 | 0.0043859649122807015 | 0.003373936490420003
thousand | 18 | 0.07894736842105263 | -0.15002418886225966
ticket | 1 | 0.0043859649122807015 | 0.01642450476338698
tomcat | 1 | 0.0043859649122807015 | 0.026523562188799463
top | 3 | 0.013157894736842105 | 0.017722260700708706
topper | 1 | 0.0043859649122807015 | 0.026523562188799463
town | 1 | 0.0043859649122807015 | 0.008947539446551784
treat | 1 | 0.0043859649122807015 | 0.014097187872763428
twenti | 13 | 0.05701754385964912 | -0.09089692723153957
unidentifi | 1 | 0.0043859649122807015 | 0.02348344297581725
unit | 3 | 0.013157894736842105 | -0.011175291481268869
unment | 1 | 0.0043859649122807015 | 0.026523562188799463
upper | 1 | 0.0043859649122807015 | 0.01642450476338698
vanneck | 1 | 0.0043859649122807015 | 0.026523562188799463
verdict | 1 | 0.0043859649122807015 | 0.01642450476338698
viscountci | 1 | 0.0043859649122807015 | 0.026523562188799463
von | 2 | 0.008771929824561403 | 0.024136274675806566
warwick | 1 | 0.0043859649122807015 | 0.026523562188799463
wernher | 1 | 0.0043859649122807015 | 0.026523562188799463
west | 1 | 0.0043859649122807015 | 0.001075674577496557
western | 1 | 0.0043859649122807015 | 0.004155726979044208
wheatley | 2 | 0.008771929824561403 | 0.0469668859516345
whigham | 1 | 0.0043859649122807015 | 0.026523562188799463
wife | 3 | 0.013157894736842105 | 0.02080873763673282
wolf | 1 | 0.0043859649122807015 | 0.021705087238500738
woman | 1 | 0.0043859649122807015 | 0.010569236926841632
york | 2 | 0.008771929824561403 | 0.02676877110080953
young | 1 | 0.0043859649122807015 | 0.005867727972517297
your | 4 | 0.017543859649122806 | 0.06402591063592819
