abrupt | 1 | 0.010526315789473684 | 0.049063977030804076
answer | 1 | 0.010526315789473684 | 0.023586417781852193
anxious | 1 | 0.010526315789473684 | 0.05209220937240177
attack | 1 | 0.010526315789473684 | 0.014869928324385709
await | 1 | 0.010526315789473684 | 0.03665708233247096
breakdown | 1 | 0.010526315789473684 | 0.04479592326124445
calendar | 1 | 0.010526315789473684 | 0.05209220937240177
caus | 1 | 0.010526315789473684 | 0.019396626943740128
central | 1 | 0.010526315789473684 | 0.0157210030257446
china | 1 | 0.010526315789473684 | 0.007624865262188103
chines | 1 | 0.010526315789473684 | 0.0067389516588016755
citi | 1 | 0.010526315789473684 | 0.013087906676979172
come | 1 | 0.010526315789473684 | 0.02206451011015632
committe | 1 | 0.010526315789473684 | 0.02206451011015632
communist | 1 | 0.010526315789473684 | -0.0010641696512775657
conduct | 1 | 0.010526315789473684 | 0.031119260270399598
confront | 1 | 0.010526315789473684 | 0.035876998415063366
crackdown | 1 | 0.010526315789473684 | 0.03323158338052751
cultur | 1 | 0.010526315789473684 | 0.028963529610967882
date | 2 | 0.021052631578947368 | 0.05187059453874038
delay | 2 | 0.021052631578947368 | 0.06646316676105501
discuss | 1 | 0.010526315789473684 | 0.022268911013915288
dozen | 1 | 0.010526315789473684 | 0.027854471551411814
draft | 1 | 0.010526315789473684 | 0.03665708233247096
eighteen | 1 | 0.010526315789473684 | 0.03665708233247096
event | 1 | 0.010526315789473684 | 0.02335506086902298
frol | 1 | 0.010526315789473684 | 0.049063977030804076
hand | 1 | 0.010526315789473684 | 0.009111459250044134
hard | 1 | 0.010526315789473684 | 0.016891799184799595
heart | 1 | 0.010526315789473684 | 0.022477359722296125
hot | 1 | 0.010526315789473684 | 0.029773645833453447
ideolog | 2 | 0.021052631578947368 | 0.06040670207785963
intellectu | 1 | 0.010526315789473684 | 0.024312658534346415
invit | 1 | 0.010526315789473684 | 0.026851206500839976
juli | 1 | 0.010526315789473684 | 0.024826239209814124
khrushchev | 1 | 0.010526315789473684 | 0.006413609159190344
knew | 1 | 0.010526315789473684 | 0.02564688701475846
kozlov | 1 | 0.010526315789473684 | 0.040527869491684826
kremlin | 2 | 0.021052631578947368 | 0.04372800558935065
law | 1 | 0.010526315789473684 | 0.016058774757865657
lay | 1 | 0.010526315789473684 | 0.02936079622131364
lectur | 1 | 0.010526315789473684 | 0.03941881143212876
liner | 1 | 0.010526315789473684 | 0.06365654925311871
machineri | 1 | 0.010526315789473684 | 0.03665708233247096
may | 2 | 0.021052631578947368 | 0.045814129855544984
meet | 3 | 0.031578947368421054 | 0.03469301964215084
mid | 1 | 0.010526315789473684 | 0.04176769091964676
minut | 1 | 0.010526315789473684 | 0.021284426192748725
moscow | 2 | 0.021052631578947368 | 0.01414934255499185
nasti | 1 | 0.010526315789473684 | 0.04671509754328608
natur | 1 | 0.010526315789473684 | 0.02717511869733212
neo | 1 | 0.010526315789473684 | 0.04671509754328608
new | 1 | 0.010526315789473684 | -0.002801851234008604
nikita | 1 | 0.010526315789473684 | 0.016646990109386254
oil | 1 | 0.010526315789473684 | 0.021474094671724283
order | 1 | 0.010526315789473684 | 0.010635995543501565
parti | 2 | 0.021052631578947368 | -0.002307511716616365
peke | 2 | 0.021052631578947368 | 0.02483868902296201
plenum | 2 | 0.021052631578947368 | 0.1127205262839228
ploy | 1 | 0.010526315789473684 | 0.05209220937240177
ponder | 1 | 0.010526315789473684 | 0.04176769091964676
postpon | 1 | 0.010526315789473684 | 0.035876998415063366
quarrel | 1 | 0.010526315789473684 | 0.028211329990103198
readi | 1 | 0.010526315789473684 | 0.022907064927772492
red | 2 | 0.021052631578947368 | 0.001019697202096737
restless | 1 | 0.010526315789473684 | 0.04671509754328608
rival | 1 | 0.010526315789473684 | 0.027854471551411814
russia | 1 | 0.010526315789473684 | 0.010635995543501565
scarc | 1 | 0.010526315789473684 | 0.035150757662569136
schedul | 1 | 0.010526315789473684 | 0.024566316972020736
score | 1 | 0.010526315789473684 | 0.030203351038929814
secretari | 1 | 0.010526315789473684 | 0.016173817605572925
serv | 1 | 0.010526315789473684 | 0.02091504387894588
showdown | 1 | 0.010526315789473684 | 0.04479592326124445
soviet | 3 | 0.031578947368421054 | 0.012359380049255539
speaker | 1 | 0.010526315789473684 | 0.03665708233247096
special | 1 | 0.010526315789473684 | 0.0198788325861748
specul | 1 | 0.010526315789473684 | 0.03323158338052751
spot | 1 | 0.010526315789473684 | 0.02717511869733212
spring | 1 | 0.010526315789473684 | 0.027854471551411814
stalin | 1 | 0.010526315789473684 | 0.022907064927772492
suggest | 2 | 0.021052631578947368 | 0.03479837946050188
summer | 1 | 0.010526315789473684 | 0.02312867976143389
switch | 1 | 0.010526315789473684 | 0.03941881143212876
text | 1 | 0.010526315789473684 | 0.05209220937240177
thought | 1 | 0.010526315789473684 | 0.043173284526220684
thousand | 2 | 0.021052631578947368 | -0.04000645036326925
touch | 1 | 0.010526315789473684 | 0.02717511869733212
tough | 1 | 0.010526315789473684 | 0.025092742451754017
twenti | 3 | 0.031578947368421054 | -0.050342913543621914
unleash | 1 | 0.010526315789473684 | 0.05209220937240177
usual | 1 | 0.010526315789473684 | 0.02091504387894588
wave | 2 | 0.021052631578947368 | 0.04412902022031264
whatev | 1 | 0.010526315789473684 | 0.031119260270399598
ye | 1 | 0.010526315789473684 | 0.035876998415063366
