aback | 1 | 0.010526315789473684 | 0.05209220937240177
adenau | 2 | 0.021052631578947368 | 0.04076838557627298
advisori | 1 | 0.010526315789473684 | 0.05209220937240177
ag | 1 | 0.010526315789473684 | 0.06365654925311871
agre | 1 | 0.010526315789473684 | 0.015181073611138806
alli | 1 | 0.010526315789473684 | 0.01652668804808496
argu | 1 | 0.010526315789473684 | 0.022477359722296125
ban | 1 | 0.010526315789473684 | 0.019554920389682658
bore | 1 | 0.010526315789473684 | 0.03749963715008713
burgeon | 1 | 0.010526315789473684 | 0.049063977030804076
cabinet | 1 | 0.010526315789473684 | 0.014972624902757966
cancel | 2 | 0.021052631578947368 | 0.06040670207785963
capitalist | 1 | 0.010526315789473684 | 0.029773645833453447
caucasu | 1 | 0.010526315789473684 | 0.06365654925311871
chancellor | 1 | 0.010526315789473684 | 0.023822974159242283
committe | 1 | 0.010526315789473684 | 0.02206451011015632
contract | 1 | 0.010526315789473684 | 0.035876998415063366
denounc | 1 | 0.010526315789473684 | 0.028211329990103198
eightyn | 1 | 0.010526315789473684 | 0.06365654925311871
end | 1 | 0.010526315789473684 | 0.008151290741921379
enforc | 1 | 0.010526315789473684 | 0.03941881143212876
european | 1 | 0.010526315789473684 | 0.01361875776778856
factori | 1 | 0.010526315789473684 | 0.024312658534346415
februari | 1 | 0.010526315789473684 | 0.025092742451754017
field | 1 | 0.010526315789473684 | 0.0198788325861748
firm | 1 | 0.010526315789473684 | 0.02936079622131364
forti | 2 | 0.021052631578947368 | 0.00853610753911925
ga | 1 | 0.010526315789473684 | 0.03383325089463223
germani | 2 | 0.021052631578947368 | 0.017639705814839098
giant | 1 | 0.010526315789473684 | 0.03841554638155692
half | 1 | 0.010526315789473684 | 0.0177964563405967
hoesch | 1 | 0.010526315789473684 | 0.06365654925311871
howl | 1 | 0.010526315789473684 | 0.04671509754328608
hundr | 2 | 0.021052631578947368 | -0.021793187164400464
hundredn | 2 | 0.021052631578947368 | 0.0895918465224889
itali | 2 | 0.021052631578947368 | 0.03757246951589395
japan | 1 | 0.010526315789473684 | 0.026231832816388048
june | 3 | 0.031578947368421054 | 0.004312911631760548
konrad | 1 | 0.010526315789473684 | 0.030651346980180297
kuibyshev | 1 | 0.010526315789473684 | 0.06365654925311871
leg | 1 | 0.010526315789473684 | 0.035150757662569136
main | 1 | 0.010526315789473684 | 0.024566316972020736
mannesmann | 1 | 0.010526315789473684 | 0.06365654925311871
manufactur | 1 | 0.010526315789473684 | 0.03841554638155692
mile | 1 | 0.010526315789473684 | 0.026851206500839976
mostli | 1 | 0.010526315789473684 | 0.029773645833453447
nato | 3 | 0.031578947368421054 | 0.04112968581104298
negoti | 1 | 0.010526315789473684 | 0.0202130294105388
network | 1 | 0.010526315789473684 | 0.035876998415063366
new | 3 | 0.031578947368421054 | -0.008405553702025812
octob | 1 | 0.010526315789473684 | 0.03323158338052751
oil | 2 | 0.021052631578947368 | 0.042948189343448566
one959 | 1 | 0.010526315789473684 | 0.05209220937240177
pacif | 1 | 0.010526315789473684 | 0.04479592326124445
phoenixrheinrohr | 1 | 0.010526315789473684 | 0.06365654925311871
pipe | 6 | 0.06315789473684211 | 0.1671268293084709
pipelin | 2 | 0.021052631578947368 | 0.09812795406160815
power | 1 | 0.010526315789473684 | 0.006098021451696281
problem | 2 | 0.021052631578947368 | 0.030787467376330653
produc | 1 | 0.010526315789473684 | 0.023586417781852193
product | 1 | 0.010526315789473684 | 0.022477359722296125
project | 1 | 0.010526315789473684 | 0.025092742451754017
pump | 1 | 0.010526315789473684 | 0.04479592326124445
reconsid | 1 | 0.010526315789473684 | 0.04671509754328608
ruhr | 2 | 0.021052631578947368 | 0.10418441874480354
rule | 1 | 0.010526315789473684 | 0.014177808560566964
russia | 6 | 0.06315789473684211 | 0.06381597326100939
satellit | 1 | 0.010526315789473684 | 0.031608944645503734
sent | 1 | 0.010526315789473684 | 0.018493818293661965
seventh | 4 | 0.042105263157894736 | -0.0072095975008611025
shipment | 1 | 0.010526315789473684 | 0.04671509754328608
siberia | 1 | 0.010526315789473684 | 0.04176769091964676
sign | 1 | 0.010526315789473684 | 0.016646990109386254
sixti | 1 | 0.010526315789473684 | 0.003865258631886427
special | 2 | 0.021052631578947368 | 0.0397576651723496
steelmen | 1 | 0.010526315789473684 | 0.06365654925311871
stoog | 1 | 0.010526315789473684 | 0.0563602631419614
strateg | 1 | 0.010526315789473684 | 0.027854471551411814
studi | 1 | 0.010526315789473684 | 0.027509315521696123
subcommitte | 1 | 0.010526315789473684 | 0.06365654925311871
supplier | 1 | 0.010526315789473684 | 0.0563602631419614
thirti | 2 | 0.021052631578947368 | 0.016194895154016016
thousand | 7 | 0.07368421052631578 | -0.14002257627144235
threen | 1 | 0.010526315789473684 | 0.06365654925311871
ton | 2 | 0.021052631578947368 | 0.05570894310282363
trade | 2 | 0.021052631578947368 | 0.032117549515731314
tri | 2 | 0.021052631578947368 | 0.015249730524376205
troubl | 1 | 0.010526315789473684 | 0.0177964563405967
turn | 2 | 0.021052631578947368 | 0.01752497729341668
twenti | 7 | 0.07368421052631578 | -0.11746679826845113
undertaken | 1 | 0.010526315789473684 | 0.05209220937240177
ural | 2 | 0.021052631578947368 | 0.09343019508657216
vital | 1 | 0.010526315789473684 | 0.03383325089463223
west | 2 | 0.021052631578947368 | 0.005163237971983474
westward | 1 | 0.010526315789473684 | 0.05209220937240177
