acerb | 1 | 0.007936507936507936 | 0.039275872145858474
achiev | 1 | 0.007936507936507936 | 0.01633641374985717
acid | 1 | 0.007936507936507936 | 0.03377470404617637
badli | 1 | 0.007936507936507936 | 0.025509197103095727
bitter | 1 | 0.007936507936507936 | 0.017608974464739545
campaign | 1 | 0.007936507936507936 | 0.012924853740076826
candid | 2 | 0.015873015873015872 | 0.03955593837391848
chines | 1 | 0.007936507936507936 | 0.005080955615763168
clumsi | 1 | 0.007936507936507936 | 0.039275872145858474
coast | 1 | 0.007936507936507936 | 0.02277236784681216
communist | 1 | 0.007936507936507936 | -0.0008023501338997519
concern | 1 | 0.007936507936507936 | 0.017783410232348876
congress | 7 | 0.05555555555555555 | 0.11435489624900019
constitu | 1 | 0.007936507936507936 | 0.02763827636178366
critic | 2 | 0.015873015873015872 | 0.029729919192867313
croni | 1 | 0.007936507936507936 | 0.029720532428985966
defeat | 2 | 0.015873015873015872 | 0.03592353246234947
defens | 1 | 0.007936507936507936 | 0.00948684059624334
difficulti | 1 | 0.007936507936507936 | 0.028964102430538947
discredit | 1 | 0.007936507936507936 | 0.035221700528668076
doubli | 1 | 0.007936507936507936 | 0.039275872145858474
down | 1 | 0.007936507936507936 | 0.029720532428985966
dr | 1 | 0.007936507936507936 | 0.02346293433085684
elect | 3 | 0.023809523809523808 | 0.019055907306804565
electififteenth | 1 | 0.007936507936507936 | 0.047995017294018075
fare | 1 | 0.007936507936507936 | 0.039275872145858474
fiercest | 1 | 0.007936507936507936 | 0.04249384919433597
fifti | 2 | 0.015873015873015872 | 0.0030069686438542642
foe | 2 | 0.015873015873015872 | 0.04367516369907855
former | 2 | 0.015873015873015872 | 0.027040742177660223
fortnight | 1 | 0.007936507936507936 | 0.02154894975294503
found | 1 | 0.007936507936507936 | 0.028964102430538947
fourteen | 1 | 0.007936507936507936 | 0.02277236784681216
gall | 1 | 0.007936507936507936 | 0.03699268109465387
gener | 2 | 0.015873015873015872 | 0.0059372843154727835
govern | 2 | 0.015873015873015872 | -0.007720899347413741
gujarat | 1 | 0.007936507936507936 | 0.047995017294018075
hafiz | 1 | 0.007936507936507936 | 0.047995017294018075
hand | 2 | 0.015873015873015872 | 0.013739502043717345
handl | 1 | 0.007936507936507936 | 0.025990344895289657
hope | 2 | 0.015873015873015872 | 0.01656231544604474
hous | 1 | 0.007936507936507936 | 0.007568428398726314
hundr | 4 | 0.031746031746031744 | -0.032862742549492764
ibrahim | 2 | 0.015873015873015872 | 0.07855174429171695
impregn | 1 | 0.007936507936507936 | 0.03699268109465387
impress | 1 | 0.007936507936507936 | 0.02100138728082637
independ | 1 | 0.007936507936507936 | 0.010132440909369947
india | 3 | 0.023809523809523808 | 0.035063361917687975
inform | 1 | 0.007936507936507936 | 0.01891913121362406
invas | 1 | 0.007936507936507936 | 0.031491512994971764
investig | 1 | 0.007936507936507936 | 0.020244957282379347
irrig | 1 | 0.007936507936507936 | 0.035221700528668076
jawaharl | 1 | 0.007936507936507936 | 0.030556726997698874
june | 2 | 0.015873015873015872 | 0.0021678656350119156
kripalani | 2 | 0.015873015873015872 | 0.06298302598994353
krishna | 1 | 0.007936507936507936 | 0.039275872145858474
landslid | 1 | 0.007936507936507936 | 0.032551285952309245
latest | 1 | 0.007936507936507936 | 0.01912528586761819
lean | 1 | 0.007936507936507936 | 0.0246264539673003
left | 2 | 0.015873015873015872 | 0.01656231544604474
lohia | 1 | 0.007936507936507936 | 0.047995017294018075
lok | 2 | 0.015873015873015872 | 0.07855174429171695
lower | 1 | 0.007936507936507936 | 0.021837581849539274
major | 2 | 0.015873015873015872 | 0.019350133995936138
manohar | 1 | 0.007936507936507936 | 0.047995017294018075
masani | 1 | 0.007936507936507936 | 0.047995017294018075
mastermind | 1 | 0.007936507936507936 | 0.03699268109465387
menon | 3 | 0.023809523809523808 | 0.10566510158600423
minist | 4 | 0.031746031746031744 | 0.0030707817923349558
minoch | 1 | 0.007936507936507936 | 0.047995017294018075
moham | 1 | 0.007936507936507936 | 0.021837581849539274
nehru | 7 | 0.05555555555555555 | 0.1133354996563226
new | 1 | 0.007936507936507936 | -0.0021125068827842646
nine | 4 | 0.031746031746031744 | -0.01692910978535464
nomine | 1 | 0.007936507936507936 | 0.047995017294018075
non | 1 | 0.007936507936507936 | 0.02346293433085684
none | 1 | 0.007936507936507936 | 0.020741150591755013
north | 1 | 0.007936507936507936 | 0.010909074163368029
octob | 1 | 0.007936507936507936 | 0.02505555889801677
offic | 1 | 0.007936507936507936 | 0.005334077550492959
old | 1 | 0.007936507936507936 | 0.003681554525909356
oneth | 1 | 0.007936507936507936 | 0.025509197103095727
opposit | 1 | 0.007936507936507936 | 0.012735880337745725
order | 1 | 0.007936507936507936 | 0.008019202989148004
overwhelm | 1 | 0.007936507936507936 | 0.030556726997698874
parliament | 1 | 0.007936507936507936 | 0.013520371088830111
parti | 4 | 0.031746031746031744 | -0.0034795811599770583
pick | 1 | 0.007936507936507936 | 0.01814422272502155
plainli | 1 | 0.007936507936507936 | 0.02346293433085684
politician | 1 | 0.007936507936507936 | 0.013520371088830111
poll | 1 | 0.007936507936507936 | 0.020244957282379347
power | 1 | 0.007936507936507936 | 0.004597714586596403
pradesh | 2 | 0.015873015873015872 | 0.07855174429171695
prime | 1 | 0.007936507936507936 | 0.008607361498304529
ram | 1 | 0.007936507936507936 | 0.03377470404617637
result | 1 | 0.007936507936507936 | 0.01372923861515847
return | 1 | 0.007936507936507936 | 0.01054661355358082
right | 1 | 0.007936507936507936 | 0.009363791496751551
roll | 1 | 0.007936507936507936 | 0.02505555889801677
rustom | 1 | 0.007936507936507936 | 0.047995017294018075
sabha | 2 | 0.015873015873015872 | 0.07855174429171695
score | 1 | 0.007936507936507936 | 0.02277236784681216
seat | 1 | 0.007936507936507936 | 0.01405322269865256
secretari | 1 | 0.007936507936507936 | 0.012194545020074825
seventh | 1 | 0.007936507936507936 | -0.0013589519098845331
seventi | 1 | 0.007936507936507936 | 0.00986786614534144
shatter | 1 | 0.007936507936507936 | 0.024219364329303862
sixti | 1 | 0.007936507936507936 | 0.0029142823018191316
slap | 1 | 0.007936507936507936 | 0.028964102430538947
socialist | 1 | 0.007936507936507936 | 0.0087191451481596
solid | 1 | 0.007936507936507936 | 0.027050117852627138
stronghold | 1 | 0.007936507936507936 | 0.028273535946494264
swamp | 1 | 0.007936507936507936 | 0.03377470404617637
swatantra | 1 | 0.007936507936507936 | 0.047995017294018075
swept | 1 | 0.007936507936507936 | 0.02346293433085684
thousand | 5 | 0.03968253968253968 | -0.07540898381965433
tongu | 1 | 0.007936507936507936 | 0.031491512994971764
trounc | 1 | 0.007936507936507936 | 0.047995017294018075
twenti | 2 | 0.015873015873015872 | -0.02530463908277292
uttar | 2 | 0.015873015873015872 | 0.07855174429171695
veteran | 1 | 0.007936507936507936 | 0.02346293433085684
victori | 3 | 0.023809523809523808 | 0.04690082702715615
vote | 1 | 0.007936507936507936 | 0.011211453895370177
west | 1 | 0.007936507936507936 | 0.001946458759279484
wing | 1 | 0.007936507936507936 | 0.016790051954936127
worst | 1 | 0.007936507936507936 | 0.023110142564421652
