abdullahi | 1 | 0.006535947712418301 | 0.03952530835977959
africa | 3 | 0.0196078431372549 | 0.018819134192429293
african | 2 | 0.013071895424836602 | 0.012708475343953607
apollo | 1 | 0.006535947712418301 | 0.03952530835977959
apprehens | 1 | 0.006535947712418301 | 0.03046456090147966
bank | 1 | 0.006535947712418301 | 0.014088574385200336
beneath | 1 | 0.006535947712418301 | 0.02140381344317972
bloodi | 1 | 0.006535947712418301 | 0.018486904275673708
broadli | 1 | 0.006535947712418301 | 0.03952530835977959
buganda | 1 | 0.006535947712418301 | 0.03499493463062963
burundi | 1 | 0.006535947712418301 | 0.03234483588482463
central | 1 | 0.006535947712418301 | 0.00976140710748848
charg | 1 | 0.006535947712418301 | 0.009491845287004497
cheer | 1 | 0.006535947712418301 | 0.016672317761959463
clear | 1 | 0.006535947712418301 | 0.013215820185040058
committe | 1 | 0.006535947712418301 | 0.013700186016110134
common | 2 | 0.013071895424836602 | 0.021606836919919468
compliment | 1 | 0.006535947712418301 | 0.03499493463062963
consid | 1 | 0.006535947712418301 | 0.01395653054652374
creat | 1 | 0.006535947712418301 | 0.013333588194861483
critic | 1 | 0.006535947712418301 | 0.01224173143235713
cultur | 1 | 0.006535947712418301 | 0.0179838909349147
custom | 1 | 0.006535947712418301 | 0.017295260113621716
decis | 1 | 0.006535947712418301 | 0.013700186016110134
defens | 1 | 0.006535947712418301 | 0.00781269225572981
diplomat | 1 | 0.006535947712418301 | 0.008862903900765584
disput | 1 | 0.006535947712418301 | 0.017516838882743815
draft | 1 | 0.006535947712418301 | 0.022760933474410074
drawn | 1 | 0.006535947712418301 | 0.023852790236914428
east | 1 | 0.006535947712418301 | 0.005996558589040552
econom | 1 | 0.006535947712418301 | 0.006395215534810762
elect | 1 | 0.006535947712418301 | 0.0052310333783385085
emerg | 1 | 0.006535947712418301 | 0.012986465153593849
establish | 1 | 0.006535947712418301 | 0.014645161367816722
european | 1 | 0.006535947712418301 | 0.008456091424443878
eventu | 1 | 0.006535947712418301 | 0.01687343971402975
face | 1 | 0.006535947712418301 | 0.01875371469737472
feder | 7 | 0.0457516339869281 | 0.06598309772161638
fifth | 1 | 0.006535947712418301 | 0.019322416507764457
fifti | 1 | 0.006535947712418301 | 0.001238163559234109
firm | 1 | 0.006535947712418301 | 0.018230559745260104
forc | 1 | 0.006535947712418301 | 0.0015635927389923796
foreign | 2 | 0.013071895424836602 | 0.009596943790908374
formid | 1 | 0.006535947712418301 | 0.02447573258857668
forti | 1 | 0.006535947712418301 | 0.002650098745804996
fortun | 1 | 0.006535947712418301 | 0.023852790236914428
freddi | 1 | 0.006535947712418301 | 0.03952530835977959
frederick | 1 | 0.006535947712418301 | 0.03046456090147966
full | 2 | 0.013071895424836602 | 0.02715137601953145
gain | 1 | 0.006535947712418301 | 0.014501508382726687
grin | 1 | 0.006535947712418301 | 0.026806941372489967
high | 1 | 0.006535947712418301 | 0.009971134653576717
histori | 1 | 0.006535947712418301 | 0.014360944949909932
ii | 1 | 0.006535947712418301 | 0.01395653054652374
independ | 1 | 0.006535947712418301 | 0.008344363101834075
interest | 1 | 0.006535947712418301 | 0.012141944032809493
invit | 1 | 0.006535947712418301 | 0.016672317761959463
inward | 1 | 0.006535947712418301 | 0.03952530835977959
issa | 1 | 0.006535947712418301 | 0.03952530835977959
joint | 2 | 0.013071895424836602 | 0.0359677818698294
jomo | 1 | 0.006535947712418301 | 0.02593418717232969
juliu | 1 | 0.006535947712418301 | 0.03234483588482463
june | 1 | 0.006535947712418301 | 0.0008926505555931418
kenya | 6 | 0.0392156862745098 | 0.0746759785354802
kenyatta | 2 | 0.013071895424836602 | 0.02958408555722898
kikuyu | 1 | 0.006535947712418301 | 0.03499493463062963
king | 1 | 0.006535947712418301 | 0.00818027211404926
largest | 2 | 0.013071895424836602 | 0.046568176853049384
launch | 2 | 0.013071895424836602 | 0.031500470840782904
leader | 1 | 0.006535947712418301 | 0.0030318684331018227
logic | 1 | 0.006535947712418301 | 0.023284088426524692
look | 1 | 0.006535947712418301 | 0.012043657252649099
map | 1 | 0.006535947712418301 | 0.023284088426524692
market | 1 | 0.006535947712418301 | 0.014223340968224751
mean | 1 | 0.006535947712418301 | 0.016287739330437024
meet | 1 | 0.006535947712418301 | 0.007180472474954966
merger | 1 | 0.006535947712418301 | 0.029006106317726654
million | 1 | 0.006535947712418301 | 0.021825633842771686
milton | 1 | 0.006535947712418301 | 0.03952530835977959
minist | 3 | 0.0196078431372549 | 0.0018966593423245315
mustach | 1 | 0.006535947712418301 | 0.027814462155674662
mutesa | 1 | 0.006535947712418301 | 0.03952530835977959
nairobi | 2 | 0.013071895424836602 | 0.04895146517715336
nation | 1 | 0.006535947712418301 | -0.002467299639602025
natitwenti | 1 | 0.006535947712418301 | 0.03046456090147966
natur | 1 | 0.006535947712418301 | 0.01687343971402975
neighbor | 1 | 0.006535947712418301 | 0.012445996422580034
new | 1 | 0.006535947712418301 | -0.0017397115505282182
newli | 1 | 0.006535947712418301 | 0.020280609149541422
newsman | 1 | 0.006535947712418301 | 0.027814462155674662
next | 1 | 0.006535947712418301 | 0.007273844744546316
notion | 1 | 0.006535947712418301 | 0.03046456090147966
numer | 1 | 0.006535947712418301 | 0.02447573258857668
nyerer | 3 | 0.0196078431372549 | 0.09139368270443897
obot | 1 | 0.006535947712418301 | 0.03952530835977959
observ | 1 | 0.006535947712418301 | 0.01509609516838503
occasion | 1 | 0.006535947712418301 | 0.022760933474410074
old | 1 | 0.006535947712418301 | 0.0030318684331018227
opposit | 1 | 0.006535947712418301 | 0.010488372042849423
parochi | 1 | 0.006535947712418301 | 0.03499493463062963
peopl | 1 | 0.006535947712418301 | 0.0026269626235492834
plan | 3 | 0.0196078431372549 | 0.01955914062346551
polici | 1 | 0.006535947712418301 | 0.008512680069823711
present | 1 | 0.006535947712418301 | 0.011946826626602427
presid | 3 | 0.0196078431372549 | 0.008586282036496437
prime | 2 | 0.013071895424836602 | 0.014176830703089812
probabl | 2 | 0.013071895424836602 | 0.025529772768943495
problem | 1 | 0.006535947712418301 | 0.009558200656050368
program | 1 | 0.006535947712418301 | 0.012764886384471747
propos | 1 | 0.006535947712418301 | 0.011757365601287052
push | 1 | 0.006535947712418301 | 0.016103615951569727
quick | 1 | 0.006535947712418301 | 0.021007574084902364
quickli | 1 | 0.006535947712418301 | 0.01687343971402975
racial | 1 | 0.006535947712418301 | 0.019626468897535
refut | 1 | 0.006535947712418301 | 0.03499493463062963
reject | 1 | 0.006535947712418301 | 0.016672317761959463
remain | 1 | 0.006535947712418301 | 0.008862903900765584
remark | 1 | 0.006535947712418301 | 0.016672317761959463
represent | 1 | 0.006535947712418301 | 0.027814462155674662
resist | 1 | 0.006535947712418301 | 0.016103615951569727
resolut | 1 | 0.006535947712418301 | 0.027814462155674662
run | 1 | 0.006535947712418301 | 0.008512680069823711
rwanda | 1 | 0.006535947712418301 | 0.03499493463062963
sand | 1 | 0.006535947712418301 | 0.026806941372489967
scheme | 2 | 0.013071895424836602 | 0.03257547866087405
seem | 1 | 0.006535947712418301 | 0.015414985130276743
sensibl | 1 | 0.006535947712418301 | 0.02593418717232969
seriou | 1 | 0.006535947712418301 | 0.0179838909349147
settler | 1 | 0.006535947712418301 | 0.02593418717232969
shape | 1 | 0.006535947712418301 | 0.02140381344317972
side | 1 | 0.006535947712418301 | 0.010042566487120446
smile | 1 | 0.006535947712418301 | 0.021007574084902364
somalia | 3 | 0.0196078431372549 | 0.06682970293002
someth | 1 | 0.006535947712418301 | 0.016672317761959463
spend | 1 | 0.006535947712418301 | 0.018486904275673708
spririt | 1 | 0.006535947712418301 | 0.03952530835977959
submers | 1 | 0.006535947712418301 | 0.03952530835977959
talk | 2 | 0.013071895424836602 | 0.014453983744274167
tanganyika | 2 | 0.013071895424836602 | 0.04895146517715336
therebi | 1 | 0.006535947712418301 | 0.02593418717232969
think | 1 | 0.006535947712418301 | 0.012986465153593849
thousand | 6 | 0.0392156862745098 | -0.07452181930412899
tight | 1 | 0.006535947712418301 | 0.021825633842771686
toothbrush | 1 | 0.006535947712418301 | 0.03499493463062963
tribal | 1 | 0.006535947712418301 | 0.019031882111876657
tribe | 1 | 0.006535947712418301 | 0.01774619391419003
twenti | 4 | 0.026143790849673203 | -0.041678229077508344
uganda | 2 | 0.013071895424836602 | 0.06092912180295932
uniti | 2 | 0.013071895424836602 | 0.02037563149430246
vast | 1 | 0.006535947712418301 | 0.01687343971402975
weve | 1 | 0.006535947712418301 | 0.03234483588482463
work | 1 | 0.006535947712418301 | 0.0041843163894520205
zanzibar | 1 | 0.006535947712418301 | 0.023852790236914428
