abandon | 1 | 0.0024509803921568627 | 0.0073599258365756245
abund | 1 | 0.0024509803921568627 | 0.010877289869147495
actress | 1 | 0.0024509803921568627 | 0.010877289869147495
admir | 1 | 0.0024509803921568627 | 0.006327539892761155
adulter | 1 | 0.0024509803921568627 | 0.012129313456809235
adulteri | 1 | 0.0024509803921568627 | 0.010430423308377998
advertis | 1 | 0.0024509803921568627 | 0.00894479633884291
affair | 1 | 0.0024509803921568627 | 0.004955932569390022
affluent | 1 | 0.0024509803921568627 | 0.012129313456809235
age | 1 | 0.0024509803921568627 | 0.005045068952161773
aimless | 1 | 0.0024509803921568627 | 0.01312310048648611
amaz | 1 | 0.0024509803921568627 | 0.012129313456809235
ambassador | 1 | 0.0024509803921568627 | 0.004869924432597692
analyst | 1 | 0.0024509803921568627 | 0.014821990634917346
anglo | 1 | 0.0024509803921568627 | 0.009436636278701123
ann | 1 | 0.0024509803921568627 | 0.012129313456809235
anyth | 2 | 0.004901960784313725 | 0.013672919808945078
archbishop | 1 | 0.0024509803921568627 | 0.009436636278701123
arent | 1 | 0.0024509803921568627 | 0.012129313456809235
arrang | 2 | 0.004901960784313725 | 0.013487918201186024
arthur | 1 | 0.0024509803921568627 | 0.010877289869147495
attempt | 1 | 0.0024509803921568627 | 0.005045068952161773
attitud | 1 | 0.0024509803921568627 | 0.007877840281838386
author | 1 | 0.0024509803921568627 | 0.004590649287133923
axiom | 1 | 0.0024509803921568627 | 0.011424210338054871
babylon | 1 | 0.0024509803921568627 | 0.014821990634917346
baffl | 1 | 0.0024509803921568627 | 0.010877289869147495
balfour | 1 | 0.0024509803921568627 | 0.01312310048648611
ball | 1 | 0.0024509803921568627 | 0.006743959100593012
ballad | 1 | 0.0024509803921568627 | 0.01312310048648611
battleground | 1 | 0.0024509803921568627 | 0.011424210338054871
beauti | 1 | 0.0024509803921568627 | 0.006836459904472539
becom | 1 | 0.0024509803921568627 | 0.00703264301151552
better | 1 | 0.0024509803921568627 | 0.014821990634917346
bigam | 1 | 0.0024509803921568627 | 0.014821990634917346
bit | 1 | 0.0024509803921568627 | 0.007737746130269886
blame | 1 | 0.0024509803921568627 | 0.005971701633338366
blyme | 1 | 0.0024509803921568627 | 0.014821990634917346
boom | 1 | 0.0024509803921568627 | 0.0073599258365756245
borrow | 1 | 0.0024509803921568627 | 0.009436636278701123
bottom | 1 | 0.0024509803921568627 | 0.010430423308377998
boudoir | 1 | 0.0024509803921568627 | 0.01312310048648611
bride | 1 | 0.0024509803921568627 | 0.011424210338054871
britain | 10 | 0.024509803921568627 | 0.0059371865227889585
british | 2 | 0.004901960784313725 | 0.002442627912505187
briton | 2 | 0.004901960784313725 | 0.013487918201186024
brogan | 1 | 0.0024509803921568627 | 0.014821990634917346
broken | 1 | 0.0024509803921568627 | 0.0072459061904116715
brothel | 1 | 0.0024509803921568627 | 0.011424210338054871
brutal | 1 | 0.0024509803921568627 | 0.007605228431078034
burk | 1 | 0.0024509803921568627 | 0.01312310048648611
cabinet | 1 | 0.0024509803921568627 | 0.0034862729552990364
call | 1 | 0.0024509803921568627 | 0.0032790244552302547
campbel | 1 | 0.0024509803921568627 | 0.011424210338054871
capit | 1 | 0.0024509803921568627 | 0.0035104207406985747
carnal | 1 | 0.0024509803921568627 | 0.014821990634917346
carstair | 1 | 0.0024509803921568627 | 0.01312310048648611
case | 2 | 0.004901960784313725 | 0.006877359215220124
casual | 1 | 0.0024509803921568627 | 0.010430423308377998
caught | 2 | 0.004901960784313725 | 0.014491812380823343
celebr | 1 | 0.0024509803921568627 | 0.005971701633338366
centuri | 7 | 0.01715686274509804 | 0.0306197208677322
certitud | 1 | 0.0024509803921568627 | 0.014821990634917346
chang | 1 | 0.0024509803921568627 | 0.004628649744329917
christin | 2 | 0.004901960784313725 | 0.006783985710461818
chronicl | 1 | 0.0024509803921568627 | 0.012129313456809235
chudleigh | 2 | 0.004901960784313725 | 0.02624620097297222
church | 1 | 0.0024509803921568627 | 0.00703264301151552
citi | 1 | 0.0024509803921568627 | 0.0030474292507672095
civilli | 1 | 0.0024509803921568627 | 0.01312310048648611
class | 2 | 0.004901960784313725 | 0.010566430788900252
cliveden | 1 | 0.0024509803921568627 | 0.009178399720716254
club | 1 | 0.0024509803921568627 | 0.007136955791953746
cocott | 1 | 0.0024509803921568627 | 0.014821990634917346
cold | 1 | 0.0024509803921568627 | 0.005603362900374303
collect | 1 | 0.0024509803921568627 | 0.006038855981838647
columnist | 1 | 0.0024509803921568627 | 0.010877289869147495
comment | 1 | 0.0024509803921568627 | 0.007877840281838386
compatriot | 1 | 0.0024509803921568627 | 0.010877289869147495
complex | 1 | 0.0024509803921568627 | 0.008184612691039383
comprehend | 1 | 0.0024509803921568627 | 0.01312310048648611
concept | 1 | 0.0024509803921568627 | 0.008731533159946759
congenit | 1 | 0.0024509803921568627 | 0.014821990634917346
consider | 1 | 0.0024509803921568627 | 0.008184612691039383
constantli | 1 | 0.0024509803921568627 | 0.009436636278701123
continent | 1 | 0.0024509803921568627 | 0.009436636278701123
control | 1 | 0.0024509803921568627 | 0.002557416355639262
convent | 1 | 0.0024509803921568627 | 0.008026430041192394
costum | 1 | 0.0024509803921568627 | 0.011424210338054871
countri | 3 | 0.007352941176470588 | 0.002097947031368391
coupl | 1 | 0.0024509803921568627 | 0.007479509572285016
creat | 1 | 0.0024509803921568627 | 0.0050000955730730556
crowd | 1 | 0.0024509803921568627 | 0.0038481258935491943
crudest | 1 | 0.0024509803921568627 | 0.014821990634917346
cunningli | 1 | 0.0024509803921568627 | 0.01312310048648611
daili | 1 | 0.0024509803921568627 | 0.005283215394450126
damn | 1 | 0.0024509803921568627 | 0.009725320189623634
danger | 1 | 0.0024509803921568627 | 0.005385354356216224
daughter | 1 | 0.0024509803921568627 | 0.006252119160734798
de | 1 | 0.0024509803921568627 | 0.00041577548349666394
dead | 1 | 0.0024509803921568627 | 0.004828026311619016
debri | 1 | 0.0024509803921568627 | 0.010877289869147495
decad | 1 | 0.0024509803921568627 | 0.006932589103377641
decenc | 1 | 0.0024509803921568627 | 0.014821990634917346
decent | 1 | 0.0024509803921568627 | 0.01312310048648611
declin | 1 | 0.0024509803921568627 | 0.007479509572285016
demimond | 1 | 0.0024509803921568627 | 0.014821990634917346
diarist | 1 | 0.0024509803921568627 | 0.014821990634917346
dinner | 1 | 0.0024509803921568627 | 0.007877840281838386
discov | 1 | 0.0024509803921568627 | 0.0072459061904116715
disguis | 1 | 0.0024509803921568627 | 0.010052603014683737
disregard | 1 | 0.0024509803921568627 | 0.011424210338054871
dissolut | 1 | 0.0024509803921568627 | 0.012129313456809235
distinguish | 1 | 0.0024509803921568627 | 0.008184612691039383
dividend | 1 | 0.0024509803921568627 | 0.014821990634917346
dont | 1 | 0.0024509803921568627 | 0.005233698954946402
doubl | 1 | 0.0024509803921568627 | 0.006178950133407148
doxi | 1 | 0.0024509803921568627 | 0.014821990634917346
driven | 1 | 0.0024509803921568627 | 0.009178399720716254
drunk | 2 | 0.004901960784313725 | 0.020105206029367474
duke | 1 | 0.0024509803921568627 | 0.007479509572285016
earnestli | 1 | 0.0024509803921568627 | 0.011424210338054871
econom | 2 | 0.004901960784313725 | 0.004796411651108071
economist | 1 | 0.0024509803921568627 | 0.008535350052903777
edwardian | 1 | 0.0024509803921568627 | 0.01312310048648611
emma | 1 | 0.0024509803921568627 | 0.014821990634917346
empir | 1 | 0.0024509803921568627 | 0.00894479633884291
empt | 1 | 0.0024509803921568627 | 0.014821990634917346
english | 3 | 0.007352941176470588 | 0.01832370674674165
envi | 1 | 0.0024509803921568627 | 0.011424210338054871
era | 1 | 0.0024509803921568627 | 0.009178399720716254
europ | 1 | 0.0024509803921568627 | 0.0016700886373147707
european | 1 | 0.0024509803921568627 | 0.003171034284166454
everybodi | 1 | 0.0024509803921568627 | 0.007479509572285016
everyday | 1 | 0.0024509803921568627 | 0.012129313456809235
everyon | 1 | 0.0024509803921568627 | 0.006038855981838647
evid | 2 | 0.004901960784313725 | 0.0102751395120826
fact | 1 | 0.0024509803921568627 | 0.0083537128662525
factor | 2 | 0.004901960784313725 | 0.019450640379247267
fashion | 3 | 0.007352941176470588 | 0.02243852871685505
father | 1 | 0.0024509803921568627 | 0.005438065643522507
fear | 1 | 0.0024509803921568627 | 0.004143782726364427
feel | 3 | 0.007352941176470588 | 0.014737653758909763
field | 1 | 0.0024509803921568627 | 0.004628649744329917
fifti | 1 | 0.0024509803921568627 | 0.0004643113347127908
foreign | 2 | 0.004901960784313725 | 0.00359885392159064
former | 1 | 0.0024509803921568627 | 0.004175408718609299
fornic | 1 | 0.0024509803921568627 | 0.014821990634917346
franc | 1 | 0.0024509803921568627 | 0.0012500929216366207
french | 2 | 0.004901960784313725 | 0.003432669844749065
frequent | 1 | 0.0024509803921568627 | 0.007877840281838386
frighten | 1 | 0.0024509803921568627 | 0.009178399720716254
gener | 2 | 0.004901960784313725 | 0.0018335730974254187
georg | 3 | 0.007352941176470588 | 0.017915104900015102
georgian | 1 | 0.0024509803921568627 | 0.010877289869147495
get | 4 | 0.00980392156862745 | 0.019823730277560087
gin | 1 | 0.0024509803921568627 | 0.012129313456809235
girl | 1 | 0.0024509803921568627 | 0.0041125596239687656
glitter | 1 | 0.0024509803921568627 | 0.010430423308377998
gone | 1 | 0.0024509803921568627 | 0.00703264301151552
gown | 1 | 0.0024509803921568627 | 0.011424210338054871
grade | 1 | 0.0024509803921568627 | 0.010877289869147495
grand | 1 | 0.0024509803921568627 | 0.006252119160734798
great | 1 | 0.0024509803921568627 | 0.0027101219520514063
grind | 2 | 0.004901960784313725 | 0.02425862691361847
group | 1 | 0.0024509803921568627 | 0.003933139516068533
guard | 1 | 0.0024509803921568627 | 0.004706465181375456
guest | 1 | 0.0024509803921568627 | 0.00665482271782126
hall | 1 | 0.0024509803921568627 | 0.0064857225426081435
hamilton | 1 | 0.0024509803921568627 | 0.01312310048648611
handsom | 1 | 0.0024509803921568627 | 0.006836459904472539
harder | 1 | 0.0024509803921568627 | 0.009725320189623634
harem | 1 | 0.0024509803921568627 | 0.01312310048648611
harriett | 2 | 0.004901960784313725 | 0.02624620097297222
harsh | 2 | 0.004901960784313725 | 0.01788959267768582
harshli | 1 | 0.0024509803921568627 | 0.01312310048648611
high | 2 | 0.004901960784313725 | 0.007478350990182537
hippolyt | 1 | 0.0024509803921568627 | 0.014821990634917346
hogarth | 1 | 0.0024509803921568627 | 0.014821990634917346
homosexu | 1 | 0.0024509803921568627 | 0.010430423308377998
honesti | 1 | 0.0024509803921568627 | 0.011424210338054871
honor | 1 | 0.0024509803921568627 | 0.006405355329806696
hors | 2 | 0.004901960784313725 | 0.015210456862156068
hous | 2 | 0.004901960784313725 | 0.004674617540389782
husband | 1 | 0.0024509803921568627 | 0.008026430041192394
hustler | 1 | 0.0024509803921568627 | 0.012129313456809235
hypocrit | 1 | 0.0024509803921568627 | 0.010430423308377998
ii | 1 | 0.0024509803921568627 | 0.005233698954946402
immor | 1 | 0.0024509803921568627 | 0.014821990634917346
immort | 1 | 0.0024509803921568627 | 0.014821990634917346
implic | 1 | 0.0024509803921568627 | 0.009178399720716254
imposs | 1 | 0.0024509803921568627 | 0.008026430041192394
incap | 1 | 0.0024509803921568627 | 0.010877289869147495
inde | 1 | 0.0024509803921568627 | 0.006405355329806696
indiscret | 1 | 0.0024509803921568627 | 0.01312310048648611
inferior | 1 | 0.0024509803921568627 | 0.012129313456809235
infidel | 1 | 0.0024509803921568627 | 0.01312310048648611
infinit | 1 | 0.0024509803921568627 | 0.012129313456809235
influenc | 1 | 0.0024509803921568627 | 0.005971701633338366
innumer | 1 | 0.0024509803921568627 | 0.011424210338054871
intrigu | 1 | 0.0024509803921568627 | 0.010052603014683737
inveter | 1 | 0.0024509803921568627 | 0.014821990634917346
iron | 1 | 0.0024509803921568627 | 0.005283215394450126
iv | 1 | 0.0024509803921568627 | 0.009436636278701123
jame | 2 | 0.004901960784313725 | 0.017070700105807555
joseph | 1 | 0.0024509803921568627 | 0.007877840281838386
judgment | 1 | 0.0024509803921568627 | 0.010430423308377998
keeler | 2 | 0.004901960784313725 | 0.011685345749591331
keith | 1 | 0.0024509803921568627 | 0.011424210338054871
kinder | 1 | 0.0024509803921568627 | 0.014821990634917346
lead | 1 | 0.0024509803921568627 | 0.004272811484907128
left | 1 | 0.0024509803921568627 | 0.002557416355639262
legal | 1 | 0.0024509803921568627 | 0.006932589103377641
level | 1 | 0.0024509803921568627 | 0.006932589103377641
life | 4 | 0.00980392156862745 | 0.012854644418154731
like | 1 | 0.0024509803921568627 | 0.005842672874795666
litter | 1 | 0.0024509803921568627 | 0.010052603014683737
live | 1 | 0.0024509803921568627 | 0.0024136694755375276
lloyd | 1 | 0.0024509803921568627 | 0.01312310048648611
london | 6 | 0.014705882352941176 | 0.018045450197665312
lord | 2 | 0.004901960784313725 | 0.011322071376288772
loss | 1 | 0.0024509803921568627 | 0.006836459904472539
lower | 1 | 0.0024509803921568627 | 0.006743959100593012
lux | 1 | 0.0024509803921568627 | 0.014821990634917346
machineri | 3 | 0.007352941176470588 | 0.025606050158711334
maida | 1 | 0.0024509803921568627 | 0.014821990634917346
mail | 1 | 0.0024509803921568627 | 0.00894479633884291
maintain | 1 | 0.0024509803921568627 | 0.005603362900374303
malcolm | 1 | 0.0024509803921568627 | 0.012129313456809235
manag | 1 | 0.0024509803921568627 | 0.004706465181375456
marriag | 1 | 0.0024509803921568627 | 0.007605228431078034
masseus | 1 | 0.0024509803921568627 | 0.014821990634917346
matter | 1 | 0.0024509803921568627 | 0.007479509572285016
meant | 1 | 0.0024509803921568627 | 0.008731533159946759
memoir | 1 | 0.0024509803921568627 | 0.010430423308377998
mid | 2 | 0.004901960784313725 | 0.019450640379247267
middl | 1 | 0.0024509803921568627 | 0.003904472751943064
minist | 4 | 0.00980392156862745 | 0.0009483296711622658
miss | 2 | 0.004901960784313725 | 0.01098387102586254
mistress | 3 | 0.007352941176470588 | 0.026194599479840278
mix | 1 | 0.0024509803921568627 | 0.007605228431078034
model | 2 | 0.004901960784313725 | 0.013672919808945078
moral | 9 | 0.022058823529411766 | 0.053157044543821155
morri | 1 | 0.0024509803921568627 | 0.01312310048648611
mr | 1 | 0.0024509803921568627 | 0.0064857225426081435
muggeridg | 2 | 0.004901960784313725 | 0.02624620097297222
music | 1 | 0.0024509803921568627 | 0.008535350052903777
nautic | 1 | 0.0024509803921568627 | 0.014821990634917346
neck | 1 | 0.0024509803921568627 | 0.009178399720716254
nelson | 1 | 0.0024509803921568627 | 0.01312310048648611
new | 5 | 0.012254901960784314 | -0.003261959157240409
nobl | 1 | 0.0024509803921568627 | 0.010052603014683737
offer | 1 | 0.0024509803921568627 | 0.004175408718609299
offici | 2 | 0.004901960784313725 | 0.0029654630810023747
old | 3 | 0.007352941176470588 | 0.0034108519872395504
onetim | 1 | 0.0024509803921568627 | 0.0072459061904116715
opposit | 1 | 0.0024509803921568627 | 0.003933139516068533
order | 1 | 0.0024509803921568627 | 0.0024765185701780606
outlook | 1 | 0.0024509803921568627 | 0.010430423308377998
overlap | 1 | 0.0024509803921568627 | 0.01312310048648611
overlook | 1 | 0.0024509803921568627 | 0.010430423308377998
palac | 1 | 0.0024509803921568627 | 0.003462360761805496
palmerston | 1 | 0.0024509803921568627 | 0.014821990634917346
park | 1 | 0.0024509803921568627 | 0.00448005998497591
parlor | 1 | 0.0024509803921568627 | 0.010877289869147495
parochi | 1 | 0.0024509803921568627 | 0.01312310048648611
pass | 1 | 0.0024509803921568627 | 0.004828026311619016
passion | 1 | 0.0024509803921568627 | 0.007737746130269886
pat | 1 | 0.0024509803921568627 | 0.012129313456809235
patron | 2 | 0.004901960784313725 | 0.02425862691361847
peer | 1 | 0.0024509803921568627 | 0.009436636278701123
peerag | 1 | 0.0024509803921568627 | 0.014821990634917346
penni | 1 | 0.0024509803921568627 | 0.011424210338054871
peopl | 1 | 0.0024509803921568627 | 0.0009851109838309813
perman | 1 | 0.0024509803921568627 | 0.007479509572285016
phrase | 1 | 0.0024509803921568627 | 0.009436636278701123
pictur | 1 | 0.0024509803921568627 | 0.006327539892761155
plan | 1 | 0.0024509803921568627 | 0.002444892577933189
pleas | 1 | 0.0024509803921568627 | 0.0073599258365756245
pleashoor | 1 | 0.0024509803921568627 | 0.014821990634917346
politician | 1 | 0.0024509803921568627 | 0.004175408718609299
poor | 2 | 0.004901960784313725 | 0.013865178206755282
popular | 1 | 0.0024509803921568627 | 0.0050000955730730556
pornographi | 1 | 0.0024509803921568627 | 0.014821990634917346
poverti | 1 | 0.0024509803921568627 | 0.010052603014683737
power | 1 | 0.0024509803921568627 | 0.0014198824458606537
pre | 1 | 0.0024509803921568627 | 0.009725320189623634
preced | 1 | 0.0024509803921568627 | 0.010877289869147495
prefer | 1 | 0.0024509803921568627 | 0.0083537128662525
pregnant | 1 | 0.0024509803921568627 | 0.012129313456809235
pretend | 1 | 0.0024509803921568627 | 0.010877289869147495
prime | 1 | 0.0024509803921568627 | 0.00265815575682934
privat | 1 | 0.0024509803921568627 | 0.004516371469743412
probabl | 1 | 0.0024509803921568627 | 0.004786832394176905
profumo | 2 | 0.004901960784313725 | 0.008679931666814817
promiscu | 1 | 0.0024509803921568627 | 0.012129313456809235
prove | 1 | 0.0024509803921568627 | 0.006836459904472539
psychologist | 1 | 0.0024509803921568627 | 0.014821990634917346
publicli | 2 | 0.004901960784313725 | 0.017070700105807555
publish | 2 | 0.004901960784313725 | 0.014491812380823343
pungenc | 1 | 0.0024509803921568627 | 0.014821990634917346
pure | 1 | 0.0024509803921568627 | 0.008731533159946759
queen | 1 | 0.0024509803921568627 | 0.006252119160734798
quiet | 1 | 0.0024509803921568627 | 0.006932589103377641
quit | 1 | 0.0024509803921568627 | 0.005385354356216224
rampant | 1 | 0.0024509803921568627 | 0.012129313456809235
reach | 2 | 0.004901960784313725 | 0.00982510250593984
read | 1 | 0.0024509803921568627 | 0.005333752863084282
real | 1 | 0.0024509803921568627 | 0.005045068952161773
realist | 1 | 0.0024509803921568627 | 0.009725320189623634
recognit | 1 | 0.0024509803921568627 | 0.008731533159946759
regenc | 1 | 0.0024509803921568627 | 0.014821990634917346
regist | 1 | 0.0024509803921568627 | 0.009178399720716254
rel | 1 | 0.0024509803921568627 | 0.006743959100593012
resembl | 1 | 0.0024509803921568627 | 0.009178399720716254
reserv | 1 | 0.0024509803921568627 | 0.005661035688144386
rich | 3 | 0.007352941176470588 | 0.0166410481259413
richardson | 1 | 0.0024509803921568627 | 0.014821990634917346
right | 1 | 0.0024509803921568627 | 0.002891759138702685
roar | 1 | 0.0024509803921568627 | 0.007479509572285016
saxon | 1 | 0.0024509803921568627 | 0.010430423308377998
scandal | 1 | 0.0024509803921568627 | 0.007136955791953746
scott | 1 | 0.0024509803921568627 | 0.010877289869147495
secur | 1 | 0.0024509803921568627 | 0.004239911925269528
seem | 1 | 0.0024509803921568627 | 0.005780619423853778
seen | 1 | 0.0024509803921568627 | 0.00665482271782126
servic | 1 | 0.0024509803921568627 | 0.004590649287133923
settl | 1 | 0.0024509803921568627 | 0.0059063382826467946
sexual | 3 | 0.007352941176470588 | 0.025606050158711334
share | 1 | 0.0024509803921568627 | 0.0050000955730730556
shop | 2 | 0.004901960784313725 | 0.015210456862156068
sidewalk | 1 | 0.0024509803921568627 | 0.009178399720716254
silent | 1 | 0.0024509803921568627 | 0.007737746130269886
sin | 1 | 0.0024509803921568627 | 0.009178399720716254
sir | 2 | 0.004901960784313725 | 0.009181298574267846
sleazi | 1 | 0.0024509803921568627 | 0.014821990634917346
slightli | 1 | 0.0024509803921568627 | 0.008731533159946759
snobbish | 1 | 0.0024509803921568627 | 0.014821990634917346
social | 2 | 0.004901960784313725 | 0.0081025638449698
societi | 4 | 0.00980392156862745 | 0.021132861577800505
sometim | 1 | 0.0024509803921568627 | 0.006836459904472539
sort | 1 | 0.0024509803921568627 | 0.0059063382826467946
sound | 1 | 0.0024509803921568627 | 0.005780619423853778
spare | 1 | 0.0024509803921568627 | 0.007479509572285016
special | 1 | 0.0024509803921568627 | 0.004628649744329917
spectacular | 1 | 0.0024509803921568627 | 0.008731533159946759
sport | 1 | 0.0024509803921568627 | 0.00665482271782126
spot | 1 | 0.0024509803921568627 | 0.006327539892761155
stand | 1 | 0.0024509803921568627 | 0.004516371469743412
state | 1 | 0.0024509803921568627 | -0.00206176539342913
statu | 1 | 0.0024509803921568627 | 0.0064857225426081435
stay | 1 | 0.0024509803921568627 | 0.00455322901230356
stir | 1 | 0.0024509803921568627 | 0.0083537128662525
street | 2 | 0.004901960784313725 | 0.006427322209077366
streetwalk | 2 | 0.004901960784313725 | 0.02624620097297222
stripteas | 1 | 0.0024509803921568627 | 0.01312310048648611
structur | 1 | 0.0024509803921568627 | 0.009178399720716254
style | 2 | 0.004901960784313725 | 0.013487918201186024
subtleti | 1 | 0.0024509803921568627 | 0.014821990634917346
success | 1 | 0.0024509803921568627 | 0.004239911925269528
suggest | 3 | 0.007352941176470588 | 0.0121538457674547
summer | 1 | 0.0024509803921568627 | 0.005385354356216224
sustain | 1 | 0.0024509803921568627 | 0.012129313456809235
swarm | 1 | 0.0024509803921568627 | 0.007877840281838386
synthesi | 1 | 0.0024509803921568627 | 0.014821990634917346
tain | 1 | 0.0024509803921568627 | 0.014821990634917346
take | 1 | 0.0024509803921568627 | 0.005842672874795666
tasteless | 1 | 0.0024509803921568627 | 0.01312310048648611
teacher | 1 | 0.0024509803921568627 | 0.008535350052903777
teen | 1 | 0.0024509803921568627 | 0.010052603014683737
temper | 1 | 0.0024509803921568627 | 0.009725320189623634
terminolog | 1 | 0.0024509803921568627 | 0.014821990634917346
thame | 1 | 0.0024509803921568627 | 0.011424210338054871
there | 1 | 0.0024509803921568627 | 0.008026430041192394
therel | 1 | 0.0024509803921568627 | 0.014821990634917346
thousand | 10 | 0.024509803921568627 | -0.04657613706508062
transpar | 1 | 0.0024509803921568627 | 0.014821990634917346
tri | 1 | 0.0024509803921568627 | 0.0017753975487937983
triangl | 1 | 0.0024509803921568627 | 0.010430423308377998
tuppenc | 1 | 0.0024509803921568627 | 0.014821990634917346
turn | 1 | 0.0024509803921568627 | 0.0020402853466600303
twenti | 10 | 0.024509803921568627 | -0.03907333976016407
twist | 1 | 0.0024509803921568627 | 0.007877840281838386
unten | 1 | 0.0024509803921568627 | 0.01312310048648611
upper | 1 | 0.0024509803921568627 | 0.009178399720716254
vale | 1 | 0.0024509803921568627 | 0.009725320189623634
varieti | 1 | 0.0024509803921568627 | 0.00894479633884291
vehem | 1 | 0.0024509803921568627 | 0.01312310048648611
veneri | 1 | 0.0024509803921568627 | 0.01312310048648611
vice | 2 | 0.004901960784313725 | 0.013672919808945078
victorian | 2 | 0.004901960784313725 | 0.020860846616755996
view | 2 | 0.004901960784313725 | 0.010876131287045013
virtuou | 1 | 0.0024509803921568627 | 0.014821990634917346
visit | 2 | 0.004901960784313725 | 0.007321055330616359
war | 1 | 0.0024509803921568627 | 0.0007855990967134333
ward | 1 | 0.0024509803921568627 | 0.0044442786138456335
wasteland | 2 | 0.004901960784313725 | 0.022848420676109742
wellington | 1 | 0.0024509803921568627 | 0.014821990634917346
whore | 1 | 0.0024509803921568627 | 0.012129313456809235
widespread | 1 | 0.0024509803921568627 | 0.00894479633884291
william | 1 | 0.0024509803921568627 | 0.008535350052903777
wilson | 1 | 0.0024509803921568627 | 0.004207448134215556
win | 1 | 0.0024509803921568627 | 0.003820430905181711
window | 1 | 0.0024509803921568627 | 0.00703264301151552
wors | 1 | 0.0024509803921568627 | 0.007877840281838386
wot | 2 | 0.004901960784313725 | 0.02624620097297222
wrong | 1 | 0.0024509803921568627 | 0.0073599258365756245
york | 1 | 0.0024509803921568627 | 0.007479509572285016
