accus | 1 | 0.002770083102493075 | 0.006332886602085085
act | 1 | 0.002770083102493075 | 0.004905002936371808
activ | 1 | 0.002770083102493075 | 0.007239293558341085
adjourn | 1 | 0.002770083102493075 | 0.011361390664794916
africa | 1 | 0.002770083102493075 | 0.0026586588471299
age | 1 | 0.002770083102493075 | 0.005701906184160674
aggress | 2 | 0.00554016620498615 | 0.01663628665552828
agre | 1 | 0.002770083102493075 | 0.003995019371352318
air | 1 | 0.002770083102493075 | 0.00438078687089112
albanian | 1 | 0.002770083102493075 | 0.014831648195253
ali | 2 | 0.00554016620498615 | 0.019293201227616297
align | 1 | 0.002770083102493075 | 0.011361390664794916
alli | 1 | 0.002770083102493075 | 0.004349128433706569
amazon | 1 | 0.002770083102493075 | 0.01675172348766282
america | 1 | 0.002770083102493075 | 0.007521240079975275
angri | 1 | 0.002770083102493075 | 0.0067491807933574895
anyth | 1 | 0.002770083102493075 | 0.007726525321398326
appeal | 1 | 0.002770083102493075 | 0.0074240342079218945
arm | 2 | 0.00554016620498615 | 0.007934912255983482
aruna | 2 | 0.00554016620498615 | 0.029663296390506
asaf | 2 | 0.00554016620498615 | 0.029663296390506
attack | 1 | 0.002770083102493075 | 0.003913139032733081
attempt | 1 | 0.002770083102493075 | 0.005701906184160674
attent | 1 | 0.002770083102493075 | 0.009071422318023537
avoid | 1 | 0.002770083102493075 | 0.007330124092476794
axe | 1 | 0.002770083102493075 | 0.014831648195253
ball | 1 | 0.002770083102493075 | 0.007621981476570496
bantu | 1 | 0.002770083102493075 | 0.013708476150632046
base | 1 | 0.002770083102493075 | 0.005503958915512074
battl | 1 | 0.002770083102493075 | 0.004983038606639664
beauti | 1 | 0.002770083102493075 | 0.007726525321398326
believ | 1 | 0.002770083102493075 | 0.004613145552278106
bell | 2 | 0.00554016620498615 | 0.02357680171644445
berlin | 1 | 0.002770083102493075 | 0.004683277984367552
beyond | 1 | 0.002770083102493075 | 0.008453296137097747
bitter | 1 | 0.002770083102493075 | 0.006146068649742889
blackmail | 1 | 0.002770083102493075 | 0.010373371429507568
block | 1 | 0.002770083102493075 | 0.007239293558341085
blond | 1 | 0.002770083102493075 | 0.009441315372385095
bologna | 1 | 0.002770083102493075 | 0.014831648195253
boss | 1 | 0.002770083102493075 | 0.0056011647875654534
bother | 1 | 0.002770083102493075 | 0.01066522881360127
bounc | 1 | 0.002770083102493075 | 0.011788400858222225
british | 2 | 0.00554016620498615 | 0.0027606431808922887
bueno | 1 | 0.002770083102493075 | 0.014831648195253
bunch | 1 | 0.002770083102493075 | 0.008595382825151906
buxom | 1 | 0.002770083102493075 | 0.013708476150632046
capit | 1 | 0.002770083102493075 | 0.003967456127991741
carritt | 1 | 0.002770083102493075 | 0.01675172348766282
chairman | 2 | 0.00554016620498615 | 0.014660248184953588
chanc | 1 | 0.002770083102493075 | 0.006903113899049486
chang | 1 | 0.002770083102493075 | 0.005231271733203895
charg | 1 | 0.002770083102493075 | 0.004022859636874482
charm | 1 | 0.002770083102493075 | 0.00874515352119145
chick | 1 | 0.002770083102493075 | 0.01675172348766282
china | 5 | 0.013850415512465374 | 0.010032717450247502
chines | 7 | 0.019390581717451522 | 0.01241385831884519
civil | 1 | 0.002770083102493075 | 0.005146031681495436
clad | 1 | 0.002770083102493075 | 0.010991497610433358
clap | 1 | 0.002770083102493075 | 0.010991497610433358
close | 1 | 0.002770083102493075 | 0.004079393907321038
club | 1 | 0.002770083102493075 | 0.00806614394215271
coexist | 2 | 0.00554016620498615 | 0.01663628665552828
cold | 1 | 0.002770083102493075 | 0.006332886602085085
coloni | 1 | 0.002770083102493075 | 0.0058064500289885055
come | 1 | 0.002770083102493075 | 0.0058064500289885055
commun | 1 | 0.002770083102493075 | 0.004137106059406474
communist | 3 | 0.008310249307479225 | -0.0008401339352191309
complaint | 1 | 0.002770083102493075 | 0.008903487077534798
comrad | 2 | 0.00554016620498615 | 0.014660248184953588
confer | 1 | 0.002770083102493075 | 0.003583883623102253
congress | 5 | 0.013850415512465374 | 0.028509530920803373
cri | 1 | 0.002770083102493075 | 0.005274895990733366
crowd | 1 | 0.002770083102493075 | 0.004349128433706569
cun | 1 | 0.002770083102493075 | 0.013708476150632046
cute | 1 | 0.002770083102493075 | 0.01675172348766282
dedic | 1 | 0.002770083102493075 | 0.008903487077534798
deleg | 5 | 0.013850415512465374 | 0.022226051558946837
demand | 5 | 0.013850415512465374 | 0.017565771273334467
demonstr | 1 | 0.002770083102493075 | 0.004683277984367552
denounc | 1 | 0.002770083102493075 | 0.0074240342079218945
differ | 2 | 0.00554016620498615 | 0.010728522520071837
diminut | 1 | 0.002770083102493075 | 0.014831648195253
dior | 1 | 0.002770083102493075 | 0.01675172348766282
disast | 1 | 0.002770083102493075 | 0.009646600613808148
disput | 1 | 0.002770083102493075 | 0.0074240342079218945
divid | 1 | 0.002770083102493075 | 0.0069834117851249764
dolor | 1 | 0.002770083102493075 | 0.014831648195253
door | 1 | 0.002770083102493075 | 0.00639806803535432
dowdi | 1 | 0.002770083102493075 | 0.01675172348766282
dr | 1 | 0.002770083102493075 | 0.00818927901852621
drown | 1 | 0.002770083102493075 | 0.011788400858222225
duli | 1 | 0.002770083102493075 | 0.012911572902843178
east | 3 | 0.008310249307479225 | 0.007624433219860426
effort | 1 | 0.002770083102493075 | 0.005552135488121129
end | 1 | 0.002770083102493075 | 0.002145076511031942
engag | 1 | 0.002770083102493075 | 0.008903487077534798
enslav | 1 | 0.002770083102493075 | 0.01675172348766282
escap | 1 | 0.002770083102493075 | 0.006825078228781629
exasper | 1 | 0.002770083102493075 | 0.01229344672191739
excit | 1 | 0.002770083102493075 | 0.009646600613808148
explain | 2 | 0.00554016620498615 | 0.011403812368321348
famili | 1 | 0.002770083102493075 | 0.004349128433706569
fashion | 1 | 0.002770083102493075 | 0.008453296137097747
feel | 1 | 0.002770083102493075 | 0.005552135488121129
feet | 2 | 0.00554016620498615 | 0.01567033991234392
femal | 1 | 0.002770083102493075 | 0.010991497610433358
feminin | 1 | 0.002770083102493075 | 0.013708476150632046
fieri | 1 | 0.002770083102493075 | 0.010373371429507568
fifti | 2 | 0.00554016620498615 | 0.0010495236817884691
fight | 2 | 0.00554016620498615 | 0.007026308509333787
finest | 1 | 0.002770083102493075 | 0.014831648195253
finger | 1 | 0.002770083102493075 | 0.00831814332776414
firebrand | 1 | 0.002770083102493075 | 0.013708476150632046
flight | 1 | 0.002770083102493075 | 0.007330124092476794
floor | 1 | 0.002770083102493075 | 0.007066106973905257
flower | 1 | 0.002770083102493075 | 0.009646600613808148
forc | 1 | 0.002770083102493075 | 0.0006626861192959392
foremost | 1 | 0.002770083102493075 | 0.014831648195253
form | 1 | 0.002770083102493075 | 0.005231271733203895
formosa | 1 | 0.002770083102493075 | 0.009868325565812403
fought | 1 | 0.002770083102493075 | 0.00806614394215271
franc | 1 | 0.002770083102493075 | 0.0014128474017388955
frantic | 1 | 0.002770083102493075 | 0.010991497610433358
front | 1 | 0.002770083102493075 | 0.005651077545190601
fuki | 1 | 0.002770083102493075 | 0.01675172348766282
galeri | 1 | 0.002770083102493075 | 0.01675172348766282
gather | 2 | 0.00554016620498615 | 0.01613228788430542
gentl | 1 | 0.002770083102493075 | 0.011361390664794916
germani | 1 | 0.002770083102493075 | 0.0023210139230051443
grandmoth | 1 | 0.002770083102493075 | 0.012911572902843178
grew | 1 | 0.002770083102493075 | 0.009071422318023537
group | 1 | 0.002770083102493075 | 0.0044452103117893675
guinea | 1 | 0.002770083102493075 | 0.007330124092476794
gush | 1 | 0.002770083102493075 | 0.014831648195253
hall | 2 | 0.00554016620498615 | 0.014660248184953588
hammer | 1 | 0.002770083102493075 | 0.010109354310936031
hand | 1 | 0.002770083102493075 | 0.0023977524342221404
handkerchief | 1 | 0.002770083102493075 | 0.011788400858222225
happili | 1 | 0.002770083102493075 | 0.00874515352119145
hard | 1 | 0.002770083102493075 | 0.0044452103117893675
hatpin | 1 | 0.002770083102493075 | 0.01675172348766282
hausfrau | 1 | 0.002770083102493075 | 0.01675172348766282
head | 1 | 0.002770083102493075 | 0.002816992403473248
heat | 1 | 0.002770083102493075 | 0.009441315372385095
himalayan | 1 | 0.002770083102493075 | 0.01066522881360127
histori | 1 | 0.002770083102493075 | 0.00608649467406155
hold | 1 | 0.002770083102493075 | 0.004578734139539721
hope | 1 | 0.002770083102493075 | 0.0028903763797806614
hors | 1 | 0.002770083102493075 | 0.008595382825151906
human | 1 | 0.002770083102493075 | 0.006825078228781629
hundr | 1 | 0.002770083102493075 | -0.002867524626894798
ibarruri | 1 | 0.002770083102493075 | 0.014831648195253
ideolog | 1 | 0.002770083102493075 | 0.007948250273402582
imperi | 2 | 0.00554016620498615 | 0.01850039876977323
imperialist | 1 | 0.002770083102493075 | 0.00831814332776414
india | 3 | 0.008310249307479225 | 0.012238181721963117
insist | 1 | 0.002770083102493075 | 0.004477992742944499
interpret | 1 | 0.002770083102493075 | 0.010991497610433358
iron | 1 | 0.002770083102493075 | 0.005971057841927013
itali | 1 | 0.002770083102493075 | 0.004943745988933415
italian | 2 | 0.00554016620498615 | 0.012413904095711682
jangl | 1 | 0.002770083102493075 | 0.014831648195253
japan | 2 | 0.00554016620498615 | 0.013806227798098971
jaw | 1 | 0.002770083102493075 | 0.013708476150632046
jeann | 1 | 0.002770083102493075 | 0.01675172348766282
jeannett | 2 | 0.00554016620498615 | 0.029663296390506
joan | 1 | 0.002770083102493075 | 0.014831648195253
john | 1 | 0.002770083102493075 | 0.0058064500289885055
jump | 1 | 0.002770083102493075 | 0.00874515352119145
june | 1 | 0.002770083102493075 | 0.00037832558173338146
kennedi | 1 | 0.002770083102493075 | 0.004166419381651729
khrushchev | 1 | 0.002770083102493075 | 0.001687791883997459
kimono | 1 | 0.002770083102493075 | 0.013708476150632046
kind | 1 | 0.002770083102493075 | 0.006146068649742889
kremlin | 3 | 0.008310249307479225 | 0.017261054837901576
kushida | 1 | 0.002770083102493075 | 0.01675172348766282
la | 2 | 0.00554016620498615 | 0.016906592274195494
lacklust | 1 | 0.002770083102493075 | 0.013708476150632046
ladi | 3 | 0.008310249307479225 | 0.02456783705557863
lafayett | 1 | 0.002770083102493075 | 0.01675172348766282
land | 1 | 0.002770083102493075 | 0.0035365306221069623
lash | 1 | 0.002770083102493075 | 0.011361390664794916
latin | 1 | 0.002770083102493075 | 0.009250199384886615
leg | 1 | 0.002770083102493075 | 0.009250199384886615
line | 3 | 0.008310249307479225 | 0.012588138663930933
live | 1 | 0.002770083102493075 | 0.0027279145319094493
look | 2 | 0.00554016620498615 | 0.01020875102302112
lott | 2 | 0.00554016620498615 | 0.029663296390506
love | 1 | 0.002770083102493075 | 0.005860239740504023
madam | 2 | 0.00554016620498615 | 0.02133045762720254
madrid | 1 | 0.002770083102493075 | 0.009868325565812403
maintain | 1 | 0.002770083102493075 | 0.006332886602085085
major | 1 | 0.002770083102493075 | 0.0033768931904265284
male | 3 | 0.008310249307479225 | 0.028939801841424445
manifest | 2 | 0.00554016620498615 | 0.02741695230126409
mao | 1 | 0.002770083102493075 | 0.005063336492715156
mark | 1 | 0.002770083102493075 | 0.007726525321398326
marri | 1 | 0.002770083102493075 | 0.006903113899049486
martin | 1 | 0.002770083102493075 | 0.013708476150632046
mauric | 1 | 0.002770083102493075 | 0.010991497610433358
meet | 1 | 0.002770083102493075 | 0.003043247337030775
melbourn | 1 | 0.002770083102493075 | 0.01675172348766282
microphon | 1 | 0.002770083102493075 | 0.011788400858222225
middl | 1 | 0.002770083102493075 | 0.004412811309675264
mingl | 1 | 0.002770083102493075 | 0.01229344672191739
minut | 1 | 0.002770083102493075 | 0.0056011647875654534
modern | 1 | 0.002770083102493075 | 0.005971057841927013
mood | 1 | 0.002770083102493075 | 0.009071422318023537
moral | 1 | 0.002770083102493075 | 0.006675307532742084
motherli | 1 | 0.002770083102493075 | 0.01675172348766282
mount | 1 | 0.002770083102493075 | 0.006825078228781629
move | 1 | 0.002770083102493075 | 0.0033329226941487163
movement | 1 | 0.002770083102493075 | 0.006903113899049486
nam | 1 | 0.002770083102493075 | 0.01229344672191739
nation | 1 | 0.002770083102493075 | -0.0010456976311886699
nato | 1 | 0.002770083102493075 | 0.0036078671764072793
newsmen | 1 | 0.002770083102493075 | 0.00831814332776414
next | 1 | 0.002770083102493075 | 0.0030828206258049482
nikita | 1 | 0.002770083102493075 | 0.00438078687089112
non | 1 | 0.002770083102493075 | 0.00818927901852621
nuclear | 2 | 0.00554016620498615 | 0.006888371935252197
offici | 1 | 0.002770083102493075 | 0.001675774151037353
okinawa | 1 | 0.002770083102493075 | 0.01675172348766282
old | 1 | 0.002770083102493075 | 0.0012849747098741798
oppress | 2 | 0.00554016620498615 | 0.022722781329589832
oppressor | 2 | 0.00554016620498615 | 0.029663296390506
order | 1 | 0.002770083102493075 | 0.0027989461956583065
organ | 2 | 0.00554016620498615 | 0.008955985485888999
outsid | 1 | 0.002770083102493075 | 0.014831648195253
outwardli | 1 | 0.002770083102493075 | 0.012911572902843178
overhear | 1 | 0.002770083102493075 | 0.01675172348766282
panafrican | 1 | 0.002770083102493075 | 0.01675172348766282
parti | 1 | 0.002770083102493075 | -0.00030361996271267963
pasionaria | 2 | 0.00554016620498615 | 0.025823145805686357
pass | 2 | 0.00554016620498615 | 0.010913211829033565
pay | 1 | 0.002770083102493075 | 0.005651077545190601
peac | 5 | 0.013850415512465374 | 0.019837280639958706
peacemak | 1 | 0.002770083102493075 | 0.011361390664794916
peopl | 2 | 0.00554016620498615 | 0.0022267328609586723
period | 1 | 0.002770083102493075 | 0.00874515352119145
physic | 1 | 0.002770083102493075 | 0.009441315372385095
platform | 2 | 0.00554016620498615 | 0.01888263074477019
podium | 1 | 0.002770083102493075 | 0.01675172348766282
point | 1 | 0.002770083102493075 | 0.0069834117851249764
polem | 1 | 0.002770083102493075 | 0.01675172348766282
policemen | 1 | 0.002770083102493075 | 0.010991497610433358
polici | 1 | 0.002770083102493075 | 0.0036078671764072793
predict | 1 | 0.002770083102493075 | 0.007330124092476794
presid | 2 | 0.00554016620498615 | 0.0024260409078189376
press | 1 | 0.002770083102493075 | 0.0037059334563267145
price | 1 | 0.002770083102493075 | 0.005753684945967191
print | 1 | 0.002770083102493075 | 0.009250199384886615
pro | 1 | 0.002770083102493075 | 0.00510437551151056
problem | 1 | 0.002770083102493075 | 0.004050982549517191
promis | 1 | 0.002770083102493075 | 0.0038598665620187106
provinci | 1 | 0.002770083102493075 | 0.01229344672191739
quarrel | 1 | 0.002770083102493075 | 0.0074240342079218945
quit | 1 | 0.002770083102493075 | 0.00608649467406155
race | 1 | 0.002770083102493075 | 0.00626920372611639
reason | 1 | 0.002770083102493075 | 0.004791922619141184
rebutt | 1 | 0.002770083102493075 | 0.013708476150632046
red | 6 | 0.01662049861495845 | 0.0008050241069184767
remain | 1 | 0.002770083102493075 | 0.0037562999911831974
repli | 1 | 0.002770083102493075 | 0.005552135488121129
report | 1 | 0.002770083102493075 | 0.004613145552278106
return | 1 | 0.002770083102493075 | 0.003681089495155633
revolutionari | 1 | 0.002770083102493075 | 0.005971057841927013
rhythmic | 1 | 0.002770083102493075 | 0.014831648195253
riot | 1 | 0.002770083102493075 | 0.006903113899049486
risk | 1 | 0.002770083102493075 | 0.008453296137097747
robe | 1 | 0.002770083102493075 | 0.009868325565812403
role | 1 | 0.002770083102493075 | 0.00818927901852621
roman | 1 | 0.002770083102493075 | 0.007521240079975275
rome | 1 | 0.002770083102493075 | 0.006533220844687927
rule | 1 | 0.002770083102493075 | 0.00373100225278078
rupe | 1 | 0.002770083102493075 | 0.014831648195253
russia | 1 | 0.002770083102493075 | 0.0027989461956583065
russian | 3 | 0.008310249307479225 | 0.007430032558574784
saboteur | 1 | 0.002770083102493075 | 0.013708476150632046
sat | 1 | 0.002770083102493075 | 0.01675172348766282
seat | 2 | 0.00554016620498615 | 0.009810005872743615
secret | 1 | 0.002770083102493075 | 0.005231271733203895
session | 2 | 0.00554016620498615 | 0.01266577320417017
settl | 1 | 0.002770083102493075 | 0.006675307532742084
seventh | 1 | 0.002770083102493075 | -0.0004743156250566515
shout | 2 | 0.00554016620498615 | 0.012292137299485778
show | 1 | 0.002770083102493075 | 0.005753684945967191
sight | 1 | 0.002770083102493075 | 0.007521240079975275
silk | 1 | 0.002770083102493075 | 0.011788400858222225
simpler | 1 | 0.002770083102493075 | 0.014831648195253
sino | 1 | 0.002770083102493075 | 0.007239293558341085
sinosoviet | 1 | 0.002770083102493075 | 0.01675172348766282
sixti | 1 | 0.002770083102493075 | 0.0010171733241806388
skirt | 1 | 0.002770083102493075 | 0.01229344672191739
slim | 1 | 0.002770083102493075 | 0.011788400858222225
slit | 1 | 0.002770083102493075 | 0.013708476150632046
solidar | 1 | 0.002770083102493075 | 0.010991497610433358
someon | 1 | 0.002770083102493075 | 0.010373371429507568
somewhat | 1 | 0.002770083102493075 | 0.00874515352119145
south | 1 | 0.002770083102493075 | 0.001123172044620954
soviet | 4 | 0.0110803324099723 | 0.0043366245786861535
spanish | 1 | 0.002770083102493075 | 0.00783516995617196
speak | 1 | 0.002770083102493075 | 0.006675307532742084
split | 1 | 0.002770083102493075 | 0.006464820255794931
stalk | 1 | 0.002770083102493075 | 0.012911572902843178
stand | 1 | 0.002770083102493075 | 0.00510437551151056
standard | 1 | 0.002770083102493075 | 0.007066106973905257
state | 3 | 0.008310249307479225 | -0.006990584048635056
step | 1 | 0.002770083102493075 | 0.005503958915512074
strategi | 1 | 0.002770083102493075 | 0.009646600613808148
street | 1 | 0.002770083102493075 | 0.003632060195711309
strike | 1 | 0.002770083102493075 | 0.004755232240332263
stripe | 1 | 0.002770083102493075 | 0.013708476150632046
strong | 1 | 0.002770083102493075 | 0.006332886602085085
struggl | 2 | 0.00554016620498615 | 0.012929640511589862
stubbornli | 1 | 0.002770083102493075 | 0.010109354310936031
stuck | 1 | 0.002770083102493075 | 0.011361390664794916
sudden | 1 | 0.002770083102493075 | 0.009250199384886615
talk | 1 | 0.002770083102493075 | 0.003062963314229844
thorez | 1 | 0.002770083102493075 | 0.014831648195253
thousand | 6 | 0.01662049861495845 | -0.031584039760475725
touslehair | 1 | 0.002770083102493075 | 0.01675172348766282
translat | 1 | 0.002770083102493075 | 0.009441315372385095
trim | 1 | 0.002770083102493075 | 0.011788400858222225
tse | 1 | 0.002770083102493075 | 0.00831814332776414
tung | 1 | 0.002770083102493075 | 0.0074240342079218945
twenti | 1 | 0.002770083102493075 | -0.004416045047686133
ulbricht | 2 | 0.00554016620498615 | 0.019736651131624806
uncomfort | 1 | 0.002770083102493075 | 0.01675172348766282
union | 1 | 0.002770083102493075 | 0.0031843002191007386
unit | 3 | 0.008310249307479225 | -0.007058078830275076
unmistak | 1 | 0.002770083102493075 | 0.014831648195253
unnot | 1 | 0.002770083102493075 | 0.01229344672191739
uproar | 1 | 0.002770083102493075 | 0.010991497610433358
use | 1 | 0.002770083102493075 | 0.0067491807933574895
usual | 1 | 0.002770083102493075 | 0.005503958915512074
vainli | 1 | 0.002770083102493075 | 0.013708476150632046
vermeersch | 2 | 0.00554016620498615 | 0.029663296390506
veteran | 1 | 0.002770083102493075 | 0.00818927901852621
viet | 1 | 0.002770083102493075 | 0.0037562999911831974
vote | 2 | 0.00554016620498615 | 0.007826278065466163
wall | 2 | 0.00554016620498615 | 0.01020875102302112
war | 4 | 0.0110803324099723 | 0.0035515172460839975
warmth | 1 | 0.002770083102493075 | 0.013708476150632046
wave | 1 | 0.002770083102493075 | 0.0058064500289885055
west | 1 | 0.002770083102493075 | 0.0006793734173662465
western | 1 | 0.002770083102493075 | 0.0026246696709752893
wholeheartedli | 1 | 0.002770083102493075 | 0.014831648195253
widen | 1 | 0.002770083102493075 | 0.011361390664794916
wife | 1 | 0.002770083102493075 | 0.00438078687089112
withdraw | 1 | 0.002770083102493075 | 0.00783516995617196
womanhood | 1 | 0.002770083102493075 | 0.014831648195253
women | 7 | 0.019390581717451522 | 0.034335020554602656
work | 1 | 0.002770083102493075 | 0.0017734083312635988
world | 2 | 0.00554016620498615 | 0.0019779098322560526
wrap | 1 | 0.002770083102493075 | 0.011361390664794916
yang | 3 | 0.008310249307479225 | 0.04112542845189614
young | 1 | 0.002770083102493075 | 0.0037059334563267145
yu | 1 | 0.002770083102493075 | 0.01675172348766282
yun | 1 | 0.002770083102493075 | 0.011788400858222225
