abolit | 1 | 0.0036496350364963502 | 0.019540967147760338
accid | 1 | 0.0036496350364963502 | 0.014051633582883425
achiev | 2 | 0.0072992700729927005 | 0.015024730894029222
address | 1 | 0.0036496350364963502 | 0.0106272918361939
adopt | 2 | 0.0072992700729927005 | 0.024878210579788465
affair | 1 | 0.0036496350364963502 | 0.007379636818653754
affect | 1 | 0.0036496350364963502 | 0.013319258781926668
agre | 1 | 0.0036496350364963502 | 0.005263510923570024
airspac | 1 | 0.0036496350364963502 | 0.019540967147760338
american | 1 | 0.0036496350364963502 | 0.005050850674942375
arm | 1 | 0.0036496350364963502 | 0.005227195847463571
associ | 1 | 0.0036496350364963502 | 0.009094978531229432
athen | 5 | 0.01824817518248175 | 0.06833553076737649
banner | 1 | 0.0036496350364963502 | 0.011521899347263187
bar | 1 | 0.0036496350364963502 | 0.009200772461423782
basi | 1 | 0.0036496350364963502 | 0.011730506697044021
begin | 1 | 0.0036496350364963502 | 0.008429571389645655
belief | 1 | 0.0036496350364963502 | 0.01496883952551447
biblic | 1 | 0.0036496350364963502 | 0.01496883952551447
bless | 1 | 0.0036496350364963502 | 0.013319258781926668
bodi | 1 | 0.0036496350364963502 | 0.008992165111642948
bow | 1 | 0.0036496350364963502 | 0.011730506697044021
carri | 1 | 0.0036496350364963502 | 0.005813959426250986
case | 3 | 0.010948905109489052 | 0.015361108904068306
caution | 1 | 0.0036496350364963502 | 0.0170112329121401
center | 1 | 0.0036496350364963502 | 0.007512365447014611
ceremoni | 1 | 0.0036496350364963502 | 0.01004209968263485
charl | 1 | 0.0036496350364963502 | 0.005688816822314372
chief | 2 | 0.0072992700729927005 | 0.008782372938596253
cite | 1 | 0.0036496350364963502 | 0.014051633582883425
citi | 1 | 0.0036496350364963502 | 0.004537777862456282
civil | 2 | 0.0072992700729927005 | 0.01355998129211571
claim | 1 | 0.0036496350364963502 | 0.006032565782386275
clearinghous | 1 | 0.0036496350364963502 | 0.022070701383380575
codifi | 2 | 0.0072992700729927005 | 0.039081934295520676
columbu | 1 | 0.0036496350364963502 | 0.022070701383380575
committe | 1 | 0.0036496350364963502 | 0.007650103870309673
communist | 1 | 0.0036496350364963502 | -0.0003689639301874772
concern | 1 | 0.0036496350364963502 | 0.008177772588598389
conclus | 1 | 0.0036496350364963502 | 0.014481498676519862
confer | 6 | 0.021897810218978103 | 0.02833099243664044
consid | 1 | 0.0036496350364963502 | 0.007793245159190262
constant | 1 | 0.0036496350364963502 | 0.013667106153475298
control | 1 | 0.0036496350364963502 | 0.003808123624455543
conven | 1 | 0.0036496350364963502 | 0.018061167483132003
costa | 1 | 0.0036496350364963502 | 0.018061167483132003
council | 1 | 0.0036496350364963502 | 0.007379636818653754
countri | 2 | 0.0072992700729927005 | 0.0020826335493875996
court | 4 | 0.014598540145985401 | 0.027799086900069273
creat | 1 | 0.0036496350364963502 | 0.00744539778764163
cross | 1 | 0.0036496350364963502 | 0.00809755760057366
culmin | 1 | 0.0036496350364963502 | 0.019540967147760338
cure | 1 | 0.0036496350364963502 | 0.01619684038909554
day | 1 | 0.0036496350364963502 | 0.004141303990183307
deepli | 1 | 0.0036496350364963502 | 0.011521899347263187
deleg | 2 | 0.0072992700729927005 | 0.011713291405517967
deliber | 1 | 0.0036496350364963502 | 0.01078952454630643
demand | 1 | 0.0036496350364963502 | 0.004628644839177914
desir | 1 | 0.0036496350364963502 | 0.012439105289894233
destruct | 1 | 0.0036496350364963502 | 0.015531433247511762
develop | 1 | 0.0036496350364963502 | 0.007512365447014611
difficulti | 1 | 0.0036496350364963502 | 0.013319258781926668
directli | 1 | 0.0036496350364963502 | 0.011730506697044021
disput | 2 | 0.0072992700729927005 | 0.019562601088027765
divers | 1 | 0.0036496350364963502 | 0.018061167483132003
domain | 1 | 0.0036496350364963502 | 0.01619684038909554
dramat | 1 | 0.0036496350364963502 | 0.012439105289894233
drew | 1 | 0.0036496350364963502 | 0.012439105289894233
earl | 1 | 0.0036496350364963502 | 0.018061167483132003
editor | 1 | 0.0036496350364963502 | 0.012187306488846963
effici | 1 | 0.0036496350364963502 | 0.011324573722189188
effort | 2 | 0.0072992700729927005 | 0.014630079643881223
empow | 1 | 0.0036496350364963502 | 0.01619684038909554
end | 2 | 0.0072992700729927005 | 0.005652354894033073
enlarg | 1 | 0.0036496350364963502 | 0.0170112329121401
establish | 1 | 0.0036496350364963502 | 0.008177772588598389
except | 1 | 0.0036496350364963502 | 0.008343693661871224
exert | 1 | 0.0036496350364963502 | 0.019540967147760338
exist | 3 | 0.010948905109489052 | 0.029728113162821982
explor | 1 | 0.0036496350364963502 | 0.013319258781926668
factor | 1 | 0.0036496350364963502 | 0.014481498676519862
fate | 1 | 0.0036496350364963502 | 0.011324573722189188
final | 1 | 0.0036496350364963502 | 0.008607637682234824
financ | 1 | 0.0036496350364963502 | 0.009200772461423782
flag | 1 | 0.0036496350364963502 | 0.007942230540651046
follow | 1 | 0.0036496350364963502 | 0.0062651052509487114
forc | 3 | 0.010948905109489052 | 0.0026193031649543877
foreign | 2 | 0.0072992700729927005 | 0.005358877372295552
forg | 1 | 0.0036496350364963502 | 0.0170112329121401
formal | 1 | 0.0036496350364963502 | 0.009422030205279385
framework | 2 | 0.0072992700729927005 | 0.02993767905102894
frontier | 1 | 0.0036496350364963502 | 0.009422030205279385
gener | 1 | 0.0036496350364963502 | 0.0013651420141415525
gift | 1 | 0.0036496350364963502 | 0.010959305625265894
global | 1 | 0.0036496350364963502 | 0.019540967147760338
govern | 1 | 0.0036496350364963502 | -0.0017752432806097287
grant | 1 | 0.0036496350364963502 | 0.009909371054273993
great | 2 | 0.0072992700729927005 | 0.00807102011997791
greec | 1 | 0.0036496350364963502 | 0.009422030205279385
hall | 1 | 0.0036496350364963502 | 0.009657572253226724
hard | 1 | 0.0036496350364963502 | 0.0058566457027589836
hear | 1 | 0.0036496350364963502 | 0.008992165111642948
heaven | 1 | 0.0036496350364963502 | 0.01619684038909554
henceforth | 1 | 0.0036496350364963502 | 0.018061167483132003
henri | 1 | 0.0036496350364963502 | 0.01017983810592991
herebi | 1 | 0.0036496350364963502 | 0.022070701383380575
hilton | 1 | 0.0036496350364963502 | 0.019540967147760338
hoist | 1 | 0.0036496350364963502 | 0.018061167483132003
holocaust | 1 | 0.0036496350364963502 | 0.019540967147760338
hope | 1 | 0.0036496350364963502 | 0.003808123624455543
human | 1 | 0.0036496350364963502 | 0.008992165111642948
hundr | 1 | 0.0036496350364963502 | -0.0037780160230256278
hurt | 1 | 0.0036496350364963502 | 0.015531433247511762
ideal | 1 | 0.0036496350364963502 | 0.011324573722189188
ignor | 1 | 0.0036496350364963502 | 0.009422030205279385
ill | 1 | 0.0036496350364963502 | 0.010471964776271285
immens | 1 | 0.0036496350364963502 | 0.0170112329121401
improv | 3 | 0.010948905109489052 | 0.0318818755085817
inc | 1 | 0.0036496350364963502 | 0.022070701383380575
includ | 1 | 0.0036496350364963502 | 0.008343693661871224
indign | 1 | 0.0036496350364963502 | 0.01619684038909554
individu | 1 | 0.0036496350364963502 | 0.01270957234155015
injuri | 1 | 0.0036496350364963502 | 0.019540967147760338
intern | 4 | 0.014598540145985401 | 0.028270048392306082
invest | 2 | 0.0072992700729927005 | 0.02094392955254257
invit | 1 | 0.0036496350364963502 | 0.009309724881678094
involv | 1 | 0.0036496350364963502 | 0.009657572253226724
issu | 1 | 0.0036496350364963502 | 0.007127838017606487
itali | 1 | 0.0036496350364963502 | 0.006513475554762637
japan | 1 | 0.0036496350364963502 | 0.009094978531229432
jurisdict | 1 | 0.0036496350364963502 | 0.018061167483132003
jurist | 4 | 0.014598540145985401 | 0.05987535810205788
justic | 5 | 0.01824817518248175 | 0.04129895155343096
keep | 1 | 0.0036496350364963502 | 0.009909371054273993
kept | 1 | 0.0036496350364963502 | 0.007793245159190262
keynot | 1 | 0.0036496350364963502 | 0.022070701383380575
king | 1 | 0.0036496350364963502 | 0.004567816180472762
labor | 1 | 0.0036496350364963502 | 0.0037353710153284728
land | 1 | 0.0036496350364963502 | 0.004659443629856253
latter | 1 | 0.0036496350364963502 | 0.01619684038909554
launch | 1 | 0.0036496350364963502 | 0.00879483948656895
law | 15 | 0.05474452554744526 | 0.08351735047430132
lawmak | 1 | 0.0036496350364963502 | 0.019540967147760338
lawman | 1 | 0.0036496350364963502 | 0.022070701383380575
lawyer | 1 | 0.0036496350364963502 | 0.012439105289894233
lead | 1 | 0.0036496350364963502 | 0.006362434619861709
legal | 3 | 0.010948905109489052 | 0.030968938184431506
liabil | 1 | 0.0036496350364963502 | 0.018061167483132003
lie | 1 | 0.0036496350364963502 | 0.008517518658182371
listen | 1 | 0.0036496350364963502 | 0.009909371054273993
live | 1 | 0.0036496350364963502 | 0.0035940771752529604
luce | 2 | 0.0072992700729927005 | 0.0340224658242802
machineri | 1 | 0.0036496350364963502 | 0.01270957234155015
main | 1 | 0.0036496350364963502 | 0.008517518658182371
mainli | 1 | 0.0036496350364963502 | 0.01496883952551447
major | 1 | 0.0036496350364963502 | 0.004449118400525462
mankind | 2 | 0.0072992700729927005 | 0.0340224658242802
marbl | 1 | 0.0036496350364963502 | 0.014051633582883425
measur | 1 | 0.0036496350364963502 | 0.008607637682234824
meet | 2 | 0.0072992700729927005 | 0.00801906780049715
mere | 1 | 0.0036496350364963502 | 0.007793245159190262
minist | 1 | 0.0036496350364963502 | 0.0003530278337903325
modestli | 1 | 0.0036496350364963502 | 0.018061167483132003
moon | 1 | 0.0036496350364963502 | 0.012439105289894233
motion | 1 | 0.0036496350364963502 | 0.013667106153475298
movement | 1 | 0.0036496350364963502 | 0.009094978531229432
muscl | 1 | 0.0036496350364963502 | 0.014481498676519862
nation | 9 | 0.032846715328467155 | -0.01239953140048171
neither | 1 | 0.0036496350364963502 | 0.009909371054273993
new | 1 | 0.0036496350364963502 | -0.0009714447709153919
newest | 1 | 0.0036496350364963502 | 0.019540967147760338
nigeria | 1 | 0.0036496350364963502 | 0.009781300544013882
none | 1 | 0.0036496350364963502 | 0.00953790136701143
nuclear | 1 | 0.0036496350364963502 | 0.004537777862456282
object | 1 | 0.0036496350364963502 | 0.008343693661871224
open | 1 | 0.0036496350364963502 | 0.004849902583033516
opinion | 1 | 0.0036496350364963502 | 0.0106272918361939
organ | 1 | 0.0036496350364963502 | 0.005899837154025417
outer | 2 | 0.0072992700729927005 | 0.026638517563853336
overwhelmingli | 1 | 0.0036496350364963502 | 0.014481498676519862
panacea | 1 | 0.0036496350364963502 | 0.022070701383380575
partial | 1 | 0.0036496350364963502 | 0.01619684038909554
passag | 1 | 0.0036496350364963502 | 0.01496883952551447
passion | 1 | 0.0036496350364963502 | 0.011521899347263187
patent | 1 | 0.0036496350364963502 | 0.022070701383380575
patient | 1 | 0.0036496350364963502 | 0.012187306488846963
peac | 11 | 0.040145985401459854 | 0.05749915432209928
peacemak | 1 | 0.0036496350364963502 | 0.01496883952551447
peopl | 1 | 0.0036496350364963502 | 0.001466880589062191
perman | 1 | 0.0036496350364963502 | 0.011137371917855061
permit | 1 | 0.0036496350364963502 | 0.008429571389645655
person | 1 | 0.0036496350364963502 | 0.005567823364953421
plainli | 1 | 0.0036496350364963502 | 0.01078952454630643
plan | 1 | 0.0036496350364963502 | 0.0036405699700610985
planet | 1 | 0.0036496350364963502 | 0.022070701383380575
point | 1 | 0.0036496350364963502 | 0.009200772461423782
polic | 2 | 0.0072992700729927005 | 0.006277272797120606
polit | 2 | 0.0072992700729927005 | 0.002985529267974687
politician | 1 | 0.0036496350364963502 | 0.0062173969240605625
possibl | 1 | 0.0036496350364963502 | 0.005412496305030809
preparatori | 1 | 0.0036496350364963502 | 0.022070701383380575
presid | 2 | 0.0072992700729927005 | 0.0031963531668709358
prime | 1 | 0.0036496350364963502 | 0.003958129740096243
principl | 1 | 0.0036496350364963502 | 0.011951764440899623
proclaim | 1 | 0.0036496350364963502 | 0.011521899347263187
proclam | 3 | 0.010948905109489052 | 0.042154900748650276
program | 1 | 0.0036496350364963502 | 0.007127838017606487
progress | 1 | 0.0036496350364963502 | 0.008429571389645655
protect | 1 | 0.0036496350364963502 | 0.008177772588598389
provok | 1 | 0.0036496350364963502 | 0.013319258781926668
queen | 1 | 0.0036496350364963502 | 0.009309724881678094
question | 1 | 0.0036496350364963502 | 0.009781300544013882
rather | 1 | 0.0036496350364963502 | 0.00879483948656895
recal | 1 | 0.0036496350364963502 | 0.00879483948656895
recommend | 2 | 0.0072992700729927005 | 0.03239368077819108
region | 1 | 0.0036496350364963502 | 0.007650103870309673
render | 1 | 0.0036496350364963502 | 0.0170112329121401
replac | 1 | 0.0036496350364963502 | 0.008700038441301575
repli | 1 | 0.0036496350364963502 | 0.007315039821940612
research | 1 | 0.0036496350364963502 | 0.012187306488846963
reserv | 1 | 0.0036496350364963502 | 0.008429571389645655
rhyne | 4 | 0.014598540145985401 | 0.0680449316485604
rica | 1 | 0.0036496350364963502 | 0.022070701383380575
right | 1 | 0.0036496350364963502 | 0.004305977111644875
rout | 1 | 0.0036496350364963502 | 0.009657572253226724
rule | 5 | 0.01824817518248175 | 0.024578317760106962
salvat | 1 | 0.0036496350364963502 | 0.01619684038909554
secur | 1 | 0.0036496350364963502 | 0.006313445494561924
sent | 1 | 0.0036496350364963502 | 0.006412090284298857
seri | 1 | 0.0036496350364963502 | 0.009657572253226724
serv | 1 | 0.0036496350364963502 | 0.007251566308393645
session | 1 | 0.0036496350364963502 | 0.008343693661871224
settl | 2 | 0.0072992700729927005 | 0.0175896789731379
share | 1 | 0.0036496350364963502 | 0.00744539778764163
similar | 1 | 0.0036496350364963502 | 0.011951764440899623
solon | 2 | 0.0072992700729927005 | 0.039081934295520676
someon | 1 | 0.0036496350364963502 | 0.013667106153475298
sovereignti | 3 | 0.010948905109489052 | 0.04490651857654342
space | 5 | 0.01824817518248175 | 0.04496082555821474
spaceship | 1 | 0.0036496350364963502 | 0.022070701383380575
special | 1 | 0.0036496350364963502 | 0.006892295969659146
standard | 1 | 0.0036496350364963502 | 0.009309724881678094
state | 5 | 0.01824817518248175 | -0.015350370082465054
statut | 1 | 0.0036496350364963502 | 0.0170112329121401
studi | 1 | 0.0036496350364963502 | 0.00953790136701143
substanc | 1 | 0.0036496350364963502 | 0.018061167483132003
suffici | 1 | 0.0036496350364963502 | 0.012187306488846963
suggest | 4 | 0.014598540145985401 | 0.0241302631295451
survey | 1 | 0.0036496350364963502 | 0.014481498676519862
sylvanu | 1 | 0.0036496350364963502 | 0.0170112329121401
system | 1 | 0.0036496350364963502 | 0.007650103870309673
task | 1 | 0.0036496350364963502 | 0.010322979394810501
theme | 1 | 0.0036496350364963502 | 0.01496883952551447
thousand | 3 | 0.010948905109489052 | -0.020806274367758643
titl | 1 | 0.0036496350364963502 | 0.013001699011891524
top | 1 | 0.0036496350364963502 | 0.004915663552021393
topic | 1 | 0.0036496350364963502 | 0.01496883952551447
touchi | 1 | 0.0036496350364963502 | 0.019540967147760338
trade | 2 | 0.0072992700729927005 | 0.011135646729906842
transcend | 1 | 0.0036496350364963502 | 0.022070701383380575
true | 1 | 0.0036496350364963502 | 0.00953790136701143
twenti | 2 | 0.0072992700729927005 | -0.011636439870180247
undeserv | 1 | 0.0036496350364963502 | 0.022070701383380575
unit | 6 | 0.021897810218978103 | -0.018598295311892717
urg | 2 | 0.0072992700729927005 | 0.015441945593590892
verdict | 1 | 0.0036496350364963502 | 0.013667106153475298
veto | 1 | 0.0036496350364963502 | 0.011324573722189188
violat | 1 | 0.0036496350364963502 | 0.011521899347263187
warren | 1 | 0.0036496350364963502 | 0.019540967147760338
welcom | 1 | 0.0036496350364963502 | 0.008607637682234824
work | 5 | 0.01824817518248175 | 0.011682489189528451
world | 18 | 0.06569343065693431 | 0.023453390675182175
wrong | 1 | 0.0036496350364963502 | 0.010959305625265894
yugoslavia | 1 | 0.0036496350364963502 | 0.0106272918361939
