air | 1 | 0.009900990099009901 | 0.015658060003878163
airport | 1 | 0.009900990099009901 | 0.023859267518018736
aloft | 1 | 0.009900990099009901 | 0.042134779305130925
armor | 1 | 0.009900990099009901 | 0.024673506114424402
arriv | 1 | 0.009900990099009901 | 0.016996424146138087
asylum | 1 | 0.009900990099009901 | 0.03707709986190329
auto | 1 | 0.009900990099009901 | 0.03613343471532582
avoid | 1 | 0.009900990099009901 | 0.026199750469149727
berlin | 4 | 0.039603960396039604 | 0.06695696444976976
boat | 1 | 0.009900990099009901 | 0.03928644195412319
border | 1 | 0.009900990099009901 | 0.016244088433485394
born | 1 | 0.009900990099009901 | 0.027616590505196
break | 1 | 0.009900990099009901 | 0.02154624918948898
bu | 1 | 0.009900990099009901 | 0.030722110889899384
car | 1 | 0.009900990099009901 | 0.014787082053918191
caus | 1 | 0.009900990099009901 | 0.01824435207579517
charli | 1 | 0.009900990099009901 | 0.04614928532600384
checkpoint | 1 | 0.009900990099009901 | 0.042134779305130925
christoph | 1 | 0.009900990099009901 | 0.04614928532600384
clearanc | 1 | 0.009900990099009901 | 0.04614928532600384
communist | 1 | 0.009900990099009901 | -0.00100095165219177
cram | 1 | 0.009900990099009901 | 0.040608534950405596
curtain | 1 | 0.009900990099009901 | 0.029270591343445167
detect | 1 | 0.009900990099009901 | 0.03306259384103038
east | 1 | 0.009900990099009901 | 0.009083895684388164
extra | 1 | 0.009900990099009901 | 0.04393994323378394
famili | 1 | 0.009900990099009901 | 0.015544904599683875
fed | 1 | 0.009900990099009901 | 0.03707709986190329
fled | 1 | 0.009900990099009901 | 0.031257429912377364
flew | 1 | 0.009900990099009901 | 0.024673506114424402
fli | 1 | 0.009900990099009901 | 0.02196763151046716
flight | 1 | 0.009900990099009901 | 0.026199750469149727
foot | 1 | 0.009900990099009901 | 0.028830474882347804
forc | 1 | 0.009900990099009901 | 0.00236861078283004
formerli | 1 | 0.009900990099009901 | 0.04393994323378394
free | 1 | 0.009900990099009901 | 0.01612407496286812
freedom | 1 | 0.009900990099009901 | 0.020565151143506495
ft | 1 | 0.009900990099009901 | 0.02587509875803101
german | 2 | 0.019801980198019802 | 0.016376561464711947
ground | 2 | 0.019801980198019802 | 0.03648870415159034
hedgehop | 2 | 0.019801980198019802 | 0.10602425739576897
higher | 1 | 0.009900990099009901 | 0.027616590505196
intercom | 1 | 0.009900990099009901 | 0.053012128697884485
iron | 1 | 0.009900990099009901 | 0.021342097831046056
jet | 1 | 0.009900990099009901 | 0.023859267518018736
land | 1 | 0.009900990099009901 | 0.012640470837431816
lester | 1 | 0.009900990099009901 | 0.053012128697884485
level | 1 | 0.009900990099009901 | 0.028004914397802748
locat | 1 | 0.009900990099009901 | 0.03928644195412319
log | 1 | 0.009900990099009901 | 0.053012128697884485
major | 2 | 0.019801980198019802 | 0.024139771123643104
mari | 1 | 0.009900990099009901 | 0.040608534950405596
mile | 1 | 0.009900990099009901 | 0.025256085322572255
northeast | 1 | 0.009900990099009901 | 0.031257429912377364
obacz | 6 | 0.0594059405940594 | 0.25280867583078553
offici | 1 | 0.009900990099009901 | 0.005989648203212717
one0 | 2 | 0.019801980198019802 | 0.05175019751606202
pilot | 1 | 0.009900990099009901 | 0.02587509875803101
plane | 3 | 0.0297029702970297 | 0.061140241558871385
poland | 1 | 0.009900990099009901 | 0.028830474882347804
polish | 2 | 0.019801980198019802 | 0.06612518768206076
polit | 1 | 0.009900990099009901 | 0.004049678313985467
pressur | 1 | 0.009900990099009901 | 0.023106931805366042
propdriven | 1 | 0.009900990099009901 | 0.05987497206976512
radar | 1 | 0.009900990099009901 | 0.04614928532600384
rear | 1 | 0.009900990099009901 | 0.04614928532600384
receiv | 1 | 0.009900990099009901 | 0.023106931805366042
refuge | 1 | 0.009900990099009901 | 0.02973118555765203
rel | 1 | 0.009900990099009901 | 0.027242923891504445
repli | 1 | 0.009900990099009901 | 0.01984476149714582
request | 1 | 0.009900990099009901 | 0.03527193593325027
richard | 1 | 0.009900990099009901 | 0.042134779305130925
right | 3 | 0.0297029702970297 | 0.03504468500764442
roar | 1 | 0.009900990099009901 | 0.030214256490022642
rooftop | 2 | 0.019801980198019802 | 0.08787988646756788
seat | 1 | 0.009900990099009901 | 0.017531743168616068
seater | 1 | 0.009900990099009901 | 0.05987497206976512
son | 2 | 0.019801980198019802 | 0.0383465012846132
speech | 1 | 0.009900990099009901 | 0.020565151143506495
station | 2 | 0.019801980198019802 | 0.04437048889655363
stettin | 1 | 0.009900990099009901 | 0.05987497206976512
szczecin | 1 | 0.009900990099009901 | 0.05987497206976512
tell | 1 | 0.009900990099009901 | 0.024123309568337165
tempelhof | 1 | 0.009900990099009901 | 0.05987497206976512
test | 1 | 0.009900990099009901 | 0.018697911838481247
thirti | 1 | 0.009900990099009901 | 0.00761641108728476
thousand | 6 | 0.0594059405940594 | -0.11288948864882906
throughout | 1 | 0.009900990099009901 | 0.024394586540496713
tire | 1 | 0.009900990099009901 | 0.032423598582242544
train | 2 | 0.019801980198019802 | 0.033733995191932556
travel | 1 | 0.009900990099009901 | 0.023351413118141998
trip | 1 | 0.009900990099009901 | 0.022185244448276815
truth | 1 | 0.009900990099009901 | 0.03306259384103038
twenti | 5 | 0.04950495049504951 | -0.07892040902052941
underground | 1 | 0.009900990099009901 | 0.030722110889899384
visit | 1 | 0.009900990099009901 | 0.014787082053918191
want | 3 | 0.0297029702970297 | 0.029629193221685377
welcom | 1 | 0.009900990099009901 | 0.023351413118141998
west | 3 | 0.0297029702970297 | 0.007284766445620247
wife | 2 | 0.019801980198019802 | 0.031316120007756326
work | 2 | 0.019801980198019802 | 0.01267723579378533
