act | 1 | 0.006289308176100629 | 0.011136516100819012
advis | 1 | 0.006289308176100629 | 0.014526431199766729
afraid | 1 | 0.006289308176100629 | 0.023552120038064353
aloud | 1 | 0.006289308176100629 | 0.03112427604011427
american | 1 | 0.006289308176100629 | 0.0087039816662529
ammunit | 1 | 0.006289308176100629 | 0.027911536268001122
anti | 1 | 0.006289308176100629 | 0.009594865421366275
attack | 1 | 0.006289308176100629 | 0.008884548369915991
band | 1 | 0.006289308176100629 | 0.017076526219314932
barbecu | 1 | 0.006289308176100629 | 0.03803378728959923
believ | 1 | 0.006289308176100629 | 0.010473871348254065
bitterli | 1 | 0.006289308176100629 | 0.018046027350303976
born | 1 | 0.006289308176100629 | 0.017542614094495573
brighten | 1 | 0.006289308176100629 | 0.03367437105966247
broadcast | 1 | 0.006289308176100629 | 0.017305253541144334
bu | 1 | 0.006289308176100629 | 0.019515303143898353
captiv | 2 | 0.012578616352201259 | 0.05159071735837692
captor | 1 | 0.006289308176100629 | 0.03803378728959923
ceremoni | 1 | 0.006289308176100629 | 0.017305253541144334
cheer | 1 | 0.006289308176100629 | 0.01604317369547043
children | 1 | 0.006289308176100629 | 0.012830433923357277
christma | 2 | 0.012578616352201259 | 0.042871884898503396
class | 1 | 0.006289308176100629 | 0.013556930068777683
coastal | 1 | 0.006289308176100629 | 0.026764859810177503
communist | 3 | 0.018867924528301886 | -0.0019074739032333727
compound | 1 | 0.006289308176100629 | 0.023552120038064353
confer | 1 | 0.006289308176100629 | 0.008136993634842223
cong | 4 | 0.025157232704402517 | 0.03730877956172181
constantli | 1 | 0.006289308176100629 | 0.0242147647906293
countrysid | 1 | 0.006289308176100629 | 0.02579535867918846
daili | 1 | 0.006289308176100629 | 0.013556930068777683
darkskin | 1 | 0.006289308176100629 | 0.03803378728959923
dedic | 1 | 0.006289308176100629 | 0.02021483544018907
deer | 1 | 0.006289308176100629 | 0.03803378728959923
delicaci | 1 | 0.006289308176100629 | 0.03367437105966247
depict | 1 | 0.006289308176100629 | 0.03367437105966247
detach | 1 | 0.006289308176100629 | 0.023552120038064353
diet | 1 | 0.006289308176100629 | 0.0242147647906293
dinner | 1 | 0.006289308176100629 | 0.02021483544018907
document | 2 | 0.012578616352201259 | 0.03557857049280601
duti | 1 | 0.006289308176100629 | 0.013819022498969935
east | 1 | 0.006289308176100629 | 0.005770273359265438
effort | 1 | 0.006289308176100629 | 0.012605791894413382
eighti | 1 | 0.006289308176100629 | 0.010242336926098617
end | 1 | 0.006289308176100629 | 0.004870268053349253
endur | 1 | 0.006289308176100629 | 0.02931495482972571
english | 1 | 0.006289308176100629 | 0.015673107657590342
escap | 1 | 0.006289308176100629 | 0.015495932330755776
eve | 1 | 0.006289308176100629 | 0.02059612236985218
fish | 1 | 0.006289308176100629 | 0.02021483544018907
fix | 1 | 0.006289308176100629 | 0.02059612236985218
food | 1 | 0.006289308176100629 | 0.012496409864778986
forc | 1 | 0.006289308176100629 | 0.0015045892394077614
forti | 1 | 0.006289308176100629 | 0.002550095019548204
freed | 1 | 0.006289308176100629 | 0.023552120038064353
freedom | 1 | 0.006289308176100629 | 0.013063397896189662
freeli | 2 | 0.012578616352201259 | 0.04380406064886467
game | 2 | 0.012578616352201259 | 0.0366273957624796
generos | 1 | 0.006289308176100629 | 0.03803378728959923
govern | 1 | 0.006289308176100629 | -0.0030592242697299733
grim | 1 | 0.006289308176100629 | 0.021435942449251698
guam | 1 | 0.006289308176100629 | 0.03803378728959923
guamanian | 1 | 0.006289308176100629 | 0.03803378728959923
guerrilla | 1 | 0.006289308176100629 | 0.01217923468473564
hanoi | 1 | 0.006289308176100629 | 0.03803378728959923
harp | 1 | 0.006289308176100629 | 0.02931495482972571
hundr | 4 | 0.025157232704402517 | -0.026042173341107474
hunt | 3 | 0.018867924528301886 | 0.051915760623433
indoctrin | 1 | 0.006289308176100629 | 0.02931495482972571
interrog | 2 | 0.012578616352201259 | 0.04380406064886467
invit | 1 | 0.006289308176100629 | 0.01604317369547043
juli | 1 | 0.006289308176100629 | 0.014833287578190829
kill | 1 | 0.006289308176100629 | 0.007819818454798878
languag | 1 | 0.006289308176100629 | 0.018046027350303976
life | 1 | 0.006289308176100629 | 0.00824637566447662
listen | 1 | 0.006289308176100629 | 0.017076526219314932
madagulay | 1 | 0.006289308176100629 | 0.03803378728959923
malaria | 1 | 0.006289308176100629 | 0.03112427604011427
matagulay | 10 | 0.06289308176100629 | 0.23552120038064353
menu | 1 | 0.006289308176100629 | 0.03367437105966247
militari | 1 | 0.006289308176100629 | 0.005515020025208341
move | 1 | 0.006289308176100629 | 0.00756720184017413
negro | 1 | 0.006289308176100629 | 0.021435942449251698
ngodinhdiem | 1 | 0.006289308176100629 | 0.0052013607167795805
nine | 1 | 0.006289308176100629 | -0.0033538802404947878
nineti | 1 | 0.006289308176100629 | 0.012717109989378169
north | 1 | 0.006289308176100629 | 0.008644926695499194
obvious | 1 | 0.006289308176100629 | 0.017789285246403004
occasion | 1 | 0.006289308176100629 | 0.021902030324432335
offer | 1 | 0.006289308176100629 | 0.010714256334544618
oil | 1 | 0.006289308176100629 | 0.012830433923357277
peasant | 2 | 0.012578616352201259 | 0.026610648381408208
phanthiet | 1 | 0.006289308176100629 | 0.03803378728959923
physic | 2 | 0.012578616352201259 | 0.042871884898503396
plenti | 1 | 0.006289308176100629 | 0.023552120038064353
plight | 1 | 0.006289308176100629 | 0.02579535867918846
polit | 1 | 0.006289308176100629 | 0.002572437168003347
presid | 1 | 0.006289308176100629 | 0.002754090464536593
press | 1 | 0.006289308176100629 | 0.008414100488892729
prison | 2 | 0.012578616352201259 | 0.02094774269650813
propaganda | 1 | 0.006289308176100629 | 0.018885847429703492
radio | 1 | 0.006289308176100629 | 0.010167014969829965
ran | 1 | 0.006289308176100629 | 0.02100202501851615
rat | 3 | 0.018867924528301886 | 0.054138082050911925
read | 1 | 0.006289308176100629 | 0.013686611120367214
rebel | 1 | 0.006289308176100629 | 0.010714256334544618
record | 1 | 0.006289308176100629 | 0.013954281651303038
red | 2 | 0.012578616352201259 | 0.0006092530452779248
refus | 1 | 0.006289308176100629 | 0.010879773996918035
regularli | 1 | 0.006289308176100629 | 0.02931495482972571
releas | 2 | 0.012578616352201259 | 0.03247341227983084
remind | 1 | 0.006289308176100629 | 0.02021483544018907
rice | 2 | 0.012578616352201259 | 0.030647223476755393
rodent | 1 | 0.006289308176100629 | 0.03112427604011427
roqu | 1 | 0.006289308176100629 | 0.03803378728959923
saigon | 1 | 0.006289308176100629 | 0.008301788429773192
salt | 1 | 0.006289308176100629 | 0.02931495482972571
sent | 1 | 0.006289308176100629 | 0.01104976564715652
sergeant | 2 | 0.012578616352201259 | 0.04481088716048148
serv | 1 | 0.006289308176100629 | 0.012496409864778986
sever | 1 | 0.006289308176100629 | 0.011683757465533663
shelter | 1 | 0.006289308176100629 | 0.026764859810177503
sign | 2 | 0.012578616352201259 | 0.019892629690461565
situat | 1 | 0.006289308176100629 | 0.015323611738377697
slightest | 1 | 0.006289308176100629 | 0.03367437105966247
soldier | 1 | 0.006289308176100629 | 0.009459606269033171
solid | 1 | 0.006289308176100629 | 0.021435942449251698
soup | 1 | 0.006289308176100629 | 0.03803378728959923
south | 3 | 0.018867924528301886 | 0.007650285058644611
spartan | 1 | 0.006289308176100629 | 0.03112427604011427
special | 1 | 0.006289308176100629 | 0.011877289909978656
spot | 1 | 0.006289308176100629 | 0.01623670613991542
state | 2 | 0.012578616352201259 | -0.010581135604013648
statement | 1 | 0.006289308176100629 | 0.017076526219314932
statess | 1 | 0.006289308176100629 | 0.02579535867918846
subject | 1 | 0.006289308176100629 | 0.017076526219314932
support | 1 | 0.006289308176100629 | 0.006075269270829026
tape | 1 | 0.006289308176100629 | 0.024955538599788947
test | 1 | 0.006289308176100629 | 0.011877289909978656
thirti | 1 | 0.006289308176100629 | 0.004838097608904156
thousand | 1 | 0.006289308176100629 | -0.01195161252990748
tie | 1 | 0.006289308176100629 | 0.015155886913961587
time | 1 | 0.006289308176100629 | 0.013556930068777683
tortur | 1 | 0.006289308176100629 | 0.026764859810177503
town | 1 | 0.006289308176100629 | 0.012830433923357277
trip | 1 | 0.006289308176100629 | 0.014092513769031185
typic | 1 | 0.006289308176100629 | 0.01985534856069254
underw | 1 | 0.006289308176100629 | 0.03367437105966247
unit | 3 | 0.018867924528301886 | -0.01602494627502706
ventur | 1 | 0.006289308176100629 | 0.03112427604011427
viet | 4 | 0.025157232704402517 | 0.03411381878785244
vietnam | 3 | 0.018867924528301886 | 0.01858070086828889
vietnames | 1 | 0.006289308176100629 | 0.011976336180218525
villag | 1 | 0.006289308176100629 | 0.010879773996918035
weight | 1 | 0.006289308176100629 | 0.02100202501851615
wit | 1 | 0.006289308176100629 | 0.015855419210252304
women | 1 | 0.006289308176100629 | 0.011136516100819012
world | 1 | 0.006289308176100629 | 0.002245363048567406
wrack | 1 | 0.006289308176100629 | 0.03803378728959923
