abund | 1 | 0.002652519893899204 | 0.011771708930005776
accept | 1 | 0.002652519893899204 | 0.0037990760270690143
accord | 1 | 0.002652519893899204 | 0.005664056163443321
account | 1 | 0.002652519893899204 | 0.00761092400185234
action | 2 | 0.005305039787798408 | 0.010540738294428958
adenau | 2 | 0.005305039787798408 | 0.010273200609405658
adipos | 2 | 0.005305039787798408 | 0.02840437664979487
ailment | 2 | 0.005305039787798408 | 0.021758419257246496
aim | 1 | 0.002652519893899204 | 0.0053165010907472885
ampli | 1 | 0.002652519893899204 | 0.011771708930005776
andrea | 1 | 0.002652519893899204 | 0.01604077501073283
annual | 1 | 0.002652519893899204 | 0.00606411687891967
anxieti | 1 | 0.002652519893899204 | 0.013126684059358537
anywher | 1 | 0.002652519893899204 | 0.010525014953226637
approv | 1 | 0.002652519893899204 | 0.007202036256952451
arteriosclerosi | 1 | 0.002652519893899204 | 0.01604077501073283
ask | 2 | 0.005305039787798408 | 0.01251189774499916
auster | 1 | 0.002652519893899204 | 0.008374006422148842
author | 2 | 0.005305039787798408 | 0.009936259464990136
automobil | 1 | 0.002652519893899204 | 0.00885761797863148
averag | 2 | 0.005305039787798408 | 0.015930237354497903
away | 1 | 0.002652519893899204 | 0.0037990760270690143
babe | 1 | 0.002652519893899204 | 0.01604077501073283
ban | 1 | 0.002652519893899204 | 0.0049276324589386
bar | 1 | 0.002652519893899204 | 0.006687033566127629
beach | 1 | 0.002652519893899204 | 0.011771708930005776
beer | 1 | 0.002652519893899204 | 0.008230592042121586
believ | 1 | 0.002652519893899204 | 0.004417362186664181
bellyhang | 1 | 0.002652519893899204 | 0.01604077501073283
belov | 1 | 0.002652519893899204 | 0.013126684059358537
belt | 1 | 0.002652519893899204 | 0.009680310096148295
besid | 1 | 0.002652519893899204 | 0.00750264284927872
bikini | 1 | 0.002652519893899204 | 0.013126684059358537
bogner | 1 | 0.002652519893899204 | 0.01604077501073283
bonn | 1 | 0.002652519893899204 | 0.006535419736313443
book | 1 | 0.002652519893899204 | 0.00606411687891967
boom | 1 | 0.002652519893899204 | 0.007965118677248952
bosom | 1 | 0.002652519893899204 | 0.01604077501073283
boss | 1 | 0.002652519893899204 | 0.005363449571117052
bought | 1 | 0.002652519893899204 | 0.009680310096148295
brag | 1 | 0.002652519893899204 | 0.012363601639062036
bread | 1 | 0.002652519893899204 | 0.009933122244170376
brentano | 1 | 0.002652519893899204 | 0.013126684059358537
bring | 1 | 0.002652519893899204 | 0.00606411687891967
british | 1 | 0.002652519893899204 | 0.0013217403027879525
brunnhild | 1 | 0.002652519893899204 | 0.01604077501073283
bulgi | 1 | 0.002652519893899204 | 0.01604077501073283
bundestag | 1 | 0.002652519893899204 | 0.009680310096148295
bundeswehr | 1 | 0.002652519893899204 | 0.013126684059358537
butter | 1 | 0.002652519893899204 | 0.013126684059358537
buttock | 1 | 0.002652519893899204 | 0.014202188324897435
buttress | 1 | 0.002652519893899204 | 0.014202188324897435
cabinet | 1 | 0.002652519893899204 | 0.003772942614753334
caesar | 1 | 0.002652519893899204 | 0.012363601639062036
call | 2 | 0.005305039787798408 | 0.007097304921665484
calori | 4 | 0.010610079575596816 | 0.049454406556248144
calorif | 1 | 0.002652519893899204 | 0.01604077501073283
candi | 1 | 0.002652519893899204 | 0.011771708930005776
centuri | 1 | 0.002652519893899204 | 0.0047339318355569295
champion | 1 | 0.002652519893899204 | 0.012363601639062036
child | 1 | 0.002652519893899204 | 0.00885761797863148
chin | 1 | 0.002652519893899204 | 0.010879209628623248
chocol | 1 | 0.002652519893899204 | 0.011288097373523138
chosen | 1 | 0.002652519893899204 | 0.010525014953226637
classif | 1 | 0.002652519893899204 | 0.01604077501073283
clear | 1 | 0.002652519893899204 | 0.005363449571117052
cloth | 3 | 0.007957559681697613 | 0.01896931458554349
coastlin | 1 | 0.002652519893899204 | 0.01604077501073283
concern | 1 | 0.002652519893899204 | 0.005943527027257184
consid | 2 | 0.005305039787798408 | 0.011328112326886642
consum | 2 | 0.005305039787798408 | 0.017051240503926056
contend | 1 | 0.002652519893899204 | 0.010212593107984239
corpul | 2 | 0.005305039787798408 | 0.02840437664979487
correct | 1 | 0.002652519893899204 | 0.009449510687687738
cottag | 1 | 0.002652519893899204 | 0.010525014953226637
counter | 1 | 0.002652519893899204 | 0.009449510687687738
countri | 4 | 0.010610079575596816 | 0.0030272763529559806
cream | 1 | 0.002652519893899204 | 0.010879209628623248
cri | 1 | 0.002652519893899204 | 0.005051027725874655
crisi | 1 | 0.002652519893899204 | 0.005093468949605269
cultur | 1 | 0.002652519893899204 | 0.007298502156609944
custom | 1 | 0.002652519893899204 | 0.007019031292796081
dark | 1 | 0.002652519893899204 | 0.006126531991413553
day | 1 | 0.002652519893899204 | 0.003009860194456833
decad | 1 | 0.002652519893899204 | 0.00750264284927872
decis | 1 | 0.002652519893899204 | 0.005560022441551327
delicaci | 1 | 0.002652519893899204 | 0.014202188324897435
demand | 1 | 0.002652519893899204 | 0.0033640548698534445
der | 1 | 0.002652519893899204 | 0.007965118677248952
determin | 1 | 0.002652519893899204 | 0.005560022441551327
dietet | 1 | 0.002652519893899204 | 0.01604077501073283
dietician | 1 | 0.002652519893899204 | 0.01604077501073283
diminish | 1 | 0.002652519893899204 | 0.009237195813222125
doctor | 2 | 0.005305039787798408 | 0.013532438289547997
dollar | 2 | 0.005305039787798408 | 0.00256154786060257
dont | 1 | 0.002652519893899204 | 0.005664056163443321
doppelkinnepidemi | 1 | 0.002652519893899204 | 0.01604077501073283
doubl | 1 | 0.002652519893899204 | 0.006687033566127629
dowag | 1 | 0.002652519893899204 | 0.013126684059358537
dr | 1 | 0.002652519893899204 | 0.007841723410312897
drew | 1 | 0.002652519893899204 | 0.00904062294278785
dub | 1 | 0.002652519893899204 | 0.010212593107984239
dumpl | 1 | 0.002652519893899204 | 0.01604077501073283
duttler | 1 | 0.002652519893899204 | 0.01604077501073283
easili | 1 | 0.002652519893899204 | 0.009449510687687738
eat | 2 | 0.005305039787798408 | 0.016189071116669954
econom | 2 | 0.005305039787798408 | 0.005190811548148788
economi | 1 | 0.002652519893899204 | 0.005270369147214479
edelfresswel | 1 | 0.002652519893899204 | 0.01604077501073283
eighteen | 1 | 0.002652519893899204 | 0.009237195813222125
elect | 1 | 0.002652519893899204 | 0.0021229392755591292
els | 1 | 0.002652519893899204 | 0.006392005356286186
encourag | 1 | 0.002652519893899204 | 0.00750264284927872
enforc | 1 | 0.002652519893899204 | 0.009933122244170376
epidem | 1 | 0.002652519893899204 | 0.011288097373523138
erfrischungsbonbon | 1 | 0.002652519893899204 | 0.01604077501073283
erhard | 3 | 0.007957559681697613 | 0.017317011948050822
estim | 1 | 0.002652519893899204 | 0.006932055635440667
evid | 1 | 0.002652519893899204 | 0.005560022441551327
exercis | 1 | 0.002652519893899204 | 0.009680310096148295
expand | 1 | 0.002652519893899204 | 0.009237195813222125
explos | 1 | 0.002652519893899204 | 0.007841723410312897
export | 1 | 0.002652519893899204 | 0.006323104861847829
factori | 1 | 0.002652519893899204 | 0.006126531991413553
fame | 1 | 0.002652519893899204 | 0.006610143547896192
fat | 3 | 0.007957559681697613 | 0.028348532063063217
fatter | 1 | 0.002652519893899204 | 0.01604077501073283
fifti | 5 | 0.013262599469496022 | 0.002512453906668683
fifty0 | 1 | 0.002652519893899204 | 0.013126684059358537
fight | 1 | 0.002652519893899204 | 0.0033640548698534445
figur | 1 | 0.002652519893899204 | 0.006687033566127629
fill | 1 | 0.002652519893899204 | 0.006610143547896192
foertsch | 1 | 0.002652519893899204 | 0.01604077501073283
follow | 1 | 0.002652519893899204 | 0.004553418670450788
former | 1 | 0.002652519893899204 | 0.004518744714038711
forti | 2 | 0.005305039787798408 | 0.002151008531077795
foundat | 1 | 0.002652519893899204 | 0.012363601639062036
franz | 1 | 0.002652519893899204 | 0.00904062294278785
french | 1 | 0.002652519893899204 | 0.0018574659106864967
friedrich | 1 | 0.002652519893899204 | 0.013126684059358537
ft | 1 | 0.002652519893899204 | 0.006932055635440667
gap | 1 | 0.002652519893899204 | 0.013126684059358537
garment | 3 | 0.007957559681697613 | 0.03709080491718611
gener | 1 | 0.002652519893899204 | 0.0009921721800392185
german | 14 | 0.03713527851458886 | 0.03071148264071975
germani | 9 | 0.023872679045092837 | 0.0200025841799568
girdl | 1 | 0.002652519893899204 | 0.014202188324897435
girth | 1 | 0.002652519893899204 | 0.01604077501073283
give | 1 | 0.002652519893899204 | 0.0057176442465136645
glass | 2 | 0.005305039787798408 | 0.015930237354497903
gobbl | 1 | 0.002652519893899204 | 0.014202188324897435
gone | 1 | 0.002652519893899204 | 0.00761092400185234
goos | 1 | 0.002652519893899204 | 0.01604077501073283
gorgeou | 1 | 0.002652519893899204 | 0.01604077501073283
govern | 1 | 0.002652519893899204 | -0.0012902298644219248
gretel | 1 | 0.002652519893899204 | 0.01604077501073283
grow | 1 | 0.002652519893899204 | 0.006535419736313443
guilt | 1 | 0.002652519893899204 | 0.011771708930005776
gun | 1 | 0.002652519893899204 | 0.005225025822654001
hand | 1 | 0.002652519893899204 | 0.0022959910577034287
handl | 1 | 0.002652519893899204 | 0.008686428267391237
hangebauch | 1 | 0.002652519893899204 | 0.01604077501073283
hansel | 1 | 0.002652519893899204 | 0.01604077501073283
headi | 1 | 0.002652519893899204 | 0.011771708930005776
heft | 1 | 0.002652519893899204 | 0.013126684059358537
heinrich | 1 | 0.002652519893899204 | 0.010525014953226637
helga | 1 | 0.002652519893899204 | 0.01604077501073283
help | 2 | 0.005305039787798408 | 0.006019720388913666
higher | 2 | 0.005305039787798408 | 0.014797218254773451
hitler | 1 | 0.002652519893899204 | 0.008374006422148842
hold | 1 | 0.002652519893899204 | 0.0043844112052356474
hundr | 10 | 0.026525198938992044 | -0.027458259689894488
hungri | 1 | 0.002652519893899204 | 0.011771708930005776
incid | 1 | 0.002652519893899204 | 0.008686428267391237
increas | 1 | 0.002652519893899204 | 0.005363449571117052
increasingli | 1 | 0.002652519893899204 | 0.006847841581555839
industri | 2 | 0.005305039787798408 | 0.007097304921665484
inflat | 1 | 0.002652519893899204 | 0.00885761797863148
inspector | 1 | 0.002652519893899204 | 0.009933122244170376
intak | 1 | 0.002652519893899204 | 0.01604077501073283
island | 1 | 0.002652519893899204 | 0.005664056163443321
josef | 1 | 0.002652519893899204 | 0.009933122244170376
jounc | 1 | 0.002652519893899204 | 0.01604077501073283
juliu | 1 | 0.002652519893899204 | 0.013126684059358537
jumbo | 1 | 0.002652519893899204 | 0.01604077501073283
june | 2 | 0.005305039787798408 | 0.0007245386472453617
kaffeeklatsch | 1 | 0.002652519893899204 | 0.01604077501073283
kartoffelkloss | 1 | 0.002652519893899204 | 0.01604077501073283
konig | 2 | 0.005305039787798408 | 0.02840437664979487
konrad | 1 | 0.002652519893899204 | 0.007723814225774876
kreditwurdig | 1 | 0.002652519893899204 | 0.01604077501073283
ladi | 1 | 0.002652519893899204 | 0.007841723410312897
lag | 1 | 0.002652519893899204 | 0.013126684059358537
launch | 1 | 0.002652519893899204 | 0.006392005356286186
lb | 4 | 0.010610079575596816 | 0.03543047191452592
leader | 2 | 0.005305039787798408 | 0.0024608799483532033
lean | 1 | 0.002652519893899204 | 0.008230592042121586
leaven | 1 | 0.002652519893899204 | 0.01604077501073283
lectur | 1 | 0.002652519893899204 | 0.009933122244170376
level | 2 | 0.005305039787798408 | 0.01500528569855744
likelihood | 1 | 0.002652519893899204 | 0.011771708930005776
link | 1 | 0.002652519893899204 | 0.007723814225774876
lipogen | 1 | 0.002652519893899204 | 0.01604077501073283
longtim | 1 | 0.002652519893899204 | 0.008230592042121586
ludwig | 1 | 0.002652519893899204 | 0.0071089558330498775
major | 1 | 0.002652519893899204 | 0.003233576768551662
make | 1 | 0.002652519893899204 | 0.007723814225774876
manag | 1 | 0.002652519893899204 | 0.005093468949605269
manageri | 1 | 0.002652519893899204 | 0.014202188324897435
manufactur | 1 | 0.002652519893899204 | 0.009680310096148295
maverick | 1 | 0.002652519893899204 | 0.012363601639062036
may | 1 | 0.002652519893899204 | 0.005772337316016941
meal | 1 | 0.002652519893899204 | 0.012363601639062036
men | 1 | 0.002652519893899204 | 0.011771708930005776
mere | 1 | 0.002652519893899204 | 0.005664056163443321
metalwork | 1 | 0.002652519893899204 | 0.013126684059358537
midmorn | 1 | 0.002652519893899204 | 0.01604077501073283
minist | 3 | 0.007957559681697613 | 0.000769731775532237
miracl | 1 | 0.002652519893899204 | 0.009680310096148295
modest | 1 | 0.002652519893899204 | 0.009237195813222125
new | 3 | 0.007957559681697613 | -0.002118110349316849
newborn | 1 | 0.002652519893899204 | 0.01604077501073283
nine | 3 | 0.007957559681697613 | -0.004243503646461574
nineti | 1 | 0.002652519893899204 | 0.005363449571117052
nonetheless | 1 | 0.002652519893899204 | 0.007965118677248952
normal | 1 | 0.002652519893899204 | 0.007841723410312897
notabl | 1 | 0.002652519893899204 | 0.008686428267391237
nourish | 1 | 0.002652519893899204 | 0.014202188324897435
nowaday | 1 | 0.002652519893899204 | 0.010525014953226637
nudist | 1 | 0.002652519893899204 | 0.01604077501073283
observ | 1 | 0.002652519893899204 | 0.006126531991413553
occas | 1 | 0.002652519893899204 | 0.00761092400185234
offens | 1 | 0.002652519893899204 | 0.008094535558334977
offic | 1 | 0.002652519893899204 | 0.0017827420991037477
offici | 1 | 0.002652519893899204 | 0.0016046537626644149
one0 | 1 | 0.002652519893899204 | 0.006932055635440667
opt | 1 | 0.002652519893899204 | 0.013126684059358537
overweight | 1 | 0.002652519893899204 | 0.01604077501073283
owner | 1 | 0.002652519893899204 | 0.008525620251963028
palat | 1 | 0.002652519893899204 | 0.014202188324897435
pant | 1 | 0.002652519893899204 | 0.010879209628623248
parlor | 1 | 0.002652519893899204 | 0.011771708930005776
pastri | 2 | 0.005305039787798408 | 0.024727203278124072
paunch | 2 | 0.005305039787798408 | 0.02840437664979487
peopl | 1 | 0.002652519893899204 | 0.0010661148047826003
percent | 1 | 0.002652519893899204 | 0.011771708930005776
pietsch | 1 | 0.002652519893899204 | 0.01604077501073283
plump | 1 | 0.002652519893899204 | 0.012363601639062036
pneumat | 1 | 0.002652519893899204 | 0.01604077501073283
poker | 1 | 0.002652519893899204 | 0.014202188324897435
politician | 2 | 0.005305039787798408 | 0.009037489428077422
polysatur | 1 | 0.002652519893899204 | 0.01604077501073283
postwar | 1 | 0.002652519893899204 | 0.008094535558334977
pot | 2 | 0.005305039787798408 | 0.023543417860011552
potato | 2 | 0.005305039787798408 | 0.01936062019229659
potbelli | 1 | 0.002652519893899204 | 0.01604077501073283
pounder | 1 | 0.002652519893899204 | 0.01604077501073283
pour | 1 | 0.002652519893899204 | 0.006535419736313443
pretzel | 1 | 0.002652519893899204 | 0.01604077501073283
proport | 1 | 0.002652519893899204 | 0.011771708930005776
prosper | 1 | 0.002652519893899204 | 0.006462743412207038
pubesc | 1 | 0.002652519893899204 | 0.01604077501073283
quadrupl | 1 | 0.002652519893899204 | 0.014202188324897435
quantiti | 1 | 0.002652519893899204 | 0.013126684059358537
quarter | 1 | 0.002652519893899204 | 0.007841723410312897
rang | 1 | 0.002652519893899204 | 0.00550949672544869
rapidli | 1 | 0.002652519893899204 | 0.010879209628623248
rate | 1 | 0.002652519893899204 | 0.006003136724477498
rather | 1 | 0.002652519893899204 | 0.006392005356286186
rearguard | 2 | 0.005305039787798408 | 0.02840437664979487
reason | 2 | 0.005305039787798408 | 0.009177103795808845
recogn | 1 | 0.002652519893899204 | 0.008525620251963028
reduc | 1 | 0.002652519893899204 | 0.009237195813222125
refresh | 1 | 0.002652519893899204 | 0.014202188324897435
regret | 1 | 0.002652519893899204 | 0.011288097373523138
relentlessli | 1 | 0.002652519893899204 | 0.012363601639062036
reluct | 1 | 0.002652519893899204 | 0.007965118677248952
remain | 1 | 0.002652519893899204 | 0.003596881423918128
rene | 1 | 0.002652519893899204 | 0.012363601639062036
reveal | 1 | 0.002652519893899204 | 0.00904062294278785
rich | 1 | 0.002652519893899204 | 0.006003136724477498
roar | 1 | 0.002652519893899204 | 0.008094535558334977
roast | 1 | 0.002652519893899204 | 0.010879209628623248
sale | 2 | 0.005305039787798408 | 0.018899021375375476
salon | 1 | 0.002652519893899204 | 0.011771708930005776
sell | 1 | 0.002652519893899204 | 0.007398609127386726
send | 1 | 0.002652519893899204 | 0.007202036256952451
session | 1 | 0.002652519893899204 | 0.00606411687891967
settl | 1 | 0.002652519893899204 | 0.006392005356286186
seventh | 1 | 0.002652519893899204 | -0.0004541855189534514
seventi | 1 | 0.002652519893899204 | 0.0032980136188674306
sheer | 1 | 0.002652519893899204 | 0.009680310096148295
shop | 1 | 0.002652519893899204 | 0.008230592042121586
side | 1 | 0.002652519893899204 | 0.004075630431112541
sigh | 1 | 0.002652519893899204 | 0.00885761797863148
size | 5 | 0.013262599469496022 | 0.03383109572387
ski | 1 | 0.002652519893899204 | 0.010879209628623248
skinni | 1 | 0.002652519893899204 | 0.014202188324897435
slim | 1 | 0.002652519893899204 | 0.011288097373523138
slipcov | 1 | 0.002652519893899204 | 0.01604077501073283
snack | 1 | 0.002652519893899204 | 0.01604077501073283
soar | 1 | 0.002652519893899204 | 0.009680310096148295
societi | 3 | 0.007957559681697613 | 0.017152932739540994
sociologist | 1 | 0.002652519893899204 | 0.010879209628623248
spanish | 1 | 0.002652519893899204 | 0.00750264284927872
sport | 1 | 0.002652519893899204 | 0.007202036256952451
starch | 1 | 0.002652519893899204 | 0.014202188324897435
starvat | 1 | 0.002652519893899204 | 0.014202188324897435
state | 1 | 0.002652519893899204 | -0.0022313004788304643
statist | 2 | 0.005305039787798408 | 0.021758419257246496
statu | 1 | 0.002652519893899204 | 0.007019031292796081
stay | 1 | 0.002652519893899204 | 0.0049276324589386
steadi | 1 | 0.002652519893899204 | 0.010212593107984239
steer | 1 | 0.002652519893899204 | 0.011288097373523138
stocki | 1 | 0.002652519893899204 | 0.011288097373523138
strain | 1 | 0.002652519893899204 | 0.011288097373523138
strauss | 1 | 0.002652519893899204 | 0.009449510687687738
stretch | 1 | 0.002652519893899204 | 0.008374006422148842
stretchpant | 1 | 0.002652519893899204 | 0.01604077501073283
strike | 2 | 0.005305039787798408 | 0.009106837340901576
stylish | 1 | 0.002652519893899204 | 0.012363601639062036
subconsci | 1 | 0.002652519893899204 | 0.01604077501073283
substanc | 1 | 0.002652519893899204 | 0.013126684059358537
successor | 1 | 0.002652519893899204 | 0.007398609127386726
sylt | 1 | 0.002652519893899204 | 0.01604077501073283
symbol | 1 | 0.002652519893899204 | 0.007723814225774876
symptom | 1 | 0.002652519893899204 | 0.012363601639062036
tact | 1 | 0.002652519893899204 | 0.010879209628623248
teach | 1 | 0.002652519893899204 | 0.009449510687687738
temptat | 1 | 0.002652519893899204 | 0.010879209628623248
teuton | 1 | 0.002652519893899204 | 0.012363601639062036
thick | 1 | 0.002652519893899204 | 0.012363601639062036
thin | 2 | 0.005305039787798408 | 0.017051240503926056
thirti | 1 | 0.002652519893899204 | 0.0020404708748428665
thousand | 12 | 0.03183023872679045 | -0.060487206119531754
threaten | 1 | 0.002652519893899204 | 0.0053165010907472885
threw | 1 | 0.002652519893899204 | 0.009237195813222125
throat | 1 | 0.002652519893899204 | 0.012363601639062036
throughout | 1 | 0.002652519893899204 | 0.006535419736313443
thtwentieth | 1 | 0.002652519893899204 | 0.01604077501073283
time | 1 | 0.002652519893899204 | 0.0057176442465136645
titl | 1 | 0.002652519893899204 | 0.009449510687687738
top | 3 | 0.007957559681697613 | 0.01071797198875752
trim | 1 | 0.002652519893899204 | 0.011288097373523138
trustworthi | 1 | 0.002652519893899204 | 0.013126684059358537
tv | 1 | 0.002652519893899204 | 0.007019031292796081
twenti | 8 | 0.021220159151193633 | -0.03382901352179722
unconsci | 2 | 0.005305039787798408 | 0.026253368118717074
undisput | 1 | 0.002652519893899204 | 0.014202188324897435
unit | 1 | 0.002652519893899204 | -0.0022528439060382865
univers | 1 | 0.002652519893899204 | 0.0053165010907472885
unmarti | 1 | 0.002652519893899204 | 0.01604077501073283
vast | 1 | 0.002652519893899204 | 0.006847841581555839
visibl | 1 | 0.002652519893899204 | 0.010212593107984239
vital | 1 | 0.002652519893899204 | 0.008525620251963028
von | 1 | 0.002652519893899204 | 0.007298502156609944
voter | 1 | 0.002652519893899204 | 0.007019031292796081
waistlin | 1 | 0.002652519893899204 | 0.01604077501073283
walk | 1 | 0.002652519893899204 | 0.00606411687891967
want | 1 | 0.002652519893899204 | 0.0026459314901770316
war | 1 | 0.002652519893899204 | 0.0008501974309259436
warn | 1 | 0.002652519893899204 | 0.005611529300588732
wave | 1 | 0.002652519893899204 | 0.005560022441551327
wean | 1 | 0.002652519893899204 | 0.014202188324897435
wear | 1 | 0.002652519893899204 | 0.005943527027257184
weigh | 3 | 0.007957559681697613 | 0.03263762888586975
weight | 2 | 0.005305039787798408 | 0.01771523595726296
wellmarbl | 1 | 0.002652519893899204 | 0.01604077501073283
west | 8 | 0.021220159151193633 | 0.00520432474629634
whenev | 1 | 0.002652519893899204 | 0.010212593107984239
whip | 1 | 0.002652519893899204 | 0.009933122244170376
whole | 1 | 0.002652519893899204 | 0.005885227539939477
witch | 1 | 0.002652519893899204 | 0.012363601639062036
woman | 1 | 0.002652519893899204 | 0.006392005356286186
women | 4 | 0.010610079575596816 | 0.018787332201912175
world | 1 | 0.002652519893899204 | 0.0009469833547008421
wouldnt | 1 | 0.002652519893899204 | 0.010525014953226637
