action | 1 | 0.0024630541871921183 | 0.00489391420812773
advanc | 1 | 0.0024630541871921183 | 0.006358710040016136
advis | 3 | 0.007389162561576354 | 0.017066767690366327
agent | 1 | 0.0024630541871921183 | 0.005069921508576363
alley | 1 | 0.0024630541871921183 | 0.01010212322657873
alon | 1 | 0.0024630541871921183 | 0.005871454514572985
ambassador | 1 | 0.0024630541871921183 | 0.00489391420812773
american | 2 | 0.0049261083743842365 | 0.006817404359281827
anti | 1 | 0.0024630541871921183 | 0.00375759507881093
apolog | 1 | 0.0024630541871921183 | 0.010481804703985772
arm | 1 | 0.0024630541871921183 | 0.0035277134537069423
armi | 2 | 0.0049261083743842365 | 0.002833012341747799
arrest | 2 | 0.0049261083743842365 | 0.009302901949195103
arriv | 1 | 0.0024630541871921183 | 0.004228174479704303
asia | 1 | 0.0024630541871921183 | 0.00489391420812773
assembl | 2 | 0.0049261083743842365 | 0.010231922490118995
assur | 1 | 0.0024630541871921183 | 0.005935433545122887
attack | 1 | 0.0024630541871921183 | 0.0034794167261493654
attempt | 1 | 0.0024630541871921183 | 0.005069921508576363
attitud | 1 | 0.0024630541871921183 | 0.007916647376822813
away | 2 | 0.0049261083743842365 | 0.0070554269074138845
backward | 1 | 0.0024630541871921183 | 0.009483122171699651
ban | 1 | 0.0024630541871921183 | 0.004575658711871558
barb | 1 | 0.0024630541871921183 | 0.008774545638567187
barrag | 1 | 0.0024630541871921183 | 0.009483122171699651
batter | 1 | 0.0024630541871921183 | 0.008988859374994846
belat | 1 | 0.0024630541871921183 | 0.01148048723627189
believ | 1 | 0.0024630541871921183 | 0.004101836316188169
bia | 1 | 0.0024630541871921183 | 0.013187746301690475
blood | 1 | 0.0024630541871921183 | 0.005871454514572985
bring | 1 | 0.0024630541871921183 | 0.005630965673282551
brothel | 1 | 0.0024630541871921183 | 0.01148048723627189
brother | 2 | 0.0049261083743842365 | 0.0085215963818225
brutal | 1 | 0.0024630541871921183 | 0.007642692610541472
buddhism | 2 | 0.0049261083743842365 | 0.015833294753645626
buddhist | 33 | 0.0812807881773399 | 0.07554060615461639
build | 1 | 0.0024630541871921183 | 0.0035769761795854385
burn | 1 | 0.0024630541871921183 | 0.006137990437332179
butt | 2 | 0.0049261083743842365 | 0.020963609407971543
cabinet | 1 | 0.0024630541871921183 | 0.0035034467136995243
capit | 1 | 0.0024630541871921183 | 0.0035277134537069423
carbin | 1 | 0.0024630541871921183 | 0.01148048723627189
cart | 1 | 0.0024630541871921183 | 0.010930872577862507
case | 1 | 0.0024630541871921183 | 0.0034556189160219342
categori | 1 | 0.0024630541871921183 | 0.01148048723627189
cathol | 7 | 0.017241379310344827 | 0.035173086100238046
catholic | 2 | 0.0049261083743842365 | 0.01954645634170661
caus | 2 | 0.0049261083743842365 | 0.00907723921012469
centuri | 1 | 0.0024630541871921183 | 0.0043957938473028636
chaplain | 1 | 0.0024630541871921183 | 0.014895005367109058
charg | 2 | 0.0049261083743842365 | 0.007153952359170877
chief | 1 | 0.0024630541871921183 | 0.002963510080265238
chines | 1 | 0.0024630541871921183 | 0.00157684829454719
church | 1 | 0.0024630541871921183 | 0.007067286573148601
cia | 1 | 0.0024630541871921183 | 0.009223613512443921
civilian | 1 | 0.0024630541871921183 | 0.005748276138773325
claim | 1 | 0.0024630541871921183 | 0.004071238976290244
class | 1 | 0.0024630541871921183 | 0.005309241086048403
clip | 1 | 0.0024630541871921183 | 0.01148048723627189
closest | 1 | 0.0024630541871921183 | 0.008988859374994846
cloth | 1 | 0.0024630541871921183 | 0.005871454514572985
club | 1 | 0.0024630541871921183 | 0.007172113209648099
commentari | 1 | 0.0024630541871921183 | 0.014895005367109058
communist | 5 | 0.012315270935960592 | -0.001245026069844443
complain | 1 | 0.0024630541871921183 | 0.005809095381606753
compound | 1 | 0.0024630541871921183 | 0.009223613512443921
concubinag | 1 | 0.0024630541871921183 | 0.013187746301690475
confid | 1 | 0.0024630541871921183 | 0.005162877981440518
cong | 1 | 0.0024630541871921183 | 0.0036527684423114325
control | 1 | 0.0024630541871921183 | 0.0025700144657655635
controversi | 1 | 0.0024630541871921183 | 0.009223613512443921
convert | 1 | 0.0024630541871921183 | 0.008577396112277688
convoy | 1 | 0.0024630541871921183 | 0.01010212322657873
cop | 2 | 0.0049261083743842365 | 0.012002237765527357
corner | 1 | 0.0024630541871921183 | 0.007775863106281068
crack | 1 | 0.0024630541871921183 | 0.007172113209648099
crisi | 4 | 0.009852216748768473 | 0.018918598955676713
crowd | 1 | 0.0024630541871921183 | 0.003867082178739092
crusad | 2 | 0.0049261083743842365 | 0.016789728322320292
crush | 1 | 0.0024630541871921183 | 0.006601173273546315
danc | 1 | 0.0024630541871921183 | 0.0065176719147392185
danger | 1 | 0.0024630541871921183 | 0.0054118831954094076
dark | 1 | 0.0024630541871921183 | 0.005688922563455443
dead | 1 | 0.0024630541871921183 | 0.00485180969246443
death | 1 | 0.0024630541871921183 | 0.003186655142709146
deceiv | 1 | 0.0024630541871921183 | 0.012189063769404356
decis | 1 | 0.0024630541871921183 | 0.005162877981440518
deliv | 2 | 0.0049261083743842365 | 0.014344226419296198
demand | 2 | 0.0049261083743842365 | 0.006247530472584969
demonstr | 6 | 0.014778325123152709 | 0.024985172694926398
die | 2 | 0.0049261083743842365 | 0.009004258491971288
dinh | 2 | 0.0049261083743842365 | 0.012275980874664357
discont | 1 | 0.0024630541871921183 | 0.009773228170853306
discrimin | 2 | 0.0049261083743842365 | 0.017549091277134374
disgust | 1 | 0.0024630541871921183 | 0.01148048723627189
dispers | 1 | 0.0024630541871921183 | 0.01010212322657873
docil | 1 | 0.0024630541871921183 | 0.013187746301690475
domin | 1 | 0.0024630541871921183 | 0.005935433545122887
dont | 1 | 0.0024630541871921183 | 0.00525948072319737
door | 1 | 0.0024630541871921183 | 0.005688922563455443
dot | 1 | 0.0024630541871921183 | 0.010930872577862507
drag | 1 | 0.0024630541871921183 | 0.007916647376822813
eas | 1 | 0.0024630541871921183 | 0.0073961816288740274
easi | 1 | 0.0024630541871921183 | 0.007775863106281068
east | 1 | 0.0024630541871921183 | 0.0022597868574463164
econom | 2 | 0.0049261083743842365 | 0.004820039294709588
educ | 2 | 0.0049261083743842365 | 0.009459299477838357
eighti | 1 | 0.0024630541871921183 | 0.004011161505541084
either | 1 | 0.0024630541871921183 | 0.005871454514572985
embassi | 3 | 0.007389162561576354 | 0.012398455615117657
emerg | 2 | 0.0049261083743842365 | 0.00978782841625546
end | 1 | 0.0024630541871921183 | 0.0019073217253264313
error | 1 | 0.0024630541871921183 | 0.009773228170853306
erupt | 1 | 0.0024630541871921183 | 0.009223613512443921
event | 1 | 0.0024630541871921183 | 0.0054648541442295145
eventu | 1 | 0.0024630541871921183 | 0.006358710040016136
everywher | 1 | 0.0024630541871921183 | 0.007642692610541472
evid | 1 | 0.0024630541871921183 | 0.005162877981440518
expect | 1 | 0.0024630541871921183 | 0.0043957938473028636
exploit | 1 | 0.0024630541871921183 | 0.008988859374994846
eye | 1 | 0.0024630541871921183 | 0.004575658711871558
faith | 1 | 0.0024630541871921183 | 0.0065176719147392185
fallen | 1 | 0.0024630541871921183 | 0.009483122171699651
famili | 1 | 0.0024630541871921183 | 0.003867082178739092
fast | 1 | 0.0024630541871921183 | 0.0068701370468591035
favorit | 1 | 0.0024630541871921183 | 0.008065969105434721
fear | 1 | 0.0024630541871921183 | 0.0041641954491544
fellow | 2 | 0.0049261083743842365 | 0.013740274093718207
fight | 1 | 0.0024630541871921183 | 0.0031237652362924844
fire | 1 | 0.0024630541871921183 | 0.0027234723064950093
fish | 1 | 0.0024630541871921183 | 0.007916647376822813
flag | 1 | 0.0024630541871921183 | 0.005360027507730017
fli | 1 | 0.0024630541871921183 | 0.0054648541442295145
follow | 1 | 0.0024630541871921183 | 0.004228174479704303
forc | 4 | 0.009852216748768473 | 0.0023569427494170843
former | 1 | 0.0024630541871921183 | 0.004195977234464517
forti | 1 | 0.0024630541871921183 | 0.0009986825322861191
fought | 1 | 0.0024630541871921183 | 0.007172113209648099
fourth | 1 | 0.0024630541871921183 | 0.0068701370468591035
frederick | 1 | 0.0024630541871921183 | 0.01148048723627189
free | 1 | 0.0024630541871921183 | 0.004011161505541084
freedom | 2 | 0.0049261083743842365 | 0.010231922490118995
french | 1 | 0.0024630541871921183 | 0.00172478977420889
gener | 1 | 0.0024630541871921183 | 0.0009213027386078458
girl | 2 | 0.0049261083743842365 | 0.008265637076745106
give | 3 | 0.007389162561576354 | 0.015927723258145208
govern | 12 | 0.029556650246305417 | -0.014376847060701449
graduat | 1 | 0.0024630541871921183 | 0.008577396112277688
grant | 1 | 0.0024630541871921183 | 0.006687605095741562
group | 2 | 0.0049261083743842365 | 0.00790502917515252
guard | 1 | 0.0024630541871921183 | 0.004729649738919178
guerrilla | 1 | 0.0024630541871921183 | 0.004769700282938341
gun | 3 | 0.007389162561576354 | 0.01455542907739329
gunpoint | 1 | 0.0024630541871921183 | 0.014895005367109058
half | 1 | 0.0024630541871921183 | 0.0041641954491544
hand | 2 | 0.0049261083743842365 | 0.004263983392877797
handl | 1 | 0.0024630541871921183 | 0.008065969105434721
hard | 2 | 0.0049261083743842365 | 0.00790502917515252
harder | 1 | 0.0024630541871921183 | 0.009773228170853306
head | 2 | 0.0049261083743842365 | 0.00500952836282681
headquart | 1 | 0.0024630541871921183 | 0.005360027507730017
help | 1 | 0.0024630541871921183 | 0.002794870180567059
henc | 1 | 0.0024630541871921183 | 0.009223613512443921
high | 1 | 0.0024630541871921183 | 0.00375759507881093
hold | 2 | 0.0049261083743842365 | 0.008142477952580489
hope | 2 | 0.0049261083743842365 | 0.005140028931531127
hue | 1 | 0.0024630541871921183 | 0.007172113209648099
huge | 1 | 0.0024630541871921183 | 0.005935433545122887
hundr | 3 | 0.007389162561576354 | -0.007649086627899177
hundred | 1 | 0.0024630541871921183 | 0.014895005367109058
hunger | 1 | 0.0024630541871921183 | 0.012189063769404356
huski | 1 | 0.0024630541871921183 | 0.010930872577862507
impati | 1 | 0.0024630541871921183 | 0.008577396112277688
insid | 1 | 0.0024630541871921183 | 0.005162877981440518
insult | 1 | 0.0024630541871921183 | 0.009223613512443921
invas | 1 | 0.0024630541871921183 | 0.009773228170853306
involv | 1 | 0.0024630541871921183 | 0.0065176719147392185
iron | 1 | 0.0024630541871921183 | 0.005309241086048403
jitteri | 1 | 0.0024630541871921183 | 0.014895005367109058
join | 1 | 0.0024630541871921183 | 0.004101836316188169
june | 3 | 0.007389162561576354 | 0.001009178830091754
khiet | 1 | 0.0024630541871921183 | 0.013187746301690475
kick | 1 | 0.0024630541871921183 | 0.008988859374994846
kill | 3 | 0.007389162561576354 | 0.009187323652559271
land | 1 | 0.0024630541871921183 | 0.0031445506270458457
landown | 1 | 0.0024630541871921183 | 0.009223613512443921
larg | 2 | 0.0049261083743842365 | 0.00922652664606227
laymen | 1 | 0.0024630541871921183 | 0.012189063769404356
leader | 1 | 0.0024630541871921183 | 0.0011425514045925588
left | 1 | 0.0024630541871921183 | 0.0025700144657655635
line | 2 | 0.0049261083743842365 | 0.007461934413266119
loi | 1 | 0.0024630541871921183 | 0.010481804703985772
lost | 1 | 0.0024630541871921183 | 0.00426079819091125
loudspeak | 1 | 0.0024630541871921183 | 0.01148048723627189
loyal | 1 | 0.0024630541871921183 | 0.007642692610541472
machin | 1 | 0.0024630541871921183 | 0.005809095381606753
make | 1 | 0.0024630541871921183 | 0.007172113209648099
march | 2 | 0.0049261083743842365 | 0.00383997054178793
marin | 1 | 0.0024630541871921183 | 0.008988859374994846
master | 1 | 0.0024630541871921183 | 0.0073961816288740274
matter | 1 | 0.0024630541871921183 | 0.007516354447025337
medic | 1 | 0.0024630541871921183 | 0.008065969105434721
meet | 1 | 0.0024630541871921183 | 0.0027059415977047038
member | 1 | 0.0024630541871921183 | 0.0030026069993694007
men | 1 | 0.0024630541871921183 | 0.010930872577862507
middl | 2 | 0.0049261083743842365 | 0.007847413215727931
minist | 1 | 0.0024630541871921183 | 0.00023825031147426383
mme | 2 | 0.0049261083743842365 | 0.012873817608675526
molest | 1 | 0.0024630541871921183 | 0.013187746301690475
monk | 5 | 0.012315270935960592 | 0.027871706220788387
moral | 2 | 0.0049261083743842365 | 0.011870867090245775
more | 1 | 0.0024630541871921183 | 0.013187746301690475
mortar | 1 | 0.0024630541871921183 | 0.007916647376822813
motiv | 1 | 0.0024630541871921183 | 0.009483122171699651
mount | 1 | 0.0024630541871921183 | 0.006068604040862483
nation | 1 | 0.0024630541871921183 | -0.0009297951843820439
nearbi | 2 | 0.0049261083743842365 | 0.016449861960315604
neutral | 1 | 0.0024630541871921183 | 0.005748276138773325
nevertheless | 1 | 0.0024630541871921183 | 0.008577396112277688
new | 2 | 0.0049261083743842365 | -0.0013112111686247162
ngo | 2 | 0.0049261083743842365 | 0.012565835554580285
ngodinhdiem | 12 | 0.029556650246305417 | 0.024443833122205515
nhu | 3 | 0.007389162561576354 | 0.013292194115740778
nine | 2 | 0.0049261083743842365 | -0.002626930828761927
nineteenth | 1 | 0.0024630541871921183 | 0.010930872577862507
nolt | 1 | 0.0024630541871921183 | 0.012189063769404356
nonpolit | 1 | 0.0024630541871921183 | 0.012189063769404356
north | 1 | 0.0024630541871921183 | 0.0033855747403555955
number | 1 | 0.0024630541871921183 | 0.0054118831954094076
nun | 1 | 0.0024630541871921183 | 0.008988859374994846
obviou | 1 | 0.0024630541871921183 | 0.008577396112277688
obvious | 1 | 0.0024630541871921183 | 0.006966739788615954
offer | 1 | 0.0024630541871921183 | 0.004195977234464517
offici | 2 | 0.0049261083743842365 | 0.002980071273519628
old | 1 | 0.0024630541871921183 | 0.0011425514045925588
older | 1 | 0.0024630541871921183 | 0.008988859374994846
onetyrdom | 1 | 0.0024630541871921183 | 0.014895005367109058
open | 1 | 0.0024630541871921183 | 0.0032730869649043926
openli | 1 | 0.0024630541871921183 | 0.008065969105434721
opportun | 1 | 0.0024630541871921183 | 0.007516354447025337
order | 2 | 0.0049261083743842365 | 0.004977436338091865
overthrow | 1 | 0.0024630541871921183 | 0.006966739788615954
pagoda | 2 | 0.0049261083743842365 | 0.014563200619152523
pain | 1 | 0.0024630541871921183 | 0.007516354447025337
passion | 1 | 0.0024630541871921183 | 0.007775863106281068
passiv | 1 | 0.0024630541871921183 | 0.010481804703985772
paul | 1 | 0.0024630541871921183 | 0.006282917777290143
pavement | 1 | 0.0024630541871921183 | 0.01148048723627189
peac | 1 | 0.0024630541871921183 | 0.0035277134537069423
peel | 1 | 0.0024630541871921183 | 0.010930872577862507
peopl | 2 | 0.0049261083743842365 | 0.001979927494596258
permit | 1 | 0.0024630541871921183 | 0.005688922563455443
polic | 10 | 0.024630541871921183 | 0.021181930374520274
polygami | 1 | 0.0024630541871921183 | 0.013187746301690475
portabl | 1 | 0.0024630541871921183 | 0.013187746301690475
power | 1 | 0.0024630541871921183 | 0.001426876940667849
practic | 1 | 0.0024630541871921183 | 0.006601173273546315
presid | 1 | 0.0024630541871921183 | 0.0010785723740426559
prevent | 1 | 0.0024630541871921183 | 0.006436908804337763
priest | 6 | 0.014778325123152709 | 0.04012563057444937
primarili | 1 | 0.0024630541871921183 | 0.01148048723627189
probabl | 1 | 0.0024630541871921183 | 0.004810412849320634
problem | 1 | 0.0024630541871921183 | 0.0036019820206298183
profession | 1 | 0.0024630541871921183 | 0.008224930980157802
properli | 1 | 0.0024630541871921183 | 0.013187746301690475
protest | 2 | 0.0049261083743842365 | 0.008456348959408605
provid | 1 | 0.0024630541871921183 | 0.006436908804337763
public | 1 | 0.0024630541871921183 | 0.004228174479704303
push | 1 | 0.0024630541871921183 | 0.006068604040862483
put | 1 | 0.0024630541871921183 | 0.007281600309576261
qualiti | 1 | 0.0024630541871921183 | 0.008988859374994846
quasi | 1 | 0.0024630541871921183 | 0.013187746301690475
race | 1 | 0.0024630541871921183 | 0.005574341244157678
radio | 1 | 0.0024630541871921183 | 0.003981663498036858
ralli | 1 | 0.0024630541871921183 | 0.007067286573148601
real | 2 | 0.0049261083743842365 | 0.010139843017152726
reason | 1 | 0.0024630541871921183 | 0.00426079819091125
red | 4 | 0.009852216748768473 | 0.0004771981980255666
regim | 2 | 0.0049261083743842365 | 0.006165426765761265
rel | 1 | 0.0024630541871921183 | 0.006777180573994948
releas | 1 | 0.0024630541871921183 | 0.006358710040016136
relent | 1 | 0.0024630541871921183 | 0.013187746301690475
religi | 1 | 0.0024630541871921183 | 0.007172113209648099
religion | 3 | 0.007389162561576354 | 0.02218854488662208
repeat | 1 | 0.0024630541871921183 | 0.006687605095741562
repetit | 1 | 0.0024630541871921183 | 0.013187746301690475
repris | 1 | 0.0024630541871921183 | 0.01148048723627189
resent | 1 | 0.0024630541871921183 | 0.008394864161160146
restraint | 1 | 0.0024630541871921183 | 0.012189063769404356
rifl | 1 | 0.0024630541871921183 | 0.006436908804337763
right | 1 | 0.0024630541871921183 | 0.002906004257612551
riot | 1 | 0.0024630541871921183 | 0.006137990437332179
ritualist | 1 | 0.0024630541871921183 | 0.010481804703985772
robe | 1 | 0.0024630541871921183 | 0.008774545638567187
roman | 1 | 0.0024630541871921183 | 0.006687605095741562
rule | 1 | 0.0024630541871921183 | 0.0033174675203297087
run | 2 | 0.0049261083743842365 | 0.006415960840803093
rush | 1 | 0.0024630541871921183 | 0.005935433545122887
sacrific | 1 | 0.0024630541871921183 | 0.008394864161160146
safeti | 1 | 0.0024630541871921183 | 0.008224930980157802
saffron | 1 | 0.0024630541871921183 | 0.010930872577862507
saigon | 5 | 0.012315270935960592 | 0.01625596502874307
sarit | 1 | 0.0024630541871921183 | 0.006966739788615954
savag | 1 | 0.0024630541871921183 | 0.008394864161160146
scene | 1 | 0.0024630541871921183 | 0.006687605095741562
scholarship | 1 | 0.0024630541871921183 | 0.01010212322657873
school | 3 | 0.007389162561576354 | 0.014188949216757533
seal | 1 | 0.0024630541871921183 | 0.007916647376822813
seat | 1 | 0.0024630541871921183 | 0.004361344975443898
secret | 2 | 0.0049261083743842365 | 0.009302901949195103
sentri | 1 | 0.0024630541871921183 | 0.014895005367109058
seventeenth | 1 | 0.0024630541871921183 | 0.010481804703985772
seventh | 3 | 0.007389162561576354 | -0.001265231088513186
shirt | 1 | 0.0024630541871921183 | 0.008774545638567187
shock | 1 | 0.0024630541871921183 | 0.007516354447025337
shoot | 1 | 0.0024630541871921183 | 0.006068604040862483
shot | 1 | 0.0024630541871921183 | 0.005688922563455443
shout | 1 | 0.0024630541871921183 | 0.0054648541442295145
show | 1 | 0.0024630541871921183 | 0.0051159612450594975
shown | 2 | 0.0049261083743842365 | 0.015285385221082944
similar | 1 | 0.0024630541871921183 | 0.008065969105434721
sin | 1 | 0.0024630541871921183 | 0.009223613512443921
sixti | 1 | 0.0024630541871921183 | 0.0009044324384955926
slightli | 1 | 0.0024630541871921183 | 0.008774545638567187
social | 1 | 0.0024630541871921183 | 0.004071238976290244
solid | 1 | 0.0024630541871921183 | 0.008394864161160146
sooner | 1 | 0.0024630541871921183 | 0.008988859374994846
south | 9 | 0.022167487684729065 | 0.008988142790575073
special | 1 | 0.0024630541871921183 | 0.004651450974597552
spirit | 1 | 0.0024630541871921183 | 0.0065176719147392185
split | 1 | 0.0024630541871921183 | 0.005748276138773325
sport | 1 | 0.0024630541871921183 | 0.006687605095741562
squad | 1 | 0.0024630541871921183 | 0.008065969105434721
standard | 1 | 0.0024630541871921183 | 0.006282917777290143
state | 12 | 0.029556650246305417 | -0.024863062478396602
step | 1 | 0.0024630541871921183 | 0.00489391420812773
stream | 1 | 0.0024630541871921183 | 0.0073961816288740274
street | 3 | 0.007389162561576354 | 0.009688475842254551
strike | 1 | 0.0024630541871921183 | 0.004228174479704303
strongman | 1 | 0.0024630541871921183 | 0.007642692610541472
structur | 1 | 0.0024630541871921183 | 0.009223613512443921
student | 1 | 0.0024630541871921183 | 0.003552221657778785
stupidli | 1 | 0.0024630541871921183 | 0.012189063769404356
stymi | 1 | 0.0024630541871921183 | 0.013187746301690475
succeed | 1 | 0.0024630541871921183 | 0.006068604040862483
suddenli | 1 | 0.0024630541871921183 | 0.00525948072319737
suicid | 1 | 0.0024630541871921183 | 0.007172113209648099
talki | 1 | 0.0024630541871921183 | 0.013187746301690475
taxi | 1 | 0.0024630541871921183 | 0.010930872577862507
telephon | 1 | 0.0024630541871921183 | 0.006966739788615954
tension | 1 | 0.0024630541871921183 | 0.009773228170853306
terror | 1 | 0.0024630541871921183 | 0.007172113209648099
thailand | 1 | 0.0024630541871921183 | 0.0055189893824531
thanarat | 1 | 0.0024630541871921183 | 0.012189063769404356
thatwhen | 1 | 0.0024630541871921183 | 0.014895005367109058
theologian | 1 | 0.0024630541871921183 | 0.014895005367109058
thich | 1 | 0.0024630541871921183 | 0.01010212322657873
tho | 1 | 0.0024630541871921183 | 0.010481804703985772
thousand | 6 | 0.014778325123152709 | -0.028083345698354027
threaten | 1 | 0.0024630541871921183 | 0.004936751012836768
throughout | 1 | 0.0024630541871921183 | 0.006068604040862483
tillich | 1 | 0.0024630541871921183 | 0.014895005367109058
time | 1 | 0.0024630541871921183 | 0.005309241086048403
tinh | 1 | 0.0024630541871921183 | 0.013187746301690475
tommi | 1 | 0.0024630541871921183 | 0.01148048723627189
top | 2 | 0.0049261083743842365 | 0.0066349350406594175
tough | 1 | 0.0024630541871921183 | 0.005871454514572985
trade | 1 | 0.0024630541871921183 | 0.00375759507881093
transform | 2 | 0.0049261083743842365 | 0.017977718749989692
treat | 1 | 0.0024630541871921183 | 0.007916647376822813
tri | 3 | 0.007389162561576354 | 0.005352430048580319
troop | 2 | 0.0049261083743842365 | 0.004637569976087178
troubl | 1 | 0.0024630541871921183 | 0.0041641954491544
truck | 1 | 0.0024630541871921183 | 0.006137990437332179
turn | 1 | 0.0024630541871921183 | 0.0020503360133923457
twenti | 9 | 0.022167487684729065 | -0.0353392373397346
type | 1 | 0.0024630541871921183 | 0.007516354447025337
ugliest | 1 | 0.0024630541871921183 | 0.014895005367109058
union | 1 | 0.0024630541871921183 | 0.0028313605396437604
unit | 9 | 0.022167487684729065 | -0.01882733835760568
unlik | 2 | 0.0049261083743842365 | 0.013740274093718207
urg | 2 | 0.0049261083743842365 | 0.010421411558236218
use | 2 | 0.0049261083743842365 | 0.012002237765527357
van | 1 | 0.0024630541871921183 | 0.006687605095741562
viet | 1 | 0.0024630541871921183 | 0.0033399613222096906
vietnam | 9 | 0.022167487684729065 | 0.021830035256585716
vietnames | 5 | 0.012315270935960592 | 0.023451200155846615
violenc | 1 | 0.0024630541871921183 | 0.008988859374994846
virtu | 1 | 0.0024630541871921183 | 0.01010212322657873
wait | 1 | 0.0024630541871921183 | 0.005630965673282551
walki | 1 | 0.0024630541871921183 | 0.013187746301690475
want | 2 | 0.0049261083743842365 | 0.004913872767471631
war | 1 | 0.0024630541871921183 | 0.000789469043002662
western | 1 | 0.0024630541871921183 | 0.0023337580079361565
whole | 1 | 0.0024630541871921183 | 0.0054648541442295145
wife | 1 | 0.0024630541871921183 | 0.0038952316758416117
will | 1 | 0.0024630541871921183 | 0.007067286573148601
window | 1 | 0.0024630541871921183 | 0.007067286573148601
wire | 2 | 0.0049261083743842365 | 0.016449861960315604
women | 2 | 0.0049261083743842365 | 0.008722689950887796
woo | 1 | 0.0024630541871921183 | 0.008577396112277688
world | 2 | 0.0049261083743842365 | 0.0017586833730158498
wound | 1 | 0.0024630541871921183 | 0.006358710040016136
xa | 1 | 0.0024630541871921183 | 0.010481804703985772
yell | 1 | 0.0024630541871921183 | 0.010930872577862507
young | 2 | 0.0049261083743842365 | 0.00659035457011795
