abubakar | 3 | 0.014285714285714285 | 0.055002108595857975
accus | 2 | 0.009523809523809525 | 0.021773067270025866
action | 2 | 0.009523809523809525 | 0.018923134938093895
admir | 1 | 0.004761904761904762 | 0.012293506077364532
advanc | 1 | 0.004761904761904762 | 0.012293506077364532
africa | 2 | 0.009523809523809525 | 0.009140722322037085
ahead | 1 | 0.004761904761904762 | 0.012004817402048175
amateurish | 1 | 0.004761904761904762 | 0.02879701037641085
arm | 2 | 0.009523809523809525 | 0.013640492021000178
awolowo | 11 | 0.05238095238095238 | 0.15485536658365515
back | 1 | 0.004761904761904762 | 0.010168329398181582
backyard | 1 | 0.004761904761904762 | 0.022195608656792324
bake | 1 | 0.004761904761904762 | 0.02356552328751509
balanc | 1 | 0.004761904761904762 | 0.012293506077364532
balewa | 2 | 0.009523809523809525 | 0.040529644855411655
bespectacl | 1 | 0.004761904761904762 | 0.01889490779698306
bit | 1 | 0.004761904761904762 | 0.015033335338810065
boss | 1 | 0.004761904761904762 | 0.009628668991957757
british | 2 | 0.009523809523809525 | 0.004745677087152935
carri | 1 | 0.004761904761904762 | 0.0075858327752036684
cartridg | 1 | 0.004761904761904762 | 0.02549630951660159
case | 1 | 0.004761904761904762 | 0.006680863237642407
ceremoni | 1 | 0.004761904761904762 | 0.013102549109723567
certainli | 1 | 0.004761904761904762 | 0.014531618597582318
challeng | 1 | 0.004761904761904762 | 0.013663420708087298
changeov | 1 | 0.004761904761904762 | 0.02549630951660159
check | 1 | 0.004761904761904762 | 0.013866085538652994
chief | 2 | 0.009523809523809525 | 0.011458905643692254
choic | 1 | 0.004761904761904762 | 0.013663420708087298
claim | 1 | 0.004761904761904762 | 0.007871062020827806
clannish | 1 | 0.004761904761904762 | 0.02356552328751509
close | 1 | 0.004761904761904762 | 0.007012672383537596
commonwealth | 1 | 0.004761904761904762 | 0.01737846145832337
complain | 1 | 0.004761904761904762 | 0.011230917737773056
conduct | 1 | 0.004761904761904762 | 0.014077760598514106
conspiraci | 1 | 0.004761904761904762 | 0.016230070711576287
constitut | 1 | 0.004761904761904762 | 0.010565384678843728
convert | 1 | 0.004761904761904762 | 0.016582965817070198
convict | 2 | 0.009523809523809525 | 0.026205098219447134
countri | 2 | 0.009523809523809525 | 0.0027173409168200113
court | 1 | 0.004761904761904762 | 0.009067797393594026
courtroom | 1 | 0.004761904761904762 | 0.017832319457391582
croni | 1 | 0.004761904761904762 | 0.017832319457391582
day | 1 | 0.004761904761904762 | 0.005403415682429648
decapit | 1 | 0.004761904761904762 | 0.02879701037641085
decis | 1 | 0.004761904761904762 | 0.00998156409745167
decorum | 1 | 0.004761904761904762 | 0.02549630951660159
degre | 1 | 0.004761904761904762 | 0.01737846145832337
delic | 1 | 0.004761904761904762 | 0.017832319457391582
deliv | 1 | 0.004761904761904762 | 0.013866085538652994
democraci | 1 | 0.004761904761904762 | 0.012004817402048175
deni | 1 | 0.004761904761904762 | 0.012293506077364532
distress | 1 | 0.004761904761904762 | 0.021133020317200848
dock | 3 | 0.014285714285714285 | 0.055002108595857975
dominion | 1 | 0.004761904761904762 | 0.02879701037641085
draw | 1 | 0.004761904761904762 | 0.013866085538652994
dug | 1 | 0.004761904761904762 | 0.020264822427705827
duress | 1 | 0.004761904761904762 | 0.02549630951660159
earlier | 1 | 0.004761904761904762 | 0.01276226832885621
east | 1 | 0.004761904761904762 | 0.004368921257729546
educ | 1 | 0.004761904761904762 | 0.009143989495243745
effici | 1 | 0.004761904761904762 | 0.014775872380380181
elizabeth | 1 | 0.004761904761904762 | 0.016582965817070198
enahoro | 2 | 0.009523809523809525 | 0.05099261903320318
end | 1 | 0.004761904761904762 | 0.0036874886689644342
enjoy | 1 | 0.004761904761904762 | 0.012929369851767021
eve | 1 | 0.004761904761904762 | 0.015594206937173796
evid | 1 | 0.004761904761904762 | 0.00998156409745167
evil | 1 | 0.004761904761904762 | 0.017832319457391582
explos | 1 | 0.004761904761904762 | 0.014077760598514106
eye | 1 | 0.004761904761904762 | 0.008846273509618346
feder | 2 | 0.009523809523809525 | 0.013735257076744636
feloni | 1 | 0.004761904761904762 | 0.02879701037641085
fifti | 1 | 0.004761904761904762 | 0.0009020905931562794
fill | 1 | 0.004761904761904762 | 0.011866781512175547
frankli | 1 | 0.004761904761904762 | 0.020264822427705827
georg | 1 | 0.004761904761904762 | 0.011602163173343113
ghana | 2 | 0.009523809523809525 | 0.023465268958001603
give | 1 | 0.004761904761904762 | 0.010264532766360246
govern | 2 | 0.009523809523809525 | -0.0046325396084482455
grave | 1 | 0.004761904761904762 | 0.013663420708087298
group | 2 | 0.009523809523809525 | 0.015283056405294874
half | 2 | 0.009523809523809525 | 0.016101555736730347
hand | 1 | 0.004761904761904762 | 0.004121850613115204
head | 2 | 0.009523809523809525 | 0.009685088168131835
headless | 1 | 0.004761904761904762 | 0.02879701037641085
help | 1 | 0.004761904761904762 | 0.005403415682429648
hidden | 1 | 0.004761904761904762 | 0.01737846145832337
hundr | 3 | 0.014285714285714285 | -0.014788234147271744
incred | 1 | 0.004761904761904762 | 0.01737846145832337
inde | 1 | 0.004761904761904762 | 0.01244469035505301
independ | 1 | 0.004761904761904762 | 0.006079464545621969
india | 1 | 0.004761904761904762 | 0.007012672383537596
influenti | 1 | 0.004761904761904762 | 0.021133020317200848
insist | 1 | 0.004761904761904762 | 0.00769788276287126
instal | 1 | 0.004761904761904762 | 0.01276226832885621
instruct | 1 | 0.004761904761904762 | 0.01953077157138555
insuffici | 1 | 0.004761904761904762 | 0.022195608656792324
interrupt | 1 | 0.004761904761904762 | 0.01953077157138555
invalu | 1 | 0.004761904761904762 | 0.02356552328751509
januari | 1 | 0.004761904761904762 | 0.008498534771452203
jawaharl | 1 | 0.004761904761904762 | 0.018334036198619327
judg | 1 | 0.004761904761904762 | 0.01276226832885621
juju | 1 | 0.004761904761904762 | 0.02879701037641085
june | 1 | 0.004761904761904762 | 0.0006503596905035749
key | 1 | 0.004761904761904762 | 0.011866781512175547
lago | 2 | 0.009523809523809525 | 0.035664638914783164
lament | 1 | 0.004761904761904762 | 0.018334036198619327
law | 1 | 0.004761904761904762 | 0.007264683819034465
leadership | 1 | 0.004761904761904762 | 0.00998156409745167
learn | 1 | 0.004761904761904762 | 0.011602163173343113
london | 1 | 0.004761904761904762 | 0.005843288635434482
lost | 1 | 0.004761904761904762 | 0.008237543169095083
loyal | 1 | 0.004761904761904762 | 0.014775872380380181
marathon | 1 | 0.004761904761904762 | 0.022195608656792324
master | 1 | 0.004761904761904762 | 0.014299284482489787
mere | 1 | 0.004761904761904762 | 0.010168329398181582
mete | 1 | 0.004761904761904762 | 0.02356552328751509
milder | 1 | 0.004761904761904762 | 0.02549630951660159
minist | 2 | 0.009523809523809525 | 0.0009212345377004868
missionari | 1 | 0.004761904761904762 | 0.01889490779698306
mix | 1 | 0.004761904761904762 | 0.014775872380380181
moslem | 1 | 0.004761904761904762 | 0.01214697436942761
nation | 2 | 0.009523809523809525 | -0.0035952080462772367
nativ | 1 | 0.004761904761904762 | 0.012600832368495823
nearbi | 1 | 0.004761904761904762 | 0.015901533228305086
nehru | 1 | 0.004761904761904762 | 0.009714471399113366
new | 1 | 0.004761904761904762 | -0.001267504129670559
nigeria | 8 | 0.0380952380952381 | 0.10209814663084968
nigerian | 1 | 0.004761904761904762 | 0.01737846145832337
nine | 2 | 0.009523809523809525 | -0.005078732935606393
nonsmok | 1 | 0.004761904761904762 | 0.02879701037641085
north | 2 | 0.009523809523809525 | 0.013090888996041636
obafemi | 1 | 0.004761904761904762 | 0.02549630951660159
obtain | 1 | 0.004761904761904762 | 0.01889490779698306
octob | 1 | 0.004761904761904762 | 0.015033335338810065
openli | 1 | 0.004761904761904762 | 0.015594206937173796
opposit | 3 | 0.014285714285714285 | 0.022924584607942305
orat | 1 | 0.004761904761904762 | 0.021133020317200848
organ | 1 | 0.004761904761904762 | 0.00769788276287126
overthrow | 1 | 0.004761904761904762 | 0.013469030257990846
page | 1 | 0.004761904761904762 | 0.017832319457391582
parti | 2 | 0.009523809523809525 | -0.0010438743479931176
plan | 2 | 0.009523809523809525 | 0.009500154017111821
plot | 1 | 0.004761904761904762 | 0.012929369851767021
polic | 1 | 0.004761904761904762 | 0.004095173205740587
politico | 1 | 0.004761904761904762 | 0.02879701037641085
predomin | 1 | 0.004761904761904762 | 0.02879701037641085
presid | 1 | 0.004761904761904762 | 0.002085239923149135
prime | 2 | 0.009523809523809525 | 0.010328833797965436
prison | 3 | 0.014285714285714285 | 0.023790650633891377
proceed | 1 | 0.004761904761904762 | 0.016964121567896562
prosecut | 1 | 0.004761904761904762 | 0.021133020317200848
prosecutor | 1 | 0.004761904761904762 | 0.016582965817070198
protest | 1 | 0.004761904761904762 | 0.008174470660761653
prove | 1 | 0.004761904761904762 | 0.013282264957260934
purchas | 1 | 0.004761904761904762 | 0.020264822427705827
queen | 1 | 0.004761904761904762 | 0.01214697436942761
real | 1 | 0.004761904761904762 | 0.009801848249914303
rebel | 1 | 0.004761904761904762 | 0.008112222653298067
region | 2 | 0.009523809523809525 | 0.01996312819490334
remain | 1 | 0.004761904761904762 | 0.006457258556272069
render | 1 | 0.004761904761904762 | 0.022195608656792324
reorgan | 1 | 0.004761904761904762 | 0.02549630951660159
replac | 1 | 0.004761904761904762 | 0.011351478728174437
republ | 1 | 0.004761904761904762 | 0.00998156409745167
respect | 1 | 0.004761904761904762 | 0.011230917737773056
ringlead | 1 | 0.004761904761904762 | 0.01953077157138555
rivalri | 1 | 0.004761904761904762 | 0.020264822427705827
sept | 1 | 0.004761904761904762 | 0.02356552328751509
serv | 1 | 0.004761904761904762 | 0.009461567469046948
servic | 1 | 0.004761904761904762 | 0.008918975757860196
seventh | 2 | 0.009523809523809525 | -0.00163074229186144
shock | 1 | 0.004761904761904762 | 0.014531618597582318
sir | 3 | 0.014285714285714285 | 0.02675692727358058
sixti | 1 | 0.004761904761904762 | 0.0017485693810914793
solid | 1 | 0.004761904761904762 | 0.016230070711576287
sovereign | 1 | 0.004761904761904762 | 0.021133020317200848
sowemimo | 1 | 0.004761904761904762 | 0.02879701037641085
stabl | 1 | 0.004761904761904762 | 0.018334036198619327
state | 2 | 0.009523809523809525 | -0.008011431243038906
tafawa | 2 | 0.009523809523809525 | 0.042266040634401696
teetotal | 1 | 0.004761904761904762 | 0.02549630951660159
term | 1 | 0.004761904761904762 | 0.009380165405431231
testifi | 2 | 0.009523809523809525 | 0.03475692291664674
testimoni | 2 | 0.009523809523809525 | 0.035664638914783164
thousand | 5 | 0.023809523809523808 | -0.0452453902917926
toni | 1 | 0.004761904761904762 | 0.02549630951660159
top | 1 | 0.004761904761904762 | 0.006413770539304104
toppl | 1 | 0.004761904761904762 | 0.015594206937173796
train | 2 | 0.009523809523809525 | 0.016224445306596134
treason | 1 | 0.004761904761904762 | 0.016964121567896562
trial | 2 | 0.009523809523809525 | 0.01828797899048749
tribe | 1 | 0.004761904761904762 | 0.012929369851767021
twenti | 5 | 0.023809523809523808 | -0.037956958624159376
univers | 1 | 0.004761904761904762 | 0.009544385291484419
unperturb | 1 | 0.004761904761904762 | 0.02879701037641085
verdict | 1 | 0.004761904761904762 | 0.017832319457391582
version | 1 | 0.004761904761904762 | 0.016582965817070198
violenc | 1 | 0.004761904761904762 | 0.01737846145832337
virtual | 1 | 0.004761904761904762 | 0.011475171520570917
visit | 1 | 0.004761904761904762 | 0.007111882321170178
western | 2 | 0.009523809523809525 | 0.009023864297353138
wink | 2 | 0.009523809523809525 | 0.042266040634401696
wipe | 1 | 0.004761904761904762 | 0.016964121567896562
wit | 4 | 0.01904761904761905 | 0.0480192696081927
within | 1 | 0.004761904761904762 | 0.00998156409745167
wonder | 1 | 0.004761904761904762 | 0.013663420708087298
work | 1 | 0.004761904761904762 | 0.003048573369457901
yoruba | 2 | 0.009523809523809525 | 0.04713104657503018
