abil | 1 | 0.0016181229773462784 | 0.005905302437294349
abolish | 1 | 0.0016181229773462784 | 0.0066366699514416915
abort | 1 | 0.0016181229773462784 | 0.005634988384441329
abroad | 2 | 0.003236245954692557 | 0.007884965263437068
abruptli | 1 | 0.0016181229773462784 | 0.005634988384441329
accept | 1 | 0.0016181229773462784 | 0.0023175593239563408
accord | 3 | 0.0048543689320388345 | 0.010365772687466659
accus | 1 | 0.0016181229773462784 | 0.003699307545878181
act | 1 | 0.0016181229773462784 | 0.002865220161861202
action | 1 | 0.0016181229773462784 | 0.003215095741909157
ad | 1 | 0.0016181229773462784 | 0.005020927507896178
adher | 1 | 0.0016181229773462784 | 0.0066366699514416915
adjac | 1 | 0.0016181229773462784 | 0.00718112340875757
administr | 3 | 0.0048543689320388345 | 0.009645287225727469
advanc | 1 | 0.0016181229773462784 | 0.004177404977745229
advis | 3 | 0.0048543689320388345 | 0.011212148353218007
affirm | 1 | 0.0016181229773462784 | 0.008007702087990565
aftermath | 1 | 0.0016181229773462784 | 0.008663794495932579
afternoon | 1 | 0.0016181229773462784 | 0.00576450732889689
air | 1 | 0.0016181229773462784 | 0.002559003333967143
allow | 1 | 0.0016181229773462784 | 0.0033917936253476545
american | 3 | 0.0048543689320388345 | 0.006718121771525295
amid | 1 | 0.0016181229773462784 | 0.005515072571894854
angri | 1 | 0.0016181229773462784 | 0.003942482631718534
ankledeep | 1 | 0.0016181229773462784 | 0.009785391875479414
announc | 1 | 0.0016181229773462784 | 0.002382946926444814
anti | 2 | 0.003236245954692557 | 0.0049371637605088595
april | 1 | 0.0016181229773462784 | 0.004127612649805499
area | 1 | 0.0016181229773462784 | 0.00295770950464429
aristocrat | 1 | 0.0016181229773462784 | 0.005515072571894854
armi | 3 | 0.0048543689320388345 | 0.0027917548804602095
armor | 3 | 0.0048543689320388345 | 0.012097204454159535
arrest | 1 | 0.0016181229773462784 | 0.0030558075981983917
arriv | 1 | 0.0016181229773462784 | 0.0027777327488025033
artilleri | 1 | 0.0016181229773462784 | 0.005020927507896178
assembl | 1 | 0.0016181229773462784 | 0.0033609713033886024
assign | 1 | 0.0016181229773462784 | 0.005020927507896178
athlet | 1 | 0.0016181229773462784 | 0.008007702087990565
attach | 1 | 0.0016181229773462784 | 0.004336693121455994
attack | 2 | 0.003236245954692557 | 0.004571660811704344
august | 1 | 0.0016181229773462784 | 0.004393475192348017
avoid | 1 | 0.0016181229773462784 | 0.004281836241721881
away | 1 | 0.0016181229773462784 | 0.0023175593239563408
band | 1 | 0.0016181229773462784 | 0.004393475192348017
bandit | 2 | 0.003236245954692557 | 0.013273339902883383
bao | 1 | 0.0016181229773462784 | 0.009785391875479414
barrack | 1 | 0.0016181229773462784 | 0.005905302437294349
barrag | 1 | 0.0016181229773462784 | 0.006230012300501713
battalion | 1 | 0.0016181229773462784 | 0.00576450732889689
battl | 2 | 0.003236245954692557 | 0.005821608210346016
beaten | 1 | 0.0016181229773462784 | 0.006420599736838903
begin | 1 | 0.0016181229773462784 | 0.003737382784406003
behalf | 1 | 0.0016181229773462784 | 0.006886104708443727
bellyflat | 1 | 0.0016181229773462784 | 0.009785391875479414
beo | 1 | 0.0016181229773462784 | 0.009785391875479414
besieg | 1 | 0.0016181229773462784 | 0.008663794495932579
bid | 1 | 0.0016181229773462784 | 0.005905302437294349
binh | 2 | 0.003236245954692557 | 0.017327588991865157
bishop | 1 | 0.0016181229773462784 | 0.007542197116385741
bitterest | 1 | 0.0016181229773462784 | 0.008007702087990565
blank | 1 | 0.0016181229773462784 | 0.008007702087990565
bless | 1 | 0.0016181229773462784 | 0.005905302437294349
blunt | 1 | 0.0016181229773462784 | 0.0066366699514416915
board | 1 | 0.0016181229773462784 | 0.004452322513012862
boat | 1 | 0.0016181229773462784 | 0.006420599736838903
bodi | 2 | 0.003236245954692557 | 0.007973635082816078
bookstor | 1 | 0.0016181229773462784 | 0.009785391875479414
bore | 1 | 0.0016181229773462784 | 0.00576450732889689
born | 1 | 0.0016181229773462784 | 0.004513391004894492
boss | 1 | 0.0016181229773462784 | 0.0032718778128011795
bossduong | 1 | 0.0016181229773462784 | 0.009785391875479414
boy | 2 | 0.003236245954692557 | 0.008457556551977772
breast | 1 | 0.0016181229773462784 | 0.00718112340875757
broke | 1 | 0.0016181229773462784 | 0.0033609713033886024
brother | 4 | 0.006472491909385114 | 0.011196660618187491
bruis | 1 | 0.0016181229773462784 | 0.006886104708443727
buddhist | 3 | 0.0048543689320388345 | 0.004511545469075354
bulldog | 1 | 0.0016181229773462784 | 0.009785391875479414
bullet | 1 | 0.0016181229773462784 | 0.004576854942035725
calendar | 1 | 0.0016181229773462784 | 0.008007702087990565
call | 1 | 0.0016181229773462784 | 0.0021647928442296827
camouflag | 1 | 0.0016181229773462784 | 0.0066366699514416915
campaign | 2 | 0.003236245954692557 | 0.005270328709545891
cannon | 2 | 0.003236245954692557 | 0.013273339902883383
cantho | 1 | 0.0016181229773462784 | 0.009785391875479414
cao | 1 | 0.0016181229773462784 | 0.008007702087990565
capabl | 1 | 0.0016181229773462784 | 0.00576450732889689
capitul | 1 | 0.0016181229773462784 | 0.007542197116385741
car | 3 | 0.0048543689320388345 | 0.007249977123522996
care | 1 | 0.0016181229773462784 | 0.0038572985969524787
career | 1 | 0.0016181229773462784 | 0.005515072571894854
carri | 1 | 0.0016181229773462784 | 0.0025777101663313436
carrier | 1 | 0.0016181229773462784 | 0.006059526029210732
cathol | 1 | 0.0016181229773462784 | 0.003301033970572503
catholic | 1 | 0.0016181229773462784 | 0.006420599736838903
caught | 1 | 0.0016181229773462784 | 0.004783705057747512
caus | 1 | 0.0016181229773462784 | 0.0029816821353645826
cautious | 1 | 0.0016181229773462784 | 0.007542197116385741
ceas | 1 | 0.0016181229773462784 | 0.00485898016395284
cell | 1 | 0.0016181229773462784 | 0.006059526029210732
centuri | 1 | 0.0016181229773462784 | 0.0028878516213672535
ceremoni | 1 | 0.0016181229773462784 | 0.004452322513012862
chain | 1 | 0.0016181229773462784 | 0.005403433621268719
cheek | 1 | 0.0016181229773462784 | 0.00576450732889689
cheer | 3 | 0.0048543689320388345 | 0.012382837949416492
chief | 1 | 0.0016181229773462784 | 0.0019469014443166451
children | 2 | 0.003236245954692557 | 0.006602067941145006
chill | 1 | 0.0016181229773462784 | 0.00718112340875757
china | 1 | 0.0016181229773462784 | 0.0011721071195920224
chines | 2 | 0.003236245954692557 | 0.0020718459792432335
choic | 1 | 0.0016181229773462784 | 0.004642909949350052
cholon | 2 | 0.003236245954692557 | 0.015084394232771482
choru | 2 | 0.003236245954692557 | 0.013772209416887454
chosen | 1 | 0.0016181229773462784 | 0.006420599736838903
chunk | 1 | 0.0016181229773462784 | 0.007542197116385741
church | 2 | 0.003236245954692557 | 0.009285819898700105
circuit | 1 | 0.0016181229773462784 | 0.007542197116385741
civilian | 1 | 0.0016181229773462784 | 0.0037763755863138675
clean | 1 | 0.0016181229773462784 | 0.005515072571894854
clear | 1 | 0.0016181229773462784 | 0.0032718778128011795
clearli | 1 | 0.0016181229773462784 | 0.004576854942035725
co | 1 | 0.0016181229773462784 | 0.005108414920954876
cold | 1 | 0.0016181229773462784 | 0.003699307545878181
colleg | 1 | 0.0016181229773462784 | 0.006059526029210732
coloni | 3 | 0.0048543689320388345 | 0.010175380876042963
column | 1 | 0.0016181229773462784 | 0.00576450732889689
command | 9 | 0.014563106796116505 | 0.021002941646478448
commiss | 1 | 0.0016181229773462784 | 0.00485898016395284
commit | 1 | 0.0016181229773462784 | 0.003699307545878181
communist | 3 | 0.0048543689320388345 | -0.0004907578488901396
complic | 1 | 0.0016181229773462784 | 0.006230012300501713
concern | 1 | 0.0016181229773462784 | 0.003625743833779868
condemn | 1 | 0.0016181229773462784 | 0.004711776639348104
cong | 2 | 0.003236245954692557 | 0.004799430380512756
consid | 2 | 0.003236245954692557 | 0.006910515124977774
constant | 1 | 0.0016181229773462784 | 0.006059526029210732
constantli | 1 | 0.0016181229773462784 | 0.006230012300501713
control | 1 | 0.0016181229773462784 | 0.001688391380422037
cool | 1 | 0.0016181229773462784 | 0.005108414920954876
coordin | 1 | 0.0016181229773462784 | 0.006420599736838903
corner | 1 | 0.0016181229773462784 | 0.005108414920954876
correspond | 1 | 0.0016181229773462784 | 0.004642909949350052
corrupt | 1 | 0.0016181229773462784 | 0.005020927507896178
cosa | 1 | 0.0016181229773462784 | 0.008663794495932579
counterfir | 1 | 0.0016181229773462784 | 0.009785391875479414
countri | 3 | 0.0048543689320388345 | 0.0013850524090587436
countrymen | 2 | 0.003236245954692557 | 0.013273339902883383
countrysid | 1 | 0.0016181229773462784 | 0.0066366699514416915
coup | 4 | 0.006472491909385114 | 0.011196660618187491
cours | 1 | 0.0016181229773462784 | 0.0029340868518592535
crazi | 1 | 0.0016181229773462784 | 0.008007702087990565
crime | 1 | 0.0016181229773462784 | 0.004642909949350052
crowd | 4 | 0.006472491909385114 | 0.010162041194615348
curtain | 1 | 0.0016181229773462784 | 0.004783705057747512
cut | 1 | 0.0016181229773462784 | 0.003133492418888296
dai | 2 | 0.003236245954692557 | 0.013273339902883383
danger | 1 | 0.0016181229773462784 | 0.0035553795749777017
dawn | 1 | 0.0016181229773462784 | 0.004711776639348104
dead | 1 | 0.0016181229773462784 | 0.003187434846505758
death | 1 | 0.0016181229773462784 | 0.0020934983623623195
deem | 1 | 0.0016181229773462784 | 0.008663794495932579
defend | 2 | 0.003236245954692557 | 0.006846428952498228
defiant | 1 | 0.0016181229773462784 | 0.007542197116385741
delight | 1 | 0.0016181229773462784 | 0.005200904263737965
dental | 1 | 0.0016181229773462784 | 0.009785391875479414
depart | 1 | 0.0016181229773462784 | 0.003625743833779868
destroy | 1 | 0.0016181229773462784 | 0.004642909949350052
devout | 1 | 0.0016181229773462784 | 0.00718112340875757
diminish | 1 | 0.0016181229773462784 | 0.005634988384441329
dinh | 3 | 0.0048543689320388345 | 0.012097204454159535
discuss | 1 | 0.0016181229773462784 | 0.003423214476249114
disench | 1 | 0.0016181229773462784 | 0.007542197116385741
distinguish | 1 | 0.0016181229773462784 | 0.005403433621268719
ditch | 1 | 0.0016181229773462784 | 0.0066366699514416915
doll | 1 | 0.0016181229773462784 | 0.00718112340875757
door | 1 | 0.0016181229773462784 | 0.003737382784406003
doubl | 1 | 0.0016181229773462784 | 0.004079306884191127
downgrad | 1 | 0.0016181229773462784 | 0.008007702087990565
dread | 1 | 0.0016181229773462784 | 0.00576450732889689
drink | 1 | 0.0016181229773462784 | 0.004393475192348017
drove | 1 | 0.0016181229773462784 | 0.00485898016395284
duli | 1 | 0.0016181229773462784 | 0.007542197116385741
duong | 1 | 0.0016181229773462784 | 0.006886104708443727
echelon | 1 | 0.0016181229773462784 | 0.008663794495932579
educ | 1 | 0.0016181229773462784 | 0.0031071808964420492
effort | 1 | 0.0016181229773462784 | 0.0032432377204073266
eighteenth | 1 | 0.0016181229773462784 | 0.006230012300501713
eighti | 1 | 0.0016181229773462784 | 0.0026351643547729456
either | 1 | 0.0016181229773462784 | 0.0038572985969524787
eleventh | 1 | 0.0016181229773462784 | 0.008007702087990565
emerg | 2 | 0.003236245954692557 | 0.006430191483818314
emperor | 1 | 0.0016181229773462784 | 0.005515072571894854
empti | 1 | 0.0016181229773462784 | 0.004281836241721881
end | 3 | 0.0048543689320388345 | 0.003759090390691898
enemi | 2 | 0.003236245954692557 | 0.006320477724350089
english | 1 | 0.0016181229773462784 | 0.0040324014847198456
enlist | 1 | 0.0016181229773462784 | 0.006886104708443727
enthusiasm | 1 | 0.0016181229773462784 | 0.005905302437294349
entri | 1 | 0.0016181229773462784 | 0.005108414920954876
escap | 1 | 0.0016181229773462784 | 0.003986817541408039
eschew | 1 | 0.0016181229773462784 | 0.008663794495932579
everyon | 1 | 0.0016181229773462784 | 0.003986817541408039
evid | 1 | 0.0016181229773462784 | 0.0033917936253476545
excel | 1 | 0.0016181229773462784 | 0.007542197116385741
excit | 1 | 0.0016181229773462784 | 0.005634988384441329
excrement | 1 | 0.0016181229773462784 | 0.009785391875479414
experi | 1 | 0.0016181229773462784 | 0.004281836241721881
explod | 1 | 0.0016181229773462784 | 0.005634988384441329
exult | 2 | 0.003236245954692557 | 0.01436224681751514
eye | 1 | 0.0016181229773462784 | 0.003006015270258661
fact | 1 | 0.0016181229773462784 | 0.005515072571894854
factor | 1 | 0.0016181229773462784 | 0.006420599736838903
fals | 1 | 0.0016181229773462784 | 0.005515072571894854
famili | 3 | 0.0048543689320388345 | 0.007621530895961511
fanat | 1 | 0.0016181229773462784 | 0.006059526029210732
fanatic | 1 | 0.0016181229773462784 | 0.009785391875479414
fat | 2 | 0.003236245954692557 | 0.01152901465779378
fate | 1 | 0.0016181229773462784 | 0.005020927507896178
fellow | 2 | 0.003236245954692557 | 0.009026782009788984
fenc | 1 | 0.0016181229773462784 | 0.0066366699514416915
field | 2 | 0.003236245954692557 | 0.006111615196396783
fifti | 3 | 0.0048543689320388345 | 0.0009196069153534885
final | 1 | 0.0016181229773462784 | 0.003816331270117058
fire | 6 | 0.009708737864077669 | 0.010735240353757025
flag | 2 | 0.003236245954692557 | 0.00704262513960643
flame | 1 | 0.0016181229773462784 | 0.006059526029210732
floor | 1 | 0.0016181229773462784 | 0.004127612649805499
follow | 1 | 0.0016181229773462784 | 0.0027777327488025033
fondli | 1 | 0.0016181229773462784 | 0.008007702087990565
foot | 2 | 0.003236245954692557 | 0.009423553278696208
forc | 4 | 0.006472491909385114 | 0.0015484122269633274
forgotten | 1 | 0.0016181229773462784 | 0.005515072571894854
form | 1 | 0.0016181229773462784 | 0.0030558075981983917
fort | 1 | 0.0016181229773462784 | 0.008007702087990565
forti | 4 | 0.006472491909385114 | 0.002624369631768054
fortress | 1 | 0.0016181229773462784 | 0.006886104708443727
fought | 2 | 0.003236245954692557 | 0.009423553278696208
freed | 1 | 0.0016181229773462784 | 0.006059526029210732
freeli | 1 | 0.0016181229773462784 | 0.005634988384441329
french | 7 | 0.011326860841423949 | 0.007931800223789103
friend | 1 | 0.0016181229773462784 | 0.002756580513256625
front | 1 | 0.0016181229773462784 | 0.003301033970572503
ft | 2 | 0.003236245954692557 | 0.008457556551977772
futil | 1 | 0.0016181229773462784 | 0.006230012300501713
gape | 1 | 0.0016181229773462784 | 0.007542197116385741
gart | 1 | 0.0016181229773462784 | 0.007542197116385741
gener | 14 | 0.022653721682847898 | 0.008473599945383489
govern | 1 | 0.0016181229773462784 | -0.0007870819723091679
grab | 2 | 0.003236245954692557 | 0.009875857299327788
grace | 1 | 0.0016181229773462784 | 0.00576450732889689
grade | 1 | 0.0016181229773462784 | 0.00718112340875757
graduat | 1 | 0.0016181229773462784 | 0.005634988384441329
ground | 3 | 0.0048543689320388345 | 0.008945046406093747
guard | 1 | 0.0016181229773462784 | 0.0031071808964420492
guerrilla | 3 | 0.0048543689320388345 | 0.009400477256664886
gulliv | 2 | 0.003236245954692557 | 0.01601540417598113
gun | 2 | 0.003236245954692557 | 0.006374869693011516
half | 1 | 0.0016181229773462784 | 0.0027357012174056413
hall | 1 | 0.0016181229773462784 | 0.004281836241721881
hand | 1 | 0.0016181229773462784 | 0.0014006288491168167
hao | 1 | 0.0016181229773462784 | 0.008663794495932579
happili | 1 | 0.0016181229773462784 | 0.005108414920954876
harkin | 1 | 0.0016181229773462784 | 0.006886104708443727
headquart | 2 | 0.003236245954692557 | 0.00704262513960643
hear | 1 | 0.0016181229773462784 | 0.003986817541408039
heard | 1 | 0.0016181229773462784 | 0.004281836241721881
heft | 1 | 0.0016181229773462784 | 0.008007702087990565
heighten | 1 | 0.0016181229773462784 | 0.008007702087990565
hell | 1 | 0.0016181229773462784 | 0.004937928649663894
help | 2 | 0.003236245954692557 | 0.0036722242501949064
heroic | 1 | 0.0016181229773462784 | 0.007542197116385741
heroin | 1 | 0.0016181229773462784 | 0.007542197116385741
hidden | 1 | 0.0016181229773462784 | 0.005905302437294349
hit | 1 | 0.0016181229773462784 | 0.004336693121455994
hoa | 1 | 0.0016181229773462784 | 0.008663794495932579
hole | 1 | 0.0016181229773462784 | 0.005299002357292066
hug | 1 | 0.0016181229773462784 | 0.008007702087990565
huge | 1 | 0.0016181229773462784 | 0.0038993301283493406
human | 1 | 0.0016181229773462784 | 0.003986817541408039
humili | 1 | 0.0016181229773462784 | 0.005634988384441329
hundr | 8 | 0.012944983818770227 | -0.013400341622123264
hunt | 1 | 0.0016181229773462784 | 0.004452322513012862
ii | 1 | 0.0016181229773462784 | 0.003455257562488887
implic | 1 | 0.0016181229773462784 | 0.006059526029210732
import | 1 | 0.0016181229773462784 | 0.0029816821353645826
impress | 1 | 0.0016181229773462784 | 0.004281836241721881
incompat | 1 | 0.0016181229773462784 | 0.008007702087990565
incred | 1 | 0.0016181229773462784 | 0.005905302437294349
independ | 1 | 0.0016181229773462784 | 0.0020658374669589212
infantryman | 1 | 0.0016181229773462784 | 0.008663794495932579
insid | 1 | 0.0016181229773462784 | 0.0033917936253476545
instal | 1 | 0.0016181229773462784 | 0.004336693121455994
insurrect | 1 | 0.0016181229773462784 | 0.0066366699514416915
interven | 1 | 0.0016181229773462784 | 0.006230012300501713
invad | 1 | 0.0016181229773462784 | 0.006420599736838903
jail | 3 | 0.0048543689320388345 | 0.008732412315519023
japanes | 5 | 0.008090614886731391 | 0.021143891379944428
join | 2 | 0.003236245954692557 | 0.005389467781140442
joint | 1 | 0.0016181229773462784 | 0.004452322513012862
joke | 1 | 0.0016181229773462784 | 0.006230012300501713
june | 2 | 0.003236245954692557 | 0.0004419920226723324
junta | 3 | 0.0048543689320388345 | 0.01301007936436798
kill | 3 | 0.0048543689320388345 | 0.006035685118024376
kind | 1 | 0.0016181229773462784 | 0.003590179259801267
kiss | 1 | 0.0016181229773462784 | 0.005403433621268719
knock | 2 | 0.003236245954692557 | 0.011030145143789707
know | 1 | 0.0016181229773462784 | 0.00718112340875757
label | 1 | 0.0016181229773462784 | 0.00718112340875757
launch | 1 | 0.0016181229773462784 | 0.0038993301283493406
lb | 1 | 0.0016181229773462784 | 0.005403433621268719
lead | 2 | 0.003236245954692557 | 0.0056417705043433925
leader | 2 | 0.003236245954692557 | 0.0015012164086232328
lean | 1 | 0.0016181229773462784 | 0.005020927507896178
leavenworth | 1 | 0.0016181229773462784 | 0.008663794495932579
left | 2 | 0.003236245954692557 | 0.003376782760844074
lie | 1 | 0.0016181229773462784 | 0.0037763755863138675
lieut | 2 | 0.003236245954692557 | 0.010598004714584133
lieuten | 2 | 0.003236245954692557 | 0.011810604874588697
light | 2 | 0.003236245954692557 | 0.007398615091756362
lilliputian | 1 | 0.0016181229773462784 | 0.008663794495932579
live | 1 | 0.0016181229773462784 | 0.0015934905275393385
loot | 1 | 0.0016181229773462784 | 0.0066366699514416915
losangel | 1 | 0.0016181229773462784 | 0.008663794495932579
lower | 1 | 0.0016181229773462784 | 0.004452322513012862
lyce | 1 | 0.0016181229773462784 | 0.008663794495932579
machin | 1 | 0.0016181229773462784 | 0.003816331270117058
madam | 2 | 0.003236245954692557 | 0.012460024601003426
main | 1 | 0.0016181229773462784 | 0.0037763755863138675
major | 1 | 0.0016181229773462784 | 0.0019725864753138782
maneuv | 1 | 0.0016181229773462784 | 0.005905302437294349
march | 1 | 0.0016181229773462784 | 0.0012613495468979771
mark | 1 | 0.0016181229773462784 | 0.004513391004894492
marri | 1 | 0.0016181229773462784 | 0.0040324014847198456
match | 1 | 0.0016181229773462784 | 0.004513391004894492
maxwel | 1 | 0.0016181229773462784 | 0.00718112340875757
meaningless | 1 | 0.0016181229773462784 | 0.007542197116385741
measur | 1 | 0.0016181229773462784 | 0.003816331270117058
merrili | 1 | 0.0016181229773462784 | 0.009785391875479414
midnight | 1 | 0.0016181229773462784 | 0.004783705057747512
militari | 7 | 0.011326860841423949 | 0.009932390433749003
minh | 33 | 0.05339805825242718 | 0.10428788245177646
minut | 2 | 0.003236245954692557 | 0.006543755625602359
mme | 1 | 0.0016181229773462784 | 0.004228778275988886
mob | 2 | 0.003236245954692557 | 0.007973635082816078
monk | 1 | 0.0016181229773462784 | 0.003662107678200675
monument | 1 | 0.0016181229773462784 | 0.008007702087990565
mortar | 1 | 0.0016181229773462784 | 0.005200904263737965
motorboat | 1 | 0.0016181229773462784 | 0.009785391875479414
mount | 1 | 0.0016181229773462784 | 0.003986817541408039
mouth | 1 | 0.0016181229773462784 | 0.006420599736838903
move | 1 | 0.0016181229773462784 | 0.0019469014443166451
murder | 3 | 0.0048543689320388345 | 0.011212148353218007
murray | 1 | 0.0016181229773462784 | 0.007542197116385741
mytho | 1 | 0.0016181229773462784 | 0.009785391875479414
nation | 3 | 0.0048543689320388345 | -0.0018325089556267466
naturedli | 1 | 0.0016181229773462784 | 0.009785391875479414
neglect | 1 | 0.0016181229773462784 | 0.006886104708443727
neighborhood | 1 | 0.0016181229773462784 | 0.007542197116385741
neither | 1 | 0.0016181229773462784 | 0.004393475192348017
new | 1 | 0.0016181229773462784 | -0.0004307052867812579
newli | 1 | 0.0016181229773462784 | 0.005020927507896178
next | 2 | 0.003236245954692557 | 0.0036016124463287584
ngo | 4 | 0.006472491909385114 | 0.016510450599221994
ngoc | 1 | 0.0016181229773462784 | 0.008663794495932579
ngodinhdiem | 19 | 0.030744336569579287 | 0.025426069134937074
nguyen | 1 | 0.0016181229773462784 | 0.00718112340875757
nhu | 8 | 0.012944983818770227 | 0.023286432841384062
nice | 1 | 0.0016181229773462784 | 0.006420599736838903
nicknam | 1 | 0.0016181229773462784 | 0.0066366699514416915
nine | 7 | 0.011326860841423949 | -0.006040240627298865
nostra | 1 | 0.0016181229773462784 | 0.008663794495932579
nudg | 1 | 0.0016181229773462784 | 0.007542197116385741
obvious | 2 | 0.003236245954692557 | 0.00915370988407145
offic | 4 | 0.006472491909385114 | 0.004350121497489404
offici | 4 | 0.006472491909385114 | 0.003915562903071097
one0 | 1 | 0.0016181229773462784 | 0.004228778275988886
onto | 1 | 0.0016181229773462784 | 0.005200904263737965
oper | 2 | 0.003236245954692557 | 0.006012030540517322
order | 4 | 0.006472491909385114 | 0.0065399325348391504
organ | 1 | 0.0016181229773462784 | 0.002615785404859166
orient | 2 | 0.003236245954692557 | 0.011030145143789707
outright | 1 | 0.0016181229773462784 | 0.006230012300501713
overlord | 1 | 0.0016181229773462784 | 0.00718112340875757
own | 1 | 0.0016181229773462784 | 0.004452322513012862
pagoda | 1 | 0.0016181229773462784 | 0.004783705057747512
pair | 2 | 0.003236245954692557 | 0.011030145143789707
palac | 9 | 0.014563106796116505 | 0.02057247365266955
pari | 1 | 0.0016181229773462784 | 0.0024685818802544298
parti | 1 | 0.0016181229773462784 | -0.000177357292134753
particip | 1 | 0.0016181229773462784 | 0.004937928649663894
paul | 1 | 0.0016181229773462784 | 0.004127612649805499
pentagon | 2 | 0.003236245954692557 | 0.011269976768882658
period | 1 | 0.0016181229773462784 | 0.005108414920954876
personnel | 1 | 0.0016181229773462784 | 0.005108414920954876
photograph | 1 | 0.0016181229773462784 | 0.004642909949350052
pick | 1 | 0.0016181229773462784 | 0.003699307545878181
pictur | 2 | 0.003236245954692557 | 0.008354809955490459
piec | 1 | 0.0016181229773462784 | 0.005403433621268719
pillag | 1 | 0.0016181229773462784 | 0.008663794495932579
plane | 1 | 0.0016181229773462784 | 0.003330725133466025
plate | 1 | 0.0016181229773462784 | 0.008663794495932579
pm | 1 | 0.0016181229773462784 | 0.0066366699514416915
polit | 1 | 0.0016181229773462784 | 0.0006618406306028029
popular | 3 | 0.0048543689320388345 | 0.009903101911717508
portrait | 1 | 0.0016181229773462784 | 0.006420599736838903
possibl | 1 | 0.0016181229773462784 | 0.002399715190256378
post | 1 | 0.0016181229773462784 | 0.0035553795749777017
pour | 1 | 0.0016181229773462784 | 0.003986817541408039
power | 1 | 0.0016181229773462784 | 0.0009373981195973249
predict | 1 | 0.0016181229773462784 | 0.004281836241721881
premier | 1 | 0.0016181229773462784 | 0.0012283254827698102
presid | 7 | 0.011326860841423949 | 0.0049600367104032815
pretti | 1 | 0.0016181229773462784 | 0.00485898016395284
prison | 5 | 0.008090614886731391 | 0.013473669452851103
privat | 1 | 0.0016181229773462784 | 0.0029816821353645826
pro | 2 | 0.003236245954692557 | 0.005963364270729165
problem | 1 | 0.0016181229773462784 | 0.0023663506478571296
promot | 1 | 0.0016181229773462784 | 0.005403433621268719
pronounc | 1 | 0.0016181229773462784 | 0.004937928649663894
protect | 1 | 0.0016181229773462784 | 0.003625743833779868
protest | 1 | 0.0016181229773462784 | 0.0027777327488025033
proud | 1 | 0.0016181229773462784 | 0.005403433621268719
puppet | 1 | 0.0016181229773462784 | 0.006059526029210732
push | 3 | 0.0048543689320388345 | 0.011960452624224115
quart | 1 | 0.0016181229773462784 | 0.008663794495932579
quarter | 1 | 0.0016181229773462784 | 0.004783705057747512
quickli | 1 | 0.0016181229773462784 | 0.004177404977745229
quiet | 1 | 0.0016181229773462784 | 0.004576854942035725
raid | 1 | 0.0016181229773462784 | 0.005108414920954876
ran | 1 | 0.0016181229773462784 | 0.005403433621268719
rank | 1 | 0.0016181229773462784 | 0.004336693121455994
reach | 2 | 0.003236245954692557 | 0.006486475440814653
rebel | 5 | 0.008090614886731391 | 0.013782902566283122
rebelli | 1 | 0.0016181229773462784 | 0.006420599736838903
reek | 1 | 0.0016181229773462784 | 0.009785391875479414
regim | 3 | 0.0048543689320388345 | 0.006075638997327848
relat | 1 | 0.0016181229773462784 | 0.003330725133466025
releas | 4 | 0.006472491909385114 | 0.016709619910980918
religi | 1 | 0.0016181229773462784 | 0.004711776639348104
religion | 1 | 0.0016181229773462784 | 0.00485898016395284
remotecontrol | 1 | 0.0016181229773462784 | 0.009785391875479414
remov | 1 | 0.0016181229773462784 | 0.004783705057747512
report | 3 | 0.0048543689320388345 | 0.008084201671710662
residenti | 1 | 0.0016181229773462784 | 0.009785391875479414
resist | 1 | 0.0016181229773462784 | 0.003986817541408039
resum | 1 | 0.0016181229773462784 | 0.006420599736838903
return | 1 | 0.0016181229773462784 | 0.002150280433254342
reverend | 1 | 0.0016181229773462784 | 0.009785391875479414
revolutionari | 1 | 0.0016181229773462784 | 0.003487948027403967
riddl | 1 | 0.0016181229773462784 | 0.00718112340875757
rifl | 1 | 0.0016181229773462784 | 0.004228778275988886
riflemen | 1 | 0.0016181229773462784 | 0.009785391875479414
rip | 1 | 0.0016181229773462784 | 0.006886104708443727
river | 2 | 0.003236245954692557 | 0.006374869693011516
roman | 1 | 0.0016181229773462784 | 0.004393475192348017
room | 2 | 0.003236245954692557 | 0.0062143617928840985
rule | 1 | 0.0016181229773462784 | 0.002179436591025666
run | 4 | 0.006472491909385114 | 0.008430032690505036
rush | 1 | 0.0016181229773462784 | 0.0038993301283493406
sack | 1 | 0.0016181229773462784 | 0.005403433621268719
safe | 1 | 0.0016181229773462784 | 0.00485898016395284
saigon | 8 | 0.012944983818770227 | 0.01708717618555259
scar | 1 | 0.0016181229773462784 | 0.00718112340875757
scatter | 1 | 0.0016181229773462784 | 0.006230012300501713
school | 1 | 0.0016181229773462784 | 0.0031071808964420492
sect | 3 | 0.0048543689320388345 | 0.017715907311883043
sent | 1 | 0.0016181229773462784 | 0.00284290087038493
sergeant | 1 | 0.0016181229773462784 | 0.00576450732889689
serv | 1 | 0.0016181229773462784 | 0.003215095741909157
servic | 1 | 0.0016181229773462784 | 0.0030307199177194836
seventh | 2 | 0.003236245954692557 | -0.0005541357302441786
sever | 3 | 0.0048543689320388345 | 0.009018045810775982
sharpest | 1 | 0.0016181229773462784 | 0.008007702087990565
sheer | 1 | 0.0016181229773462784 | 0.005905302437294349
shell | 1 | 0.0016181229773462784 | 0.005020927507896178
shirt | 1 | 0.0016181229773462784 | 0.00576450732889689
shoot | 1 | 0.0016181229773462784 | 0.003986817541408039
shout | 2 | 0.003236245954692557 | 0.007180358519602534
show | 1 | 0.0016181229773462784 | 0.0033609713033886024
shred | 1 | 0.0016181229773462784 | 0.009785391875479414
side | 1 | 0.0016181229773462784 | 0.0024862664604036054
siev | 1 | 0.0016181229773462784 | 0.009785391875479414
silent | 1 | 0.0016181229773462784 | 0.005108414920954876
sister | 2 | 0.003236245954692557 | 0.010806867242537438
slip | 1 | 0.0016181229773462784 | 0.004783705057747512
slouch | 1 | 0.0016181229773462784 | 0.008663794495932579
smaller | 1 | 0.0016181229773462784 | 0.006059526029210732
smash | 2 | 0.003236245954692557 | 0.010216829841909752
smile | 1 | 0.0016181229773462784 | 0.005200904263737965
smoke | 1 | 0.0016181229773462784 | 0.005403433621268719
snipe | 1 | 0.0016181229773462784 | 0.008663794495932579
sob | 1 | 0.0016181229773462784 | 0.008007702087990565
soccer | 1 | 0.0016181229773462784 | 0.00718112340875757
soldier | 7 | 0.011326860841423949 | 0.01703647536801605
somehow | 1 | 0.0016181229773462784 | 0.007542197116385741
sometim | 1 | 0.0016181229773462784 | 0.004513391004894492
sort | 1 | 0.0016181229773462784 | 0.0038993301283493406
south | 3 | 0.0048543689320388345 | 0.0019682772238260406
southwest | 2 | 0.003236245954692557 | 0.013273339902883383
souvenir | 1 | 0.0016181229773462784 | 0.008663794495932579
special | 1 | 0.0016181229773462784 | 0.0030558075981983917
spent | 2 | 0.003236245954692557 | 0.007632662540234116
splinter | 1 | 0.0016181229773462784 | 0.0066366699514416915
spokesman | 1 | 0.0016181229773462784 | 0.005200904263737965
sponsor | 1 | 0.0016181229773462784 | 0.006420599736838903
stab | 1 | 0.0016181229773462784 | 0.008663794495932579
staff | 4 | 0.006472491909385114 | 0.016510450599221994
stalwart | 1 | 0.0016181229773462784 | 0.008663794495932579
stand | 2 | 0.003236245954692557 | 0.005963364270729165
state | 3 | 0.0048543689320388345 | -0.004083496507374199
statu | 1 | 0.0016181229773462784 | 0.004281836241721881
statur | 1 | 0.0016181229773462784 | 0.008663794495932579
steer | 1 | 0.0016181229773462784 | 0.006886104708443727
step | 1 | 0.0016181229773462784 | 0.003215095741909157
sternli | 1 | 0.0016181229773462784 | 0.009785391875479414
stint | 1 | 0.0016181229773462784 | 0.009785391875479414
stoop | 1 | 0.0016181229773462784 | 0.00718112340875757
stop | 1 | 0.0016181229773462784 | 0.0030812903764639893
stori | 4 | 0.006472491909385114 | 0.013087511251204718
street | 2 | 0.003236245954692557 | 0.0042432806817209795
stretcher | 1 | 0.0016181229773462784 | 0.008663794495932579
student | 1 | 0.0016181229773462784 | 0.0023336601829420495
studi | 1 | 0.0016181229773462784 | 0.004228778275988886
stuf | 1 | 0.0016181229773462784 | 0.008007702087990565
style | 2 | 0.003236245954692557 | 0.008904645026025724
subdu | 1 | 0.0016181229773462784 | 0.007542197116385741
suburban | 1 | 0.0016181229773462784 | 0.006059526029210732
suddenli | 1 | 0.0016181229773462784 | 0.003455257562488887
suffer | 1 | 0.0016181229773462784 | 0.0037763755863138675
suggest | 2 | 0.003236245954692557 | 0.005349265451048024
suicid | 3 | 0.0048543689320388345 | 0.014135329918044311
suit | 1 | 0.0016181229773462784 | 0.004783705057747512
support | 3 | 0.0048543689320388345 | 0.0046891641459311404
surrend | 1 | 0.0016181229773462784 | 0.005299002357292066
surveil | 1 | 0.0016181229773462784 | 0.008007702087990565
suspect | 1 | 0.0016181229773462784 | 0.004127612649805499
swept | 1 | 0.0016181229773462784 | 0.004783705057747512
swim | 1 | 0.0016181229773462784 | 0.005634988384441329
system | 1 | 0.0016181229773462784 | 0.0033917936253476545
talent | 1 | 0.0016181229773462784 | 0.005299002357292066
talk | 2 | 0.003236245954692557 | 0.0035784134512523423
tank | 4 | 0.006472491909385114 | 0.014221518299910807
taylor | 1 | 0.0016181229773462784 | 0.006886104708443727
teeth | 1 | 0.0016181229773462784 | 0.006230012300501713
telephon | 1 | 0.0016181229773462784 | 0.004576854942035725
tenni | 2 | 0.003236245954692557 | 0.013273339902883383
terror | 1 | 0.0016181229773462784 | 0.004711776639348104
thank | 1 | 0.0016181229773462784 | 0.005108414920954876
therefor | 1 | 0.0016181229773462784 | 0.00576450732889689
thirti | 1 | 0.0016181229773462784 | 0.0012447532683102925
tho | 1 | 0.0016181229773462784 | 0.006886104708443727
thoroughfar | 1 | 0.0016181229773462784 | 0.009785391875479414
thousand | 22 | 0.03559870550161812 | -0.06764844762073845
throng | 1 | 0.0016181229773462784 | 0.006886104708443727
throughout | 1 | 0.0016181229773462784 | 0.003986817541408039
thuc | 1 | 0.0016181229773462784 | 0.0066366699514416915
toilet | 1 | 0.0016181229773462784 | 0.00718112340875757
tooth | 1 | 0.0016181229773462784 | 0.008663794495932579
top | 2 | 0.003236245954692557 | 0.004358873182051332
toppl | 1 | 0.0016181229773462784 | 0.005299002357292066
tortur | 1 | 0.0016181229773462784 | 0.006886104708443727
touch | 1 | 0.0016181229773462784 | 0.004177404977745229
tough | 2 | 0.003236245954692557 | 0.007714597193904957
tour | 1 | 0.0016181229773462784 | 0.004079306884191127
tower | 1 | 0.0016181229773462784 | 0.005634988384441329
town | 1 | 0.0016181229773462784 | 0.003301033970572503
traffic | 1 | 0.0016181229773462784 | 0.004783705057747512
train | 1 | 0.0016181229773462784 | 0.002756580513256625
tran | 2 | 0.003236245954692557 | 0.01152901465779378
transfer | 2 | 0.003236245954692557 | 0.011269976768882658
treacher | 1 | 0.0016181229773462784 | 0.008663794495932579
triumphal | 1 | 0.0016181229773462784 | 0.007542197116385741
troop | 3 | 0.0048543689320388345 | 0.004570032549250957
truck | 1 | 0.0016181229773462784 | 0.0040324014847198456
trung | 2 | 0.003236245954692557 | 0.017327588991865157
turn | 1 | 0.0016181229773462784 | 0.0013469845007075929
twenti | 17 | 0.02750809061488673 | -0.04385318520655307
ugli | 1 | 0.0016181229773462784 | 0.004711776639348104
ultim | 1 | 0.0016181229773462784 | 0.005020927507896178
uninhibitedli | 1 | 0.0016181229773462784 | 0.009785391875479414
unit | 3 | 0.0048543689320388345 | -0.0041229230707593885
univers | 1 | 0.0016181229773462784 | 0.0032432377204073266
unoffici | 2 | 0.003236245954692557 | 0.015084394232771482
urg | 1 | 0.0016181229773462784 | 0.003423214476249114
van | 4 | 0.006472491909385114 | 0.017573900769392067
version | 1 | 0.0016181229773462784 | 0.005634988384441329
vice | 2 | 0.003236245954692557 | 0.009026782009788984
vichi | 2 | 0.003236245954692557 | 0.015084394232771482
victori | 1 | 0.0016181229773462784 | 0.003187434846505758
viet | 2 | 0.003236245954692557 | 0.004388428145039269
vietnam | 4 | 0.006472491909385114 | 0.006373962110157354
vietnames | 6 | 0.009708737864077669 | 0.018487742258783933
view | 1 | 0.0016181229773462784 | 0.003590179259801267
vigor | 1 | 0.0016181229773462784 | 0.005515072571894854
visit | 2 | 0.003236245954692557 | 0.004833318082348664
voic | 1 | 0.0016181229773462784 | 0.003423214476249114
wall | 2 | 0.003236245954692557 | 0.005963364270729165
war | 3 | 0.0048543689320388345 | 0.0015559438420343725
wave | 2 | 0.003236245954692557 | 0.006783587250695309
weak | 1 | 0.0016181229773462784 | 0.005299002357292066
wear | 1 | 0.0016181229773462784 | 0.003625743833779868
weigh | 1 | 0.0016181229773462784 | 0.0066366699514416915
well | 1 | 0.0016181229773462784 | 0.007542197116385741
west | 1 | 0.0016181229773462784 | 0.0003968508149987298
western | 1 | 0.0016181229773462784 | 0.0015331808272201935
whip | 1 | 0.0016181229773462784 | 0.006059526029210732
whiski | 1 | 0.0016181229773462784 | 0.0066366699514416915
white | 2 | 0.003236245954692557 | 0.0033985757452497183
whorehous | 2 | 0.003236245954692557 | 0.017327588991865157
wife | 1 | 0.0016181229773462784 | 0.002559003333967143
window | 2 | 0.003236245954692557 | 0.009285819898700105
within | 1 | 0.0016181229773462784 | 0.0033917936253476545
world | 1 | 0.0016181229773462784 | 0.0005776904930780219
worri | 1 | 0.0016181229773462784 | 0.004393475192348017
wound | 1 | 0.0016181229773462784 | 0.004177404977745229
xuyen | 2 | 0.003236245954692557 | 0.017327588991865157
yank | 1 | 0.0016181229773462784 | 0.006886104708443727
young | 1 | 0.0016181229773462784 | 0.0021647928442296827
