abandon | 1 | 0.007194244604316547 | 0.02160323554908529
aliv | 1 | 0.007194244604316547 | 0.026255229541351854
away | 1 | 0.007194244604316547 | 0.01030396879284186
bit | 1 | 0.007194244604316547 | 0.02271223324568427
black | 1 | 0.007194244604316547 | 0.007752222154462427
bomb | 1 | 0.007194244604316547 | 0.015507567488745695
bonn | 1 | 0.007194244604316547 | 0.017725562881943657
bore | 2 | 0.014388489208633094 | 0.05125849682386011
breathless | 1 | 0.007194244604316547 | 0.035602589139411285
broke | 1 | 0.007194244604316547 | 0.014943023492763713
callous | 1 | 0.007194244604316547 | 0.038519604305657075
cancel | 1 | 0.007194244604316547 | 0.02064257804818944
capitalist | 1 | 0.007194244604316547 | 0.02034889463437466
cave | 1 | 0.007194244604316547 | 0.025629248411930056
chancellor | 1 | 0.007194244604316547 | 0.016281888813870625
coal | 1 | 0.007194244604316547 | 0.019795218079438483
confid | 1 | 0.007194244604316547 | 0.0150800608666536
continu | 1 | 0.007194244604316547 | 0.014676539523840338
convers | 1 | 0.007194244604316547 | 0.02505340159413483
crowd | 1 | 0.007194244604316547 | 0.01129521845013001
danger | 1 | 0.007194244604316547 | 0.015807371059972805
day | 2 | 0.014388489208633094 | 0.016326867529643543
dead | 1 | 0.007194244604316547 | 0.014171472914680279
dismantl | 1 | 0.007194244604316547 | 0.029506921079071692
dress | 1 | 0.007194244604316547 | 0.02034889463437466
drift | 1 | 0.007194244604316547 | 0.025629248411930056
drill | 4 | 0.02877697841726619 | 0.11079561443769953
dust | 1 | 0.007194244604316547 | 0.030615918775670672
east | 1 | 0.007194244604316547 | 0.006600528518871975
electrifi | 1 | 0.007194244604316547 | 0.035602589139411285
elev | 1 | 0.007194244604316547 | 0.030615918775670672
eleven | 3 | 0.02158273381294964 | 0.06284628697375097
emerg | 1 | 0.007194244604316547 | 0.014294454449639272
entomb | 1 | 0.007194244604316547 | 0.038519604305657075
erhard | 1 | 0.007194244604316547 | 0.015655907684448828
eventu | 1 | 0.007194244604316547 | 0.018572922850694614
exploratori | 1 | 0.007194244604316547 | 0.038519604305657075
explos | 1 | 0.007194244604316547 | 0.021268559177611238
fifti | 1 | 0.007194244604316547 | 0.001362870680308048
flew | 1 | 0.007194244604316547 | 0.017928231061560176
flood | 1 | 0.007194244604316547 | 0.024520250715331076
food | 2 | 0.014388489208633094 | 0.028588908899278544
forti | 1 | 0.007194244604316547 | 0.002917015166245787
ft | 1 | 0.007194244604316547 | 0.01880133075223836
galleri | 2 | 0.014388489208633094 | 0.06385516930377234
german | 3 | 0.02158273381294964 | 0.017849273826646472
germani | 1 | 0.007194244604316547 | 0.006027957023056526
giant | 1 | 0.007194244604316547 | 0.026255229541351854
heard | 1 | 0.007194244604316547 | 0.019037228758159157
heart | 1 | 0.007194244604316547 | 0.015362224270634044
helicopt | 1 | 0.007194244604316547 | 0.01612021359191337
hold | 1 | 0.007194244604316547 | 0.011891532549452083
hundr | 4 | 0.02877697841726619 | -0.02978924864198625
hurriedli | 1 | 0.007194244604316547 | 0.035602589139411285
insist | 1 | 0.007194244604316547 | 0.01162989482160406
investig | 1 | 0.007194244604316547 | 0.01835154401136545
iron | 1 | 0.007194244604316547 | 0.015507567488745695
island | 1 | 0.007194244604316547 | 0.015362224270634044
issu | 1 | 0.007194244604316547 | 0.014050558394418542
japanes | 1 | 0.007194244604316547 | 0.01880133075223836
kill | 1 | 0.007194244604316547 | 0.008944972189302312
kyushu | 1 | 0.007194244604316547 | 0.035602589139411285
launch | 1 | 0.007194244604316547 | 0.017336590067049587
lenged | 1 | 0.007194244604316547 | 0.04350627466939768
light | 1 | 0.007194244604316547 | 0.0164472810313145
line | 1 | 0.007194244604316547 | 0.010897645222251959
lower | 2 | 0.014388489208633094 | 0.03959043615887697
luck | 1 | 0.007194244604316547 | 0.027698903609424882
luckili | 1 | 0.007194244604316547 | 0.035602589139411285
ludwig | 1 | 0.007194244604316547 | 0.019281124813379884
manag | 1 | 0.007194244604316547 | 0.013814660388497744
meanwhil | 1 | 0.007194244604316547 | 0.0223232604307902
memori | 2 | 0.014388489208633094 | 0.04320647109817058
mine | 3 | 0.02158273381294964 | 0.05036978659730871
miner | 4 | 0.02877697841726619 | 0.08139557853749864
minut | 1 | 0.007194244604316547 | 0.014546909987849849
miracul | 2 | 0.014388489208633094 | 0.059013842158143384
mourn | 1 | 0.007194244604316547 | 0.0223232604307902
neglig | 1 | 0.007194244604316547 | 0.030615918775670672
netherland | 1 | 0.007194244604316547 | 0.03192758465188617
new | 1 | 0.007194244604316547 | -0.0019149342966245854
nine | 1 | 0.007194244604316547 | -0.0038364529369688577
nineti | 1 | 0.007194244604316547 | 0.014546909987849849
oil | 2 | 0.014388489208633094 | 0.029353079047680676
onlook | 1 | 0.007194244604316547 | 0.035602589139411285
peril | 1 | 0.007194244604316547 | 0.030615918775670672
phone | 2 | 0.014388489208633094 | 0.05010680318826966
pierc | 1 | 0.007194244604316547 | 0.035602589139411285
propaganda | 1 | 0.007194244604316547 | 0.02160323554908529
quickli | 1 | 0.007194244604316547 | 0.018572922850694614
radio | 1 | 0.007194244604316547 | 0.01162989482160406
rap | 1 | 0.007194244604316547 | 0.030615918775670672
recal | 1 | 0.007194244604316547 | 0.017336590067049587
remain | 3 | 0.02158273381294964 | 0.029266711442096426
report | 1 | 0.007194244604316547 | 0.011980903196923715
rescu | 6 | 0.04316546762589928 | 0.1413575592866114
rescuer | 1 | 0.007194244604316547 | 0.035602589139411285
reservoir | 1 | 0.007194244604316547 | 0.03192758465188617
rig | 1 | 0.007194244604316547 | 0.026940914288145556
rock | 1 | 0.007194244604316547 | 0.021268559177611238
roof | 1 | 0.007194244604316547 | 0.025629248411930056
safeti | 1 | 0.007194244604316547 | 0.02402389912189977
save | 1 | 0.007194244604316547 | 0.017336590067049587
saxoni | 2 | 0.014388489208633094 | 0.06706586788383292
scrambl | 1 | 0.007194244604316547 | 0.027698903609424882
sent | 1 | 0.007194244604316547 | 0.012639659984876884
seri | 1 | 0.007194244604316547 | 0.019037228758159157
servic | 2 | 0.014388489208633094 | 0.02694942315324663
seventi | 1 | 0.007194244604316547 | 0.008944972189302312
shaft | 3 | 0.02158273381294964 | 0.10680776741823386
skeptic | 1 | 0.007194244604316547 | 0.02271223324568427
slowli | 1 | 0.007194244604316547 | 0.02312344485604361
smaller | 1 | 0.007194244604316547 | 0.026940914288145556
solid | 1 | 0.007194244604316547 | 0.024520250715331076
sort | 1 | 0.007194244604316547 | 0.017336590067049587
southern | 1 | 0.007194244604316547 | 0.01612021359191337
speech | 1 | 0.007194244604316547 | 0.014943023492763713
spot | 1 | 0.007194244604316547 | 0.018572922850694614
suddenli | 1 | 0.007194244604316547 | 0.015362224270634044
survivor | 1 | 0.007194244604316547 | 0.027698903609424882
team | 1 | 0.007194244604316547 | 0.019533580351590463
thirteen | 1 | 0.007194244604316547 | 0.028546263578175846
thousand | 1 | 0.007194244604316547 | -0.013671269009030857
tomb | 1 | 0.007194244604316547 | 0.035602589139411285
torpedoshap | 1 | 0.007194244604316547 | 0.04350627466939768
tranquil | 1 | 0.007194244604316547 | 0.038519604305657075
trap | 2 | 0.014388489208633094 | 0.04624688971208722
tridot | 1 | 0.007194244604316547 | 0.035602589139411285
underground | 1 | 0.007194244604316547 | 0.0223232604307902
unharm | 1 | 0.007194244604316547 | 0.038519604305657075
use | 1 | 0.007194244604316547 | 0.017528447959727005
volunt | 1 | 0.007194244604316547 | 0.026940914288145556
weak | 1 | 0.007194244604316547 | 0.02355959321443523
west | 1 | 0.007194244604316547 | 0.0017644158537353598
within | 1 | 0.007194244604316547 | 0.0150800608666536
wive | 1 | 0.007194244604316547 | 0.02160323554908529
work | 2 | 0.014388489208633094 | 0.00921151665591596
worker | 2 | 0.014388489208633094 | 0.02325978964320812
youll | 1 | 0.007194244604316547 | 0.038519604305657075
