accident | 1 | 0.008333333333333333 | 0.03884231514938656
accompani | 1 | 0.008333333333333333 | 0.03208456334758382
activ | 1 | 0.008333333333333333 | 0.021778208121342763
addit | 1 | 0.008333333333333333 | 0.019865087774305262
advocaci | 1 | 0.008333333333333333 | 0.044618541654052775
amid | 1 | 0.008333333333333333 | 0.028402623745258496
amount | 1 | 0.008333333333333333 | 0.026784656958250514
approach | 1 | 0.008333333333333333 | 0.026784656958250514
armload | 1 | 0.008333333333333333 | 0.05039476815871898
aspir | 1 | 0.008333333333333333 | 0.03698278555510148
bar | 1 | 0.008333333333333333 | 0.021008430453584304
boom | 1 | 0.008333333333333333 | 0.025023747844357125
booth | 1 | 0.008333333333333333 | 0.044618541654052775
buse | 1 | 0.008333333333333333 | 0.041239665753151404
campaign | 3 | 0.025 | 0.04071328928124201
candid | 3 | 0.025 | 0.06230060293892162
capitalist | 1 | 0.008333333333333333 | 0.023570802951483977
card | 1 | 0.008333333333333333 | 0.03208456334758382
charact | 1 | 0.008333333333333333 | 0.03208456334758382
circumv | 1 | 0.008333333333333333 | 0.044618541654052775
commut | 1 | 0.008333333333333333 | 0.03417885024992471
confid | 2 | 0.016666666666666666 | 0.03493547434108084
contribut | 1 | 0.008333333333333333 | 0.024265649692642735
control | 1 | 0.008333333333333333 | 0.00869521560917349
countri | 1 | 0.008333333333333333 | 0.00237767330221751
day | 1 | 0.008333333333333333 | 0.009455977444251884
democrat | 2 | 0.016666666666666666 | 0.026167256076134522
depart | 1 | 0.008333333333333333 | 0.01867258074396632
divid | 2 | 0.016666666666666666 | 0.04201686090716861
dollar | 1 | 0.008333333333333333 | 0.004023764764363204
drop | 1 | 0.008333333333333333 | 0.020532110338251402
econom | 1 | 0.008333333333333333 | 0.00815389980688372
economist | 1 | 0.008333333333333333 | 0.029020190179872844
egg | 2 | 0.016666666666666666 | 0.060824615104131785
eighti | 1 | 0.008333333333333333 | 0.013571096427080667
elect | 4 | 0.03333333333333333 | 0.026678270229526395
expenditur | 1 | 0.008333333333333333 | 0.03698278555510148
fifti | 1 | 0.008333333333333333 | 0.0015786585380234888
follow | 1 | 0.008333333333333333 | 0.01430532365633289
funnel | 1 | 0.008333333333333333 | 0.03698278555510148
gain | 1 | 0.008333333333333333 | 0.018489423187976525
gener | 1 | 0.008333333333333333 | 0.0031170742656232114
govern | 1 | 0.008333333333333333 | -0.0040534721573922145
hand | 1 | 0.008333333333333333 | 0.007213238572951606
hayato | 1 | 0.008333333333333333 | 0.05039476815871898
hous | 2 | 0.016666666666666666 | 0.01589369963732526
huge | 1 | 0.008333333333333333 | 0.020081550160999103
hundr | 2 | 0.016666666666666666 | -0.0172529398384837
ikeda | 5 | 0.041666666666666664 | 0.17731719624242595
import | 1 | 0.008333333333333333 | 0.0153556629971276
incom | 1 | 0.008333333333333333 | 0.02292946094201624
inflat | 1 | 0.008333333333333333 | 0.027827683149533898
institut | 1 | 0.008333333333333333 | 0.026784656958250514
japan | 3 | 0.025 | 0.06230060293892162
june | 1 | 0.008333333333333333 | 0.0011381294583812558
kyoto | 1 | 0.008333333333333333 | 0.05039476815871898
liber | 1 | 0.008333333333333333 | 0.01613748595727472
limit | 3 | 0.025 | 0.06787919172177685
master | 1 | 0.008333333333333333 | 0.025023747844357125
moder | 1 | 0.008333333333333333 | 0.02292946094201624
nag | 1 | 0.008333333333333333 | 0.041239665753151404
name | 1 | 0.008333333333333333 | 0.014872435850041355
nation | 1 | 0.008333333333333333 | -0.003145807040492582
new | 1 | 0.008333333333333333 | -0.002218132226923478
nine | 1 | 0.008333333333333333 | -0.004443891318655593
old | 2 | 0.016666666666666666 | 0.007731264504409648
one4 | 1 | 0.008333333333333333 | 0.041239665753151404
open | 1 | 0.008333333333333333 | 0.01107394423125986
opposit | 1 | 0.008333333333333333 | 0.013372674354633013
paint | 1 | 0.008333333333333333 | 0.024265649692642735
parti | 1 | 0.008333333333333333 | -0.0009133900544939778
peopl | 3 | 0.025 | 0.01004813203507601
phenomen | 1 | 0.008333333333333333 | 0.044618541654052775
pick | 1 | 0.008333333333333333 | 0.01905143386127263
pictur | 1 | 0.008333333333333333 | 0.02151363563538793
polici | 1 | 0.008333333333333333 | 0.010853667089025233
politician | 1 | 0.008333333333333333 | 0.014196389643271617
poster | 1 | 0.008333333333333333 | 0.030412307552065893
practic | 1 | 0.008333333333333333 | 0.022333969575498366
premier | 1 | 0.008333333333333333 | 0.006325876236264522
previou | 1 | 0.008333333333333333 | 0.02968721274381898
price | 1 | 0.008333333333333333 | 0.0173090022124513
pro | 2 | 0.016666666666666666 | 0.0307113259942552
procedur | 1 | 0.008333333333333333 | 0.03417885024992471
raini | 1 | 0.008333333333333333 | 0.03698278555510148
ralli | 1 | 0.008333333333333333 | 0.02391098623915277
regul | 1 | 0.008333333333333333 | 0.03208456334758382
remind | 1 | 0.008333333333333333 | 0.026784656958250514
repres | 1 | 0.008333333333333333 | 0.019865087774305262
research | 1 | 0.008333333333333333 | 0.027827683149533898
restrict | 1 | 0.008333333333333333 | 0.025430332545769055
retort | 1 | 0.008333333333333333 | 0.026308336842917612
risen | 2 | 0.016666666666666666 | 0.060824615104131785
rule | 1 | 0.008333333333333333 | 0.01122409844378218
seat | 4 | 0.03333333333333333 | 0.05902353533434076
sever | 1 | 0.008333333333333333 | 0.015480978641832102
share | 1 | 0.008333333333333333 | 0.01700032494844839
shriek | 1 | 0.008333333333333333 | 0.033066088644720354
simpli | 1 | 0.008333333333333333 | 0.020766867646307204
siren | 1 | 0.008333333333333333 | 0.044618541654052775
sixti | 2 | 0.016666666666666666 | 0.006119992833820176
slogan | 1 | 0.008333333333333333 | 0.025857776665665314
socialist | 4 | 0.03333333333333333 | 0.036620409622270325
spread | 1 | 0.008333333333333333 | 0.020532110338251402
stop | 1 | 0.008333333333333333 | 0.015868645438789544
store | 1 | 0.008333333333333333 | 0.026308336842917612
surfac | 1 | 0.008333333333333333 | 0.026308336842917612
telephon | 1 | 0.008333333333333333 | 0.023570802951483977
think | 1 | 0.008333333333333333 | 0.016557743070832156
thousand | 7 | 0.058333333333333334 | -0.11085120621489188
total | 3 | 0.025 | 0.04882569042060444
twelv | 1 | 0.008333333333333333 | 0.018134759734486555
twenti | 4 | 0.03333333333333333 | -0.05313974207382313
umbrella | 2 | 0.016666666666666666 | 0.06241311810087053
uproar | 1 | 0.008333333333333333 | 0.033066088644720354
vote | 3 | 0.025 | 0.03531607977041606
western | 1 | 0.008333333333333333 | 0.007895881260183996
whistl | 1 | 0.008333333333333333 | 0.03884231514938656
worker | 1 | 0.008333333333333333 | 0.013471294835024704
zero | 1 | 0.008333333333333333 | 0.03546343924848519
