accomplish | 1 | 0.005434782608695652 | 0.017797736178296178
adnan | 1 | 0.005434782608695652 | 0.02533194466264341
age | 1 | 0.005434782608695652 | 0.011186892024358715
aim | 1 | 0.005434782608695652 | 0.01089304843049852
amidst | 1 | 0.005434782608695652 | 0.023128329944664256
anger | 1 | 0.005434782608695652 | 0.018148489010565587
armi | 2 | 0.010869565217391304 | 0.006251103319291339
ataturk | 1 | 0.005434782608695652 | 0.03286615314699064
attempt | 1 | 0.005434782608695652 | 0.011186892024358715
ballot | 1 | 0.005434782608695652 | 0.017797736178296178
basi | 1 | 0.005434782608695652 | 0.017468254537989465
bitter | 1 | 0.005434782608695652 | 0.012058319470419472
born | 1 | 0.005434782608695652 | 0.015159106744699977
built | 1 | 0.005434782608695652 | 0.012424848170395193
bureaucrat | 1 | 0.005434782608695652 | 0.02035210372854474
businessmen | 1 | 0.005434782608695652 | 0.015825423712593087
cabinet | 1 | 0.005434782608695652 | 0.007730431335663081
campaign | 2 | 0.010869565217391304 | 0.017701430122279132
cemal | 1 | 0.005434782608695652 | 0.03286615314699064
civilian | 1 | 0.005434782608695652 | 0.012683696262728097
coalit | 3 | 0.016304347826086956 | 0.03653331015123845
conceiv | 1 | 0.005434782608695652 | 0.022290554510820463
consum | 1 | 0.005434782608695652 | 0.017468254537989465
corrupt | 1 | 0.005434782608695652 | 0.01686376739065129
countri | 1 | 0.005434782608695652 | 0.0015506565014462021
cover | 1 | 0.005434782608695652 | 0.012424848170395193
crisi | 1 | 0.005434782608695652 | 0.010436074967397752
curb | 1 | 0.005434782608695652 | 0.022290554510820463
dash | 1 | 0.005434782608695652 | 0.017797736178296178
day | 1 | 0.005434782608695652 | 0.00616694181146862
dead | 1 | 0.005434782608695652 | 0.010705623560546513
defector | 1 | 0.005434782608695652 | 0.02533194466264341
democraci | 1 | 0.005434782608695652 | 0.01370115029581585
dilemma | 2 | 0.010869565217391304 | 0.043129680840939585
done | 1 | 0.005434782608695652 | 0.013241599273924204
durabl | 1 | 0.005434782608695652 | 0.024119207970718357
eager | 1 | 0.005434782608695652 | 0.015159106744699977
effici | 1 | 0.005434782608695652 | 0.01686376739065129
eighteenth | 1 | 0.005434782608695652 | 0.0209247152266851
eighti | 1 | 0.005434782608695652 | 0.008850715061139566
either | 1 | 0.005434782608695652 | 0.012955492026720824
elect | 2 | 0.010869565217391304 | 0.00869943594441078
els | 1 | 0.005434782608695652 | 0.013096663148477676
elsewher | 1 | 0.005434782608695652 | 0.018926210986873592
embodi | 1 | 0.005434782608695652 | 0.02533194466264341
end | 1 | 0.005434782608695652 | 0.0042085468504485385
enthusiast | 1 | 0.005434782608695652 | 0.017797736178296178
execut | 1 | 0.005434782608695652 | 0.013543609334548175
experi | 1 | 0.005434782608695652 | 0.01438138476839197
fight | 1 | 0.005434782608695652 | 0.006892655901819286
forev | 2 | 0.010869565217391304 | 0.038722451404981276
form | 1 | 0.005434782608695652 | 0.010263527693948945
forti | 2 | 0.010869565217391304 | 0.004407229435958308
free | 1 | 0.005434782608695652 | 0.008850715061139566
gain | 1 | 0.005434782608695652 | 0.012058319470419472
gener | 2 | 0.010869565217391304 | 0.004065749042117232
ghost | 1 | 0.005434782608695652 | 0.022290554510820463
govern | 5 | 0.02717391304347826 | -0.01321784399149635
grip | 1 | 0.005434782608695652 | 0.0209247152266851
ground | 1 | 0.005434782608695652 | 0.010014562824213652
gumuspala | 1 | 0.005434782608695652 | 0.03286615314699064
gursel | 1 | 0.005434782608695652 | 0.03286615314699064
hanker | 1 | 0.005434782608695652 | 0.02689543418683787
heir | 1 | 0.005434782608695652 | 0.02035210372854474
hold | 1 | 0.005434782608695652 | 0.008983277306379562
hundr | 3 | 0.016304347826086956 | -0.016877875928951448
immedi | 1 | 0.005434782608695652 | 0.012424848170395193
inaugur | 1 | 0.005434782608695652 | 0.02689543418683787
incens | 1 | 0.005434782608695652 | 0.024119207970718357
ineffectu | 1 | 0.005434782608695652 | 0.02533194466264341
inonu | 12 | 0.06521739130434782 | 0.2023652086878155
ismet | 1 | 0.005434782608695652 | 0.02533194466264341
join | 2 | 0.010869565217391304 | 0.018101582004047784
jointli | 1 | 0.005434782608695652 | 0.0209247152266851
june | 1 | 0.005434782608695652 | 0.0007422583424225582
justic | 3 | 0.016304347826086956 | 0.03689971540969593
kemal | 1 | 0.005434782608695652 | 0.03286615314699064
kept | 1 | 0.005434782608695652 | 0.011605158552272456
lack | 1 | 0.005434782608695652 | 0.0209247152266851
landown | 1 | 0.005434782608695652 | 0.02035210372854474
last | 1 | 0.005434782608695652 | 0.01983411362091254
leader | 3 | 0.016304347826086956 | 0.0075631935369224815
limit | 1 | 0.005434782608695652 | 0.014756346026473228
linger | 1 | 0.005434782608695652 | 0.029099048904817026
loftili | 1 | 0.005434782608695652 | 0.02689543418683787
mad | 1 | 0.005434782608695652 | 0.02035210372854474
major | 3 | 0.016304347826086956 | 0.01987595285452136
mender | 3 | 0.016304347826086956 | 0.06687166353246138
militari | 2 | 0.010869565217391304 | 0.009531393304436154
minist | 1 | 0.005434782608695652 | 0.0005257044916225604
minut | 1 | 0.005434782608695652 | 0.010989241784299613
mixtur | 1 | 0.005434782608695652 | 0.03286615314699064
monopoli | 1 | 0.005434782608695652 | 0.023128329944664256
mosqu | 1 | 0.005434782608695652 | 0.021564840420469793
municip | 1 | 0.005434782608695652 | 0.023128329944664256
nation | 1 | 0.005434782608695652 | -0.002051613287277771
nationwid | 1 | 0.005434782608695652 | 0.018523450268646845
necessarili | 1 | 0.005434782608695652 | 0.029099048904817026
neither | 2 | 0.010869565217391304 | 0.029512692052946456
neutral | 1 | 0.005434782608695652 | 0.012683696262728097
new | 7 | 0.03804347826086957 | -0.010126255818563705
nine | 3 | 0.016304347826086956 | -0.008694569971282682
nobodi | 1 | 0.005434782608695652 | 0.018926210986873592
none | 1 | 0.005434782608695652 | 0.014203179209571367
old | 1 | 0.005434782608695652 | 0.0025210645123074937
oneth | 1 | 0.005434782608695652 | 0.017468254537989465
overconfid | 1 | 0.005434782608695652 | 0.029099048904817026
overdu | 1 | 0.005434782608695652 | 0.02689543418683787
parliamentari | 3 | 0.016304347826086956 | 0.04063082800364453
parti | 8 | 0.043478260869565216 | -0.004765513327794667
pay | 1 | 0.005434782608695652 | 0.011087168444640255
peasant | 1 | 0.005434782608695652 | 0.011497535577836697
peopl | 1 | 0.005434782608695652 | 0.0021843765293643497
perpetu | 1 | 0.005434782608695652 | 0.02533194466264341
persuad | 1 | 0.005434782608695652 | 0.015372262794446073
pick | 1 | 0.005434782608695652 | 0.012424848170395193
plain | 1 | 0.005434782608695652 | 0.01089304843049852
plainli | 1 | 0.005434782608695652 | 0.016067009378738922
pledg | 1 | 0.005434782608695652 | 0.014756346026473228
polit | 2 | 0.010869565217391304 | 0.004445842496875349
politician | 1 | 0.005434782608695652 | 0.00925851498474236
politick | 1 | 0.005434782608695652 | 0.029099048904817026
popular | 1 | 0.005434782608695652 | 0.011087168444640255
premier | 3 | 0.016304347826086956 | 0.012376714375300153
presid | 2 | 0.010869565217391304 | 0.0047597867811012854
price | 1 | 0.005434782608695652 | 0.011288479703772588
prime | 1 | 0.005434782608695652 | 0.005894171460795492
probabl | 1 | 0.005434782608695652 | 0.010614280526218356
profitmak | 1 | 0.005434782608695652 | 0.03286615314699064
promis | 1 | 0.005434782608695652 | 0.007572890374395405
radio | 1 | 0.005434782608695652 | 0.008785627066320459
ragip | 1 | 0.005434782608695652 | 0.03286615314699064
rais | 1 | 0.005434782608695652 | 0.010096290418586154
rather | 1 | 0.005434782608695652 | 0.013096663148477676
reform | 1 | 0.005434782608695652 | 0.013863394660759771
regim | 1 | 0.005434782608695652 | 0.00680207409483444
republican | 2 | 0.010869565217391304 | 0.02913126466369352
resign | 1 | 0.005434782608695652 | 0.010614280526218356
resist | 1 | 0.005434782608695652 | 0.01339050674233787
restor | 1 | 0.005434782608695652 | 0.015159106744699977
result | 1 | 0.005434782608695652 | 0.009401543834293301
revolutionari | 1 | 0.005434782608695652 | 0.01171495587465028
rule | 3 | 0.016304347826086956 | 0.02196019260739992
run | 1 | 0.005434782608695652 | 0.007078478536320803
save | 1 | 0.005434782608695652 | 0.013096663148477676
scheme | 1 | 0.005434782608695652 | 0.013543609334548175
school | 1 | 0.005434782608695652 | 0.010436074967397752
scrape | 1 | 0.005434782608695652 | 0.03286615314699064
seem | 1 | 0.005434782608695652 | 0.012817895244197509
separ | 1 | 0.005434782608695652 | 0.015159106744699977
serv | 1 | 0.005434782608695652 | 0.010798528089673144
shaki | 1 | 0.005434782608695652 | 0.018926210986873592
shrine | 1 | 0.005434782608695652 | 0.024119207970718357
sixti | 2 | 0.010869565217391304 | 0.00399129967423055
smaller | 2 | 0.010869565217391304 | 0.04070420745708948
speech | 1 | 0.005434782608695652 | 0.011288479703772588
spend | 1 | 0.005434782608695652 | 0.015372262794446073
stabil | 1 | 0.005434782608695652 | 0.01686376739065129
stabl | 1 | 0.005434782608695652 | 0.0209247152266851
stage | 1 | 0.005434782608695652 | 0.013096663148477676
stick | 1 | 0.005434782608695652 | 0.016067009378738922
strang | 1 | 0.005434782608695652 | 0.018523450268646845
strenuous | 1 | 0.005434782608695652 | 0.03286615314699064
succeed | 1 | 0.005434782608695652 | 0.01339050674233787
sultan | 1 | 0.005434782608695652 | 0.015825423712593087
sure | 1 | 0.005434782608695652 | 0.013096663148477676
takeov | 1 | 0.005434782608695652 | 0.021564840420469793
tax | 1 | 0.005434782608695652 | 0.011605158552272456
thirti | 1 | 0.005434782608695652 | 0.004180747390303047
thousand | 10 | 0.05434782608695652 | -0.10327752131822224
toppl | 1 | 0.005434782608695652 | 0.017797736178296178
tri | 3 | 0.016304347826086956 | 0.011810253259367442
trot | 1 | 0.005434782608695652 | 0.02689543418683787
turkey | 6 | 0.03260869565217391 | 0.09095464046819986
turmoil | 1 | 0.005434782608695652 | 0.023128329944664256
twenti | 3 | 0.016304347826086956 | -0.025992265144804794
villag | 1 | 0.005434782608695652 | 0.009401543834293301
virtual | 1 | 0.005434782608695652 | 0.013096663148477676
vote | 1 | 0.005434782608695652 | 0.007677408645742621
want | 1 | 0.005434782608695652 | 0.005421283542373592
wast | 1 | 0.005434782608695652 | 0.0209247152266851
winner | 1 | 0.005434782608695652 | 0.02533194466264341
wipe | 1 | 0.005434782608695652 | 0.019361225702490638
young | 1 | 0.005434782608695652 | 0.007270880313771434
