abstract | 1 | 0.00267379679144385 | 0.011378643609139634
achiev | 2 | 0.0053475935828877 | 0.011007423168352959
acid | 1 | 0.00267379679144385 | 0.011378643609139634
action | 1 | 0.00267379679144385 | 0.0053126448355611195
addit | 1 | 0.00267379679144385 | 0.006373824954322544
address | 1 | 0.00267379679144385 | 0.007785769954858631
adept | 1 | 0.00267379679144385 | 0.01431610962162121
advocaci | 1 | 0.00267379679144385 | 0.01431610962162121
affair | 2 | 0.0053475935828877 | 0.010812943787760047
agre | 1 | 0.00267379679144385 | 0.0038561550616529054
agreement | 1 | 0.00267379679144385 | 0.0048873381654282655
aim | 1 | 0.00267379679144385 | 0.005359146821421731
aldo | 1 | 0.00267379679144385 | 0.011378643609139634
alik | 1 | 0.00267379679144385 | 0.010012799695326823
allianc | 2 | 0.0053475935828877 | 0.011209243104090109
amen | 1 | 0.00267379679144385 | 0.013231978316519167
amintor | 1 | 0.00267379679144385 | 0.010012799695326823
anti | 2 | 0.0053475935828877 | 0.00815820108019913
antithesi | 1 | 0.00267379679144385 | 0.01431610962162121
apart | 2 | 0.0053475935828877 | 0.012886556253047552
apertura | 1 | 0.00267379679144385 | 0.007562824476411972
appear | 1 | 0.00267379679144385 | 0.005406471893880023
argu | 1 | 0.00267379679144385 | 0.005709489769032438
aristocrat | 1 | 0.00267379679144385 | 0.00911314130863909
arriv | 1 | 0.00267379679144385 | 0.004589943419144243
attend | 1 | 0.00267379679144385 | 0.007671974194380567
auster | 1 | 0.00267379679144385 | 0.008441177596658057
avoid | 1 | 0.00267379679144385 | 0.007075333682845247
back | 1 | 0.00267379679144385 | 0.005709489769032438
badoglio | 1 | 0.00267379679144385 | 0.01616944432900074
bari | 2 | 0.0053475935828877 | 0.02863221924324242
base | 1 | 0.00267379679144385 | 0.0053126448355611195
befriend | 1 | 0.00267379679144385 | 0.013231978316519167
benito | 1 | 0.00267379679144385 | 0.01616944432900074
beret | 1 | 0.00267379679144385 | 0.013231978316519167
bill | 1 | 0.00267379679144385 | 0.006987660359789122
boast | 1 | 0.00267379679144385 | 0.007562824476411972
boost | 1 | 0.00267379679144385 | 0.006740672872807798
boot | 1 | 0.00267379679144385 | 0.0095253089017601
born | 1 | 0.00267379679144385 | 0.007457956259424588
break | 1 | 0.00267379679144385 | 0.005818639487001034
broke | 1 | 0.00267379679144385 | 0.005553690549449615
brutal | 1 | 0.00267379679144385 | 0.00829661283390331
budget | 1 | 0.00267379679144385 | 0.008441177596658057
bull | 1 | 0.00267379679144385 | 0.011866134402706358
burn | 1 | 0.00267379679144385 | 0.006663166089724237
buy | 1 | 0.00267379679144385 | 0.007165979542940652
cabinet | 5 | 0.013368983957219251 | 0.019016034301631107
call | 1 | 0.00267379679144385 | 0.003577117587523914
capabl | 1 | 0.00267379679144385 | 0.0095253089017601
captiv | 1 | 0.00267379679144385 | 0.010966476016018622
captur | 1 | 0.00267379679144385 | 0.007075333682845247
car | 1 | 0.00267379679144385 | 0.003993302907608923
career | 1 | 0.00267379679144385 | 0.00911314130863909
catech | 1 | 0.00267379679144385 | 0.01616944432900074
cathol | 1 | 0.00267379679144385 | 0.005454649716079697
caution | 1 | 0.00267379679144385 | 0.012462774914241678
center | 3 | 0.008021390374331552 | 0.016511134752529442
centuri | 1 | 0.00267379679144385 | 0.004771904550815408
chanc | 1 | 0.00267379679144385 | 0.006663166089724237
charm | 1 | 0.00267379679144385 | 0.008441177596658057
chief | 1 | 0.00267379679144385 | 0.003217072440074028
children | 1 | 0.00267379679144385 | 0.005454649716079697
christian | 4 | 0.0106951871657754 | 0.01970780277706216
churchgoer | 1 | 0.00267379679144385 | 0.01616944432900074
class | 2 | 0.0053475935828877 | 0.011527015406073001
close | 1 | 0.00267379679144385 | 0.003937596792895441
coalit | 3 | 0.008021390374331552 | 0.017973607133229614
coin | 1 | 0.00267379679144385 | 0.010012799695326823
collaps | 1 | 0.00267379679144385 | 0.007457956259424588
colleagu | 2 | 0.0053475935828877 | 0.016882355193316115
colorless | 1 | 0.00267379679144385 | 0.013231978316519167
communist | 6 | 0.016042780748663103 | -0.0016218628375085898
compromis | 1 | 0.00267379679144385 | 0.007165979542940652
conscienti | 1 | 0.00267379679144385 | 0.01616944432900074
conserv | 1 | 0.00267379679144385 | 0.005818639487001034
contain | 1 | 0.00267379679144385 | 0.007785769954858631
convinc | 1 | 0.00267379679144385 | 0.007075333682845247
countess | 1 | 0.00267379679144385 | 0.013231978316519167
countri | 1 | 0.00267379679144385 | 0.0007628898295885058
crack | 1 | 0.00267379679144385 | 0.007785769954858631
crush | 1 | 0.00267379679144385 | 0.007165979542940652
daili | 1 | 0.00267379679144385 | 0.005763507703036501
daughter | 2 | 0.0053475935828877 | 0.013640987259785013
day | 1 | 0.00267379679144385 | 0.0030340034580487326
decemb | 1 | 0.00267379679144385 | 0.007075333682845247
defens | 1 | 0.00267379679144385 | 0.003196101377344013
deliber | 1 | 0.00267379679144385 | 0.00790462493499455
demand | 1 | 0.00267379679144385 | 0.00339103926720521
democrat | 5 | 0.013368983957219251 | 0.020989777601177425
deport | 1 | 0.00267379679144385 | 0.013231978316519167
destalin | 1 | 0.00267379679144385 | 0.010012799695326823
detest | 1 | 0.00267379679144385 | 0.013231978316519167
devout | 1 | 0.00267379679144385 | 0.011866134402706358
die | 1 | 0.00267379679144385 | 0.0048873381654282655
differ | 1 | 0.00267379679144385 | 0.005177802980943761
dilig | 1 | 0.00267379679144385 | 0.010294512304037589
disput | 1 | 0.00267379679144385 | 0.007165979542940652
district | 1 | 0.00267379679144385 | 0.008594007580187331
divid | 1 | 0.00267379679144385 | 0.006740672872807798
dollar | 1 | 0.00267379679144385 | 0.0012910475179774986
dour | 1 | 0.00267379679144385 | 0.010966476016018622
duce | 1 | 0.00267379679144385 | 0.01431610962162121
eas | 1 | 0.00267379679144385 | 0.008029010003537045
elder | 1 | 0.00267379679144385 | 0.011378643609139634
eloqu | 1 | 0.00267379679144385 | 0.010294512304037589
emot | 1 | 0.00267379679144385 | 0.00911314130863909
enter | 2 | 0.0053475935828877 | 0.013640987259785013
escap | 1 | 0.00267379679144385 | 0.006587842889278524
exercis | 1 | 0.00267379679144385 | 0.009757959642374083
exil | 2 | 0.0053475935828877 | 0.013481345745615596
expedi | 2 | 0.0053475935828877 | 0.024925549828483357
expert | 1 | 0.00267379679144385 | 0.005932435247479099
faith | 1 | 0.00267379679144385 | 0.007075333682845247
famili | 2 | 0.0053475935828877 | 0.00839591104047097
fanci | 1 | 0.00267379679144385 | 0.013231978316519167
fanfani | 4 | 0.0106951871657754 | 0.02445103811072423
fascist | 1 | 0.00267379679144385 | 0.0095253089017601
father | 1 | 0.00267379679144385 | 0.005932435247479099
fellow | 1 | 0.00267379679144385 | 0.007457956259424588
fifteenth | 1 | 0.00267379679144385 | 0.011378643609139634
fifti | 3 | 0.008021390374331552 | 0.001519564368150952
figur | 1 | 0.00267379679144385 | 0.006740672872807798
fill | 1 | 0.00267379679144385 | 0.006663166089724237
fled | 1 | 0.00267379679144385 | 0.008441177596658057
flower | 1 | 0.00267379679144385 | 0.009311290966804121
foe | 1 | 0.00267379679144385 | 0.007357046291556013
follow | 1 | 0.00267379679144385 | 0.004589943419144243
foreign | 4 | 0.0106951871657754 | 0.007852044919834125
forese | 1 | 0.00267379679144385 | 0.010966476016018622
form | 1 | 0.00267379679144385 | 0.005049436084723545
forti | 4 | 0.0106951871657754 | 0.004336525220408175
fought | 1 | 0.00267379679144385 | 0.007785769954858631
fourth | 1 | 0.00267379679144385 | 0.007457956259424588
frail | 1 | 0.00267379679144385 | 0.01616944432900074
franc | 2 | 0.0053475935828877 | 0.002727475465388991
froom | 1 | 0.00267379679144385 | 0.01616944432900074
fur | 1 | 0.00267379679144385 | 0.011866134402706358
futur | 1 | 0.00267379679144385 | 0.0052219989754657145
gener | 1 | 0.00267379679144385 | 0.0010001307804138647
geniu | 1 | 0.00267379679144385 | 0.012462774914241678
get | 1 | 0.00267379679144385 | 0.005406471893880023
giuliana | 1 | 0.00267379679144385 | 0.01616944432900074
giusepp | 1 | 0.00267379679144385 | 0.010012799695326823
govern | 1 | 0.00267379679144385 | -0.001300579301837074
group | 1 | 0.00267379679144385 | 0.004290697653892945
habit | 1 | 0.00267379679144385 | 0.009757959642374083
half | 1 | 0.00267379679144385 | 0.0045204902469430115
head | 3 | 0.008021390374331552 | 0.008157226665672535
headquart | 1 | 0.00267379679144385 | 0.005818639487001034
health | 1 | 0.00267379679144385 | 0.008756105499482612
heavili | 2 | 0.0053475935828877 | 0.015571539909717262
heel | 1 | 0.00267379679144385 | 0.010294512304037589
hope | 1 | 0.00267379679144385 | 0.0027899087516064674
hous | 1 | 0.00267379679144385 | 0.002549791385667154
huff | 1 | 0.00267379679144385 | 0.013231978316519167
humili | 1 | 0.00267379679144385 | 0.009311290966804121
hundr | 7 | 0.01871657754010695 | -0.01937495917690683
hungarian | 1 | 0.00267379679144385 | 0.007785769954858631
ii | 1 | 0.00267379679144385 | 0.005709489769032438
il | 1 | 0.00267379679144385 | 0.010966476016018622
import | 1 | 0.00267379679144385 | 0.00492695069426554
impuls | 1 | 0.00267379679144385 | 0.013231978316519167
includ | 1 | 0.00267379679144385 | 0.006112759527681057
infiltr | 1 | 0.00267379679144385 | 0.009311290966804121
injur | 1 | 0.00267379679144385 | 0.010609440206862145
innumer | 1 | 0.00267379679144385 | 0.012462774914241678
intern | 1 | 0.00267379679144385 | 0.005177802980943761
island | 1 | 0.00267379679144385 | 0.005709489769032438
itali | 6 | 0.016042780748663103 | 0.02863142730489245
italian | 4 | 0.0106951871657754 | 0.023964809510972816
jewel | 1 | 0.00267379679144385 | 0.012462774914241678
job | 1 | 0.00267379679144385 | 0.003777120831060541
join | 2 | 0.0053475935828877 | 0.00890559114637645
juli | 1 | 0.00267379679144385 | 0.006306130280567758
june | 4 | 0.0106951871657754 | 0.0014607009091524138
justic | 1 | 0.00267379679144385 | 0.006051290227615018
key | 2 | 0.0053475935828877 | 0.013326332179448473
khrushchev | 1 | 0.00267379679144385 | 0.0016291253211847129
law | 3 | 0.008021390374331552 | 0.012237301620298699
leader | 2 | 0.0053475935828877 | 0.002480619627083309
lecc | 1 | 0.00267379679144385 | 0.01616944432900074
left | 6 | 0.016042780748663103 | 0.016739452509638805
live | 3 | 0.008021390374331552 | 0.007899281919941
lone | 1 | 0.00267379679144385 | 0.010012799695326823
look | 2 | 0.0053475935828877 | 0.00985390138853108
lower | 1 | 0.00267379679144385 | 0.007357046291556013
loyalist | 1 | 0.00267379679144385 | 0.01616944432900074
luxuri | 1 | 0.00267379679144385 | 0.010294512304037589
mad | 1 | 0.00267379679144385 | 0.010012799695326823
manag | 1 | 0.00267379679144385 | 0.0051343256524095885
march | 1 | 0.00267379679144385 | 0.0020842620855159085
marri | 1 | 0.00267379679144385 | 0.006663166089724237
mass | 1 | 0.00267379679144385 | 0.007259806601259557
match | 1 | 0.00267379679144385 | 0.007457956259424588
mean | 1 | 0.00267379679144385 | 0.006663166089724237
middl | 1 | 0.00267379679144385 | 0.004259424820301524
milan | 1 | 0.00267379679144385 | 0.011866134402706358
militantli | 1 | 0.00267379679144385 | 0.013231978316519167
minist | 2 | 0.0053475935828877 | 0.0005172707297248722
ministri | 4 | 0.0106951871657754 | 0.025773112506095104
moder | 1 | 0.00267379679144385 | 0.007357046291556013
modestli | 1 | 0.00267379679144385 | 0.013231978316519167
money | 1 | 0.00267379679144385 | 0.005503711584176479
moro | 13 | 0.034759358288770054 | 0.09315773405822847
morologist | 1 | 0.00267379679144385 | 0.01616944432900074
moscow | 2 | 0.0053475935828877 | 0.0035940843388348282
mountain | 1 | 0.00267379679144385 | 0.005359146821421731
mussolini | 2 | 0.0053475935828877 | 0.022757287218279267
name | 1 | 0.00267379679144385 | 0.004771904550815408
nazi | 1 | 0.00267379679144385 | 0.006663166089724237
nenni | 15 | 0.040106951871657755 | 0.07701488478614384
new | 4 | 0.0106951871657754 | -0.002846800719046175
newcom | 1 | 0.00267379679144385 | 0.01431610962162121
next | 1 | 0.00267379679144385 | 0.0029756637591325835
nicknam | 1 | 0.00267379679144385 | 0.010966476016018622
nine | 7 | 0.01871657754010695 | -0.009980932373451065
nobodi | 1 | 0.00267379679144385 | 0.009311290966804121
nonpolit | 1 | 0.00267379679144385 | 0.013231978316519167
north | 1 | 0.00267379679144385 | 0.0036752495844501916
occupi | 1 | 0.00267379679144385 | 0.007259806601259557
oddli | 1 | 0.00267379679144385 | 0.012462774914241678
oil | 1 | 0.00267379679144385 | 0.005454649716079697
oneend | 1 | 0.00267379679144385 | 0.011378643609139634
oneiph | 1 | 0.00267379679144385 | 0.01616944432900074
onesh | 1 | 0.00267379679144385 | 0.013231978316519167
oneth | 1 | 0.00267379679144385 | 0.008594007580187331
onetim | 1 | 0.00267379679144385 | 0.00790462493499455
open | 2 | 0.0053475935828877 | 0.00710627437300098
oppos | 1 | 0.00267379679144385 | 0.005991202377743204
orphanag | 1 | 0.00267379679144385 | 0.01431610962162121
outgrowth | 1 | 0.00267379679144385 | 0.01431610962162121
outlook | 1 | 0.00267379679144385 | 0.011378643609139634
own | 1 | 0.00267379679144385 | 0.007357046291556013
packag | 1 | 0.00267379679144385 | 0.0095253089017601
pact | 1 | 0.00267379679144385 | 0.008594007580187331
parent | 1 | 0.00267379679144385 | 0.010294512304037589
parliament | 1 | 0.00267379679144385 | 0.004554991329391963
parti | 8 | 0.0213903743315508 | -0.0023445306211610124
partnership | 1 | 0.00267379679144385 | 0.009311290966804121
passion | 1 | 0.00267379679144385 | 0.008441177596658057
patienc | 1 | 0.00267379679144385 | 0.012462774914241678
peac | 1 | 0.00267379679144385 | 0.0038295498989438996
peasant | 1 | 0.00267379679144385 | 0.005656541567705754
pedant | 1 | 0.00267379679144385 | 0.01616944432900074
perfectli | 1 | 0.00267379679144385 | 0.011866134402706358
persuad | 1 | 0.00267379679144385 | 0.007562824476411972
persuas | 1 | 0.00267379679144385 | 0.011866134402706358
pietro | 1 | 0.00267379679144385 | 0.0095253089017601
place | 1 | 0.00267379679144385 | 0.006902770792103078
plan | 1 | 0.00267379679144385 | 0.0026671555395634786
plane | 1 | 0.00267379679144385 | 0.005503711584176479
polic | 1 | 0.00267379679144385 | 0.002299428805362361
polit | 6 | 0.016042780748663103 | 0.006561778230682334
politician | 1 | 0.00267379679144385 | 0.004554991329391963
ponza | 2 | 0.0053475935828877 | 0.02863221924324242
posit | 1 | 0.00267379679144385 | 0.0051343256524095885
post | 1 | 0.00267379679144385 | 0.005874932024963153
power | 2 | 0.0053475935828877 | 0.0030979253364232444
premier | 4 | 0.0106951871657754 | 0.00811877164012559
premiership | 2 | 0.0053475935828877 | 0.023732268805412716
preserv | 1 | 0.00267379679144385 | 0.00911314130863909
press | 1 | 0.00267379679144385 | 0.003577117587523914
prize | 2 | 0.0053475935828877 | 0.019515919284748166
professor | 1 | 0.00267379679144385 | 0.00911314130863909
promin | 1 | 0.00267379679144385 | 0.00829661283390331
prophet | 1 | 0.00267379679144385 | 0.011866134402706358
public | 1 | 0.00267379679144385 | 0.004589943419144243
pure | 1 | 0.00267379679144385 | 0.0095253089017601
push | 1 | 0.00267379679144385 | 0.006587842889278524
quaker | 1 | 0.00267379679144385 | 0.013231978316519167
qualiti | 1 | 0.00267379679144385 | 0.009757959642374083
quit | 1 | 0.00267379679144385 | 0.005874932024963153
raid | 1 | 0.00267379679144385 | 0.008441177596658057
rais | 1 | 0.00267379679144385 | 0.004967158922512974
rang | 1 | 0.00267379679144385 | 0.005553690549449615
realiz | 1 | 0.00267379679144385 | 0.009311290966804121
reason | 1 | 0.00267379679144385 | 0.004625358463930394
rebellion | 1 | 0.00267379679144385 | 0.00815946498794729
recal | 1 | 0.00267379679144385 | 0.006443278126523776
receiv | 2 | 0.0053475935828877 | 0.012480214504502513
recit | 1 | 0.00267379679144385 | 0.012462774914241678
red | 1 | 0.00267379679144385 | 0.00012950699759250002
reduc | 1 | 0.00267379679144385 | 0.009311290966804121
reform | 1 | 0.00267379679144385 | 0.006820493629892507
replac | 1 | 0.00267379679144385 | 0.006373824954322544
republican | 1 | 0.00267379679144385 | 0.007165979542940652
reserv | 1 | 0.00267379679144385 | 0.006175675296157512
return | 1 | 0.00267379679144385 | 0.00355313718650049
revolv | 1 | 0.00267379679144385 | 0.012462774914241678
reward | 1 | 0.00267379679144385 | 0.009757959642374083
rise | 1 | 0.00267379679144385 | 0.005991202377743204
roar | 1 | 0.00267379679144385 | 0.00815946498794729
romagna | 1 | 0.00267379679144385 | 0.01616944432900074
romagnan | 1 | 0.00267379679144385 | 0.01616944432900074
rome | 4 | 0.0106951871657754 | 0.025224521122271033
rose | 1 | 0.00267379679144385 | 0.006740672872807798
rug | 1 | 0.00267379679144385 | 0.010294512304037589
saragat | 2 | 0.0053475935828877 | 0.026463956633038334
scheme | 1 | 0.00267379679144385 | 0.006663166089724237
sea | 1 | 0.00267379679144385 | 0.006587842889278524
seasid | 1 | 0.00267379679144385 | 0.01431610962162121
secretari | 1 | 0.00267379679144385 | 0.004108322653822
see | 1 | 0.00267379679144385 | 0.008594007580187331
sell | 1 | 0.00267379679144385 | 0.007457956259424588
senat | 1 | 0.00267379679144385 | 0.008756105499482612
seventeen | 1 | 0.00267379679144385 | 0.010294512304037589
seventeenth | 1 | 0.00267379679144385 | 0.011378643609139634
seventh | 3 | 0.008021390374331552 | -0.0013734861549100363
seventi | 1 | 0.00267379679144385 | 0.0033244682735642283
sharp | 1 | 0.00267379679144385 | 0.00815946498794729
sharpli | 1 | 0.00267379679144385 | 0.009757959642374083
shatter | 1 | 0.00267379679144385 | 0.00815946498794729
sheer | 2 | 0.0053475935828877 | 0.019515919284748166
shi | 1 | 0.00267379679144385 | 0.010609440206862145
ship | 1 | 0.00267379679144385 | 0.006443278126523776
shortliv | 1 | 0.00267379679144385 | 0.01431610962162121
shot | 1 | 0.00267379679144385 | 0.006175675296157512
side | 3 | 0.008021390374331552 | 0.012324967961466001
silver | 1 | 0.00267379679144385 | 0.010012799695326823
sinistra | 1 | 0.00267379679144385 | 0.010294512304037589
slowli | 1 | 0.00267379679144385 | 0.008594007580187331
social | 2 | 0.0053475935828877 | 0.008839160558148873
socialist | 8 | 0.0213903743315508 | 0.023499728099852613
solidli | 1 | 0.00267379679144385 | 0.011378643609139634
sometim | 1 | 0.00267379679144385 | 0.007457956259424588
son | 1 | 0.00267379679144385 | 0.005177802980943761
sound | 1 | 0.00267379679144385 | 0.006306130280567758
spain | 1 | 0.00267379679144385 | 0.006587842889278524
speech | 2 | 0.0053475935828877 | 0.01110738109889923
stalin | 2 | 0.0053475935828877 | 0.011637278974002067
stay | 1 | 0.00267379679144385 | 0.004967158922512974
strategist | 1 | 0.00267379679144385 | 0.011378643609139634
stream | 1 | 0.00267379679144385 | 0.008029010003537045
student | 1 | 0.00267379679144385 | 0.0038561550616529054
studi | 1 | 0.00267379679144385 | 0.006987660359789122
support | 1 | 0.00267379679144385 | 0.0025828016418765107
teach | 1 | 0.00267379679144385 | 0.0095253089017601
tenac | 1 | 0.00267379679144385 | 0.01616944432900074
therefor | 1 | 0.00267379679144385 | 0.0095253089017601
thousand | 22 | 0.058823529411764705 | -0.11178272895619348
thsecond | 1 | 0.00267379679144385 | 0.01616944432900074
thtwenti | 1 | 0.00267379679144385 | 0.00790462493499455
thug | 1 | 0.00267379679144385 | 0.01431610962162121
tie | 1 | 0.00267379679144385 | 0.006443278126523776
tongu | 1 | 0.00267379679144385 | 0.010609440206862145
train | 1 | 0.00267379679144385 | 0.004554991329391963
travel | 1 | 0.00267379679144385 | 0.006306130280567758
treasuri | 1 | 0.00267379679144385 | 0.010966476016018622
tri | 1 | 0.00267379679144385 | 0.001936797325956871
turn | 3 | 0.008021390374331552 | 0.0066772974981600995
twenti | 17 | 0.045454545454545456 | -0.07246328464612246
twist | 1 | 0.00267379679144385 | 0.008594007580187331
tyrrhenian | 1 | 0.00267379679144385 | 0.01616944432900074
uninterrupt | 1 | 0.00267379679144385 | 0.01431610962162121
uniti | 1 | 0.00267379679144385 | 0.004167742805652776
univers | 1 | 0.00267379679144385 | 0.005359146821421731
unpretenti | 1 | 0.00267379679144385 | 0.013231978316519167
utter | 1 | 0.00267379679144385 | 0.010966476016018622
vice | 3 | 0.008021390374331552 | 0.022373868778273766
vigor | 1 | 0.00267379679144385 | 0.00911314130863909
villa | 1 | 0.00267379679144385 | 0.00790462493499455
voic | 1 | 0.00267379679144385 | 0.005656541567705754
volubl | 1 | 0.00267379679144385 | 0.01431610962162121
want | 2 | 0.0053475935828877 | 0.005334311079126957
war | 1 | 0.00267379679144385 | 0.0008570171964146545
water | 1 | 0.00267379679144385 | 0.005406471893880023
whole | 1 | 0.00267379679144385 | 0.005932435247479099
wife | 2 | 0.0053475935828877 | 0.008457027060918151
wing | 1 | 0.00267379679144385 | 0.005656541567705754
work | 1 | 0.00267379679144385 | 0.0017117657956849173
world | 1 | 0.00267379679144385 | 0.0009545794778668917
wound | 1 | 0.00267379679144385 | 0.006902770792103078
youth | 1 | 0.00267379679144385 | 0.006740672872807798
