abomin | 1 | 0.0035087719298245615 | 0.021218849751039572
abroad | 1 | 0.0035087719298245615 | 0.00854896233825282
ad | 1 | 0.0035087719298245615 | 0.01088748491185908
affair | 1 | 0.0035087719298245615 | 0.007094808730916242
agricultur | 1 | 0.0035087719298245615 | 0.008743944272129349
aid | 1 | 0.0035087719298245615 | 0.004790319129551082
alarm | 2 | 0.007017543859649123 | 0.023917998943375575
aloft | 1 | 0.0035087719298245615 | 0.014931974420414818
anim | 1 | 0.0035087719298245615 | 0.01280518212718564
arctic | 1 | 0.0035087719298245615 | 0.0187867543806538
arent | 1 | 0.0035087719298245615 | 0.01736406979080059
asia | 1 | 0.0035087719298245615 | 0.00697168129298196
ask | 1 | 0.0035087719298245615 | 0.008275413069938042
astrolog | 2 | 0.007017543859649123 | 0.031143398362190725
atom | 1 | 0.0035087719298245615 | 0.009654509870322629
babi | 1 | 0.0035087719298245615 | 0.01171691922085638
bhutia | 1 | 0.0035087719298245615 | 0.021218849751039572
black | 1 | 0.0035087719298245615 | 0.0037809083490185167
blue | 1 | 0.0035087719298245615 | 0.007492453240765376
bombay | 1 | 0.0035087719298245615 | 0.0187867543806538
born | 1 | 0.0035087719298245615 | 0.009786932073771213
britain | 1 | 0.0035087719298245615 | 0.0008499551232624193
brocad | 1 | 0.0035087719298245615 | 0.0187867543806538
bungalow | 1 | 0.0035087719298245615 | 0.01736406979080059
butterfli | 1 | 0.0035087719298245615 | 0.0187867543806538
calcul | 1 | 0.0035087719298245615 | 0.021218849751039572
calcutta | 1 | 0.0035087719298245615 | 0.0187867543806538
camp | 1 | 0.0035087719298245615 | 0.00854896233825282
cancer | 1 | 0.0035087719298245615 | 0.015571699181095362
capit | 1 | 0.0035087719298245615 | 0.005025444428789539
cardamom | 1 | 0.0035087719298245615 | 0.021218849751039572
carri | 1 | 0.0035087719298245615 | 0.005589560992255334
central | 1 | 0.0035087719298245615 | 0.005240334341914867
ceremoni | 1 | 0.0035087719298245615 | 0.009654509870322629
citi | 1 | 0.0035087719298245615 | 0.004362635558993058
climat | 1 | 0.0035087719298245615 | 0.014391094842073562
cloud | 2 | 0.007017543859649123 | 0.02343383844171276
comfort | 1 | 0.0035087719298245615 | 0.013922563639882254
consist | 1 | 0.0035087719298245615 | 0.010373086756799866
consort | 1 | 0.0035087719298245615 | 0.021218849751039572
contain | 1 | 0.0035087719298245615 | 0.0102171156600601
control | 1 | 0.0035087719298245615 | 0.003661143414388838
convers | 1 | 0.0035087719298245615 | 0.012219027444156988
cook | 1 | 0.0035087719298245615 | 0.011277750298210744
cope | 1 | 0.0035087719298245615 | 0.014931974420414818
copper | 1 | 0.0035087719298245615 | 0.01280518212718564
coron | 1 | 0.0035087719298245615 | 0.021218849751039572
council | 1 | 0.0035087719298245615 | 0.007094808730916242
court | 1 | 0.0035087719298245615 | 0.006681534921595597
crown | 2 | 0.007017543859649123 | 0.02561036425437128
crush | 1 | 0.0035087719298245615 | 0.009403776663367733
current | 1 | 0.0035087719298245615 | 0.00895040216694666
date | 1 | 0.0035087719298245615 | 0.008645099089790064
day | 1 | 0.0035087719298245615 | 0.0039814641870534245
de | 1 | 0.0035087719298245615 | 0.0005952154290057506
debutant | 2 | 0.007017543859649123 | 0.0375735087613076
declar | 1 | 0.0035087719298245615 | 0.0102171156600601
defens | 1 | 0.0035087719298245615 | 0.004194182158339161
deiti | 2 | 0.007017543859649123 | 0.029863948840829636
delay | 1 | 0.0035087719298245615 | 0.011077194460175837
demand | 1 | 0.0035087719298245615 | 0.004449995389244732
democraci | 1 | 0.0035087719298245615 | 0.00884565492782497
dewan | 1 | 0.0035087719298245615 | 0.021218849751039572
dexlay | 1 | 0.0035087719298245615 | 0.021218849751039572
die | 1 | 0.0035087719298245615 | 0.006413559557439197
differ | 1 | 0.0035087719298245615 | 0.0067947309293788305
diseas | 1 | 0.0035087719298245615 | 0.01280518212718564
disord | 1 | 0.0035087719298245615 | 0.014391094842073562
distil | 1 | 0.0035087719298245615 | 0.01736406979080059
dollar | 1 | 0.0035087719298245615 | 0.0016942167428897702
dream | 1 | 0.0035087719298245615 | 0.009654509870322629
duti | 1 | 0.0035087719298245615 | 0.007709559920477963
earn | 1 | 0.0035087719298245615 | 0.009058372899110706
educ | 1 | 0.0035087719298245615 | 0.006737676470179602
elect | 1 | 0.0035087719298245615 | 0.0028082389715290944
energi | 1 | 0.0035087719298245615 | 0.016354659010268027
english | 1 | 0.0035087719298245615 | 0.008743944272129349
enjoy | 1 | 0.0035087719298245615 | 0.009526904101302015
event | 1 | 0.0035087719298245615 | 0.007785020289674326
eventu | 1 | 0.0035087719298245615 | 0.009058372899110706
evid | 1 | 0.0035087719298245615 | 0.00735483670338544
expect | 1 | 0.0035087719298245615 | 0.006262078252648991
experi | 1 | 0.0035087719298245615 | 0.009284823850470605
export | 1 | 0.0035087719298245615 | 0.008364247483918006
express | 1 | 0.0035087719298245615 | 0.008021656362641108
fashion | 1 | 0.0035087719298245615 | 0.010707508440323813
father | 1 | 0.0035087719298245615 | 0.007785020289674326
februari | 1 | 0.0035087719298245615 | 0.008364247483918006
feel | 1 | 0.0035087719298245615 | 0.007032704951620098
fit | 1 | 0.0035087719298245615 | 0.010536314881834579
fluent | 1 | 0.0035087719298245615 | 0.01736406979080059
foreign | 1 | 0.0035087719298245615 | 0.0025760217544017216
forest | 1 | 0.0035087719298245615 | 0.012219027444156988
formal | 1 | 0.0035087719298245615 | 0.009058372899110706
forti | 4 | 0.014035087719298246 | 0.005690738359412834
freedom | 2 | 0.007017543859649123 | 0.014576001863116885
frolic | 1 | 0.0035087719298245615 | 0.021218849751039572
ft | 1 | 0.0035087719298245615 | 0.009169771840565374
gangtok | 1 | 0.0035087719298245615 | 0.016354659010268027
glass | 1 | 0.0035087719298245615 | 0.010536314881834579
goal | 1 | 0.0035087719298245615 | 0.011490468269496481
gold | 1 | 0.0035087719298245615 | 0.00854896233825282
gorg | 1 | 0.0035087719298245615 | 0.013509289830561608
graduat | 1 | 0.0035087719298245615 | 0.012219027444156988
green | 1 | 0.0035087719298245615 | 0.00895040216694666
handl | 1 | 0.0035087719298245615 | 0.011490468269496481
heavi | 1 | 0.0035087719298245615 | 0.007862139260617398
help | 1 | 0.0035087719298245615 | 0.0039814641870534245
himalayan | 2 | 0.007017543859649123 | 0.027018579661123216
histori | 1 | 0.0035087719298245615 | 0.007709559920477963
home | 1 | 0.0035087719298245615 | 0.002997948519845851
hope | 5 | 0.017543859649122806 | 0.01830571707194419
household | 1 | 0.0035087719298245615 | 0.014391094842073562
hover | 1 | 0.0035087719298245615 | 0.016354659010268027
hundr | 6 | 0.021052631578947368 | -0.021793187164400464
husband | 1 | 0.0035087719298245615 | 0.011490468269496481
illiteraci | 1 | 0.0035087719298245615 | 0.01736406979080059
imit | 1 | 0.0035087719298245615 | 0.015571699181095362
import | 1 | 0.0035087719298245615 | 0.006465542314580042
independ | 1 | 0.0035087719298245615 | 0.0044796054546688184
india | 5 | 0.017543859649122806 | 0.025836161413033243
intend | 1 | 0.0035087719298245615 | 0.009169771840565374
interest | 1 | 0.0035087719298245615 | 0.006518306796560886
jet | 1 | 0.0035087719298245615 | 0.008455389541473306
jointli | 1 | 0.0035087719298245615 | 0.013509289830561608
june | 2 | 0.007017543859649123 | 0.0009584248070578997
kanchenjunga | 1 | 0.0035087719298245615 | 0.0187867543806538
kind | 1 | 0.0035087719298245615 | 0.007785020289674326
kingdom | 1 | 0.0035087719298245615 | 0.012219027444156988
kusho | 1 | 0.0035087719298245615 | 0.021218849751039572
laci | 1 | 0.0035087719298245615 | 0.021218849751039572
ladi | 1 | 0.0035087719298245615 | 0.010373086756799866
lama | 1 | 0.0035087719298245615 | 0.0187867543806538
land | 1 | 0.0035087719298245615 | 0.0044796054546688184
landscap | 1 | 0.0035087719298245615 | 0.01736406979080059
languag | 2 | 0.007017543859649123 | 0.02013556735928654
larg | 2 | 0.007017543859649123 | 0.01314375374842555
late | 1 | 0.0035087719298245615 | 0.007709559920477963
lawrenc | 1 | 0.0035087719298245615 | 0.016354659010268027
learn | 1 | 0.0035087719298245615 | 0.00854896233825282
legendari | 1 | 0.0035087719298245615 | 0.016354659010268027
leopard | 1 | 0.0035087719298245615 | 0.01736406979080059
lhachem | 1 | 0.0035087719298245615 | 0.021218849751039572
life | 1 | 0.0035087719298245615 | 0.004600609581234325
lit | 1 | 0.0035087719298245615 | 0.014931974420414818
lock | 1 | 0.0035087719298245615 | 0.011277750298210744
look | 1 | 0.0035087719298245615 | 0.006465542314580042
maharajah | 5 | 0.017543859649122806 | 0.06961281819941126
maharani | 1 | 0.0035087719298245615 | 0.021218849751039572
majest | 1 | 0.0035087719298245615 | 0.0187867543806538
march | 2 | 0.007017543859649123 | 0.005470273824441753
marri | 1 | 0.0035087719298245615 | 0.008743944272129349
mi | 1 | 0.0035087719298245615 | 0.012499879050029045
miracul | 1 | 0.0035087719298245615 | 0.014391094842073562
misti | 1 | 0.0035087719298245615 | 0.014931974420414818
mount | 1 | 0.0035087719298245615 | 0.008645099089790064
mountain | 3 | 0.010526315789473684 | 0.02109811485486029
mourn | 1 | 0.0035087719298245615 | 0.01088748491185908
namgyal | 2 | 0.007017543859649123 | 0.03270931802053605
nation | 3 | 0.010526315789473684 | -0.003973650998516946
nehru | 2 | 0.007017543859649123 | 0.014316063114482856
neighbor | 1 | 0.0035087719298245615 | 0.006681534921595597
nepali | 1 | 0.0035087719298245615 | 0.021218849751039572
new | 2 | 0.007017543859649123 | -0.0018679008226724027
nine | 4 | 0.014035087719298246 | -0.0074844485366831045
nude | 2 | 0.007017543859649123 | 0.027845127279764507
nurs | 1 | 0.0035087719298245615 | 0.013922563639882254
offic | 1 | 0.0035087719298245615 | 0.0023582237591653083
old | 1 | 0.0035087719298245615 | 0.0016276346325072944
oneris | 1 | 0.0035087719298245615 | 0.021218849751039572
orang | 1 | 0.0035087719298245615 | 0.015571699181095362
orchid | 1 | 0.0035087719298245615 | 0.021218849751039572
orient | 1 | 0.0035087719298245615 | 0.011958999471687787
outlin | 1 | 0.0035087719298245615 | 0.014391094842073562
own | 1 | 0.0035087719298245615 | 0.009654509870322629
paint | 2 | 0.007017543859649123 | 0.0204342313201202
palac | 1 | 0.0035087719298245615 | 0.0049566427747952365
palden | 2 | 0.007017543859649123 | 0.03472813958160118
panda | 1 | 0.0035087719298245615 | 0.01736406979080059
park | 1 | 0.0035087719298245615 | 0.006413559557439197
parsi | 1 | 0.0035087719298245615 | 0.021218849751039572
peak | 1 | 0.0035087719298245615 | 0.013509289830561608
peasant | 1 | 0.0035087719298245615 | 0.007422970337971763
peopl | 1 | 0.0035087719298245615 | 0.0014102641452738258
person | 1 | 0.0035087719298245615 | 0.005352924919288553
pictur | 1 | 0.0035087719298245615 | 0.009058372899110706
pink | 1 | 0.0035087719298245615 | 0.013922563639882254
plant | 1 | 0.0035087719298245615 | 0.008364247483918006
polit | 2 | 0.007017543859649123 | 0.0028702983137721553
prayer | 1 | 0.0035087719298245615 | 0.012219027444156988
precis | 1 | 0.0035087719298245615 | 0.012499879050029045
prepar | 1 | 0.0035087719298245615 | 0.007288000931558443
preval | 1 | 0.0035087719298245615 | 0.01736406979080059
princ | 2 | 0.007017543859649123 | 0.012046588342175066
privat | 2 | 0.007017543859649123 | 0.012931084629160084
probabl | 1 | 0.0035087719298245615 | 0.006852728480084833
problem | 1 | 0.0035087719298245615 | 0.005131244562721776
proclaim | 1 | 0.0035087719298245615 | 0.011077194460175837
profit | 1 | 0.0035087719298245615 | 0.01006778367964327
program | 1 | 0.0035087719298245615 | 0.006852728480084833
project | 1 | 0.0035087719298245615 | 0.008364247483918006
prowl | 1 | 0.0035087719298245615 | 0.014391094842073562
reach | 1 | 0.0035087719298245615 | 0.007032704951620098
red | 1 | 0.0035087719298245615 | 0.00016994953368278953
reform | 1 | 0.0035087719298245615 | 0.00895040216694666
reincarn | 2 | 0.007017543859649123 | 0.0375735087613076
retir | 1 | 0.0035087719298245615 | 0.009924548611151149
rever | 1 | 0.0035087719298245615 | 0.014931974420414818
rhododendron | 1 | 0.0035087719298245615 | 0.0187867543806538
right | 1 | 0.0035087719298245615 | 0.004139781503827002
robe | 1 | 0.0035087719298245615 | 0.012499879050029045
romant | 1 | 0.0035087719298245615 | 0.014931974420414818
royal | 2 | 0.007017543859649123 | 0.01588198277282819
rule | 1 | 0.0035087719298245615 | 0.004725936186855655
sarah | 1 | 0.0035087719298245615 | 0.0187867543806538
scamper | 1 | 0.0035087719298245615 | 0.0187867543806538
scandinavia | 1 | 0.0035087719298245615 | 0.021218849751039572
scotch | 1 | 0.0035087719298245615 | 0.015571699181095362
seed | 1 | 0.0035087719298245615 | 0.016354659010268027
sent | 1 | 0.0035087719298245615 | 0.006164606097887322
servant | 1 | 0.0035087719298245615 | 0.01006778367964327
seventh | 2 | 0.007017543859649123 | -0.0012015995834768504
seventi | 1 | 0.0035087719298245615 | 0.004362635558993058
sever | 1 | 0.0035087719298245615 | 0.006518306796560886
shall | 1 | 0.0035087719298245615 | 0.01171691922085638
sikkim | 11 | 0.03859649122807018 | 0.1263951509644613
sikkimes | 1 | 0.0035087719298245615 | 0.016354659010268027
sir | 1 | 0.0035087719298245615 | 0.006571876874212775
sixti | 1 | 0.0035087719298245615 | 0.0012884195439621425
skin | 1 | 0.0035087719298245615 | 0.011077194460175837
skinni | 1 | 0.0035087719298245615 | 0.0187867543806538
slope | 1 | 0.0035087719298245615 | 0.014931974420414818
snow | 1 | 0.0035087719298245615 | 0.01088748491185908
snowi | 2 | 0.007017543859649123 | 0.03472813958160118
snowman | 1 | 0.0035087719298245615 | 0.021218849751039572
socialist | 1 | 0.0035087719298245615 | 0.0038547799602389817
sort | 1 | 0.0035087719298245615 | 0.008455389541473306
special | 1 | 0.0035087719298245615 | 0.0066262775287249335
spirit | 1 | 0.0035087719298245615 | 0.009284823850470605
spring | 1 | 0.0035087719298245615 | 0.009284823850470605
sq | 1 | 0.0035087719298245615 | 0.013922563639882254
state | 2 | 0.007017543859649123 | -0.005903159863291825
steadfastli | 1 | 0.0035087719298245615 | 0.01736406979080059
stiff | 1 | 0.0035087719298245615 | 0.0187867543806538
studi | 1 | 0.0035087719298245615 | 0.009169771840565374
subject | 1 | 0.0035087719298245615 | 0.009526904101302015
submit | 1 | 0.0035087719298245615 | 0.014931974420414818
subtrop | 1 | 0.0035087719298245615 | 0.021218849751039572
summit | 1 | 0.0035087719298245615 | 0.01088748491185908
swarm | 1 | 0.0035087719298245615 | 0.011277750298210744
tallest | 1 | 0.0035087719298245615 | 0.0187867543806538
tashi | 4 | 0.014035087719298246 | 0.0654186360410721
tax | 1 | 0.0035087719298245615 | 0.007492453240765376
temper | 1 | 0.0035087719298245615 | 0.013922563639882254
thondup | 2 | 0.007017543859649123 | 0.03472813958160118
thousand | 9 | 0.031578947368421054 | -0.06000967554490387
threaten | 1 | 0.0035087719298245615 | 0.007032704951620098
throne | 1 | 0.0035087719298245615 | 0.011077194460175837
tibet | 1 | 0.0035087719298245615 | 0.01736406979080059
time | 1 | 0.0035087719298245615 | 0.007563339933107549
tint | 1 | 0.0035087719298245615 | 0.0187867543806538
tributari | 1 | 0.0035087719298245615 | 0.021218849751039572
troop | 1 | 0.0035087719298245615 | 0.0033032515970024467
true | 1 | 0.0035087719298245615 | 0.009169771840565374
twenti | 8 | 0.028070175438596492 | -0.04474925648321948
twentieth | 1 | 0.0035087719298245615 | 0.013139603810709586
type | 1 | 0.0035087719298245615 | 0.010707508440323813
ubiquit | 1 | 0.0035087719298245615 | 0.0187867543806538
unabl | 1 | 0.0035087719298245615 | 0.013509289830561608
uncl | 1 | 0.0035087719298245615 | 0.012219027444156988
undoubtedli | 1 | 0.0035087719298245615 | 0.013922563639882254
unit | 1 | 0.0035087719298245615 | -0.002980077728338365
usher | 1 | 0.0035087719298245615 | 0.016354659010268027
usual | 1 | 0.0035087719298245615 | 0.00697168129298196
varieti | 1 | 0.0035087719298245615 | 0.01280518212718564
vision | 1 | 0.0035087719298245615 | 0.01171691922085638
want | 1 | 0.0035087719298245615 | 0.00350005674314646
wedg | 1 | 0.0035087719298245615 | 0.015571699181095362
welfar | 1 | 0.0035087719298245615 | 0.014391094842073562
whiski | 1 | 0.0035087719298245615 | 0.014391094842073562
white | 1 | 0.0035087719298245615 | 0.003684771597481273
world | 3 | 0.010526315789473684 | 0.0037580286812865
worthi | 1 | 0.0035087719298245615 | 0.01736406979080059
write | 1 | 0.0035087719298245615 | 0.010373086756799866
yellowston | 1 | 0.0035087719298245615 | 0.021218849751039572
