abroad | 1 | 0.003816793893129771 | 0.009299443764893334
account | 1 | 0.003816793893129771 | 0.010951596750756992
acr | 1 | 0.003816793893129771 | 0.011843256488090982
acreag | 2 | 0.007633587786259542 | 0.037776793056321895
addit | 1 | 0.003816793893129771 | 0.009098513484414624
address | 1 | 0.003816793893129771 | 0.011114038027164612
admiss | 1 | 0.003816793893129771 | 0.012745503732610946
admit | 2 | 0.007633587786259542 | 0.01661199364991135
agricultur | 2 | 0.007633587786259542 | 0.019023084866846292
american | 1 | 0.003816793893129771 | 0.00528218734707714
amount | 1 | 0.003816793893129771 | 0.012267781812939168
angri | 1 | 0.003816793893129771 | 0.009299443764893334
announc | 1 | 0.003816793893129771 | 0.005620844276881278
annual | 1 | 0.003816793893129771 | 0.008725847570048533
answer | 1 | 0.003816793893129771 | 0.008552327058305184
applier | 1 | 0.003816793893129771 | 0.023081573202466708
arabl | 1 | 0.003816793893129771 | 0.017790373350864076
area | 1 | 0.003816793893129771 | 0.006976581961336531
arrest | 1 | 0.003816793893129771 | 0.007207973647658801
arriv | 1 | 0.003816793893129771 | 0.006552056636488347
articl | 1 | 0.003816793893129771 | 0.013597196676558312
athlet | 1 | 0.003816793893129771 | 0.018888396528160947
atlant | 1 | 0.003816793893129771 | 0.01022929904221299
audienc | 1 | 0.003816793893129771 | 0.012499173499261438
ballast | 1 | 0.003816793893129771 | 0.023081573202466708
bigwig | 1 | 0.003816793893129771 | 0.02043597327666539
billion | 1 | 0.003816793893129771 | 0.009511542433423146
bloat | 1 | 0.003816793893129771 | 0.023081573202466708
bonus | 1 | 0.003816793893129771 | 0.018888396528160947
brave | 2 | 0.007633587786259542 | 0.030289546850125512
build | 1 | 0.003816793893129771 | 0.0055429478202736185
bulg | 1 | 0.003816793893129771 | 0.017790373350864076
bureaucrat | 1 | 0.003816793893129771 | 0.014293080481115389
buy | 2 | 0.007633587786259542 | 0.02045859808442598
cabbag | 1 | 0.003816793893129771 | 0.023081573202466708
call | 1 | 0.003816793893129771 | 0.005106267090587572
capitalist | 1 | 0.003816793893129771 | 0.010795787611366707
catch | 1 | 0.003816793893129771 | 0.014293080481115389
central | 1 | 0.003816793893129771 | 0.005700363692540982
chemic | 5 | 0.019083969465648856 | 0.07146540240557694
chemistri | 3 | 0.011450381679389313 | 0.05666518958448284
chronic | 1 | 0.003816793893129771 | 0.01693868040691671
citizen | 1 | 0.003816793893129771 | 0.007927787272878458
clearli | 1 | 0.003816793893129771 | 0.010795787611366707
co | 1 | 0.003816793893129771 | 0.012049619928053867
coat | 1 | 0.003816793893129771 | 0.014293080481115389
collect | 2 | 0.007633587786259542 | 0.0188080400045051
collectiv | 1 | 0.003816793893129771 | 0.016242796602359628
committe | 1 | 0.003816793893129771 | 0.00800049030711775
communist | 2 | 0.007633587786259542 | -0.0007717260829875477
complain | 1 | 0.003816793893129771 | 0.009001880629512755
complaint | 1 | 0.003816793893129771 | 0.012267781812939168
compris | 1 | 0.003816793893129771 | 0.016242796602359628
comrad | 1 | 0.003816793893129771 | 0.010099903806809628
confess | 1 | 0.003816793893129771 | 0.012049619928053867
congress | 1 | 0.003816793893129771 | 0.007856443253748105
consum | 1 | 0.003816793893129771 | 0.012267781812939168
costli | 1 | 0.003816793893129771 | 0.01693868040691671
countri | 1 | 0.003816793893129771 | 0.0010890106727713786
crash | 1 | 0.003816793893129771 | 0.012499173499261438
credit | 1 | 0.003816793893129771 | 0.010099903806809628
crisi | 1 | 0.003816793893129771 | 0.007329151885500711
critic | 1 | 0.003816793893129771 | 0.0071487973631703845
deliveri | 1 | 0.003816793893129771 | 0.013597196676558312
design | 2 | 0.007633587786259542 | 0.015167398232823348
develop | 1 | 0.003816793893129771 | 0.007856443253748105
die | 1 | 0.003816793893129771 | 0.006976581961336531
disastr | 1 | 0.003816793893129771 | 0.014695219853855183
dollar | 1 | 0.003816793893129771 | 0.0018429456936014676
domest | 1 | 0.003816793893129771 | 0.01300883530317183
drop | 1 | 0.003816793893129771 | 0.00940402000225255
earn | 1 | 0.003816793893129771 | 0.009853573573460119
easier | 1 | 0.003816793893129771 | 0.016242796602359628
econom | 2 | 0.007633587786259542 | 0.007469221197145393
educ | 1 | 0.003816793893129771 | 0.007329151885500711
egg | 1 | 0.003816793893129771 | 0.013929301168885142
eighti | 1 | 0.003816793893129771 | 0.006215769355914809
employe | 1 | 0.003816793893129771 | 0.011843256488090982
engag | 1 | 0.003816793893129771 | 0.012267781812939168
engel | 1 | 0.003816793893129771 | 0.02043597327666539
equip | 2 | 0.007633587786259542 | 0.021292180465838136
exchang | 1 | 0.003816793893129771 | 0.009197656562289665
expand | 1 | 0.003816793893129771 | 0.013291690158720386
fabul | 1 | 0.003816793893129771 | 0.02043597327666539
factori | 1 | 0.003816793893129771 | 0.008815658628866067
failur | 2 | 0.007633587786259542 | 0.021292180465838136
farm | 3 | 0.011450381679389313 | 0.0261775427101456
farmer | 1 | 0.003816793893129771 | 0.010363235377370512
fertil | 6 | 0.022900763358778626 | 0.07805301181903099
fiber | 1 | 0.003816793893129771 | 0.018888396528160947
figur | 2 | 0.007633587786259542 | 0.019244363774275696
floor | 1 | 0.003816793893129771 | 0.00973612449457938
follow | 1 | 0.003816793893129771 | 0.006552056636488347
food | 1 | 0.003816793893129771 | 0.007583699116411674
forc | 2 | 0.007633587786259542 | 0.0018261808325636187
foreign | 2 | 0.007633587786259542 | 0.00560432213743886
forti | 2 | 0.007633587786259542 | 0.0030951534970088883
fraction | 1 | 0.003816793893129771 | 0.018888396528160947
friedrich | 1 | 0.003816793893129771 | 0.018888396528160947
fume | 1 | 0.003816793893129771 | 0.017790373350864076
fur | 1 | 0.003816793893129771 | 0.01693868040691671
get | 1 | 0.003816793893129771 | 0.007717635451569194
goe | 1 | 0.003816793893129771 | 0.012049619928053867
good | 1 | 0.003816793893129771 | 0.010795787611366707
grain | 2 | 0.007633587786259542 | 0.025491007465221892
great | 1 | 0.003816793893129771 | 0.00422034258182051
half | 2 | 0.007633587786259542 | 0.012905827117226612
hall | 1 | 0.003816793893129771 | 0.010099903806809628
heavi | 2 | 0.007633587786259542 | 0.017104654116610368
hint | 1 | 0.003816793893129771 | 0.009853573573460119
hundr | 5 | 0.019083969465648856 | -0.01975527462421798
import | 1 | 0.003816793893129771 | 0.007033128090287451
impress | 1 | 0.003816793893129771 | 0.010099903806809628
incent | 2 | 0.007633587786259542 | 0.032485593204719256
inclin | 1 | 0.003816793893129771 | 0.014293080481115389
increas | 1 | 0.003816793893129771 | 0.007717635451569194
industri | 4 | 0.015267175572519083 | 0.020425068362350286
insist | 1 | 0.003816793893129771 | 0.00617005870306475
instanc | 1 | 0.003816793893129771 | 0.023081573202466708
item | 1 | 0.003816793893129771 | 0.013291690158720386
karl | 1 | 0.003816793893129771 | 0.014695219853855183
key | 1 | 0.003816793893129771 | 0.009511542433423146
khrushchev | 8 | 0.030534351145038167 | 0.018604362446506338
kremlin | 1 | 0.003816793893129771 | 0.007927787272878458
laboratori | 1 | 0.003816793893129771 | 0.01693868040691671
land | 1 | 0.003816793893129771 | 0.004872853261758066
lemonad | 2 | 0.007633587786259542 | 0.04087194655333078
linoleum | 1 | 0.003816793893129771 | 0.023081573202466708
live | 1 | 0.003816793893129771 | 0.0037586913970202715
lumpi | 1 | 0.003816793893129771 | 0.023081573202466708
mainten | 1 | 0.003816793893129771 | 0.017790373350864076
manag | 1 | 0.003816793893129771 | 0.007329151885500711
marbl | 1 | 0.003816793893129771 | 0.014695219853855183
marx | 1 | 0.003816793893129771 | 0.015654435228973147
may | 1 | 0.003816793893129771 | 0.008305996824955674
meat | 1 | 0.003816793893129771 | 0.014293080481115389
mess | 1 | 0.003816793893129771 | 0.013929301168885142
militari | 1 | 0.003816793893129771 | 0.0033469014656798707
miracul | 1 | 0.003816793893129771 | 0.015654435228973147
modern | 1 | 0.003816793893129771 | 0.008227297255479585
molotov | 1 | 0.003816793893129771 | 0.023081573202466708
money | 1 | 0.003816793893129771 | 0.007856443253748105
moreov | 2 | 0.007633587786259542 | 0.02329496111062814
moscow | 1 | 0.003816793893129771 | 0.002565243402145469
natur | 1 | 0.003816793893129771 | 0.009853573573460119
new | 3 | 0.011450381679389313 | -0.0030478152736353134
nikita | 3 | 0.011450381679389313 | 0.01810836710372169
nine | 2 | 0.007633587786259542 | -0.004070740139226497
number | 1 | 0.003816793893129771 | 0.008386353348611524
nutrient | 1 | 0.003816793893129771 | 0.023081573202466708
nylon | 1 | 0.003816793893129771 | 0.023081573202466708
occupi | 1 | 0.003816793893129771 | 0.010363235377370512
ocean | 1 | 0.003816793893129771 | 0.012745503732610946
old | 2 | 0.007633587786259542 | 0.003541037177592205
one | 2 | 0.007633587786259542 | 0.016936876202726586
one4 | 1 | 0.003816793893129771 | 0.018888396528160947
one94two | 1 | 0.003816793893129771 | 0.023081573202466708
one964 | 1 | 0.003816793893129771 | 0.02043597327666539
one9two | 1 | 0.003816793893129771 | 0.02043597327666539
output | 1 | 0.003816793893129771 | 0.017790373350864076
palac | 1 | 0.003816793893129771 | 0.005391767903880314
palli | 1 | 0.003816793893129771 | 0.023081573202466708
parti | 2 | 0.007633587786259542 | -0.00083669317968914
peasant | 1 | 0.003816793893129771 | 0.008074605138633405
peopl | 2 | 0.007633587786259542 | 0.003068131919107178
permit | 1 | 0.003816793893129771 | 0.008815658628866067
person | 1 | 0.003816793893129771 | 0.005822838175561975
pile | 1 | 0.003816793893129771 | 0.014293080481115389
plan | 2 | 0.007633587786259542 | 0.0076146272656239765
plant | 1 | 0.003816793893129771 | 0.009098513484414624
plastic | 1 | 0.003816793893129771 | 0.02043597327666539
plot | 1 | 0.003816793893129771 | 0.010363235377370512
possibl | 1 | 0.003816793893129771 | 0.005660396899154358
potato | 1 | 0.003816793893129771 | 0.013929301168885142
power | 1 | 0.003816793893129771 | 0.002211114648515827
prescrib | 1 | 0.003816793893129771 | 0.023081573202466708
privat | 1 | 0.003816793893129771 | 0.007033128090287451
problem | 1 | 0.003816793893129771 | 0.005581697329678267
product | 6 | 0.022900763358778626 | 0.04890112611339233
profit | 1 | 0.003816793893129771 | 0.010951596750756992
program | 1 | 0.003816793893129771 | 0.00745430388100831
promis | 2 | 0.007633587786259542 | 0.010636731518234766
quadrupl | 1 | 0.003816793893129771 | 0.02043597327666539
radic | 1 | 0.003816793893129771 | 0.012745503732610946
rain | 1 | 0.003816793893129771 | 0.012049619928053867
rais | 1 | 0.003816793893129771 | 0.007090524568778062
ran | 1 | 0.003816793893129771 | 0.012745503732610946
realist | 1 | 0.003816793893129771 | 0.015144773425062756
receiv | 1 | 0.003816793893129771 | 0.008907634016572404
reduct | 1 | 0.003816793893129771 | 0.016242796602359628
regim | 1 | 0.003816793893129771 | 0.004777029135303576
rel | 1 | 0.003816793893129771 | 0.010502043179549423
remark | 1 | 0.003816793893129771 | 0.00973612449457938
rememb | 1 | 0.003816793893129771 | 0.012745503732610946
requir | 2 | 0.007633587786259542 | 0.024099239856107735
rest | 2 | 0.007633587786259542 | 0.01645459451095917
result | 1 | 0.003816793893129771 | 0.0066026109370609445
russia | 5 | 0.019083969465648856 | 0.01928281634795131
russian | 1 | 0.003816793893129771 | 0.0034125213150706063
satisfi | 1 | 0.003816793893129771 | 0.012499173499261438
scienc | 1 | 0.003816793893129771 | 0.013291690158720386
sell | 1 | 0.003816793893129771 | 0.010646090232919068
seri | 1 | 0.003816793893129771 | 0.010099903806809628
serv | 1 | 0.003816793893129771 | 0.007583699116411674
seventi | 2 | 0.007633587786259542 | 0.009491230032923828
shook | 1 | 0.003816793893129771 | 0.014293080481115389
show | 1 | 0.003816793893129771 | 0.007927787272878458
simpl | 1 | 0.003816793893129771 | 0.012745503732610946
situat | 1 | 0.003816793893129771 | 0.009299443764893334
sixti | 2 | 0.007633587786259542 | 0.0028030501528947373
skill | 1 | 0.003816793893129771 | 0.011843256488090982
smart | 1 | 0.003816793893129771 | 0.018888396528160947
snort | 1 | 0.003816793893129771 | 0.016242796602359628
soil | 1 | 0.003816793893129771 | 0.013929301168885142
sold | 1 | 0.003816793893129771 | 0.011843256488090982
someth | 1 | 0.003816793893129771 | 0.00973612449457938
soviet | 6 | 0.022900763358778626 | 0.008962909196025009
speaker | 1 | 0.003816793893129771 | 0.013291690158720386
special | 1 | 0.003816793893129771 | 0.007207973647658801
speech | 1 | 0.003816793893129771 | 0.007927787272878458
spend | 2 | 0.007633587786259542 | 0.021591575222733413
stalin | 2 | 0.007633587786259542 | 0.01661199364991135
standard | 1 | 0.003816793893129771 | 0.00973612449457938
starvat | 1 | 0.003816793893129771 | 0.02043597327666539
state | 5 | 0.019083969465648856 | -0.01605344046792147
stock | 1 | 0.003816793893129771 | 0.011843256488090982
stomach | 1 | 0.003816793893129771 | 0.018888396528160947
straighten | 1 | 0.003816793893129771 | 0.018888396528160947
superfici | 1 | 0.003816793893129771 | 0.018888396528160947
superphosph | 1 | 0.003816793893129771 | 0.023081573202466708
suppli | 1 | 0.003816793893129771 | 0.006811802679408254
surplus | 1 | 0.003816793893129771 | 0.017790373350864076
synthet | 2 | 0.007633587786259542 | 0.03558074670172815
talk | 2 | 0.007633587786259542 | 0.00844068516364102
task | 2 | 0.007633587786259542 | 0.021591575222733413
think | 1 | 0.003816793893129771 | 0.007583699116411674
thousand | 20 | 0.07633587786259542 | -0.1450615566607091
toler | 1 | 0.003816793893129771 | 0.014293080481115389
ton | 2 | 0.007633587786259542 | 0.020199807613619256
train | 1 | 0.003816793893129771 | 0.0065021631953915806
transform | 1 | 0.003816793893129771 | 0.013929301168885142
twenti | 13 | 0.04961832061068702 | -0.07910114278164512
twice | 1 | 0.003816793893129771 | 0.011283701243083824
ukrain | 1 | 0.003816793893129771 | 0.017790373350864076
underpaid | 1 | 0.003816793893129771 | 0.02043597327666539
ungainli | 1 | 0.003816793893129771 | 0.02043597327666539
union | 2 | 0.007633587786259542 | 0.008775056328972264
unit | 3 | 0.011450381679389313 | -0.009725062815760695
unsold | 1 | 0.003816793893129771 | 0.023081573202466708
urgent | 1 | 0.003816793893129771 | 0.013597196676558312
use | 2 | 0.007633587786259542 | 0.018598887529786667
utopian | 1 | 0.003816793893129771 | 0.02043597327666539
wait | 1 | 0.003816793893129771 | 0.008725847570048533
warehous | 2 | 0.007633587786259542 | 0.03387736081383342
wear | 1 | 0.003816793893129771 | 0.008552327058305184
west | 2 | 0.007633587786259542 | 0.0018721664402230154
wisdom | 1 | 0.003816793893129771 | 0.017790373350864076
work | 1 | 0.003816793893129771 | 0.0024435130060540423
worker | 3 | 0.011450381679389313 | 0.01851017610919425
worthless | 1 | 0.003816793893129771 | 0.023081573202466708
wrong | 1 | 0.003816793893129771 | 0.011461258554667385
yield | 1 | 0.003816793893129771 | 0.012499173499261438
