abl | 1 | 0.0058823529411764705 | 0.013051357544454018
academi | 1 | 0.0058823529411764705 | 0.02741810481133169
adjac | 1 | 0.0058823529411764705 | 0.026105495685953987
africa | 3 | 0.01764705882352941 | 0.01693722077318636
african | 2 | 0.011764705882352941 | 0.011437627809558246
afro | 1 | 0.0058823529411764705 | 0.019643070458494515
aggress | 1 | 0.0058823529411764705 | 0.0176638220077815
aid | 1 | 0.0058823529411764705 | 0.008030829128953284
ail | 1 | 0.0058823529411764705 | 0.02202815932971901
algeria | 1 | 0.0058823529411764705 | 0.01292485045491894
anger | 1 | 0.0058823529411764705 | 0.019643070458494515
ant | 1 | 0.0058823529411764705 | 0.025033015940107196
appear | 1 | 0.0058823529411764705 | 0.011894238166536052
area | 1 | 0.0058823529411764705 | 0.010752143963942183
arm | 2 | 0.011764705882352941 | 0.01685001955535316
ashen | 1 | 0.0058823529411764705 | 0.03149544116756667
asia | 1 | 0.0058823529411764705 | 0.011687818638234463
asian | 2 | 0.011764705882352941 | 0.02488878289790532
aswan | 2 | 0.011764705882352941 | 0.04096968025393813
attract | 1 | 0.0058823529411764705 | 0.0176638220077815
automobil | 1 | 0.0058823529411764705 | 0.019643070458494515
blood | 1 | 0.0058823529411764705 | 0.014022414899509597
broken | 1 | 0.0058823529411764705 | 0.01739017485698801
buri | 3 | 0.01764705882352941 | 0.05892921137548355
buy | 1 | 0.0058823529411764705 | 0.015765154994469434
cairo | 2 | 0.011764705882352941 | 0.021504287927884367
campaign | 1 | 0.0058823529411764705 | 0.009579597477939295
cash | 1 | 0.0058823529411764705 | 0.016185501841423228
china | 1 | 0.0058823529411764705 | 0.004260954117105116
chines | 1 | 0.0058823529411764705 | 0.0037658847505068183
chou | 10 | 0.058823529411764705 | 0.1687834322763725
civil | 1 | 0.0058823529411764705 | 0.010927749629528543
clearli | 1 | 0.0058823529411764705 | 0.016638213848106338
climb | 1 | 0.0058823529411764705 | 0.019643070458494515
close | 1 | 0.0058823529411764705 | 0.00866271294436997
clutch | 1 | 0.0058823529411764705 | 0.029110352296342165
communist | 2 | 0.011764705882352941 | -0.0011893660808396324
conflict | 1 | 0.0058823529411764705 | 0.018906816676412128
corner | 1 | 0.0058823529411764705 | 0.018570590712647727
countri | 1 | 0.0058823529411764705 | 0.0016783576250947129
creat | 1 | 0.0058823529411764705 | 0.012000229375375334
cultiv | 1 | 0.0058823529411764705 | 0.02412624723524097
dam | 1 | 0.0058823529411764705 | 0.017950822973484038
demolish | 1 | 0.0058823529411764705 | 0.02334076845509672
distanc | 1 | 0.0058823529411764705 | 0.026105495685953987
doctor | 2 | 0.011764705882352941 | 0.03001017197152703
dollar | 1 | 0.0058823529411764705 | 0.0028403045395504973
doorstep | 1 | 0.0058823529411764705 | 0.03149544116756667
eager | 1 | 0.0058823529411764705 | 0.01640750377073409
egypt | 3 | 0.01764705882352941 | 0.020551239819880714
en | 1 | 0.0058823529411764705 | 0.02202815932971901
end | 2 | 0.011764705882352941 | 0.009110266123323895
enemi | 1 | 0.0058823529411764705 | 0.011488397746024573
energi | 1 | 0.0058823529411764705 | 0.02741810481133169
entourag | 1 | 0.0058823529411764705 | 0.035572777523801634
faint | 1 | 0.0058823529411764705 | 0.02741810481133169
flight | 1 | 0.0058823529411764705 | 0.015565734102259544
friend | 1 | 0.0058823529411764705 | 0.010020980924662318
get | 1 | 0.0058823529411764705 | 0.011894238166536052
grab | 1 | 0.0058823529411764705 | 0.017950822973484038
grant | 1 | 0.0058823529411764705 | 0.015971574522771023
happen | 1 | 0.0058823529411764705 | 0.014829480320177155
harp | 1 | 0.0058823529411764705 | 0.02741810481133169
head | 1 | 0.0058823529411764705 | 0.005981966221493191
hear | 1 | 0.0058823529411764705 | 0.014493254356412754
heavili | 1 | 0.0058823529411764705 | 0.01712869390068899
host | 1 | 0.0058823529411764705 | 0.019643070458494515
hurri | 1 | 0.0058823529411764705 | 0.026105495685953987
illustri | 1 | 0.0058823529411764705 | 0.03149544116756667
imperialist | 2 | 0.011764705882352941 | 0.035327644015563
inde | 1 | 0.0058823529411764705 | 0.015372852791536069
india | 1 | 0.0058823529411764705 | 0.00866271294436997
insist | 1 | 0.0058823529411764705 | 0.009509149295311554
inspect | 1 | 0.0058823529411764705 | 0.01687834322763725
intellect | 1 | 0.0058823529411764705 | 0.029110352296342165
ive | 1 | 0.0058823529411764705 | 0.02202815932971901
junket | 1 | 0.0058823529411764705 | 0.035572777523801634
kenya | 1 | 0.0058823529411764705 | 0.01120139678032203
khrushchev | 1 | 0.0058823529411764705 | 0.0035840757066063684
labor | 1 | 0.0058823529411764705 | 0.006020539165882362
lai | 1 | 0.0058823529411764705 | 0.02334076845509672
left | 1 | 0.0058823529411764705 | 0.0061377992535342285
leg | 1 | 0.0058823529411764705 | 0.019643070458494515
lend | 1 | 0.0058823529411764705 | 0.026105495685953987
list | 1 | 0.0058823529411764705 | 0.01687834322763725
militari | 1 | 0.0058823529411764705 | 0.005158165788283095
miracl | 1 | 0.0058823529411764705 | 0.021467511213222983
moscow | 1 | 0.0058823529411764705 | 0.0039534927727183115
museum | 1 | 0.0058823529411764705 | 0.026105495685953987
nasser | 1 | 0.0058823529411764705 | 0.003309266150327194
nation | 1 | 0.0058823529411764705 | -0.0022205696756418224
neighbor | 1 | 0.0058823529411764705 | 0.01120139678032203
nepal | 1 | 0.0058823529411764705 | 0.02741810481133169
new | 2 | 0.011764705882352941 | -0.0031314807909507926
next | 1 | 0.0058823529411764705 | 0.006546460270091684
nikita | 2 | 0.011764705882352941 | 0.018605459534019934
nonetheless | 1 | 0.0058823529411764705 | 0.0176638220077815
nose | 1 | 0.0058823529411764705 | 0.02202815932971901
notic | 1 | 0.0058823529411764705 | 0.020484840126969064
offer | 1 | 0.0058823529411764705 | 0.010020980924662318
old | 1 | 0.0058823529411764705 | 0.0027286815897916406
partial | 1 | 0.0058823529411764705 | 0.026105495685953987
peke | 3 | 0.01764705882352941 | 0.02082066579865933
peopl | 1 | 0.0058823529411764705 | 0.002364266361194355
plaintiv | 1 | 0.0058823529411764705 | 0.026105495685953987
plan | 1 | 0.0058823529411764705 | 0.005867742187039653
plant | 1 | 0.0058823529411764705 | 0.014022414899509597
plenti | 1 | 0.0058823529411764705 | 0.02202815932971901
power | 1 | 0.0058823529411764705 | 0.003407717870065569
premier | 2 | 0.011764705882352941 | 0.00893064880413815
presid | 1 | 0.0058823529411764705 | 0.002575884610948931
proclaim | 1 | 0.0058823529411764705 | 0.018570590712647727
propel | 1 | 0.0058823529411764705 | 0.035572777523801634
rais | 2 | 0.011764705882352941 | 0.021855499259057085
refrain | 1 | 0.0058823529411764705 | 0.029110352296342165
relentlessli | 1 | 0.0058823529411764705 | 0.02741810481133169
reluct | 1 | 0.0058823529411764705 | 0.0176638220077815
repeatedli | 1 | 0.0058823529411764705 | 0.019643070458494515
reportedli | 1 | 0.0058823529411764705 | 0.020048910879005996
right | 1 | 0.0058823529411764705 | 0.006940221932886444
rubberneck | 1 | 0.0058823529411764705 | 0.029110352296342165
russia | 2 | 0.011764705882352941 | 0.01188728913685469
salt | 1 | 0.0058823529411764705 | 0.02741810481133169
schedul | 1 | 0.0058823529411764705 | 0.013728235954952765
seen | 1 | 0.0058823529411764705 | 0.015971574522771023
seriou | 1 | 0.0058823529411764705 | 0.016185501841423228
session | 1 | 0.0058823529411764705 | 0.013448070960898327
shackl | 1 | 0.0058823529411764705 | 0.035572777523801634
shrug | 1 | 0.0058823529411764705 | 0.01825254823458728
side | 1 | 0.0058823529411764705 | 0.0090383098384084
sightse | 1 | 0.0058823529411764705 | 0.035572777523801634
sino | 1 | 0.0058823529411764705 | 0.015372852791536069
sixti | 1 | 0.0058823529411764705 | 0.0021599974707600623
smell | 1 | 0.0058823529411764705 | 0.029110352296342165
sojourn | 1 | 0.0058823529411764705 | 0.03149544116756667
somalia | 1 | 0.0058823529411764705 | 0.020048910879005996
soviet | 1 | 0.0058823529411764705 | 0.002302237460155443
speechmak | 1 | 0.0058823529411764705 | 0.03149544116756667
spent | 1 | 0.0058823529411764705 | 0.013873486617249069
sphinx | 2 | 0.011764705882352941 | 0.06299088233513334
spring | 1 | 0.0058823529411764705 | 0.015565734102259544
stagger | 1 | 0.0058823529411764705 | 0.02334076845509672
stair | 1 | 0.0058823529411764705 | 0.026105495685953987
station | 1 | 0.0058823529411764705 | 0.013180645231035048
stomach | 1 | 0.0058823529411764705 | 0.029110352296342165
succeed | 1 | 0.0058823529411764705 | 0.014493254356412754
support | 1 | 0.0058823529411764705 | 0.005682163612128324
swing | 2 | 0.011764705882352941 | 0.04009782175801199
tell | 1 | 0.0058823529411764705 | 0.01433208392001208
territori | 1 | 0.0058823529411764705 | 0.01244439144895266
thousand | 5 | 0.029411764705882353 | -0.05589136447809674
tightli | 1 | 0.0058823529411764705 | 0.02741810481133169
tire | 2 | 0.011764705882352941 | 0.03852686419772349
tourist | 1 | 0.0058823529411764705 | 0.015565734102259544
trickl | 1 | 0.0058823529411764705 | 0.029110352296342165
turn | 1 | 0.0058823529411764705 | 0.004896684831984073
twenti | 4 | 0.023529411764705882 | -0.0375104061697575
tyranni | 1 | 0.0058823529411764705 | 0.026105495685953987
underdevelop | 1 | 0.0058823529411764705 | 0.021467511213222983
usual | 1 | 0.0058823529411764705 | 0.011687818638234463
version | 1 | 0.0058823529411764705 | 0.020484840126969064
vip | 1 | 0.0058823529411764705 | 0.03149544116756667
visit | 2 | 0.011764705882352941 | 0.01757053279347926
west | 1 | 0.0058823529411764705 | 0.0014426694333483235
western | 1 | 0.0058823529411764705 | 0.00557356324248282
whenev | 1 | 0.0058823529411764705 | 0.022647927068882696
whiff | 1 | 0.0058823529411764705 | 0.03149544116756667
win | 1 | 0.0058823529411764705 | 0.009169034172436107
woo | 1 | 0.0058823529411764705 | 0.020484840126969064
work | 1 | 0.0058823529411764705 | 0.0037658847505068183
