accept | 1 | 0.003257328990228013 | 0.004665314860602667
achiev | 1 | 0.003257328990228013 | 0.00670484733707493
act | 2 | 0.006514657980456026 | 0.011535544365017738
action | 1 | 0.003257328990228013 | 0.00647208198208423
adapt | 1 | 0.003257328990228013 | 0.014455811943362144
affirm | 1 | 0.003257328990228013 | 0.01611973905660641
agre | 1 | 0.003257328990228013 | 0.004697726361753051
align | 1 | 0.003257328990228013 | 0.013359811172609008
allianc | 3 | 0.009771986970684038 | 0.02048334000454251
alon | 1 | 0.003257328990228013 | 0.007764855156080234
aloof | 1 | 0.003257328990228013 | 0.015182663902040351
alp | 1 | 0.003257328990228013 | 0.015182663902040351
ambigu | 1 | 0.003257328990228013 | 0.015182663902040351
ambit | 1 | 0.003257328990228013 | 0.009940195131896699
america | 1 | 0.003257328990228013 | 0.008844194361143564
american | 7 | 0.02280130293159609 | 0.03155547750664325
anglo | 2 | 0.006514657980456026 | 0.025082394799414064
apart | 1 | 0.003257328990228013 | 0.007849465860976849
appear | 1 | 0.003257328990228013 | 0.0065863859554108435
arbit | 1 | 0.003257328990228013 | 0.017440472307773073
arena | 1 | 0.003257328990228013 | 0.015182663902040351
aris | 1 | 0.003257328990228013 | 0.014455811943362144
aspir | 1 | 0.003257328990228013 | 0.014455811943362144
assert | 1 | 0.003257328990228013 | 0.012541197399707032
associ | 1 | 0.003257328990228013 | 0.008117342402465358
assur | 3 | 0.009771986970684038 | 0.023548397582930543
atlant | 3 | 0.009771986970684038 | 0.02618967116345085
atmospher | 1 | 0.003257328990228013 | 0.011102002766876286
atom | 2 | 0.006514657980456026 | 0.017925311485615304
aw | 1 | 0.003257328990228013 | 0.015182663902040351
axi | 1 | 0.003257328990228013 | 0.017440472307773073
background | 1 | 0.003257328990228013 | 0.01292485549630763
balkan | 1 | 0.003257328990228013 | 0.01969828071350579
basi | 1 | 0.003257328990228013 | 0.010469572752410625
begin | 1 | 0.003257328990228013 | 0.007523461109976905
betray | 1 | 0.003257328990228013 | 0.010469572752410625
bloc | 1 | 0.003257328990228013 | 0.009940195131896699
brilliant | 1 | 0.003257328990228013 | 0.010877270286462763
bring | 1 | 0.003257328990228013 | 0.007446814538608195
britain | 2 | 0.006514657980456026 | 0.0015780925741354366
build | 1 | 0.003257328990228013 | 0.004730463612090189
built | 1 | 0.003257328990228013 | 0.007446814538608195
burden | 1 | 0.003257328990228013 | 0.010877270286462763
camp | 1 | 0.003257328990228013 | 0.007936333115316135
capabl | 1 | 0.003257328990228013 | 0.01160412224514097
carri | 1 | 0.003257328990228013 | 0.005189006132875473
central | 1 | 0.003257328990228013 | 0.004864805496565919
centuri | 1 | 0.003257328990228013 | 0.005813329973957533
champion | 1 | 0.003257328990228013 | 0.015182663902040351
chang | 2 | 0.006514657980456026 | 0.012302860558218932
charact | 2 | 0.006514657980456026 | 0.025082394799414064
charl | 1 | 0.003257328990228013 | 0.005077315339785466
choic | 1 | 0.003257328990228013 | 0.009346313839408248
civil | 1 | 0.003257328990228013 | 0.006051196863256848
clariti | 1 | 0.003257328990228013 | 0.01969828071350579
climb | 1 | 0.003257328990228013 | 0.010877270286462763
collaps | 1 | 0.003257328990228013 | 0.009085588407246893
coloss | 1 | 0.003257328990228013 | 0.015182663902040351
command | 1 | 0.003257328990228013 | 0.004697726361753051
commun | 2 | 0.006514657980456026 | 0.009729610993131839
complet | 2 | 0.006514657980456026 | 0.017238923761460082
complex | 1 | 0.003257328990228013 | 0.010877270286462763
comtwenti | 2 | 0.006514657980456026 | 0.009395452723506103
concord | 1 | 0.003257328990228013 | 0.01969828071350579
confront | 1 | 0.003257328990228013 | 0.011102002766876286
consent | 1 | 0.003257328990228013 | 0.01611973905660641
consider | 1 | 0.003257328990228013 | 0.010877270286462763
consist | 1 | 0.003257328990228013 | 0.009629738520156228
continent | 1 | 0.003257328990228013 | 0.012541197399707032
contour | 1 | 0.003257328990228013 | 0.01969828071350579
contract | 1 | 0.003257328990228013 | 0.011102002766876286
contribut | 1 | 0.003257328990228013 | 0.00948494450526752
convinc | 1 | 0.003257328990228013 | 0.008619461880730041
cooper | 1 | 0.003257328990228013 | 0.008211764346677903
corn | 1 | 0.003257328990228013 | 0.012541197399707032
counterbalanc | 1 | 0.003257328990228013 | 0.017440472307773073
countri | 2 | 0.006514657980456026 | 0.001858767402385024
creat | 2 | 0.006514657980456026 | 0.013290156311490598
creation | 1 | 0.003257328990228013 | 0.01219800353762942
crush | 1 | 0.003257328990228013 | 0.008729890387816951
cun | 1 | 0.003257328990228013 | 0.01611973905660641
curtain | 1 | 0.003257328990228013 | 0.009629738520156228
danger | 2 | 0.006514657980456026 | 0.014314166627597522
danub | 1 | 0.003257328990228013 | 0.015182663902040351
de | 1 | 0.003257328990228013 | 0.000552561554614459
decid | 2 | 0.006514657980456026 | 0.019562539031419253
dedic | 2 | 0.006514657980456026 | 0.02093914550482125
deed | 2 | 0.006514657980456026 | 0.02439600707525884
defens | 1 | 0.003257328990228013 | 0.003893621873376746
depend | 2 | 0.006514657980456026 | 0.015698931721953698
describ | 1 | 0.003257328990228013 | 0.008211764346677903
destini | 3 | 0.009771986970684038 | 0.03762359219912109
destroy | 1 | 0.003257328990228013 | 0.009346313839408248
determin | 1 | 0.003257328990228013 | 0.006827780001514171
diminish | 1 | 0.003257328990228013 | 0.011343396812979615
disput | 2 | 0.006514657980456026 | 0.017459780775633902
distress | 1 | 0.003257328990228013 | 0.014455811943362144
divid | 2 | 0.006514657980456026 | 0.016423528693355807
divis | 1 | 0.003257328990228013 | 0.01066704709057491
door | 1 | 0.003257328990228013 | 0.007523461109976905
dose | 1 | 0.003257328990228013 | 0.01611973905660641
doubt | 2 | 0.006514657980456026 | 0.018426686346436988
dream | 1 | 0.003257328990228013 | 0.008962655742807652
east | 1 | 0.003257328990228013 | 0.002988512912453435
econom | 2 | 0.006514657980456026 | 0.006374384213850466
effort | 1 | 0.003257328990228013 | 0.006528732609810188
egot | 1 | 0.003257328990228013 | 0.01969828071350579
emot | 1 | 0.003257328990228013 | 0.011102002766876286
end | 2 | 0.006514657980456026 | 0.005044772771873167
enemi | 1 | 0.003257328990228013 | 0.006361653474997321
england | 4 | 0.013029315960912053 | 0.03793977802107008
english | 1 | 0.003257328990228013 | 0.008117342402465358
enter | 2 | 0.006514657980456026 | 0.01661801053797914
enterpris | 1 | 0.003257328990228013 | 0.010469572752410625
enthusiasm | 1 | 0.003257328990228013 | 0.01188754692588895
equilibrium | 1 | 0.003257328990228013 | 0.01969828071350579
establish | 4 | 0.013029315960912053 | 0.02919491451825353
europ | 15 | 0.048859934853420196 | 0.0332929721836039
european | 2 | 0.006514657980456026 | 0.008428547152703018
exalt | 1 | 0.003257328990228013 | 0.017440472307773073
except | 1 | 0.003257328990228013 | 0.007446814538608195
faction | 1 | 0.003257328990228013 | 0.009629738520156228
faith | 1 | 0.003257328990228013 | 0.008619461880730041
fashion | 1 | 0.003257328990228013 | 0.009940195131896699
ferment | 1 | 0.003257328990228013 | 0.017440472307773073
fertil | 1 | 0.003257328990228013 | 0.011102002766876286
field | 1 | 0.003257328990228013 | 0.006151430279109466
fifti | 6 | 0.019543973941368076 | 0.003702391359533915
fine | 1 | 0.003257328990228013 | 0.009629738520156228
follow | 1 | 0.003257328990228013 | 0.005591657455244127
forc | 2 | 0.006514657980456026 | 0.0015584996030347496
foreign | 1 | 0.003257328990228013 | 0.002391420846920165
forgiven | 1 | 0.003257328990228013 | 0.017440472307773073
form | 2 | 0.006514657980456026 | 0.012302860558218932
forti | 6 | 0.019543973941368076 | 0.007924399506999955
franc | 12 | 0.03908794788273615 | 0.019936335323559918
franco | 1 | 0.003257328990228013 | 0.00768238672616398
french | 3 | 0.009771986970684038 | 0.006842977019499765
fresco | 1 | 0.003257328990228013 | 0.017440472307773073
front | 1 | 0.003257328990228013 | 0.006645078155745299
full | 1 | 0.003257328990228013 | 0.006765733763824612
futur | 2 | 0.006514657980456026 | 0.012723306949994642
gather | 1 | 0.003257328990228013 | 0.00948494450526752
gaull | 1 | 0.003257328990228013 | 0.0015355800517914066
german | 2 | 0.006514657980456026 | 0.005387728690344973
gift | 2 | 0.006514657980456026 | 0.019562539031419253
give | 1 | 0.003257328990228013 | 0.00702134163171222
glori | 2 | 0.006514657980456026 | 0.026719622345218016
gradual | 1 | 0.003257328990228013 | 0.01066704709057491
great | 6 | 0.019543973941368076 | 0.021610353545999484
greater | 2 | 0.006514657980456026 | 0.01661801053797914
guarante | 1 | 0.003257328990228013 | 0.010283388993974312
hard | 1 | 0.003257328990228013 | 0.005227103982266976
heavi | 1 | 0.003257328990228013 | 0.007298728629563382
hegemoni | 1 | 0.003257328990228013 | 0.01969828071350579
height | 1 | 0.003257328990228013 | 0.011102002766876286
help | 3 | 0.009771986970684038 | 0.011088442605637388
human | 1 | 0.003257328990228013 | 0.00802558058824159
hundr | 18 | 0.05863192182410423 | -0.06069438119075699
imagin | 2 | 0.006514657980456026 | 0.0237750938517779
impress | 1 | 0.003257328990228013 | 0.008619461880730041
independ | 1 | 0.003257328990228013 | 0.004158591382998741
industri | 1 | 0.003257328990228013 | 0.004357791458416756
inflex | 1 | 0.003257328990228013 | 0.01611973905660641
influenti | 1 | 0.003257328990228013 | 0.014455811943362144
inher | 1 | 0.003257328990228013 | 0.017440472307773073
initi | 2 | 0.006514657980456026 | 0.019259477040312455
integr | 1 | 0.003257328990228013 | 0.011102002766876286
interest | 3 | 0.009771986970684038 | 0.018153590589770542
intransig | 1 | 0.003257328990228013 | 0.013861930650873691
kind | 1 | 0.003257328990228013 | 0.007227136099534798
launch | 1 | 0.003257328990228013 | 0.007849465860976849
leadership | 3 | 0.009771986970684038 | 0.02048334000454251
lesser | 1 | 0.003257328990228013 | 0.012541197399707032
limit | 1 | 0.003257328990228013 | 0.008844194361143564
link | 1 | 0.003257328990228013 | 0.00948494450526752
livestock | 1 | 0.003257328990228013 | 0.017440472307773073
madonna | 1 | 0.003257328990228013 | 0.01969828071350579
main | 1 | 0.003257328990228013 | 0.007601954763328893
march | 2 | 0.006514657980456026 | 0.005078267231159282
meager | 1 | 0.003257328990228013 | 0.013359811172609008
militari | 1 | 0.003257328990228013 | 0.002856313302958066
mind | 2 | 0.006514657980456026 | 0.012832799577462922
missil | 1 | 0.003257328990228013 | 0.007157083313798761
monopoli | 1 | 0.003257328990228013 | 0.013861930650873691
mortal | 2 | 0.006514657980456026 | 0.030365327804080702
moscow | 1 | 0.003257328990228013 | 0.0021892305256094886
nation | 3 | 0.009771986970684038 | -0.003688894249437555
nato | 1 | 0.003257328990228013 | 0.00424247573512387
natur | 1 | 0.003257328990228013 | 0.008409238684842188
new | 1 | 0.003257328990228013 | -0.0008670223688300241
nine | 20 | 0.06514657980456026 | -0.034740518452030696
ninth | 2 | 0.006514657980456026 | 0.009330629721205333
nuclear | 1 | 0.003257328990228013 | 0.004050003694830689
occas | 1 | 0.003257328990228013 | 0.009346313839408248
offend | 1 | 0.003257328990228013 | 0.014455811943362144
oneket | 2 | 0.006514657980456026 | 0.009460927224180378
open | 1 | 0.003257328990228013 | 0.004328577549678122
oppos | 1 | 0.003257328990228013 | 0.007298728629563382
order | 1 | 0.003257328990228013 | 0.003291268979259442
organ | 4 | 0.013029315960912053 | 0.021062610816976735
particular | 1 | 0.003257328990228013 | 0.015182663902040351
peac | 4 | 0.013029315960912053 | 0.018661259442410667
peopl | 3 | 0.009771986970684038 | 0.003927608613059026
personif | 1 | 0.003257328990228013 | 0.01969828071350579
persuad | 1 | 0.003257328990228013 | 0.009213343173218494
polit | 4 | 0.013029315960912053 | 0.005329218367589996
politician | 1 | 0.003257328990228013 | 0.0055490773849921635
posit | 1 | 0.003257328990228013 | 0.006254846234531552
possibl | 4 | 0.013029315960912053 | 0.019322788111771228
power | 3 | 0.009771986970684038 | 0.005661029686428143
prepar | 1 | 0.003257328990228013 | 0.006765733763824612
prestig | 1 | 0.003257328990228013 | 0.010107274266709569
prevent | 1 | 0.003257328990228013 | 0.008512654640264274
pride | 1 | 0.003257328990228013 | 0.010877270286462763
primaci | 1 | 0.003257328990228013 | 0.01969828071350579
princess | 1 | 0.003257328990228013 | 0.009629738520156228
prosper | 1 | 0.003257328990228013 | 0.007936333115316135
pyrene | 1 | 0.003257328990228013 | 0.017440472307773073
qualiti | 1 | 0.003257328990228013 | 0.01188754692588895
race | 2 | 0.006514657980456026 | 0.014743860228847017
rank | 1 | 0.003257328990228013 | 0.008729890387816951
regard | 2 | 0.006514657980456026 | 0.016818477369684375
reich | 1 | 0.003257328990228013 | 0.017440472307773073
rel | 1 | 0.003257328990228013 | 0.008962655742807652
remain | 3 | 0.009771986970684038 | 0.01325105176042802
remark | 2 | 0.006514657980456026 | 0.01661801053797914
renew | 1 | 0.003257328990228013 | 0.01292485549630763
repeatedli | 1 | 0.003257328990228013 | 0.010877270286462763
repudi | 1 | 0.003257328990228013 | 0.01611973905660641
respect | 2 | 0.006514657980456026 | 0.01536477345232796
rhine | 2 | 0.006514657980456026 | 0.026719622345218016
rise | 1 | 0.003257328990228013 | 0.007298728629563382
risk | 1 | 0.003257328990228013 | 0.009940195131896699
rival | 1 | 0.003257328990228013 | 0.008619461880730041
russia | 2 | 0.006514657980456026 | 0.006582537958518884
russian | 1 | 0.003257328990228013 | 0.0029123146076498337
safeti | 1 | 0.003257328990228013 | 0.010877270286462763
salesman | 1 | 0.003257328990228013 | 0.01611973905660641
saxon | 1 | 0.003257328990228013 | 0.013861930650873691
self | 1 | 0.003257328990228013 | 0.006765733763824612
settl | 1 | 0.003257328990228013 | 0.007849465860976849
share | 1 | 0.003257328990228013 | 0.006645078155745299
shown | 1 | 0.003257328990228013 | 0.010107274266709569
side | 4 | 0.013029315960912053 | 0.02001970908833131
sixti | 6 | 0.019543973941368076 | 0.007176538827932454
sky | 1 | 0.003257328990228013 | 0.01188754692588895
slightest | 1 | 0.003257328990228013 | 0.017440472307773073
soil | 1 | 0.003257328990228013 | 0.01188754692588895
solidar | 1 | 0.003257328990228013 | 0.01292485549630763
someth | 1 | 0.003257328990228013 | 0.00830900526898957
sooner | 1 | 0.003257328990228013 | 0.01188754692588895
sought | 1 | 0.003257328990228013 | 0.01066704709057491
soviet | 1 | 0.003257328990228013 | 0.0012748546196300501
spare | 1 | 0.003257328990228013 | 0.009940195131896699
state | 9 | 0.029315960912052116 | -0.02466059454290477
statesman | 1 | 0.003257328990228013 | 0.01292485549630763
stori | 1 | 0.003257328990228013 | 0.0065863859554108435
strateg | 1 | 0.003257328990228013 | 0.008619461880730041
strong | 2 | 0.006514657980456026 | 0.01489362907721639
summon | 1 | 0.003257328990228013 | 0.010877270286462763
sure | 1 | 0.003257328990228013 | 0.007849465860976849
surround | 1 | 0.003257328990228013 | 0.009940195131896699
surviv | 1 | 0.003257328990228013 | 0.008512654640264274
swallow | 1 | 0.003257328990228013 | 0.011343396812979615
sword | 1 | 0.003257328990228013 | 0.017440472307773073
tend | 1 | 0.003257328990228013 | 0.01188754692588895
therefor | 1 | 0.003257328990228013 | 0.01160412224514097
thirti | 2 | 0.006514657980456026 | 0.005011449640493555
thousand | 25 | 0.08143322475570032 | -0.154748077545219
threaten | 1 | 0.003257328990228013 | 0.006528732609810188
tint | 1 | 0.003257328990228013 | 0.017440472307773073
tomorrow | 2 | 0.006514657980456026 | 0.0237750938517779
travel | 1 | 0.003257328990228013 | 0.00768238672616398
true | 1 | 0.003257328990228013 | 0.008512654640264274
turn | 2 | 0.006514657980456026 | 0.005423038576138713
twenti | 5 | 0.016286644951140065 | -0.025964043358545505
twice | 1 | 0.003257328990228013 | 0.009629738520156228
union | 1 | 0.003257328990228013 | 0.0037444051436331164
unit | 5 | 0.016286644951140065 | -0.013832608348150392
unless | 1 | 0.003257328990228013 | 0.009085588407246893
unwil | 1 | 0.003257328990228013 | 0.01611973905660641
upheav | 1 | 0.003257328990228013 | 0.017440472307773073
ural | 2 | 0.006514657980456026 | 0.02891162388672429
use | 1 | 0.003257328990228013 | 0.007936333115316135
vari | 1 | 0.003257328990228013 | 0.013861930650873691
vast | 1 | 0.003257328990228013 | 0.008409238684842188
vine | 1 | 0.003257328990228013 | 0.01611973905660641
vistula | 1 | 0.003257328990228013 | 0.01969828071350579
want | 2 | 0.006514657980456026 | 0.0064984766892295836
war | 3 | 0.009771986970684038 | 0.0031321605680040463
wartim | 1 | 0.003257328990228013 | 0.015182663902040351
washington | 1 | 0.003257328990228013 | 0.004796942021312362
waver | 1 | 0.003257328990228013 | 0.01611973905660641
weapon | 1 | 0.003257328990228013 | 0.006361653474997321
weight | 2 | 0.006514657980456026 | 0.021754540572925526
west | 1 | 0.003257328990228013 | 0.0007988723246554235
western | 4 | 0.013029315960912053 | 0.012345351807453804
whichev | 1 | 0.003257328990228013 | 0.01969828071350579
whole | 1 | 0.003257328990228013 | 0.007227136099534798
win | 1 | 0.003257328990228013 | 0.005077315339785466
wipe | 1 | 0.003257328990228013 | 0.01160412224514097
wish | 1 | 0.003257328990228013 | 0.010469572752410625
world | 7 | 0.02280130293159609 | 0.008140355286825806
write | 1 | 0.003257328990228013 | 0.009629738520156228
writer | 1 | 0.003257328990228013 | 0.009213343173218494
ye | 1 | 0.003257328990228013 | 0.011102002766876286
