act | 1 | 0.009900990099009901 | 0.017531743168616068
anti | 1 | 0.009900990099009901 | 0.01510478813858651
appar | 1 | 0.009900990099009901 | 0.022635366963888275
appeal | 1 | 0.009900990099009901 | 0.02653540939663172
appoint | 1 | 0.009900990099009901 | 0.028409092561369628
archriv | 1 | 0.009900990099009901 | 0.05987497206976512
automat | 1 | 0.009900990099009901 | 0.03707709986190329
ballot | 1 | 0.009900990099009901 | 0.032423598582242544
believ | 1 | 0.009900990099009901 | 0.01648856974626135
blunt | 1 | 0.009900990099009901 | 0.040608534950405596
board | 1 | 0.009900990099009901 | 0.027242923891504445
britain | 2 | 0.019801980198019802 | 0.004796776438213654
brown | 3 | 0.0297029702970297 | 0.08522727768410887
cabinet | 1 | 0.009900990099009901 | 0.014083162037247594
callaghan | 1 | 0.009900990099009901 | 0.04899762267701157
candid | 1 | 0.009900990099009901 | 0.024673506114424402
class | 3 | 0.0297029702970297 | 0.06402629349313817
communist | 1 | 0.009900990099009901 | -0.00100095165219177
confid | 1 | 0.009900990099009901 | 0.02075374713331535
consider | 1 | 0.009900990099009901 | 0.03306259384103038
contrast | 1 | 0.009900990099009901 | 0.032423598582242544
defeat | 1 | 0.009900990099009901 | 0.022407747971564525
deputi | 1 | 0.009900990099009901 | 0.019672566024751075
dilig | 1 | 0.009900990099009901 | 0.038120273284258
disench | 1 | 0.009900990099009901 | 0.04614928532600384
draw | 1 | 0.009900990099009901 | 0.028830474882347804
earthi | 1 | 0.009900990099009901 | 0.04614928532600384
effect | 1 | 0.009900990099009901 | 0.020565151143506495
eighti | 1 | 0.009900990099009901 | 0.01612407496286812
elect | 1 | 0.009900990099009901 | 0.007924238682037543
eleven | 1 | 0.009900990099009901 | 0.028830474882347804
elimin | 1 | 0.009900990099009901 | 0.032423598582242544
favorit | 2 | 0.019801980198019802 | 0.06484719716448509
fifteen | 1 | 0.009900990099009901 | 0.029270591343445167
forti | 3 | 0.0297029702970297 | 0.012043518062618743
gaitskel | 4 | 0.039603960396039604 | 0.10897169556601778
georg | 2 | 0.019801980198019802 | 0.04824661913667433
govern | 1 | 0.009900990099009901 | -0.004816006523634314
great | 1 | 0.009900990099009901 | 0.010947819370663105
handsom | 1 | 0.009900990099009901 | 0.027616590505196
harold | 3 | 0.0297029702970297 | 0.05563321512328635
hugh | 2 | 0.019801980198019802 | 0.0636467096037636
hundr | 4 | 0.039603960396039604 | -0.04099708476471375
increasingli | 1 | 0.009900990099009901 | 0.025560755210361896
influenc | 1 | 0.009900990099009901 | 0.024123309568337165
intellectu | 1 | 0.009900990099009901 | 0.02286834218577138
jame | 1 | 0.009900990099009901 | 0.034479433877076644
june | 1 | 0.009900990099009901 | 0.0013522330198589179
labor | 4 | 0.039603960396039604 | 0.04053432309702976
laborit | 1 | 0.009900990099009901 | 0.030722110889899384
late | 1 | 0.009900990099009901 | 0.021754698785507124
lead | 1 | 0.009900990099009901 | 0.017260466196456516
leader | 2 | 0.019801980198019802 | 0.009185660797318394
left | 1 | 0.009900990099009901 | 0.010330949238621968
macmillan | 1 | 0.009900990099009901 | 0.012391897360886504
major | 1 | 0.009900990099009901 | 0.012069885561821552
member | 1 | 0.009900990099009901 | 0.012069885561821552
middl | 3 | 0.0297029702970297 | 0.047317570776022874
mind | 1 | 0.009900990099009901 | 0.01950331420931246
minist | 3 | 0.0297029702970297 | 0.002873157221541122
mp | 1 | 0.009900990099009901 | 0.028409092561369628
name | 1 | 0.009900990099009901 | 0.017670220811930322
new | 1 | 0.009900990099009901 | -0.002635404626047697
next | 1 | 0.009900990099009901 | 0.011018794514015705
nine | 1 | 0.009900990099009901 | -0.00527987087365021
odd | 1 | 0.009900990099009901 | 0.030214256490022642
one | 1 | 0.009900990099009901 | 0.02196763151046716
onetim | 1 | 0.009900990099009901 | 0.029270591343445167
oppon | 1 | 0.009900990099009901 | 0.032423598582242544
opportun | 1 | 0.009900990099009901 | 0.030214256490022642
outright | 1 | 0.009900990099009901 | 0.038120273284258
oxford | 1 | 0.009900990099009901 | 0.03527193593325027
parliament | 1 | 0.009900990099009901 | 0.016866997595966278
parti | 1 | 0.009900990099009901 | -0.0010852159063294787
pick | 1 | 0.009900990099009901 | 0.022635366963888275
pipe | 1 | 0.009900990099009901 | 0.026199750469149727
portli | 1 | 0.009900990099009901 | 0.053012128697884485
presid | 1 | 0.009900990099009901 | 0.004335647364963547
prime | 2 | 0.019801980198019802 | 0.021475793045274666
prospect | 1 | 0.009900990099009901 | 0.028409092561369628
puf | 1 | 0.009900990099009901 | 0.042134779305130925
runoff | 1 | 0.009900990099009901 | 0.05987497206976512
ruthless | 1 | 0.009900990099009901 | 0.04614928532600384
secretli | 1 | 0.009900990099009901 | 0.042134779305130925
seventh | 1 | 0.009900990099009901 | -0.0016953261450044672
sixti | 1 | 0.009900990099009901 | 0.003635639307219907
strong | 1 | 0.009900990099009901 | 0.022635366963888275
successor | 1 | 0.009900990099009901 | 0.027616590505196
support | 2 | 0.019801980198019802 | 0.019128075525976538
thirti | 1 | 0.009900990099009901 | 0.00761641108728476
thousand | 2 | 0.019801980198019802 | -0.03762982954960969
trade | 1 | 0.009900990099009901 | 0.01510478813858651
twenti | 1 | 0.009900990099009901 | -0.01578408180410588
unexpectedli | 1 | 0.009900990099009901 | 0.042134779305130925
union | 1 | 0.009900990099009901 | 0.01138150870391452
victori | 1 | 0.009900990099009901 | 0.01950331420931246
vote | 5 | 0.04950495049504951 | 0.06993283122854665
voter | 1 | 0.009900990099009901 | 0.026199750469149727
wilson | 5 | 0.04950495049504951 | 0.08498212073069045
woo | 1 | 0.009900990099009901 | 0.034479433877076644
youngest | 1 | 0.009900990099009901 | 0.042134779305130925
