abl | 1 | 0.006535947712418301 | 0.014501508382726687
achil | 1 | 0.006535947712418301 | 0.03952530835977959
ad | 1 | 0.006535947712418301 | 0.020280609149541422
american | 1 | 0.006535947712418301 | 0.009045314280615757
anita | 1 | 0.006535947712418301 | 0.03952530835977959
anybodi | 1 | 0.006535947712418301 | 0.026806941372489967
architect | 1 | 0.006535947712418301 | 0.022276567643339996
art | 1 | 0.006535947712418301 | 0.018486904275673708
asset | 1 | 0.006535947712418301 | 0.03046456090147966
assur | 1 | 0.006535947712418301 | 0.015750235420391452
auction | 1 | 0.006535947712418301 | 0.03234483588482463
backdrop | 1 | 0.006535947712418301 | 0.03952530835977959
banker | 1 | 0.006535947712418301 | 0.02593418717232969
baroqu | 1 | 0.006535947712418301 | 0.03234483588482463
basilica | 1 | 0.006535947712418301 | 0.03952530835977959
basin | 1 | 0.006535947712418301 | 0.03499493463062963
bernini | 1 | 0.006535947712418301 | 0.03952530835977959
bit | 1 | 0.006535947712418301 | 0.020633989680719698
build | 1 | 0.006535947712418301 | 0.009491845287004497
builder | 1 | 0.006535947712418301 | 0.03234483588482463
built | 1 | 0.006535947712418301 | 0.014942301067664808
bureau | 1 | 0.006535947712418301 | 0.027814462155674662
buy | 1 | 0.006535947712418301 | 0.017516838882743815
buyer | 2 | 0.013071895424836602 | 0.06998986926125926
care | 1 | 0.006535947712418301 | 0.01558046099945511
central | 1 | 0.006535947712418301 | 0.00976140710748848
chiefli | 1 | 0.006535947712418301 | 0.027814462155674662
citi | 1 | 0.006535947712418301 | 0.008126478002045892
coin | 2 | 0.013071895424836602 | 0.04895146517715336
coloss | 1 | 0.006535947712418301 | 0.03046456090147966
conceiv | 1 | 0.006535947712418301 | 0.026806941372489967
conjur | 1 | 0.006535947712418301 | 0.03952530835977959
consid | 1 | 0.006535947712418301 | 0.01395653054652374
construct | 1 | 0.006535947712418301 | 0.022276567643339996
control | 1 | 0.006535947712418301 | 0.0068197769483713646
cri | 1 | 0.006535947712418301 | 0.012445996422580034
daili | 1 | 0.006535947712418301 | 0.014088574385200336
day | 1 | 0.006535947712418301 | 0.007416452897452458
deal | 1 | 0.006535947712418301 | 0.013700186016110134
decolletag | 1 | 0.006535947712418301 | 0.03952530835977959
ditalia | 1 | 0.006535947712418301 | 0.03952530835977959
dolc | 1 | 0.006535947712418301 | 0.03234483588482463
dollar | 1 | 0.006535947712418301 | 0.003155893932833886
dont | 1 | 0.006535947712418301 | 0.01395653054652374
dunk | 1 | 0.006535947712418301 | 0.03499493463062963
eiffel | 1 | 0.006535947712418301 | 0.03234483588482463
ekberg | 1 | 0.006535947712418301 | 0.03952530835977959
empti | 1 | 0.006535947712418301 | 0.017295260113621716
end | 1 | 0.006535947712418301 | 0.005061258957402164
express | 1 | 0.006535947712418301 | 0.014942301067664808
fame | 1 | 0.006535947712418301 | 0.016287739330437024
form | 1 | 0.006535947712418301 | 0.012343065984879779
fountain | 5 | 0.032679738562091505 | 0.13403470686244984
fourth | 1 | 0.006535947712418301 | 0.018230559745260104
get | 1 | 0.006535947712418301 | 0.013215820185040058
giornal | 1 | 0.006535947712418301 | 0.03952530835977959
giovanni | 1 | 0.006535947712418301 | 0.026806941372489967
govern | 2 | 0.013071895424836602 | -0.00635838769787014
gretwenti | 1 | 0.006535947712418301 | 0.03952530835977959
grumbl | 1 | 0.006535947712418301 | 0.02447573258857668
hand | 1 | 0.006535947712418301 | 0.00565744201800126
havent | 1 | 0.006535947712418301 | 0.026806941372489967
heat | 1 | 0.006535947712418301 | 0.022276567643339996
highvoltag | 1 | 0.006535947712418301 | 0.03952530835977959
hold | 1 | 0.006535947712418301 | 0.010803418459959734
hollywood | 1 | 0.006535947712418301 | 0.03234483588482463
hotel | 1 | 0.006535947712418301 | 0.015750235420391452
hundr | 3 | 0.0196078431372549 | -0.02029757628056906
il | 1 | 0.006535947712418301 | 0.026806941372489967
invalu | 1 | 0.006535947712418301 | 0.03234483588482463
invest | 1 | 0.006535947712418301 | 0.01875371469737472
itali | 1 | 0.006535947712418301 | 0.011664655568659886
italian | 2 | 0.013071895424836602 | 0.029290322735633444
job | 1 | 0.006535947712418301 | 0.009232962031481324
june | 2 | 0.013071895424836602 | 0.0017853011111862837
la | 1 | 0.006535947712418301 | 0.01994535885942671
low | 1 | 0.006535947712418301 | 0.0179838909349147
magnific | 1 | 0.006535947712418301 | 0.03046456090147966
marbl | 1 | 0.006535947712418301 | 0.025164363409869665
march | 1 | 0.006535947712418301 | 0.005094862875705554
mario | 1 | 0.006535947712418301 | 0.03046456090147966
match | 1 | 0.006535947712418301 | 0.018230559745260104
moiviemak | 1 | 0.006535947712418301 | 0.03952530835977959
moviemak | 1 | 0.006535947712418301 | 0.03499493463062963
neon | 1 | 0.006535947712418301 | 0.029006106317726654
neptun | 1 | 0.006535947712418301 | 0.03952530835977959
nicola | 1 | 0.006535947712418301 | 0.03234483588482463
nine | 3 | 0.0196078431372549 | -0.010456214867424925
obviou | 1 | 0.006535947712418301 | 0.022760933474410074
occupi | 1 | 0.006535947712418301 | 0.01774619391419003
offici | 1 | 0.006535947712418301 | 0.003953950774669833
onebl | 1 | 0.006535947712418301 | 0.03952530835977959
outrag | 1 | 0.006535947712418301 | 0.026806941372489967
owner | 1 | 0.006535947712418301 | 0.021007574084902364
paes | 1 | 0.006535947712418301 | 0.03952530835977959
palac | 8 | 0.05228758169934641 | 0.07386369625185059
palazzo | 1 | 0.006535947712418301 | 0.03952530835977959
payment | 1 | 0.006535947712418301 | 0.02593418717232969
period | 1 | 0.006535947712418301 | 0.020633989680719698
peter | 1 | 0.006535947712418301 | 0.021007574084902364
pictur | 1 | 0.006535947712418301 | 0.01687343971402975
plenti | 1 | 0.006535947712418301 | 0.02447573258857668
poli | 1 | 0.006535947712418301 | 0.03952530835977959
poor | 1 | 0.006535947712418301 | 0.018486904275673708
press | 1 | 0.006535947712418301 | 0.008744065213947346
price | 2 | 0.013071895424836602 | 0.02715137601953145
properli | 1 | 0.006535947712418301 | 0.03499493463062963
public | 1 | 0.006535947712418301 | 0.011219861691241484
put | 1 | 0.006535947712418301 | 0.019322416507764457
quarter | 1 | 0.006535947712418301 | 0.019322416507764457
retain | 1 | 0.006535947712418301 | 0.019031882111876657
return | 1 | 0.006535947712418301 | 0.008685446455890087
roman | 2 | 0.013071895424836602 | 0.03549238782838006
rome | 5 | 0.032679738562091505 | 0.07707492565138373
sale | 3 | 0.0196078431372549 | 0.06985226527957407
salvi | 1 | 0.006535947712418301 | 0.03952530835977959
scene | 1 | 0.006535947712418301 | 0.01774619391419003
sell | 2 | 0.013071895424836602 | 0.03646111949052021
sensat | 1 | 0.006535947712418301 | 0.027814462155674662
sera | 1 | 0.006535947712418301 | 0.03499493463062963
seventh | 2 | 0.013071895424836602 | -0.0022382737339274664
shoulder | 1 | 0.006535947712418301 | 0.01994535885942671
side | 1 | 0.006535947712418301 | 0.010042566487120446
sign | 1 | 0.006535947712418301 | 0.010336366407788853
signific | 1 | 0.006535947712418301 | 0.02140381344317972
sixti | 2 | 0.013071895424836602 | 0.004799994379466805
snap | 1 | 0.006535947712418301 | 0.01994535885942671
south | 1 | 0.006535947712418301 | 0.002650098745804996
spell | 1 | 0.006535947712418301 | 0.026806941372489967
st | 1 | 0.006535947712418301 | 0.021825633842771686
statement | 1 | 0.006535947712418301 | 0.01774619391419003
statist | 1 | 0.006535947712418301 | 0.026806941372489967
statu | 1 | 0.006535947712418301 | 0.017295260113621716
stood | 1 | 0.006535947712418301 | 0.0179838909349147
talenti | 2 | 0.013071895424836602 | 0.06998986926125926
terribl | 1 | 0.006535947712418301 | 0.026806941372489967
thirti | 2 | 0.013071895424836602 | 0.010055653853800793
thousand | 5 | 0.032679738562091505 | -0.06210151608677416
toss | 1 | 0.006535947712418301 | 0.02593418717232969
tower | 1 | 0.006535947712418301 | 0.022760933474410074
travel | 1 | 0.006535947712418301 | 0.015414985130276743
treasur | 1 | 0.006535947712418301 | 0.03046456090147966
trevi | 3 | 0.0196078431372549 | 0.09703450765447388
trip | 1 | 0.006535947712418301 | 0.014645161367816722
triton | 1 | 0.006535947712418301 | 0.03234483588482463
tudini | 3 | 0.0196078431372549 | 0.09703450765447388
twenti | 4 | 0.026143790849673203 | -0.041678229077508344
unsuit | 1 | 0.006535947712418301 | 0.03952530835977959
vision | 1 | 0.006535947712418301 | 0.021825633842771686
vita | 1 | 0.006535947712418301 | 0.03234483588482463
vital | 1 | 0.006535947712418301 | 0.021007574084902364
water | 1 | 0.006535947712418301 | 0.013215820185040058
wink | 1 | 0.006535947712418301 | 0.029006106317726654
