abd | 2 | 0.007518796992481203 | 0.040257330815686714
ad | 1 | 0.0037593984962406013 | 0.0116651624055633
address | 1 | 0.0037593984962406013 | 0.010946909635778677
administr | 1 | 0.0037593984962406013 | 0.007469658528194957
africa | 1 | 0.0037593984962406013 | 0.003608179863962007
african | 1 | 0.0037593984962406013 | 0.003654881066964101
algeria | 1 | 0.0037593984962406013 | 0.008260242771940674
alien | 1 | 0.0037593984962406013 | 0.013091815118739627
aliv | 1 | 0.0037593984962406013 | 0.013719837993413185
anoual | 1 | 0.0037593984962406013 | 0.022734481876113825
arab | 1 | 0.0037593984962406013 | 0.003068660008239441
arabian | 1 | 0.0037593984962406013 | 0.014917032471302414
armi | 4 | 0.015037593984962405 | 0.008648142937966966
arrest | 1 | 0.0037593984962406013 | 0.007099583066491
arrog | 1 | 0.0037593984962406013 | 0.015998544021873017
artilleri | 1 | 0.0037593984962406013 | 0.0116651624055633
asylum | 1 | 0.0037593984962406013 | 0.014078146940045985
attack | 1 | 0.0037593984962406013 | 0.00531068868728061
away | 1 | 0.0037593984962406013 | 0.005384404745131648
bandit | 1 | 0.0037593984962406013 | 0.015419030187935957
battl | 1 | 0.0037593984962406013 | 0.006762695251868116
beard | 1 | 0.0037593984962406013 | 0.01447423910417315
bed | 1 | 0.0037593984962406013 | 0.009948025554075647
blast | 1 | 0.0037593984962406013 | 0.010485998650469158
board | 1 | 0.0037593984962406013 | 0.010344117718202815
bomb | 1 | 0.0037593984962406013 | 0.008103578499758088
bone | 1 | 0.0037593984962406013 | 0.017522848939572885
born | 1 | 0.0037593984962406013 | 0.010485998650469158
broadcast | 1 | 0.0037593984962406013 | 0.010344117718202815
broadway | 1 | 0.0037593984962406013 | 0.022734481876113825
broke | 2 | 0.007518796992481203 | 0.015617144853339518
butcher | 1 | 0.0037593984962406013 | 0.017522848939572885
cairo | 2 | 0.007518796992481203 | 0.013743341908798279
canal | 1 | 0.0037593984962406013 | 0.011114021525142714
captur | 2 | 0.007518796992481203 | 0.019896051108151295
catch | 1 | 0.0037593984962406013 | 0.014078146940045985
cave | 2 | 0.007518796992481203 | 0.026785455107205095
centuri | 1 | 0.0037593984962406013 | 0.006709369556409633
challeng | 1 | 0.0037593984962406013 | 0.010786911085332076
children | 1 | 0.0037593984962406013 | 0.007669319525615815
citi | 1 | 0.0037593984962406013 | 0.004674252384635418
citizen | 1 | 0.0037593984962406013 | 0.007808572426669759
claim | 1 | 0.0037593984962406013 | 0.006213996332232478
close | 1 | 0.0037593984962406013 | 0.005536320302792838
combin | 1 | 0.0037593984962406013 | 0.012083303890940082
confin | 1 | 0.0037593984962406013 | 0.014917032471302414
consol | 1 | 0.0037593984962406013 | 0.01860436049014349
dark | 1 | 0.0037593984962406013 | 0.008683092333695148
dead | 1 | 0.0037593984962406013 | 0.007405393741129918
deepen | 1 | 0.0037593984962406013 | 0.015998544021873017
defend | 1 | 0.0037593984962406013 | 0.007953182504969744
desert | 1 | 0.0037593984962406013 | 0.011114021525142714
die | 2 | 0.007518796992481203 | 0.013743341908798279
disapprov | 1 | 0.0037593984962406013 | 0.015419030187935957
diseas | 1 | 0.0037593984962406013 | 0.013719837993413185
disgust | 1 | 0.0037593984962406013 | 0.017522848939572885
djellabah | 1 | 0.0037593984962406013 | 0.022734481876113825
doesnt | 1 | 0.0037593984962406013 | 0.015419030187935957
dollar | 1 | 0.0037593984962406013 | 0.0018152322245247538
donat | 1 | 0.0037593984962406013 | 0.01860436049014349
dont | 1 | 0.0037593984962406013 | 0.008027628472248615
drove | 1 | 0.0037593984962406013 | 0.01128890880196562
earlier | 1 | 0.0037593984962406013 | 0.010075474996465427
earn | 1 | 0.0037593984962406013 | 0.009705399534761471
educ | 1 | 0.0037593984962406013 | 0.007218939075192429
egypt | 2 | 0.007518796992481203 | 0.008756167341803813
eighti | 1 | 0.0037593984962406013 | 0.006122299140036392
el | 2 | 0.007518796992481203 | 0.02068823543640563
eleven | 1 | 0.0037593984962406013 | 0.010946909635778677
employe | 1 | 0.0037593984962406013 | 0.0116651624055633
escap | 1 | 0.0037593984962406013 | 0.00926260616763221
europ | 1 | 0.0037593984962406013 | 0.002561639714377543
execut | 1 | 0.0037593984962406013 | 0.009368511720138587
exil | 3 | 0.011278195488721804 | 0.02843246226800883
extraordinari | 1 | 0.0037593984962406013 | 0.014078146940045985
eye | 1 | 0.0037593984962406013 | 0.006983900139172377
fail | 1 | 0.0037593984962406013 | 0.012813213719665487
father | 1 | 0.0037593984962406013 | 0.008341093167508206
favor | 1 | 0.0037593984962406013 | 0.008181094617061605
favorit | 1 | 0.0037593984962406013 | 0.012311216003031943
fifti | 1 | 0.0037593984962406013 | 0.0007121767840707468
fight | 1 | 0.0037593984962406013 | 0.004767852202762213
flow | 1 | 0.0037593984962406013 | 0.012553842022346119
footnot | 1 | 0.0037593984962406013 | 0.022734481876113825
forti | 1 | 0.0037593984962406013 | 0.001524304917699866
fortun | 1 | 0.0037593984962406013 | 0.013719837993413185
fourteen | 1 | 0.0037593984962406013 | 0.010786911085332076
franc | 4 | 0.015037593984962405 | 0.007669743038011147
francisco | 1 | 0.0037593984962406013 | 0.013392727553602548
franco | 2 | 0.007518796992481203 | 0.01773302800701009
francophobia | 1 | 0.0037593984962406013 | 0.022734481876113825
freedom | 1 | 0.0037593984962406013 | 0.007808572426669759
french | 3 | 0.011278195488721804 | 0.007897721597693337
fringelik | 1 | 0.0037593984962406013 | 0.022734481876113825
front | 1 | 0.0037593984962406013 | 0.007669319525615815
gain | 1 | 0.0037593984962406013 | 0.008341093167508206
gallantli | 1 | 0.0037593984962406013 | 0.022734481876113825
gener | 1 | 0.0037593984962406013 | 0.0014061989168225014
generalissimo | 1 | 0.0037593984962406013 | 0.01860436049014349
gentl | 1 | 0.0037593984962406013 | 0.015419030187935957
glamor | 1 | 0.0037593984962406013 | 0.01860436049014349
grant | 1 | 0.0037593984962406013 | 0.010207397251395016
graveyard | 1 | 0.0037593984962406013 | 0.01860436049014349
grumpili | 1 | 0.0037593984962406013 | 0.020128665407843357
harem | 1 | 0.0037593984962406013 | 0.020128665407843357
heart | 2 | 0.007518796992481203 | 0.01605525694449723
henri | 1 | 0.0037593984962406013 | 0.010485998650469158
histori | 1 | 0.0037593984962406013 | 0.008260242771940674
holi | 1 | 0.0037593984962406013 | 0.012311216003031943
home | 2 | 0.007518796992481203 | 0.006424175399669681
homeland | 1 | 0.0037593984962406013 | 0.012553842022346119
hous | 1 | 0.0037593984962406013 | 0.0035850450309756225
hundr | 8 | 0.03007518796992481 | -0.03113312452057209
independ | 3 | 0.011278195488721804 | 0.014398731818578345
indian | 1 | 0.0037593984962406013 | 0.0068716709543991394
island | 1 | 0.0037593984962406013 | 0.008027628472248615
jihad | 1 | 0.0037593984962406013 | 0.022734481876113825
jump | 1 | 0.0037593984962406013 | 0.011868422635902681
june | 3 | 0.011278195488721804 | 0.0015403255827716243
kidnap | 1 | 0.0037593984962406013 | 0.015998544021873017
kill | 1 | 0.0037593984962406013 | 0.004674252384635418
king | 1 | 0.0037593984962406013 | 0.004705194110712544
krim | 16 | 0.06015037593984962 | 0.19697945604851108
laid | 1 | 0.0037593984962406013 | 0.012553842022346119
languish | 1 | 0.0037593984962406013 | 0.017522848939572885
leav | 1 | 0.0037593984962406013 | 0.007218939075192429
leg | 1 | 0.0037593984962406013 | 0.012553842022346119
letter | 1 | 0.0037593984962406013 | 0.009159602505270878
limp | 1 | 0.0037593984962406013 | 0.017522848939572885
lion | 1 | 0.0037593984962406013 | 0.014078146940045985
listen | 1 | 0.0037593984962406013 | 0.010207397251395016
marshal | 1 | 0.0037593984962406013 | 0.011868422635902681
may | 2 | 0.007518796992481203 | 0.01636218923412321
melilla | 2 | 0.007518796992481203 | 0.040257330815686714
moham | 1 | 0.0037593984962406013 | 0.010344117718202815
money | 1 | 0.0037593984962406013 | 0.007738301249932343
monthli | 1 | 0.0037593984962406013 | 0.017522848939572885
mor | 1 | 0.0037593984962406013 | 0.022734481876113825
moroccan | 2 | 0.007518796992481203 | 0.0289484782083463
morocco | 6 | 0.022556390977443608 | 0.05686492453601766
mountain | 3 | 0.011278195488721804 | 0.022605123058778882
music | 1 | 0.0037593984962406013 | 0.013091815118739627
name | 1 | 0.0037593984962406013 | 0.006709369556409633
nasser | 1 | 0.0037593984962406013 | 0.002114944532163996
nation | 1 | 0.0037593984962406013 | -0.001419161070898909
new | 1 | 0.0037593984962406013 | -0.0010006611550030728
news | 1 | 0.0037593984962406013 | 0.007738301249932343
next | 2 | 0.007518796992481203 | 0.008367655984327716
nine | 6 | 0.022556390977443608 | -0.01202857800538356
north | 2 | 0.007518796992481203 | 0.010334912365296028
northern | 1 | 0.0037593984962406013 | 0.008683092333695148
ocean | 1 | 0.0037593984962406013 | 0.012553842022346119
offic | 1 | 0.0037593984962406013 | 0.002526668313391402
old | 2 | 0.007518796992481203 | 0.003487788498229916
overwhelm | 1 | 0.0037593984962406013 | 0.01447423910417315
page | 1 | 0.0037593984962406013 | 0.014078146940045985
pass | 1 | 0.0037593984962406013 | 0.007405393741129918
peac | 1 | 0.0037593984962406013 | 0.005384404745131648
pension | 1 | 0.0037593984962406013 | 0.01860436049014349
perdicari | 2 | 0.007518796992481203 | 0.040257330815686714
persuad | 1 | 0.0037593984962406013 | 0.010633444940519087
petain | 1 | 0.0037593984962406013 | 0.020128665407843357
placat | 1 | 0.0037593984962406013 | 0.01447423910417315
plain | 1 | 0.0037593984962406013 | 0.007535041019592961
polit | 1 | 0.0037593984962406013 | 0.0015376598109493689
presid | 1 | 0.0037593984962406013 | 0.001646242044591422
princ | 1 | 0.0037593984962406013 | 0.006453529469022357
prison | 1 | 0.0037593984962406013 | 0.006260697535234573
promptli | 1 | 0.0037593984962406013 | 0.011114021525142714
pronounc | 1 | 0.0037593984962406013 | 0.011472330471775514
protect | 1 | 0.0037593984962406013 | 0.008423720636375783
puppet | 1 | 0.0037593984962406013 | 0.014078146940045985
querul | 1 | 0.0037593984962406013 | 0.022734481876113825
quiet | 1 | 0.0037593984962406013 | 0.010633444940519087
quietli | 1 | 0.0037593984962406013 | 0.010946909635778677
raisuli | 2 | 0.007518796992481203 | 0.040257330815686714
ralli | 1 | 0.0037593984962406013 | 0.010786911085332076
ransom | 1 | 0.0037593984962406013 | 0.022734481876113825
rebel | 2 | 0.007518796992481203 | 0.012808772610470632
redoubt | 1 | 0.0037593984962406013 | 0.022734481876113825
refus | 1 | 0.0037593984962406013 | 0.006503323554548749
relent | 1 | 0.0037593984962406013 | 0.020128665407843357
reli | 1 | 0.0037593984962406013 | 0.012813213719665487
repeatedli | 1 | 0.0037593984962406013 | 0.012553842022346119
rest | 2 | 0.007518796992481203 | 0.016207156999516175
return | 1 | 0.0037593984962406013 | 0.004995764314854072
reunion | 1 | 0.0037593984962406013 | 0.014078146940045985
rheumat | 1 | 0.0037593984962406013 | 0.022734481876113825
riff | 5 | 0.018796992481203006 | 0.08341981704158229
ring | 1 | 0.0037593984962406013 | 0.012311216003031943
riviera | 1 | 0.0037593984962406013 | 0.016683963408316457
romant | 1 | 0.0037593984962406013 | 0.015998544021873017
romberg | 1 | 0.0037593984962406013 | 0.022734481876113825
roosevelt | 1 | 0.0037593984962406013 | 0.017522848939572885
royal | 1 | 0.0037593984962406013 | 0.008508205056872244
ruler | 1 | 0.0037593984962406013 | 0.010344117718202815
sadden | 1 | 0.0037593984962406013 | 0.01860436049014349
safeti | 1 | 0.0037593984962406013 | 0.012553842022346119
scatter | 1 | 0.0037593984962406013 | 0.01447423910417315
school | 1 | 0.0037593984962406013 | 0.007218939075192429
sea | 1 | 0.0037593984962406013 | 0.00926260616763221
seiz | 2 | 0.007518796992481203 | 0.0196495110869258
selfish | 1 | 0.0037593984962406013 | 0.01860436049014349
sent | 2 | 0.007518796992481203 | 0.013209870209758548
seventh | 5 | 0.018796992481203006 | -0.0032185703128844207
ship | 3 | 0.011278195488721804 | 0.027178037811878483
shut | 1 | 0.0037593984962406013 | 0.013091815118739627
sight | 1 | 0.0037593984962406013 | 0.010207397251395016
sigmund | 1 | 0.0037593984962406013 | 0.01860436049014349
sixti | 1 | 0.0037593984962406013 | 0.0013804495113880098
skin | 1 | 0.0037593984962406013 | 0.011868422635902681
smallish | 1 | 0.0037593984962406013 | 0.022734481876113825
snow | 1 | 0.0037593984962406013 | 0.0116651624055633
soldier | 1 | 0.0037593984962406013 | 0.005654426303670203
song | 1 | 0.0037593984962406013 | 0.0116651624055633
spain | 3 | 0.011278195488721804 | 0.02778781850289663
spaniard | 1 | 0.0037593984962406013 | 0.01860436049014349
spanish | 8 | 0.03007518796992481 | 0.0850675595241527
spirit | 1 | 0.0037593984962406013 | 0.009948025554075647
spot | 1 | 0.0037593984962406013 | 0.009705399534761471
spurn | 1 | 0.0037593984962406013 | 0.017522848939572885
state | 3 | 0.011278195488721804 | -0.00948722120886186
steed | 1 | 0.0037593984962406013 | 0.022734481876113825
stronghold | 1 | 0.0037593984962406013 | 0.013392727553602548
struggl | 1 | 0.0037593984962406013 | 0.00877368463286455
stubborn | 1 | 0.0037593984962406013 | 0.014078146940045985
stupid | 1 | 0.0037593984962406013 | 0.015419030187935957
subject | 1 | 0.0037593984962406013 | 0.010207397251395016
subsequ | 1 | 0.0037593984962406013 | 0.015998544021873017
suburb | 1 | 0.0037593984962406013 | 0.014078146940045985
suez | 1 | 0.0037593984962406013 | 0.012311216003031943
suffer | 1 | 0.0037593984962406013 | 0.00877368463286455
sultan | 2 | 0.007518796992481203 | 0.021893819271557355
surrend | 1 | 0.0037593984962406013 | 0.012311216003031943
survivor | 1 | 0.0037593984962406013 | 0.01447423910417315
tenaci | 1 | 0.0037593984962406013 | 0.020128665407843357
term | 1 | 0.0037593984962406013 | 0.007405393741129918
theodor | 1 | 0.0037593984962406013 | 0.022734481876113825
theyr | 1 | 0.0037593984962406013 | 0.014917032471302414
thirti | 1 | 0.0037593984962406013 | 0.0028919455632171456
thousand | 11 | 0.041353383458646614 | -0.0785840989278503
threw | 1 | 0.0037593984962406013 | 0.013091815118739627
throb | 1 | 0.0037593984962406013 | 0.020128665407843357
touch | 1 | 0.0037593984962406013 | 0.009705399534761471
tri | 1 | 0.0037593984962406013 | 0.0027231661650671795
tribesmen | 2 | 0.007518796992481203 | 0.018118691874585657
tunisia | 1 | 0.0037593984962406013 | 0.012311216003031943
turban | 1 | 0.0037593984962406013 | 0.020128665407843357
twenti | 9 | 0.03383458646616541 | -0.053938835939594906
ultimatum | 1 | 0.0037593984962406013 | 0.014917032471302414
unit | 3 | 0.011278195488721804 | -0.00957882126965903
victori | 2 | 0.007518796992481203 | 0.014810787482259837
vision | 1 | 0.0037593984962406013 | 0.012553842022346119
walk | 1 | 0.0037593984962406013 | 0.008594631817115471
want | 1 | 0.0037593984962406013 | 0.0037500607962283493
war | 1 | 0.0037593984962406013 | 0.001204979065635642
warn | 1 | 0.0037593984962406013 | 0.007953182504969744
warrior | 1 | 0.0037593984962406013 | 0.014917032471302414
weak | 1 | 0.0037593984962406013 | 0.012311216003031943
whip | 1 | 0.0037593984962406013 | 0.014078146940045985
white | 1 | 0.0037593984962406013 | 0.0039479695687299355
widow | 1 | 0.0037593984962406013 | 0.015419030187935957
wive | 1 | 0.0037593984962406013 | 0.01128890880196562
work | 1 | 0.0037593984962406013 | 0.002406768449572027
world | 4 | 0.015037593984962405 | 0.005368612401837857
xauen | 1 | 0.0037593984962406013 | 0.022734481876113825
