absent | 1 | 0.005263157894736842 | 0.021586642263110342
administr | 1 | 0.005263157894736842 | 0.01045752193947294
air | 1 | 0.005263157894736842 | 0.008323495054693127
american | 1 | 0.005263157894736842 | 0.007283858341759005
aristocrat | 1 | 0.005263157894736842 | 0.017938499207531683
armi | 1 | 0.005263157894736842 | 0.0030268500282884378
auster | 1 | 0.005263157894736842 | 0.016615791690263754
averag | 1 | 0.005263157894736842 | 0.015804472322751867
avh | 1 | 0.005263157894736842 | 0.03182827462655936
ball | 6 | 0.031578947368421054 | 0.08689058883290365
ban | 1 | 0.005263157894736842 | 0.009777460194841329
bark | 1 | 0.005263157894736842 | 0.02335754877164304
bittersweet | 1 | 0.005263157894736842 | 0.03182827462655936
bkh | 1 | 0.005263157894736842 | 0.03182827462655936
blond | 1 | 0.005263157894736842 | 0.017938499207531683
blow | 1 | 0.005263157894736842 | 0.015804472322751867
break | 1 | 0.005263157894736842 | 0.011453532463886246
budapest | 5 | 0.02631578947368421 | 0.08617851202122359
build | 1 | 0.005263157894736842 | 0.007643433310061515
bunch | 1 | 0.005263157894736842 | 0.01633122736778862
camp | 1 | 0.005263157894736842 | 0.01282344350737923
casual | 1 | 0.005263157894736842 | 0.022397961630622226
celebr | 1 | 0.005263157894736842 | 0.01282344350737923
chanc | 1 | 0.005263157894736842 | 0.013115916408194024
colport | 1 | 0.005263157894736842 | 0.03182827462655936
come | 1 | 0.005263157894736842 | 0.01103225505507816
comeback | 1 | 0.005263157894736842 | 0.026046104686200885
commun | 1 | 0.005263157894736842 | 0.0078605015128723
comparison | 1 | 0.005263157894736842 | 0.024531988515402038
consid | 1 | 0.005263157894736842 | 0.011238679861148062
conspicu | 1 | 0.005263157894736842 | 0.021586642263110342
consum | 1 | 0.005263157894736842 | 0.016916625447316116
costum | 1 | 0.005263157894736842 | 0.024531988515402038
csarda | 1 | 0.005263157894736842 | 0.03182827462655936
danc | 1 | 0.005263157894736842 | 0.013927235775705907
danub | 1 | 0.005263157894736842 | 0.024531988515402038
daringli | 1 | 0.005263157894736842 | 0.03182827462655936
dawn | 1 | 0.005263157894736842 | 0.015325673490090149
day | 1 | 0.005263157894736842 | 0.005972196280580137
decollet | 1 | 0.005263157894736842 | 0.03182827462655936
demand | 1 | 0.005263157894736842 | 0.006674993083867098
dirti | 1 | 0.005263157894736842 | 0.02335754877164304
dollar | 2 | 0.010526315789473684 | 0.00508265022866931
dont | 2 | 0.010526315789473684 | 0.022477359722296125
dress | 2 | 0.010526315789473684 | 0.029773645833453447
dri | 1 | 0.005263157894736842 | 0.01832854116623548
drink | 1 | 0.005263157894736842 | 0.014290356151953022
earn | 1 | 0.005263157894736842 | 0.01358755934866606
easter | 1 | 0.005263157894736842 | 0.024531988515402038
economi | 1 | 0.005263157894736842 | 0.01045752193947294
enthusiast | 1 | 0.005263157894736842 | 0.01723570240424472
escap | 1 | 0.005263157894736842 | 0.012967648634685094
event | 1 | 0.005263157894736842 | 0.01167753043451149
everybodi | 1 | 0.005263157894736842 | 0.016061262660485718
everyday | 1 | 0.005263157894736842 | 0.026046104686200885
exchang | 1 | 0.005263157894736842 | 0.01268308431220996
explain | 1 | 0.005263157894736842 | 0.010833621749905282
farsang | 3 | 0.015789473684210527 | 0.07813831405860266
fasch | 1 | 0.005263157894736842 | 0.02335754877164304
festiv | 3 | 0.015789473684210527 | 0.051707107212734166
fifti | 1 | 0.005263157894736842 | 0.0009970474976990456
fool | 1 | 0.005263157894736842 | 0.022397961630622226
forehead | 1 | 0.005263157894736842 | 0.026046104686200885
forest | 2 | 0.010526315789473684 | 0.03665708233247096
forint | 3 | 0.015789473684210527 | 0.07813831405860266
forshong | 1 | 0.005263157894736842 | 0.03182827462655936
fortnight | 1 | 0.005263157894736842 | 0.014290356151953022
gaieti | 1 | 0.005263157894736842 | 0.03182827462655936
gay | 4 | 0.021052631578947368 | 0.08353538183929352
gaze | 1 | 0.005263157894736842 | 0.02335754877164304
gellert | 1 | 0.005263157894736842 | 0.03182827462655936
germani | 1 | 0.005263157894736842 | 0.004409926453709774
girl | 1 | 0.005263157894736842 | 0.008831180666206613
good | 1 | 0.005263157894736842 | 0.014886822916726723
guest | 1 | 0.005263157894736842 | 0.014290356151953022
gut | 1 | 0.005263157894736842 | 0.024531988515402038
gypsi | 2 | 0.010526315789473684 | 0.05209220937240177
hate | 1 | 0.005263157894736842 | 0.016615791690263754
hidden | 1 | 0.005263157894736842 | 0.01920777319077846
hotel | 1 | 0.005263157894736842 | 0.01268308431220996
hundr | 5 | 0.02631578947368421 | -0.02724148395550058
hundred000 | 1 | 0.005263157894736842 | 0.022397961630622226
hungari | 4 | 0.021052631578947368 | 0.05716142460781209
hungarian | 2 | 0.010526315789473684 | 0.030651346980180297
jano | 1 | 0.005263157894736842 | 0.024531988515402038
januari | 1 | 0.005263157894736842 | 0.009393117378973487
june | 2 | 0.010526315789473684 | 0.0014376372105868495
kadar | 1 | 0.005263157894736842 | 0.017575378831284568
ladi | 1 | 0.005263157894736842 | 0.015559630135199799
late | 1 | 0.005263157894736842 | 0.011564339880716945
lent | 2 | 0.010526315789473684 | 0.049063977030804076
lenten | 1 | 0.005263157894736842 | 0.0281801315709807
life | 1 | 0.005263157894736842 | 0.006900914371851487
list | 1 | 0.005263157894736842 | 0.015101675519464907
lovemak | 1 | 0.005263157894736842 | 0.03182827462655936
magyar | 1 | 0.005263157894736842 | 0.0281801315709807
mark | 1 | 0.005263157894736842 | 0.01468039811065682
mask | 1 | 0.005263157894736842 | 0.02335754877164304
merrymak | 1 | 0.005263157894736842 | 0.0281801315709807
monster | 1 | 0.005263157894736842 | 0.03182827462655936
murder | 1 | 0.005263157894736842 | 0.012156329267173208
music | 1 | 0.005263157894736842 | 0.01832854116623548
new | 1 | 0.005263157894736842 | -0.001400925617004302
nine | 1 | 0.005263157894736842 | -0.002806668201256164
nobodi | 1 | 0.005263157894736842 | 0.01832854116623548
old | 3 | 0.015789473684210527 | 0.0073243558462828245
onlook | 1 | 0.005263157894736842 | 0.026046104686200885
onset | 1 | 0.005263157894736842 | 0.026046104686200885
pale | 1 | 0.005263157894736842 | 0.02088384545982338
parti | 2 | 0.010526315789473684 | -0.0011537558583081826
passion | 1 | 0.005263157894736842 | 0.016615791690263754
peopl | 2 | 0.010526315789473684 | 0.004230792435821478
perform | 1 | 0.005263157894736842 | 0.013754657760848062
permiss | 1 | 0.005263157894736842 | 0.02088384545982338
pick | 1 | 0.005263157894736842 | 0.01203248454396166
pock | 1 | 0.005263157894736842 | 0.0281801315709807
point | 1 | 0.005263157894736842 | 0.013268482391737455
polic | 1 | 0.005263157894736842 | 0.004526244069502753
pre | 1 | 0.005263157894736842 | 0.02088384545982338
premier | 1 | 0.005263157894736842 | 0.003995290254482856
press | 1 | 0.005263157894736842 | 0.007041273567020757
pride | 1 | 0.005263157894736842 | 0.017575378831284568
probabl | 1 | 0.005263157894736842 | 0.01027909272012725
pronounc | 1 | 0.005263157894736842 | 0.016061262660485718
provid | 1 | 0.005263157894736842 | 0.013754657760848062
prudent | 1 | 0.005263157894736842 | 0.024531988515402038
punctuat | 1 | 0.005263157894736842 | 0.03182827462655936
queue | 1 | 0.005263157894736842 | 0.026046104686200885
rate | 1 | 0.005263157894736842 | 0.011911487079621141
rebellion | 1 | 0.005263157894736842 | 0.016061262660485718
red | 2 | 0.010526315789473684 | 0.0005098486010483685
remodel | 1 | 0.005263157894736842 | 0.03182827462655936
rent | 2 | 0.010526315789473684 | 0.03447140480848944
replac | 1 | 0.005263157894736842 | 0.012546371225877009
resid | 1 | 0.005263157894736842 | 0.01468039811065682
revel | 1 | 0.005263157894736842 | 0.022397961630622226
right | 1 | 0.005263157894736842 | 0.006209672255740503
rigor | 1 | 0.005263157894736842 | 0.0281801315709807
ring | 1 | 0.005263157894736842 | 0.01723570240424472
riotou | 1 | 0.005263157894736842 | 0.026046104686200885
ruler | 1 | 0.005263157894736842 | 0.014481764805483941
saw | 1 | 0.005263157894736842 | 0.015325673490090149
scaffold | 1 | 0.005263157894736842 | 0.03182827462655936
season | 1 | 0.005263157894736842 | 0.015804472322751867
secret | 1 | 0.005263157894736842 | 0.0099394162930874
seem | 1 | 0.005263157894736842 | 0.012413119604907062
seventh | 2 | 0.010526315789473684 | -0.0018023993752152756
seventyurist | 1 | 0.005263157894736842 | 0.03182827462655936
shown | 1 | 0.005263157894736842 | 0.01633122736778862
sidestreet | 1 | 0.005263157894736842 | 0.03182827462655936
slap | 1 | 0.005263157894736842 | 0.01920777319077846
somebodi | 1 | 0.005263157894736842 | 0.0281801315709807
song | 1 | 0.005263157894736842 | 0.01633122736778862
soviet | 1 | 0.005263157894736842 | 0.002059896674875923
spit | 1 | 0.005263157894736842 | 0.026046104686200885
spittl | 1 | 0.005263157894736842 | 0.03182827462655936
sport | 1 | 0.005263157894736842 | 0.014290356151953022
spree | 1 | 0.005263157894736842 | 0.024531988515402038
stay | 1 | 0.005263157894736842 | 0.009777460194841329
steam | 1 | 0.005263157894736842 | 0.01832854116623548
stovepip | 1 | 0.005263157894736842 | 0.03182827462655936
strauss | 1 | 0.005263157894736842 | 0.018749818575043566
strip | 1 | 0.005263157894736842 | 0.017575378831284568
strong | 1 | 0.005263157894736842 | 0.01203248454396166
suppli | 1 | 0.005263157894736842 | 0.009393117378973487
tank | 1 | 0.005263157894736842 | 0.011564339880716945
thousand | 4 | 0.021052631578947368 | -0.04000645036326925
throw | 1 | 0.005263157894736842 | 0.017938499207531683
toler | 1 | 0.005263157894736842 | 0.01970940571606438
tomorrow | 2 | 0.010526315789473684 | 0.03841554638155692
touch | 1 | 0.005263157894736842 | 0.01358755934866606
tradit | 1 | 0.005263157894736842 | 0.009393117378973487
trouser | 1 | 0.005263157894736842 | 0.024531988515402038
turn | 1 | 0.005263157894736842 | 0.00438124432335417
tuxedo | 1 | 0.005263157894736842 | 0.03182827462655936
twelfth | 1 | 0.005263157894736842 | 0.02335754877164304
twenti | 4 | 0.021052631578947368 | -0.03356194236241461
twist | 2 | 0.010526315789473684 | 0.03383325089463223
violinplay | 1 | 0.005263157894736842 | 0.03182827462655936
visitor | 1 | 0.005263157894736842 | 0.013927235775705907
waltz | 1 | 0.005263157894736842 | 0.0281801315709807
warn | 1 | 0.005263157894736842 | 0.011134455506957644
water | 1 | 0.005263157894736842 | 0.010642213096374363
wear | 1 | 0.005263157894736842 | 0.011793208890926096
wild | 1 | 0.005263157894736842 | 0.016615791690263754
work | 1 | 0.005263157894736842 | 0.0033694758294008378
worth | 1 | 0.005263157894736842 | 0.016615791690263754
writer | 1 | 0.005263157894736842 | 0.014886822916726723
writh | 1 | 0.005263157894736842 | 0.0281801315709807
young | 3 | 0.015789473684210527 | 0.021123820701062272
