accomplish | 1 | 0.007462686567164179 | 0.02443868251348132
affair | 1 | 0.007462686567164179 | 0.015089705136650214
agre | 1 | 0.007462686567164179 | 0.010762701440732736
aid | 1 | 0.007462686567164179 | 0.01018836531285118
alli | 1 | 0.007462686567164179 | 0.011716681825134861
amintor | 1 | 0.007462686567164179 | 0.027946172283971882
apertura | 1 | 0.007462686567164179 | 0.02110818174759759
april | 1 | 0.007462686567164179 | 0.019036303116267146
away | 1 | 0.007462686567164179 | 0.010688445240335959
bassotti | 1 | 0.007462686567164179 | 0.045129643127211024
businessmen | 1 | 0.007462686567164179 | 0.021730432560575583
call | 1 | 0.007462686567164179 | 0.009983895356223462
campaign | 1 | 0.007462686567164179 | 0.012153220680967762
christian | 1 | 0.007462686567164179 | 0.0137513399974277
coalit | 1 | 0.007462686567164179 | 0.016721714099074317
cold | 1 | 0.007462686567164179 | 0.017060985547408324
collabor | 1 | 0.007462686567164179 | 0.033118912437404315
communist | 1 | 0.007462686567164179 | -0.0007544486333684235
comtwenti | 1 | 0.007462686567164179 | 0.010762701440732736
contest | 1 | 0.007462686567164179 | 0.027946172283971882
cost | 1 | 0.007462686567164179 | 0.015224171595625424
critic | 1 | 0.007462686567164179 | 0.013977499322019707
dachshund | 1 | 0.007462686567164179 | 0.045129643127211024
decre | 1 | 0.007462686567164179 | 0.02543518544351507
democrat | 1 | 0.007462686567164179 | 0.011716681825134861
deputi | 1 | 0.007462686567164179 | 0.014827829615670586
dissolv | 1 | 0.007462686567164179 | 0.027946172283971882
divid | 1 | 0.007462686567164179 | 0.018813519809179974
eighth | 1 | 0.007462686567164179 | 0.021412823497748746
elect | 3 | 0.022388059701492536 | 0.017918241198935637
electr | 1 | 0.007462686567164179 | 0.0224093264277825
embarrass | 1 | 0.007462686567164179 | 0.023986259962612402
endors | 1 | 0.007462686567164179 | 0.025988230011826426
estim | 1 | 0.007462686567164179 | 0.019502872944486056
eventu | 1 | 0.007462686567164179 | 0.01926594236004889
expens | 1 | 0.007462686567164179 | 0.023986259962612402
fanfani | 5 | 0.03731343283582089 | 0.08530492773704162
fear | 1 | 0.007462686567164179 | 0.012616890689229002
fifti | 1 | 0.007462686567164179 | 0.0014137240639016317
figur | 1 | 0.007462686567164179 | 0.018813519809179974
flirtat | 1 | 0.007462686567164179 | 0.03478416282034617
forc | 1 | 0.007462686567164179 | 0.0017852961870584631
formal | 1 | 0.007462686567164179 | 0.01926594236004889
forti | 1 | 0.007462686567164179 | 0.00302585901573257
fortnight | 1 | 0.007462686567164179 | 0.020262445290082642
ft | 1 | 0.007462686567164179 | 0.019502872944486056
gener | 2 | 0.014925373134328358 | 0.005582819580220677
get | 1 | 0.007462686567164179 | 0.015089705136650214
govern | 1 | 0.007462686567164179 | -0.0036299750663213856
growth | 1 | 0.007462686567164179 | 0.031758303804613607
half | 1 | 0.007462686567164179 | 0.012616890689229002
halfheartedli | 1 | 0.007462686567164179 | 0.045129643127211024
highest | 1 | 0.007462686567164179 | 0.023156217909551028
home | 1 | 0.007462686567164179 | 0.00637623379220946
hundr | 2 | 0.014925373134328358 | -0.015450393885209284
industri | 2 | 0.014925373134328358 | 0.019967790712446924
intern | 1 | 0.007462686567164179 | 0.014451479961738557
itali | 5 | 0.03731343283582089 | 0.06659299634346874
italian | 1 | 0.007462686567164179 | 0.016721714099074317
job | 2 | 0.014925373134328358 | 0.021084226728606603
jump | 2 | 0.014925373134328358 | 0.047119409270897215
jupit | 1 | 0.007462686567164179 | 0.03478416282034617
lead | 1 | 0.007462686567164179 | 0.013009754371956032
left | 2 | 0.014925373134328358 | 0.015573520494042072
legisl | 1 | 0.007462686567164179 | 0.026585563651181175
level | 1 | 0.007462686567164179 | 0.02110818174759759
live | 1 | 0.007462686567164179 | 0.007349083179248591
longtim | 1 | 0.007462686567164179 | 0.023156217909551028
look | 1 | 0.007462686567164179 | 0.0137513399974277
major | 1 | 0.007462686567164179 | 0.00909745105779087
march | 1 | 0.007462686567164179 | 0.0058172688058429085
missil | 1 | 0.007462686567164179 | 0.016397198338329998
mustachio | 1 | 0.007462686567164179 | 0.0399569029737786
nation | 2 | 0.014925373134328358 | -0.0056342812665538785
nato | 1 | 0.007462686567164179 | 0.009719701870768864
needless | 1 | 0.007462686567164179 | 0.036931043958046035
nenni | 5 | 0.03731343283582089 | 0.07165066395526815
neutral | 1 | 0.007462686567164179 | 0.01741641874882067
nine | 1 | 0.007462686567164179 | -0.003979604165960233
nineti | 1 | 0.007462686567164179 | 0.015089705136650214
ninth | 1 | 0.007462686567164179 | 0.010688445240335959
nuclear | 1 | 0.007462686567164179 | 0.00927873980830613
old | 2 | 0.014925373134328358 | 0.006923520451710133
one000000 | 1 | 0.007462686567164179 | 0.0399569029737786
one95two | 1 | 0.007462686567164179 | 0.033118912437404315
oneket | 1 | 0.007462686567164179 | 0.010837703947102149
open | 1 | 0.007462686567164179 | 0.009916964983217787
parliament | 1 | 0.007462686567164179 | 0.012713184755168612
parti | 1 | 0.007462686567164179 | -0.0008179612428304279
partnership | 1 | 0.007462686567164179 | 0.025988230011826426
path | 1 | 0.007462686567164179 | 0.025988230011826426
person | 1 | 0.007462686567164179 | 0.011384952253710728
pietro | 2 | 0.014925373134328358 | 0.05317112730236235
polit | 1 | 0.007462686567164179 | 0.003052369475466658
politician | 1 | 0.007462686567164179 | 0.012713184755168612
popular | 1 | 0.007462686567164179 | 0.015224171595625424
premier | 2 | 0.014925373134328358 | 0.011329927587339443
presidenti | 1 | 0.007462686567164179 | 0.023986259962612402
price | 1 | 0.007462686567164179 | 0.015500598996225044
prizewinn | 1 | 0.007462686567164179 | 0.0399569029737786
probabl | 1 | 0.007462686567164179 | 0.014574832961374457
prolong | 1 | 0.007462686567164179 | 0.031758303804613607
pull | 2 | 0.014925373134328358 | 0.03677392896403236
quit | 1 | 0.007462686567164179 | 0.016397198338329998
rate | 1 | 0.007462686567164179 | 0.01688942197856729
right | 1 | 0.007462686567164179 | 0.00880475916858728
road | 1 | 0.007462686567164179 | 0.013531833391410586
rome | 1 | 0.007462686567164179 | 0.01760069197710703
run | 1 | 0.007462686567164179 | 0.009719701870768864
save | 1 | 0.007462686567164179 | 0.0179834777561186
scurri | 1 | 0.007462686567164179 | 0.031758303804613607
senat | 1 | 0.007462686567164179 | 0.02443868251348132
sharpli | 1 | 0.007462686567164179 | 0.027234902285432145
shrewd | 1 | 0.007462686567164179 | 0.027234902285432145
simpatico | 1 | 0.007462686567164179 | 0.045129643127211024
sinistra | 1 | 0.007462686567164179 | 0.028732444788881033
socialist | 2 | 0.014925373134328358 | 0.016397198338329998
stalin | 1 | 0.007462686567164179 | 0.01624008334431632
state | 1 | 0.007462686567164179 | -0.006277614033724515
stay | 1 | 0.007462686567164179 | 0.01386356296283472
strike | 1 | 0.007462686567164179 | 0.012810737602686171
style | 1 | 0.007462686567164179 | 0.020533845619716037
thousand | 9 | 0.06716417910447761 | -0.12763251888281793
top | 1 | 0.007462686567164179 | 0.010051431442192997
touch | 1 | 0.007462686567164179 | 0.01926594236004889
turn | 1 | 0.007462686567164179 | 0.006212212100278301
twenti | 9 | 0.06716417910447761 | -0.10707261462636004
unemploy | 1 | 0.007462686567164179 | 0.019747573114806884
unit | 1 | 0.007462686567164179 | -0.00633822501922712
walkout | 1 | 0.007462686567164179 | 0.031758303804613607
wave | 1 | 0.007462686567164179 | 0.01564274970496157
whitecollar | 1 | 0.007462686567164179 | 0.045129643127211024
wing | 1 | 0.007462686567164179 | 0.015787660793447404
worker | 2 | 0.014925373134328358 | 0.02412769224183529
