acquit | 1 | 0.00641025641025641 | 0.028448296580847292
action | 1 | 0.00641025641025641 | 0.012736725439101657
alibi | 2 | 0.01282051282051282 | 0.059757407922133174
amount | 1 | 0.00641025641025641 | 0.02060358227557732
anybodi | 1 | 0.00641025641025641 | 0.026291423269172852
argu | 1 | 0.00641025641025641 | 0.013688135728321359
arrest | 1 | 0.00641025641025641 | 0.012105699331324398
articl | 1 | 0.00641025641025641 | 0.022836317495245367
await | 1 | 0.00641025641025641 | 0.022323223215286802
away | 1 | 0.00641025641025641 | 0.009181100398750119
bailey | 1 | 0.00641025641025641 | 0.028448296580847292
bar | 1 | 0.00641025641025641 | 0.01616033111814177
barleycorn | 1 | 0.00641025641025641 | 0.03876520627593767
blitz | 1 | 0.00641025641025641 | 0.031722819810116466
brash | 1 | 0.00641025641025641 | 0.029878703961066587
britain | 1 | 0.00641025641025641 | 0.0015528026290371122
call | 1 | 0.00641025641025641 | 0.008575910113679128
cancer | 1 | 0.00641025641025641 | 0.028448296580847292
case | 2 | 0.01282051282051282 | 0.017986939485960324
casswel | 5 | 0.03205128205128205 | 0.14224148290423647
casual | 1 | 0.00641025641025641 | 0.027279568652680917
chagrin | 1 | 0.00641025641025641 | 0.03432195511850213
charg | 1 | 0.00641025641025641 | 0.009309309800715948
cheat | 1 | 0.00641025641025641 | 0.026291423269172852
check | 1 | 0.00641025641025641 | 0.01866588437895595
claim | 3 | 0.019230769230769232 | 0.03178698123795845
comfort | 1 | 0.00641025641025641 | 0.025435452803631037
commit | 1 | 0.00641025641025641 | 0.014654949124055868
complain | 1 | 0.00641025641025641 | 0.015118543108540652
conduct | 1 | 0.00641025641025641 | 0.018950831574922833
confess | 4 | 0.02564102564102564 | 0.0809487287474388
confid | 1 | 0.00641025641025641 | 0.013436720900415708
convict | 2 | 0.01282051282051282 | 0.03527609375694806
correct | 1 | 0.00641025641025641 | 0.022836317495245367
cours | 1 | 0.00641025641025641 | 0.011623497913134734
court | 1 | 0.00641025641025641 | 0.012206650337530418
crept | 1 | 0.00641025641025641 | 0.03432195511850213
crime | 1 | 0.00641025641025641 | 0.01839306633780982
crimin | 1 | 0.00641025641025641 | 0.02339408273235838
david | 1 | 0.00641025641025641 | 0.021848172111737306
day | 1 | 0.00641025641025641 | 0.0072738288032706796
death | 2 | 0.01282051282051282 | 0.016586948563332222
defens | 1 | 0.00641025641025641 | 0.007662448173888852
detail | 2 | 0.01282051282051282 | 0.0373317687579119
didnt | 1 | 0.00641025641025641 | 0.021405910115026076
dismiss | 1 | 0.00641025641025641 | 0.02099220164619549
eleven | 1 | 0.00641025641025641 | 0.01866588437895595
enjoy | 1 | 0.00641025641025641 | 0.017404920954301756
equal | 1 | 0.00641025641025641 | 0.013688135728321359
evid | 2 | 0.01282051282051282 | 0.026873441800831416
extraordinari | 1 | 0.00641025641025641 | 0.024005045423411742
felt | 1 | 0.00641025641025641 | 0.01675246778564828
follow | 1 | 0.00641025641025641 | 0.01100409512025607
forti | 1 | 0.00641025641025641 | 0.0025991353083856692
full | 1 | 0.00641025641025641 | 0.013314617086501
gallow | 1 | 0.00641025641025641 | 0.029878703961066587
girl | 1 | 0.00641025641025641 | 0.010755925170379849
gloat | 1 | 0.00641025641025641 | 0.03432195511850213
great | 1 | 0.00641025641025641 | 0.007088011259211369
guilti | 3 | 0.019230769230769232 | 0.07018224819707515
guis | 1 | 0.00641025641025641 | 0.03432195511850213
habitu | 1 | 0.00641025641025641 | 0.031722819810116466
hand | 1 | 0.00641025641025641 | 0.00554864505611662
harold | 4 | 0.02564102564102564 | 0.04802525408078566
head | 1 | 0.00641025641025641 | 0.006518809343934888
heard | 3 | 0.019230769230769232 | 0.05088797687277159
hospit | 1 | 0.00641025641025641 | 0.014507580417487289
hundr | 1 | 0.00641025641025641 | -0.0066357460917245
inde | 1 | 0.00641025641025641 | 0.01675246778564828
independ | 1 | 0.00641025641025641 | 0.008183894580644956
inform | 1 | 0.00641025641025641 | 0.015280836749465588
innoc | 3 | 0.019230769230769232 | 0.07201513627023523
inoper | 1 | 0.00641025641025641 | 0.03432195511850213
instal | 1 | 0.00641025641025641 | 0.017179976596537205
ive | 1 | 0.00641025641025641 | 0.024005045423411742
jail | 1 | 0.00641025641025641 | 0.011531262416646915
john | 1 | 0.00641025641025641 | 0.013436720900415708
joshua | 1 | 0.00641025641025641 | 0.031722819810116466
judg | 1 | 0.00641025641025641 | 0.017179976596537205
june | 3 | 0.019230769230769232 | 0.0026264525962644367
juri | 5 | 0.03205128205128205 | 0.13639784326340457
kill | 1 | 0.00641025641025641 | 0.007970199578929624
kind | 1 | 0.00641025641025641 | 0.014222633221520403
lawyer | 2 | 0.01282051282051282 | 0.04369634422347461
libel | 5 | 0.03205128205128205 | 0.1169704136617919
lie | 1 | 0.00641025641025641 | 0.014960257130397243
london | 2 | 0.01282051282051282 | 0.015731930941554374
londtwenti | 1 | 0.00641025641025641 | 0.031722819810116466
lose | 1 | 0.00641025641025641 | 0.016351696266537166
loughan | 13 | 0.08333333333333333 | 0.2902019017987284
mean | 1 | 0.00641025641025641 | 0.015974513574082465
memoir | 1 | 0.00641025641025641 | 0.027279568652680917
mind | 1 | 0.00641025641025641 | 0.012627145738080502
murder | 10 | 0.0641025641025641 | 0.14805785645916086
newspap | 2 | 0.01282051282051282 | 0.028169545863284864
nine | 1 | 0.00641025641025641 | -0.0034183779374273794
offici | 1 | 0.00641025641025641 | 0.0038779132597723358
old | 3 | 0.019230769230769232 | 0.008920689812780363
owner | 1 | 0.00641025641025641 | 0.02060358227557732
peopl | 2 | 0.01282051282051282 | 0.005152888223115902
polic | 3 | 0.019230769230769232 | 0.0165381994847216
portsmouth | 2 | 0.01282051282051282 | 0.06344563962023293
print | 1 | 0.00641025641025641 | 0.021405910115026076
prison | 2 | 0.01282051282051282 | 0.02135058390221021
proceed | 1 | 0.00641025641025641 | 0.022836317495245367
produc | 1 | 0.00641025641025641 | 0.014363523649204861
prosecutor | 2 | 0.01282051282051282 | 0.044646446430573604
protest | 1 | 0.00641025641025641 | 0.01100409512025607
prove | 1 | 0.00641025641025641 | 0.017879972057851256
pub | 2 | 0.01282051282051282 | 0.050870905607262075
puzzl | 1 | 0.00641025641025641 | 0.031722819810116466
question | 1 | 0.00641025641025641 | 0.017179976596537205
reach | 1 | 0.00641025641025641 | 0.012848210969305947
recal | 1 | 0.00641025641025641 | 0.015447346277691617
relief | 1 | 0.00641025641025641 | 0.022836317495245367
retrial | 1 | 0.00641025641025641 | 0.03876520627593767
return | 2 | 0.01282051282051282 | 0.017036837278861326
robberi | 3 | 0.019230769230769232 | 0.06850895248573612
robinsnineteenth | 1 | 0.00641025641025641 | 0.03876520627593767
robinson | 1 | 0.00641025641025641 | 0.03876520627593767
room | 1 | 0.00641025641025641 | 0.012309216628212733
rose | 2 | 0.01282051282051282 | 0.03232066223628354
routin | 1 | 0.00641025641025641 | 0.025435452803631037
scream | 1 | 0.00641025641025641 | 0.019890597435127163
seedi | 1 | 0.00641025641025641 | 0.031722819810116466
sensat | 1 | 0.00641025641025641 | 0.027279568652680917
sent | 1 | 0.00641025641025641 | 0.01126226114037107
seventh | 1 | 0.00641025641025641 | -0.0010976150041375075
shelter | 1 | 0.00641025641025641 | 0.027279568652680917
shown | 1 | 0.00641025641025641 | 0.019890597435127163
sixti | 3 | 0.019230769230769232 | 0.007061530192869436
solut | 1 | 0.00641025641025641 | 0.01866588437895595
spend | 1 | 0.00641025641025641 | 0.018131386885756905
spent | 1 | 0.00641025641025641 | 0.015118543108540652
stand | 1 | 0.00641025641025641 | 0.011812048459328922
station | 1 | 0.00641025641025641 | 0.014363523649204861
step | 1 | 0.00641025641025641 | 0.012736725439101657
stop | 1 | 0.00641025641025641 | 0.012206650337530418
strangl | 1 | 0.00641025641025641 | 0.03432195511850213
street | 1 | 0.00641025641025641 | 0.0084049598118704
stumbl | 1 | 0.00641025641025641 | 0.028448296580847292
su | 1 | 0.00641025641025641 | 0.031722819810116466
subway | 1 | 0.00641025641025641 | 0.029878703961066587
tell | 1 | 0.00641025641025641 | 0.015618296579500344
thousand | 8 | 0.05128205128205128 | -0.0974516098592456
tri | 2 | 0.01282051282051282 | 0.009286694870613715
trial | 1 | 0.00641025641025641 | 0.012309216628212733
truth | 1 | 0.00641025641025641 | 0.021405910115026076
twenti | 5 | 0.03205128205128205 | -0.05109590584021455
unshak | 1 | 0.00641025641025641 | 0.03432195511850213
usual | 1 | 0.00641025641025641 | 0.012736725439101657
verdict | 2 | 0.01282051282051282 | 0.048010090846823485
volunt | 1 | 0.00641025641025641 | 0.024005045423411742
warren | 1 | 0.00641025641025641 | 0.03432195511850213
wit | 1 | 0.00641025641025641 | 0.01616033111814177
woman | 1 | 0.00641025641025641 | 0.015447346277691617
