accord | 1 | 0.006756756756756757 | 0.014428034956879271
ad | 1 | 0.006756756756756757 | 0.02096576486405296
alien | 1 | 0.006756756756756757 | 0.02352988392962663
alli | 1 | 0.006756756756756757 | 0.010608347057892374
area | 1 | 0.006756756756756757 | 0.012350435634257915
arm | 1 | 0.006756756756756757 | 0.009677376095979856
armi | 3 | 0.02027027027027027 | 0.011657462946786552
attack | 1 | 0.006756756756756757 | 0.009544886424436773
automat | 1 | 0.006756756756756757 | 0.025302615446298866
base | 1 | 0.006756756756756757 | 0.013425197084458506
begun | 1 | 0.006756756756756757 | 0.02352988392962663
bloc | 1 | 0.006756756756756757 | 0.02061918855062356
build | 1 | 0.006756756756756757 | 0.009812515735889784
campaign | 1 | 0.006756756756756757 | 0.011003591697632974
carri | 1 | 0.006756756756756757 | 0.010763681640491692
ceas | 1 | 0.006756756756756757 | 0.020289525279208482
center | 1 | 0.006756756756756757 | 0.0139080279221757
china | 1 | 0.006756756756756757 | 0.004894339188566688
chines | 2 | 0.013513513513513514 | 0.008651356859272421
coalit | 1 | 0.006756756756756757 | 0.015139930332945665
cohort | 1 | 0.006756756756756757 | 0.04086062283139377
colonel | 1 | 0.006756756756756757 | 0.016106827925112376
command | 2 | 0.013513513513513514 | 0.019489216122407928
communist | 6 | 0.04054054054054054 | -0.00409849122451495
conceal | 1 | 0.006756756756756757 | 0.027712581283722736
confer | 1 | 0.006756756756756757 | 0.008741770188783199
consist | 1 | 0.006756756756756757 | 0.019975200849242987
countri | 1 | 0.006756756756756757 | 0.0019278432180141972
crime | 1 | 0.006756756756756757 | 0.019387286139853598
cross | 1 | 0.006756756756756757 | 0.014991424206467452
de | 3 | 0.02027027027027027 | 0.0034385756202697077
death | 1 | 0.006756756756756757 | 0.008741770188783199
default | 1 | 0.006756756756756757 | 0.04086062283139377
defect | 1 | 0.006756756756756757 | 0.022126915248692546
disenchant | 1 | 0.006756756756756757 | 0.03617719593571847
display | 1 | 0.006756756756756757 | 0.02171728942560853
dissens | 1 | 0.006756756756756757 | 0.027712581283722736
dollar | 1 | 0.006756756756756757 | 0.003262511971105301
done | 1 | 0.006756756756756757 | 0.016462528827040905
east | 1 | 0.006756756756756757 | 0.00619914502785949
effort | 1 | 0.006756756756756757 | 0.013542708859538701
eighti | 2 | 0.013513513513513514 | 0.022007183395265948
elect | 1 | 0.006756756756756757 | 0.005407757478958053
encamp | 1 | 0.006756756756756757 | 0.03617719593571847
establish | 1 | 0.006756756756756757 | 0.015139930332945665
evict | 1 | 0.006756756756756757 | 0.03343756682687952
faction | 1 | 0.006756756756756757 | 0.019975200849242987
fall | 1 | 0.006756756756756757 | 0.013784047255498696
farther | 1 | 0.006756756756756757 | 0.025302615446298866
fear | 1 | 0.006756756756756757 | 0.01142340102943707
fire | 1 | 0.006756756756756757 | 0.007471147002952525
forc | 1 | 0.006756756756756757 | 0.0016164168180123923
foreign | 2 | 0.013513513513513514 | 0.00992116486492555
former | 1 | 0.006756756756756757 | 0.011510586197247258
free | 1 | 0.006756756756756757 | 0.011003591697632974
funer | 1 | 0.006756756756756757 | 0.029986042341974176
gener | 1 | 0.006756756756756757 | 0.002527357512667469
geneva | 2 | 0.013513513513513514 | 0.028588466842188544
glove | 1 | 0.006756756756756757 | 0.03149376904004316
govern | 3 | 0.02027027027027027 | -0.009859797139602684
halt | 1 | 0.006756756756756757 | 0.02061918855062356
hand | 1 | 0.006756756756756757 | 0.005848571815906708
headquart | 1 | 0.006756756756756757 | 0.01470385924417829
hold | 1 | 0.006756756756756757 | 0.011168398813336753
hous | 1 | 0.006756756756756757 | 0.006443391744861593
hundr | 1 | 0.006756756756756757 | -0.006994435069655555
infiltr | 1 | 0.006756756756756757 | 0.02352988392962663
inflat | 1 | 0.006756756756756757 | 0.02256298633745992
influenc | 1 | 0.006756756756756757 | 0.016462528827040905
integr | 1 | 0.006756756756756757 | 0.02302915438804743
intern | 1 | 0.006756756756756757 | 0.013084448073465992
jarr | 3 | 0.02027027027027027 | 0.06638074574607765
ketsana | 3 | 0.02027027027027027 | 0.10031270048063856
kip | 1 | 0.006756756756756757 | 0.03617719593571847
kong | 4 | 0.02702702702702703 | 0.05613730447281503
lao | 10 | 0.06756756756756757 | 0.10234950580358258
laotian | 1 | 0.006756756756756757 | 0.020289525279208482
le | 4 | 0.02702702702702703 | 0.046395644290809376
leader | 1 | 0.006756756756756757 | 0.003134296420706614
left | 1 | 0.006756756756756757 | 0.007050174818248776
line | 1 | 0.006756756756756757 | 0.010234950580358258
link | 1 | 0.006756756756756757 | 0.01967485110214276
liquid | 1 | 0.006756756756756757 | 0.03149376904004316
maintain | 1 | 0.006756756756756757 | 0.015447108536166999
militari | 2 | 0.013513513513513514 | 0.011849840324434138
movi | 1 | 0.006756756756756757 | 0.02171728942560853
nation | 1 | 0.006756756756756757 | -0.002550654357156148
neutral | 1 | 0.006756756756756757 | 0.015768919677986284
neutralist | 11 | 0.07432432432432433 | 0.13920833784227737
new | 1 | 0.006756756756756757 | -0.0017984855893974148
next | 1 | 0.006756756756756757 | 0.007519582742672881
north | 2 | 0.013513513513513514 | 0.018574910061950972
odiou | 1 | 0.006756756756756757 | 0.04086062283139377
offic | 2 | 0.013513513513513514 | 0.009082348261650174
onetim | 1 | 0.006756756756756757 | 0.019975200849242987
open | 1 | 0.006756756756756757 | 0.00897887370102151
openli | 1 | 0.006756756756756757 | 0.022126915248692546
order | 1 | 0.006756756756756757 | 0.006827159301571951
pathet | 5 | 0.033783783783783786 | 0.08721744176508621
persist | 1 | 0.006756756756756757 | 0.027712581283722736
personnel | 1 | 0.006756756756756757 | 0.021331083926689958
phouma | 1 | 0.006756756756756757 | 0.024070713035528903
plain | 3 | 0.02027027027027027 | 0.04062812657861611
plan | 1 | 0.006756756756756757 | 0.006739974133761764
polit | 1 | 0.006756756756756757 | 0.002763631822381974
possibl | 1 | 0.006756756756756757 | 0.010020432348502984
price | 1 | 0.006756756756756757 | 0.014034326118203757
princ | 1 | 0.006756756756756757 | 0.011598911072702344
provinc | 1 | 0.006756756756756757 | 0.013084448073465992
provis | 1 | 0.006756756756756757 | 0.028754139931204212
rampant | 1 | 0.006756756756756757 | 0.03343756682687952
rank | 1 | 0.006756756756756757 | 0.01810862398013381
recal | 1 | 0.006756756756756757 | 0.016282337968377653
recogn | 1 | 0.006756756756756757 | 0.02171728942560853
record | 1 | 0.006756756756756757 | 0.014991424206467452
red | 6 | 0.04054054054054054 | 0.0019636060986322305
remark | 1 | 0.006756756756756757 | 0.01723557174040404
rent | 1 | 0.006756756756756757 | 0.022126915248692546
restrict | 1 | 0.006756756756756757 | 0.02061918855062356
right | 1 | 0.006756756756756757 | 0.007971876544531728
risen | 1 | 0.006756756756756757 | 0.024658627744918293
road | 1 | 0.006756756756756757 | 0.012251795097628504
shot | 1 | 0.006756756756756757 | 0.015606098383533175
show | 1 | 0.006756756756756757 | 0.014034326118203757
souvanna | 1 | 0.006756756756756757 | 0.022126915248692546
split | 1 | 0.006756756756756757 | 0.015768919677986284
strike | 1 | 0.006756756756756757 | 0.011598911072702344
subordin | 1 | 0.006756756756756757 | 0.03149376904004316
subvers | 1 | 0.006756756756756757 | 0.02061918855062356
subvert | 1 | 0.006756756756756757 | 0.03617719593571847
summer | 1 | 0.006756756756756757 | 0.014846112009028512
suppli | 1 | 0.006756756756756757 | 0.012058731770303801
supposedli | 1 | 0.006756756756756757 | 0.026810342144367855
thoroughli | 1 | 0.006756756756756757 | 0.029986042341974176
thousand | 1 | 0.006756756756756757 | -0.012839908055778981
top | 3 | 0.02027027027027027 | 0.02730186107947017
troop | 1 | 0.006756756756756757 | 0.006360991250984441
twenti | 1 | 0.006756756756756757 | -0.010771569339288474
unabl | 1 | 0.006756756756756757 | 0.02601451082236526
vietnam | 1 | 0.006756756756756757 | 0.006653899635265617
villag | 1 | 0.006756756756756757 | 0.011688405848040321
vongsouvanh | 1 | 0.006756756756756757 | 0.04086062283139377
weapon | 1 | 0.006756756756756757 | 0.013196132546109306
western | 1 | 0.006756756756756757 | 0.006402065886635672
wonder | 1 | 0.006756756756756757 | 0.019387286139853598
work | 2 | 0.013513513513513514 | 0.008651356859272421
worker | 1 | 0.006756756756756757 | 0.010922671487857869
yunnan | 1 | 0.006756756756756757 | 0.04086062283139377
