absolut | 1 | 0.0024390243902439024 | 0.0074430241597372845
abubakar | 4 | 0.00975609756097561 | 0.037562415626439596
accra | 1 | 0.0024390243902439024 | 0.010824229918566288
accus | 1 | 0.0024390243902439024 | 0.005576029422811502
action | 4 | 0.00975609756097561 | 0.01938467481463277
activ | 2 | 0.004878048780487805 | 0.01274821938810308
advanc | 1 | 0.0024390243902439024 | 0.006296673844503784
affair | 1 | 0.0024390243902439024 | 0.004931757288563729
africa | 6 | 0.014634146341463415 | 0.014045500153374059
african | 2 | 0.004878048780487805 | 0.004742431042987566
agent | 1 | 0.0024390243902439024 | 0.0050204588597122035
aim | 1 | 0.0024390243902439024 | 0.004888587588321287
akintola | 2 | 0.004878048780487805 | 0.026118170724323576
alon | 1 | 0.0024390243902439024 | 0.005814172031503979
ambiti | 1 | 0.0024390243902439024 | 0.008144687751083093
animist | 1 | 0.0024390243902439024 | 0.013059085362161788
argu | 2 | 0.004878048780487805 | 0.010416337432283571
assembl | 1 | 0.0024390243902439024 | 0.005066049428034527
assur | 1 | 0.0024390243902439024 | 0.0058775268763899815
astut | 1 | 0.0024390243902439024 | 0.009677879603332785
authoritarian | 1 | 0.0024390243902439024 | 0.009390603906609899
away | 1 | 0.0024390243902439024 | 0.0034932967370854113
awolowo | 11 | 0.026829268292682926 | 0.07931616337211606
azikiw | 1 | 0.0024390243902439024 | 0.014749688241576287
balewa | 1 | 0.0024390243902439024 | 0.010379543194678592
banker | 1 | 0.0024390243902439024 | 0.009677879603332785
barrist | 1 | 0.0024390243902439024 | 0.013059085362161788
base | 1 | 0.0024390243902439024 | 0.004846168703658192
bedpan | 1 | 0.0024390243902439024 | 0.014749688241576287
believ | 2 | 0.004878048780487805 | 0.008123636801816568
billion | 1 | 0.0024390243902439024 | 0.00607810760379723
birth | 2 | 0.004878048780487805 | 0.014204282746912822
black | 1 | 0.0024390243902439024 | 0.002628192388951896
boss | 2 | 0.004878048780487805 | 0.009863514577127457
brand | 1 | 0.0024390243902439024 | 0.008493714198987173
bribe | 1 | 0.0024390243902439024 | 0.010379543194678592
bring | 1 | 0.0024390243902439024 | 0.005576029422811502
british | 3 | 0.007317073170731708 | 0.0036460689815931086
bunch | 1 | 0.0024390243902439024 | 0.007568129755804482
businessmen | 1 | 0.0024390243902439024 | 0.007102141373456411
cadillac | 1 | 0.0024390243902439024 | 0.012070146074093093
call | 1 | 0.0024390243902439024 | 0.003263029213985229
capit | 1 | 0.0024390243902439024 | 0.0034932967370854113
center | 1 | 0.0024390243902439024 | 0.0050204588597122035
ceremoni | 1 | 0.0024390243902439024 | 0.006711061739126704
chairthrow | 1 | 0.0024390243902439024 | 0.014749688241576287
chanc | 1 | 0.0024390243902439024 | 0.00607810760379723
charg | 4 | 0.00975609756097561 | 0.014168315404016469
chasm | 1 | 0.0024390243902439024 | 0.014749688241576287
cheer | 1 | 0.0024390243902439024 | 0.006221621018487312
chief | 3 | 0.007317073170731708 | 0.008803793360397707
chieftain | 1 | 0.0024390243902439024 | 0.009677879603332785
christian | 1 | 0.0024390243902439024 | 0.0044943403894032
citi | 1 | 0.0024390243902439024 | 0.003032563742226882
citizen | 3 | 0.007317073170731708 | 0.01519814828410358
civil | 1 | 0.0024390243902439024 | 0.004531018139072811
claim | 1 | 0.0024390243902439024 | 0.00403151957164351
coalit | 1 | 0.0024390243902439024 | 0.005465145583599899
colonist | 1 | 0.0024390243902439024 | 0.011368482482747288
combin | 1 | 0.0024390243902439024 | 0.007839411792658688
complain | 1 | 0.0024390243902439024 | 0.005752421280322785
complex | 1 | 0.0024390243902439024 | 0.008144687751083093
compos | 1 | 0.0024390243902439024 | 0.00831296304739273
con | 1 | 0.0024390243902439024 | 0.014749688241576287
concaten | 1 | 0.0024390243902439024 | 0.013059085362161788
concern | 1 | 0.0024390243902439024 | 0.005465145583599899
congress | 1 | 0.0024390243902439024 | 0.0050204588597122035
conserv | 1 | 0.0024390243902439024 | 0.0053077345564350896
conspicu | 1 | 0.0024390243902439024 | 0.010003565926807232
conspir | 1 | 0.0024390243902439024 | 0.008901163185970506
conspiraci | 1 | 0.0024390243902439024 | 0.00831296304739273
contin | 1 | 0.0024390243902439024 | 0.006803111319572673
contrast | 1 | 0.0024390243902439024 | 0.007987276723918284
convent | 1 | 0.0024390243902439024 | 0.007987276723918284
cop | 1 | 0.0024390243902439024 | 0.0059425713814684235
corrupt | 2 | 0.004878048780487805 | 0.015136259511608964
cost | 2 | 0.004878048780487805 | 0.009951409725921009
count | 1 | 0.0024390243902439024 | 0.006296673844503784
countri | 2 | 0.004878048780487805 | 0.0013918087622736643
cours | 1 | 0.0024390243902439024 | 0.004422599205973216
court | 2 | 0.004878048780487805 | 0.009288963183681683
cover | 1 | 0.0024390243902439024 | 0.005576029422811502
creation | 1 | 0.0024390243902439024 | 0.009133627039151786
crisi | 2 | 0.004878048780487805 | 0.00936701362927408
critic | 1 | 0.0024390243902439024 | 0.004568255875977173
current | 1 | 0.0024390243902439024 | 0.006221621018487312
cynic | 1 | 0.0024390243902439024 | 0.011368482482747288
dash | 3 | 0.007317073170731708 | 0.023961830171754857
decemb | 1 | 0.0024390243902439024 | 0.006454084871668591
decemberad | 1 | 0.0024390243902439024 | 0.013059085362161788
decemberlar | 1 | 0.0024390243902439024 | 0.014749688241576287
decemberor | 1 | 0.0024390243902439024 | 0.014749688241576287
defend | 1 | 0.0024390243902439024 | 0.005159869625175493
defens | 1 | 0.0024390243902439024 | 0.0029154680856747824
defiantli | 1 | 0.0024390243902439024 | 0.011368482482747288
demand | 1 | 0.0024390243902439024 | 0.0030932894778896306
democraci | 2 | 0.004878048780487805 | 0.012297617826488373
deputi | 2 | 0.004878048780487805 | 0.009692337407316384
derid | 1 | 0.0024390243902439024 | 0.012070146074093093
design | 1 | 0.0024390243902439024 | 0.004846168703658192
destroy | 1 | 0.0024390243902439024 | 0.006998337435849591
develop | 1 | 0.0024390243902439024 | 0.0050204588597122035
die | 1 | 0.0024390243902439024 | 0.004458206033829686
disillus | 1 | 0.0024390243902439024 | 0.012070146074093093
dismiss | 1 | 0.0024390243902439024 | 0.007987276723918284
dispatch | 1 | 0.0024390243902439024 | 0.010379543194678592
divert | 1 | 0.0024390243902439024 | 0.011368482482747288
divid | 1 | 0.0024390243902439024 | 0.006148808913244186
dollar | 4 | 0.00975609756097561 | 0.004710748992425215
domin | 3 | 0.007317073170731708 | 0.017632580629169944
dont | 1 | 0.0024390243902439024 | 0.005208168716141786
doyen | 1 | 0.0024390243902439024 | 0.014749688241576287
dr | 1 | 0.0024390243902439024 | 0.007210560306556005
drag | 1 | 0.0024390243902439024 | 0.007839411792658688
dub | 1 | 0.0024390243902439024 | 0.009390603906609899
earn | 1 | 0.0024390243902439024 | 0.006296673844503784
eas | 1 | 0.0024390243902439024 | 0.007324023759324037
east | 2 | 0.004878048780487805 | 0.004475480312796119
econom | 1 | 0.0024390243902439024 | 0.002386507260551333
eke | 1 | 0.0024390243902439024 | 0.014749688241576287
elder | 1 | 0.0024390243902439024 | 0.010379543194678592
elect | 1 | 0.0024390243902439024 | 0.00195206855337998
elimin | 1 | 0.0024390243902439024 | 0.007987276723918284
els | 1 | 0.0024390243902439024 | 0.0058775268763899815
emerg | 2 | 0.004878048780487805 | 0.009692337407316384
end | 1 | 0.0024390243902439024 | 0.0018887137084939783
ensur | 1 | 0.0024390243902439024 | 0.011368482482747288
enterpris | 1 | 0.0024390243902439024 | 0.007839411792658688
entrepreneur | 1 | 0.0024390243902439024 | 0.011368482482747288
european | 1 | 0.0024390243902439024 | 0.003155565824243691
exhaust | 1 | 0.0024390243902439024 | 0.010824229918566288
expens | 1 | 0.0024390243902439024 | 0.007839411792658688
exuberantli | 1 | 0.0024390243902439024 | 0.014749688241576287
faith | 1 | 0.0024390243902439024 | 0.006454084871668591
fashion | 1 | 0.0024390243902439024 | 0.0074430241597372845
fear | 1 | 0.0024390243902439024 | 0.004123569152089479
feder | 6 | 0.014634146341463415 | 0.02110539502036371
feel | 1 | 0.0024390243902439024 | 0.004888587588321287
fester | 1 | 0.0024390243902439024 | 0.010379543194678592
feudal | 1 | 0.0024390243902439024 | 0.010003565926807232
fierc | 1 | 0.0024390243902439024 | 0.008901163185970506
fifti | 5 | 0.012195121951219513 | 0.002310232006863642
file | 1 | 0.0024390243902439024 | 0.00831296304739273
fill | 1 | 0.0024390243902439024 | 0.00607810760379723
financ | 2 | 0.004878048780487805 | 0.012297617826488373
firmli | 1 | 0.0024390243902439024 | 0.008493714198987173
fix | 1 | 0.0024390243902439024 | 0.007987276723918284
flagrant | 1 | 0.0024390243902439024 | 0.012070146074093093
flamboy | 1 | 0.0024390243902439024 | 0.014749688241576287
forc | 1 | 0.0024390243902439024 | 0.0005834870465020343
foreign | 2 | 0.004878048780487805 | 0.0035812985366072713
form | 2 | 0.004878048780487805 | 0.009212141930178566
forti | 1 | 0.0024390243902439024 | 0.0009889392880686936
fulani | 1 | 0.0024390243902439024 | 0.014749688241576287
fund | 1 | 0.0024390243902439024 | 0.008493714198987173
futur | 1 | 0.0024390243902439024 | 0.004763481992254091
ga | 1 | 0.0024390243902439024 | 0.007839411792658688
gener | 1 | 0.0024390243902439024 | 0.0009123144192067936
ghana | 2 | 0.004878048780487805 | 0.012018796295561796
govern | 11 | 0.026829268292682926 | -0.013050203043311519
governor | 1 | 0.0024390243902439024 | 0.008901163185970506
grave | 1 | 0.0024390243902439024 | 0.006998337435849591
greatest | 1 | 0.0024390243902439024 | 0.008688940315264092
groom | 1 | 0.0024390243902439024 | 0.012070146074093093
group | 4 | 0.00975609756097561 | 0.015655813878594747
guarante | 2 | 0.004878048780487805 | 0.015400002054390797
guinea | 1 | 0.0024390243902439024 | 0.006454084871668591
half | 1 | 0.0024390243902439024 | 0.004123569152089479
hand | 1 | 0.0024390243902439024 | 0.0021111917774492505
haphazard | 1 | 0.0024390243902439024 | 0.013059085362161788
hausa | 1 | 0.0024390243902439024 | 0.014749688241576287
help | 3 | 0.007317073170731708 | 0.008302809463245558
high | 2 | 0.004878048780487805 | 0.0074418712292548175
hord | 1 | 0.0024390243902439024 | 0.010003565926807232
hospit | 1 | 0.0024390243902439024 | 0.005519957427141505
hostil | 1 | 0.0024390243902439024 | 0.00637410969405154
hundr | 5 | 0.012195121951219513 | -0.012624102320841733
ibadan | 1 | 0.0024390243902439024 | 0.014749688241576287
ibo | 1 | 0.0024390243902439024 | 0.014749688241576287
ikoyi | 1 | 0.0024390243902439024 | 0.014749688241576287
immedi | 1 | 0.0024390243902439024 | 0.005576029422811502
impati | 1 | 0.0024390243902439024 | 0.008493714198987173
impos | 1 | 0.0024390243902439024 | 0.007568129755804482
incorrupt | 1 | 0.0024390243902439024 | 0.013059085362161788
increasingli | 1 | 0.0024390243902439024 | 0.006296673844503784
incred | 1 | 0.0024390243902439024 | 0.008901163185970506
independ | 1 | 0.0024390243902439024 | 0.0031138720843429594
indict | 2 | 0.004878048780487805 | 0.021648459837132577
industri | 1 | 0.0024390243902439024 | 0.003263029213985229
industrialist | 1 | 0.0024390243902439024 | 0.010003565926807232
inhabit | 1 | 0.0024390243902439024 | 0.009390603906609899
initi | 1 | 0.0024390243902439024 | 0.007210560306556005
intern | 1 | 0.0024390243902439024 | 0.0047231666216413825
investig | 1 | 0.0024390243902439024 | 0.006221621018487312
investor | 1 | 0.0024390243902439024 | 0.012070146074093093
island | 1 | 0.0024390243902439024 | 0.005208168716141786
ive | 1 | 0.0024390243902439024 | 0.009133627039151786
jam | 1 | 0.0024390243902439024 | 0.0074430241597372845
jeopardi | 1 | 0.0024390243902439024 | 0.011368482482747288
jobless | 1 | 0.0024390243902439024 | 0.012070146074093093
june | 1 | 0.0024390243902439024 | 0.00033311106098963584
kind | 1 | 0.0024390243902439024 | 0.005411538494041909
lago | 8 | 0.01951219512195122 | 0.07306901631321429
languag | 1 | 0.0024390243902439024 | 0.006998337435849591
languish | 1 | 0.0024390243902439024 | 0.011368482482747288
launch | 1 | 0.0024390243902439024 | 0.0058775268763899815
lead | 1 | 0.0024390243902439024 | 0.004251968502053923
leader | 6 | 0.014634146341463415 | 0.006788427369725545
left | 1 | 0.0024390243902439024 | 0.0025449411539044363
leftwing | 1 | 0.0024390243902439024 | 0.014749688241576287
levi | 1 | 0.0024390243902439024 | 0.008901163185970506
lift | 1 | 0.0024390243902439024 | 0.0074430241597372845
light | 1 | 0.0024390243902439024 | 0.005576029422811502
live | 1 | 0.0024390243902439024 | 0.002401895478095881
local | 1 | 0.0024390243902439024 | 0.004458206033829686
logic | 1 | 0.0024390243902439024 | 0.008688940315264092
london | 1 | 0.0024390243902439024 | 0.0029929039352225395
longtim | 1 | 0.0024390243902439024 | 0.007568129755804482
lost | 1 | 0.0024390243902439024 | 0.004219229428073091
mace | 2 | 0.004878048780487805 | 0.026118170724323576
make | 1 | 0.0024390243902439024 | 0.007102141373456411
malfeas | 1 | 0.0024390243902439024 | 0.014749688241576287
man | 1 | 0.0024390243902439024 | 0.00607810760379723
manag | 1 | 0.0024390243902439024 | 0.00468350681463704
march | 1 | 0.0024390243902439024 | 0.0019012537072754872
meaning | 1 | 0.0024390243902439024 | 0.012070146074093093
meanwhil | 1 | 0.0024390243902439024 | 0.007568129755804482
mele | 1 | 0.0024390243902439024 | 0.010003565926807232
member | 2 | 0.004878048780487805 | 0.005946626545092569
mercedes | 1 | 0.0024390243902439024 | 0.013059085362161788
mercuri | 1 | 0.0024390243902439024 | 0.010003565926807232
middl | 1 | 0.0024390243902439024 | 0.0038854265433970006
militari | 1 | 0.0024390243902439024 | 0.002138751668312503
minist | 2 | 0.004878048780487805 | 0.00047185183638317617
moslem | 2 | 0.004878048780487805 | 0.012443242036974623
movement | 1 | 0.0024390243902439024 | 0.00607810760379723
mp | 1 | 0.0024390243902439024 | 0.006998337435849591
nation | 8 | 0.01951219512195122 | -0.007365792094811899
nationhood | 1 | 0.0024390243902439024 | 0.013059085362161788
ncnc | 3 | 0.007317073170731708 | 0.03621043822227928
new | 2 | 0.004878048780487805 | -0.0012984188645405726
newmoder | 1 | 0.0024390243902439024 | 0.014749688241576287
newsman | 1 | 0.0024390243902439024 | 0.010379543194678592
nigeria | 14 | 0.03414634146341464 | 0.0915148021630177
nigerian | 7 | 0.01707317073170732 | 0.062308142301793545
nine | 4 | 0.00975609756097561 | -0.005202604470621182
nnamdi | 1 | 0.0024390243902439024 | 0.014749688241576287
north | 2 | 0.004878048780487805 | 0.0067050894857774235
northern | 1 | 0.0024390243902439024 | 0.005633420879909536
notabl | 1 | 0.0024390243902439024 | 0.007987276723918284
novemb | 1 | 0.0024390243902439024 | 0.006898771595556286
npc | 1 | 0.0024390243902439024 | 0.014749688241576287
number | 1 | 0.0024390243902439024 | 0.005359084334966389
nurs | 1 | 0.0024390243902439024 | 0.009677879603332785
obafemi | 1 | 0.0024390243902439024 | 0.013059085362161788
oklahoma | 1 | 0.0024390243902439024 | 0.014749688241576287
old | 1 | 0.0024390243902439024 | 0.0011314045616209242
onek | 1 | 0.0024390243902439024 | 0.009390603906609899
open | 1 | 0.0024390243902439024 | 0.003241154409149228
openli | 1 | 0.0024390243902439024 | 0.007987276723918284
opposit | 4 | 0.00975609756097561 | 0.015655813878594747
order | 1 | 0.0024390243902439024 | 0.002464437991786948
overthrow | 1 | 0.0024390243902439024 | 0.006898771595556286
pan | 1 | 0.0024390243902439024 | 0.009677879603332785
pang | 1 | 0.0024390243902439024 | 0.014749688241576287
para | 1 | 0.0024390243902439024 | 0.014749688241576287
parliament | 2 | 0.004878048780487805 | 0.008310081742402898
part | 1 | 0.0024390243902439024 | 0.007568129755804482
parti | 11 | 0.026829268292682926 | -0.0029406704193464654
patient | 1 | 0.0024390243902439024 | 0.008144687751083093
payoff | 1 | 0.0024390243902439024 | 0.012070146074093093
penni | 1 | 0.0024390243902439024 | 0.011368482482747288
peopl | 3 | 0.007317073170731708 | 0.0029409166931929783
persuad | 1 | 0.0024390243902439024 | 0.006898771595556286
plan | 1 | 0.0024390243902439024 | 0.002432966272674978
play | 3 | 0.007317073170731708 | 0.01592320366930527
plot | 1 | 0.0024390243902439024 | 0.00662236016797823
polici | 1 | 0.0024390243902439024 | 0.0031766830504464092
polit | 3 | 0.007317073170731708 | 0.0029928110466770647
politician | 3 | 0.007317073170731708 | 0.012465122613604348
popul | 4 | 0.00975609756097561 | 0.0179773615576128
post | 1 | 0.0024390243902439024 | 0.005359084334966389
power | 2 | 0.004878048780487805 | 0.002825912380054374
pragmat | 1 | 0.0024390243902439024 | 0.010003565926807232
precipit | 1 | 0.0024390243902439024 | 0.011368482482747288
premier | 3 | 0.007317073170731708 | 0.005554427914768849
presidentmani | 1 | 0.0024390243902439024 | 0.014749688241576287
press | 1 | 0.0024390243902439024 | 0.003263029213985229
prevent | 1 | 0.0024390243902439024 | 0.00637410969405154
pride | 1 | 0.0024390243902439024 | 0.008144687751083093
prime | 2 | 0.004878048780487805 | 0.005290378286762784
primit | 1 | 0.0024390243902439024 | 0.007568129755804482
princip | 1 | 0.0024390243902439024 | 0.0074430241597372845
prison | 1 | 0.0024390243902439024 | 0.004061818400908284
privat | 1 | 0.0024390243902439024 | 0.0044943403894032
probabl | 1 | 0.0024390243902439024 | 0.004763481992254091
progress | 2 | 0.004878048780487805 | 0.011266841759819072
prosecut | 1 | 0.0024390243902439024 | 0.010824229918566288
proud | 1 | 0.0024390243902439024 | 0.008144687751083093
public | 1 | 0.0024390243902439024 | 0.00418692399697548
quash | 1 | 0.0024390243902439024 | 0.012070146074093093
questitwenti | 1 | 0.0024390243902439024 | 0.012070146074093093
quit | 1 | 0.0024390243902439024 | 0.005359084334966389
radic | 1 | 0.0024390243902439024 | 0.008144687751083093
rang | 1 | 0.0024390243902439024 | 0.005066049428034527
rather | 1 | 0.0024390243902439024 | 0.0058775268763899815
real | 1 | 0.0024390243902439024 | 0.0050204588597122035
rebel | 1 | 0.0024390243902439024 | 0.004155040871201449
red | 1 | 0.0024390243902439024 | 0.00011813565146242686
refuge | 1 | 0.0024390243902439024 | 0.007324023759324037
region | 6 | 0.014634146341463415 | 0.030675050640949032
reinstat | 1 | 0.0024390243902439024 | 0.013059085362161788
religion | 1 | 0.0024390243902439024 | 0.007324023759324037
reluct | 1 | 0.0024390243902439024 | 0.007324023759324037
remov | 1 | 0.0024390243902439024 | 0.007210560306556005
repres | 1 | 0.0024390243902439024 | 0.005814172031503979
repris | 1 | 0.0024390243902439024 | 0.011368482482747288
republ | 1 | 0.0024390243902439024 | 0.005112508440158172
reput | 1 | 0.0024390243902439024 | 0.008493714198987173
resort | 1 | 0.0024390243902439024 | 0.008493714198987173
restiv | 1 | 0.0024390243902439024 | 0.009390603906609899
richest | 1 | 0.0024390243902439024 | 0.011368482482747288
rife | 1 | 0.0024390243902439024 | 0.014749688241576287
right | 2 | 0.004878048780487805 | 0.005755305993125345
ritualist | 1 | 0.0024390243902439024 | 0.010379543194678592
rival | 1 | 0.0024390243902439024 | 0.006454084871668591
rivet | 1 | 0.0024390243902439024 | 0.014749688241576287
road | 1 | 0.0024390243902439024 | 0.004422599205973216
rule | 4 | 0.00975609756097561 | 0.013140407934184016
run | 1 | 0.0024390243902439024 | 0.0031766830504464092
sack | 1 | 0.0024390243902439024 | 0.008144687751083093
samuel | 1 | 0.0024390243902439024 | 0.013059085362161788
scandal | 2 | 0.004878048780487805 | 0.014204282746912822
scare | 1 | 0.0024390243902439024 | 0.010379543194678592
scorn | 1 | 0.0024390243902439024 | 0.010003565926807232
scrupul | 1 | 0.0024390243902439024 | 0.010824229918566288
searchingli | 1 | 0.0024390243902439024 | 0.014749688241576287
secret | 1 | 0.0024390243902439024 | 0.004606070965089283
seen | 1 | 0.0024390243902439024 | 0.00662236016797823
seiz | 2 | 0.004878048780487805 | 0.01274821938810308
self | 2 | 0.004878048780487805 | 0.010132098856069053
send | 1 | 0.0024390243902439024 | 0.00662236016797823
sensat | 1 | 0.0024390243902439024 | 0.010379543194678592
seventeen | 1 | 0.0024390243902439024 | 0.009390603906609899
seventh | 2 | 0.004878048780487805 | -0.0008352582470509814
shatter | 1 | 0.0024390243902439024 | 0.0074430241597372845
shock | 1 | 0.0024390243902439024 | 0.0074430241597372845
sir | 4 | 0.00975609756097561 | 0.018273023503908692
sixti | 3 | 0.007317073170731708 | 0.002686826122164956
skin | 1 | 0.0024390243902439024 | 0.007700001027195398
slum | 1 | 0.0024390243902439024 | 0.009133627039151786
smash | 1 | 0.0024390243902439024 | 0.007700001027195398
social | 1 | 0.0024390243902439024 | 0.00403151957164351
solid | 1 | 0.0024390243902439024 | 0.00831296304739273
sometim | 1 | 0.0024390243902439024 | 0.006803111319572673
sophist | 1 | 0.0024390243902439024 | 0.009677879603332785
stabil | 2 | 0.004878048780487805 | 0.015136259511608964
state | 2 | 0.004878048780487805 | -0.0041034160025321224
strong | 1 | 0.0024390243902439024 | 0.005576029422811502
style | 1 | 0.0024390243902439024 | 0.006711061739126704
subdu | 1 | 0.0024390243902439024 | 0.011368482482747288
success | 1 | 0.0024390243902439024 | 0.004219229428073091
support | 2 | 0.004878048780487805 | 0.004712038117374708
surfac | 1 | 0.0024390243902439024 | 0.007700001027195398
surviv | 1 | 0.0024390243902439024 | 0.00637410969405154
suspens | 1 | 0.0024390243902439024 | 0.012070146074093093
swarm | 1 | 0.0024390243902439024 | 0.007839411792658688
system | 2 | 0.004878048780487805 | 0.010225016880316344
tafawa | 1 | 0.0024390243902439024 | 0.010824229918566288
tear | 1 | 0.0024390243902439024 | 0.007324023759324037
tempt | 1 | 0.0024390243902439024 | 0.011368482482747288
term | 1 | 0.0024390243902439024 | 0.00480447496375746
terrorist | 1 | 0.0024390243902439024 | 0.007987276723918284
texa | 1 | 0.0024390243902439024 | 0.010379543194678592
thin | 1 | 0.0024390243902439024 | 0.007839411792658688
thousand | 20 | 0.04878048780487805 | -0.09269787279294094
top | 1 | 0.0024390243902439024 | 0.003285101983546004
tradit | 2 | 0.004878048780487805 | 0.00870581610734128
traffic | 2 | 0.004878048780487805 | 0.01442112061311201
train | 2 | 0.004878048780487805 | 0.008310081742402898
treason | 1 | 0.0024390243902439024 | 0.008688940315264092
trebl | 1 | 0.0024390243902439024 | 0.013059085362161788
trial | 4 | 0.00975609756097561 | 0.01873402725854816
tribal | 1 | 0.0024390243902439024 | 0.007102141373456411
tribe | 3 | 0.007317073170731708 | 0.01986708050393469
tribesmen | 1 | 0.0024390243902439024 | 0.0058775268763899815
tripod | 1 | 0.0024390243902439024 | 0.014749688241576287
twenti | 13 | 0.03170731707317073 | -0.05054755953363664
uneasi | 1 | 0.0024390243902439024 | 0.008144687751083093
uninhibit | 1 | 0.0024390243902439024 | 0.012070146074093093
unit | 1 | 0.0024390243902439024 | -0.002071517445308376
univers | 2 | 0.004878048780487805 | 0.009777175176642575
unpretenti | 1 | 0.0024390243902439024 | 0.012070146074093093
unreli | 1 | 0.0024390243902439024 | 0.014749688241576287
vacuum | 1 | 0.0024390243902439024 | 0.012070146074093093
venal | 1 | 0.0024390243902439024 | 0.014749688241576287
violat | 1 | 0.0024390243902439024 | 0.007700001027195398
violenc | 1 | 0.0024390243902439024 | 0.008901163185970506
war | 1 | 0.0024390243902439024 | 0.000781766905997758
west | 4 | 0.00975609756097561 | 0.0023927200357972194
western | 3 | 0.007317073170731708 | 0.00693296891138107
white | 1 | 0.0024390243902439024 | 0.0025613656226394217
world | 1 | 0.0024390243902439024 | 0.0008707627432249208
worst | 1 | 0.0024390243902439024 | 0.007102141373456411
wreck | 1 | 0.0024390243902439024 | 0.009390603906609899
yoruba | 1 | 0.0024390243902439024 | 0.012070146074093093
young | 1 | 0.0024390243902439024 | 0.003263029213985229
younger | 1 | 0.0024390243902439024 | 0.008493714198987173
your | 2 | 0.004878048780487805 | 0.017802326371941013
zik | 3 | 0.007317073170731708 | 0.03621043822227928
