achiev | 1 | 0.005076142131979695 | 0.0104486707232589
admit | 1 | 0.005076142131979695 | 0.011046554152986734
agenc | 1 | 0.005076142131979695 | 0.015490557895899931
agent | 1 | 0.005076142131979695 | 0.0104486707232589
ambassador | 1 | 0.005076142131979695 | 0.010085934865481516
announc | 1 | 0.005076142131979695 | 0.007475437566207588
anyth | 1 | 0.005076142131979695 | 0.014158759599110638
appear | 1 | 0.005076142131979695 | 0.010264063392442277
approv | 1 | 0.005076142131979695 | 0.013782576999345554
armi | 1 | 0.005076142131979695 | 0.0029192969815979857
attempt | 1 | 0.005076142131979695 | 0.0104486707232589
base | 1 | 0.005076142131979695 | 0.010085934865481516
bitterest | 1 | 0.005076142131979695 | 0.025120608580599838
blatant | 1 | 0.005076142131979695 | 0.027178807098915393
boss | 2 | 0.01015228426395939 | 0.020528126784884554
bow | 1 | 0.005076142131979695 | 0.016315527081167826
brigadi | 1 | 0.005076142131979695 | 0.016315527081167826
broad | 1 | 0.005076142131979695 | 0.01730109060624883
candid | 1 | 0.005076142131979695 | 0.01264986861703992
capitul | 1 | 0.005076142131979695 | 0.023660293492012117
central | 1 | 0.005076142131979695 | 0.007581194352516432
certainli | 1 | 0.005076142131979695 | 0.015490557895899931
chao | 1 | 0.005076142131979695 | 0.020141779885108842
chong | 1 | 0.005076142131979695 | 0.027178807098915393
chung | 1 | 0.005076142131979695 | 0.021602094973696563
cia | 3 | 0.015228426395939087 | 0.05702721450840963
citizen | 1 | 0.005076142131979695 | 0.010543554647178457
civil | 1 | 0.005076142131979695 | 0.009430037751369809
civilian | 3 | 0.015228426395939087 | 0.03554010323363406
complet | 1 | 0.005076142131979695 | 0.013432359377584377
continu | 1 | 0.005076142131979695 | 0.010355527887379729
contractor | 1 | 0.005076142131979695 | 0.027178807098915393
control | 3 | 0.015228426395939087 | 0.015889734108134296
countri | 3 | 0.015228426395939087 | 0.0043449867451690535
coup | 1 | 0.005076142131979695 | 0.008781137388375469
crisi | 1 | 0.005076142131979695 | 0.009747399969549169
critic | 1 | 0.005076142131979695 | 0.00950753760990173
cut | 1 | 0.005076142131979695 | 0.009829940684634348
decemb | 1 | 0.005076142131979695 | 0.013432359377584377
decemberis | 1 | 0.005076142131979695 | 0.025120608580599838
deliber | 1 | 0.005076142131979695 | 0.015006749876588638
democrat | 2 | 0.01015228426395939 | 0.015939445325564176
disaffect | 1 | 0.005076142131979695 | 0.020141779885108842
disarray | 1 | 0.005076142131979695 | 0.027178807098915393
dissens | 1 | 0.005076142131979695 | 0.020819604213152106
distrust | 1 | 0.005076142131979695 | 0.020819604213152106
dread | 1 | 0.005076142131979695 | 0.018083581366793285
emerg | 1 | 0.005076142131979695 | 0.010085934865481516
expect | 1 | 0.005076142131979695 | 0.00905935178682722
explor | 1 | 0.005076142131979695 | 0.018525263483491913
fall | 1 | 0.005076142131979695 | 0.010355527887379729
fifti | 1 | 0.005076142131979695 | 0.0009616194140244602
fire | 1 | 0.005076142131979695 | 0.005612841403233369
fist | 1 | 0.005076142131979695 | 0.019543896455381005
flounder | 1 | 0.005076142131979695 | 0.030697320705818664
foe | 1 | 0.005076142131979695 | 0.013967184330162176
forbidden | 1 | 0.005076142131979695 | 0.025120608580599838
forc | 1 | 0.005076142131979695 | 0.0012143639038874824
foreign | 1 | 0.005076142131979695 | 0.0037267319797182263
former | 1 | 0.005076142131979695 | 0.00864754699082535
full | 1 | 0.005076142131979695 | 0.010543554647178457
gag | 1 | 0.005076142131979695 | 0.027178807098915393
gener | 3 | 0.015228426395939087 | 0.005696176322966275
gentlemen | 1 | 0.005076142131979695 | 0.020819604213152106
govern | 3 | 0.015228426395939087 | -0.00740736028762029
grab | 2 | 0.01015228426395939 | 0.030981115791799862
grace | 1 | 0.005076142131979695 | 0.018083581366793285
grimli | 1 | 0.005076142131979695 | 0.025120608580599838
hall | 1 | 0.005076142131979695 | 0.013432359377584377
hee | 1 | 0.005076142131979695 | 0.022527585109706486
heel | 1 | 0.005076142131979695 | 0.019543896455381005
help | 1 | 0.005076142131979695 | 0.005759986260458
high | 2 | 0.01015228426395939 | 0.01548815839591104
hundr | 1 | 0.005076142131979695 | -0.005254702488878284
husband | 1 | 0.005076142131979695 | 0.016623266278205567
infiltr | 1 | 0.005076142131979695 | 0.017677273206013915
inflat | 1 | 0.005076142131979695 | 0.016950872984487653
insist | 1 | 0.005076142131979695 | 0.008205864874126723
inspect | 1 | 0.005076142131979695 | 0.01456506775989001
intellig | 1 | 0.005076142131979695 | 0.012367788154325144
intern | 1 | 0.005076142131979695 | 0.009829940684634348
investig | 1 | 0.005076142131979695 | 0.012948551358273084
iron | 1 | 0.005076142131979695 | 0.01094188772048554
januari | 2 | 0.01015228426395939 | 0.01811870357365444
job | 1 | 0.005076142131979695 | 0.00717077761835859
junta | 8 | 0.04060913705583756 | 0.10883558777907833
kept | 1 | 0.005076142131979695 | 0.010839335906691025
khaki | 1 | 0.005076142131979695 | 0.030697320705818664
kickback | 1 | 0.005076142131979695 | 0.030697320705818664
kill | 1 | 0.005076142131979695 | 0.006311427077731073
kim | 9 | 0.04568527918781726 | 0.15909545885412524
korea | 4 | 0.02030456852791878 | 0.054417793889539164
korean | 1 | 0.005076142131979695 | 0.018083581366793285
lead | 1 | 0.005076142131979695 | 0.008849274547421869
leader | 1 | 0.005076142131979695 | 0.002354699849058776
leadership | 1 | 0.005076142131979695 | 0.010640245992207363
left | 1 | 0.005076142131979695 | 0.005296578036044765
lightn | 1 | 0.005076142131979695 | 0.030697320705818664
lion | 1 | 0.005076142131979695 | 0.019009071502803208
major | 1 | 0.005076142131979695 | 0.006188113917482115
market | 1 | 0.005076142131979695 | 0.011046554152986734
may | 1 | 0.005076142131979695 | 0.011046554152986734
member | 3 | 0.015228426395939087 | 0.018564341752446346
mere | 1 | 0.005076142131979695 | 0.010839335906691025
militari | 1 | 0.005076142131979695 | 0.004451209055878813
mufti | 1 | 0.005076142131979695 | 0.030697320705818664
mulct | 1 | 0.005076142131979695 | 0.030697320705818664
name | 1 | 0.005076142131979695 | 0.00905935178682722
new | 2 | 0.01015228426395939 | -0.0027022930683331713
newspap | 1 | 0.005076142131979695 | 0.011153424250437662
niec | 1 | 0.005076142131979695 | 0.030697320705818664
object | 3 | 0.015228426395939087 | 0.034814802995219024
offic | 2 | 0.01015228426395939 | 0.006823287018904699
onec | 1 | 0.005076142131979695 | 0.030697320705818664
open | 1 | 0.005076142131979695 | 0.006745549785539002
openli | 1 | 0.005076142131979695 | 0.016623266278205567
oppon | 1 | 0.005076142131979695 | 0.016623266278205567
opposit | 1 | 0.005076142131979695 | 0.008145791485055641
order | 1 | 0.005076142131979695 | 0.0051290333839220745
organ | 1 | 0.005076142131979695 | 0.008205864874126723
outward | 1 | 0.005076142131979695 | 0.022527585109706486
park | 15 | 0.07614213197969544 | 0.13917749801041915
parti | 6 | 0.030456852791878174 | -0.00333827837175464
person | 1 | 0.005076142131979695 | 0.00774407919795552
pil | 1 | 0.005076142131979695 | 0.027178807098915393
plan | 1 | 0.005076142131979695 | 0.0050635338669885325
pleasant | 1 | 0.005076142131979695 | 0.019009071502803208
plenipotentiari | 1 | 0.005076142131979695 | 0.030697320705818664
plung | 2 | 0.01015228426395939 | 0.03535454641202783
polit | 6 | 0.030456852791878174 | 0.012457386082615193
politician | 2 | 0.01015228426395939 | 0.0172950939816507
popular | 1 | 0.005076142131979695 | 0.010355527887379729
posit | 1 | 0.005076142131979695 | 0.009747399969549169
post | 1 | 0.005076142131979695 | 0.011153424250437662
power | 4 | 0.02030456852791878 | 0.011762680972815161
presid | 1 | 0.005076142131979695 | 0.002222844588128519
presidenti | 1 | 0.005076142131979695 | 0.016315527081167826
promis | 1 | 0.005076142131979695 | 0.007073156491821088
prospect | 1 | 0.005076142131979695 | 0.01456506775989001
public | 1 | 0.005076142131979695 | 0.008713902734822065
quell | 1 | 0.005076142131979695 | 0.020819604213152106
quit | 1 | 0.005076142131979695 | 0.011153424250437662
race | 1 | 0.005076142131979695 | 0.011488236269685365
rampant | 1 | 0.005076142131979695 | 0.025120608580599838
rank | 1 | 0.005076142131979695 | 0.013604448472384791
record | 1 | 0.005076142131979695 | 0.011262592804858796
regim | 2 | 0.01015228426395939 | 0.012706412522330323
remain | 1 | 0.005076142131979695 | 0.006883372065061595
republican | 2 | 0.01015228426395939 | 0.027208896944769582
resign | 1 | 0.005076142131979695 | 0.009913845770681103
restiv | 1 | 0.005076142131979695 | 0.019543896455381005
restor | 1 | 0.005076142131979695 | 0.014158759599110638
retali | 1 | 0.005076142131979695 | 0.018525263483491913
revolutionari | 1 | 0.005076142131979695 | 0.01094188772048554
riven | 1 | 0.005076142131979695 | 0.025120608580599838
rule | 2 | 0.01015228426395939 | 0.013674028560952909
rumor | 1 | 0.005076142131979695 | 0.013604448472384791
run | 1 | 0.005076142131979695 | 0.006611370815649887
sack | 1 | 0.005076142131979695 | 0.016950872984487653
saddl | 1 | 0.005076142131979695 | 0.027178807098915393
save | 1 | 0.005076142131979695 | 0.01223241634172534
scale | 1 | 0.005076142131979695 | 0.01730109060624883
scream | 1 | 0.005076142131979695 | 0.015750929948628617
seiz | 1 | 0.005076142131979695 | 0.013265913576452444
sent | 1 | 0.005076142131979695 | 0.008918338771055263
seoul | 1 | 0.005076142131979695 | 0.019543896455381005
seventh | 2 | 0.01015228426395939 | -0.0017383547273649865
share | 1 | 0.005076142131979695 | 0.010355527887379729
shatter | 1 | 0.005076142131979695 | 0.015490557895899931
snooper | 2 | 0.01015228426395939 | 0.050241217161199676
sooner | 1 | 0.005076142131979695 | 0.018525263483491913
south | 5 | 0.025380710659898477 | 0.010290992591577777
spoil | 1 | 0.005076142131979695 | 0.022527585109706486
stifl | 1 | 0.005076142131979695 | 0.030697320705818664
stock | 1 | 0.005076142131979695 | 0.015750929948628617
strongman | 1 | 0.005076142131979695 | 0.015750929948628617
success | 1 | 0.005076142131979695 | 0.008781137388375469
support | 1 | 0.005076142131979695 | 0.004903389919095507
suspect | 1 | 0.005076142131979695 | 0.012948551358273084
swap | 1 | 0.005076142131979695 | 0.023660293492012117
tab | 1 | 0.005076142131979695 | 0.025120608580599838
tacit | 1 | 0.005076142131979695 | 0.025120608580599838
thirti | 1 | 0.005076142131979695 | 0.0039048605066789883
thousand | 4 | 0.02030456852791878 | -0.038584901365589626
threaten | 2 | 0.01015228426395939 | 0.020348435646819568
trip | 1 | 0.005076142131979695 | 0.011374160859268824
turn | 1 | 0.005076142131979695 | 0.004225565591052245
twenti | 4 | 0.02030456852791878 | -0.03236938603481612
unemploy | 1 | 0.005076142131979695 | 0.013432359377584377
unless | 1 | 0.005076142131979695 | 0.014158759599110638
war | 1 | 0.005076142131979695 | 0.0016270275708582778
wield | 1 | 0.005076142131979695 | 0.019543896455381005
win | 1 | 0.005076142131979695 | 0.007912364514284965
wing | 1 | 0.005076142131979695 | 0.010738814955948995
withdraw | 1 | 0.005076142131979695 | 0.014357849513594301
within | 1 | 0.005076142131979695 | 0.010640245992207363
wrangl | 1 | 0.005076142131979695 | 0.020141779885108842
