abl | 1 | 0.00819672131147541 | 0.018186317889812977
advertis | 2 | 0.01639344262295082 | 0.05982749026635914
anim | 1 | 0.00819672131147541 | 0.02991374513317957
applaus | 1 | 0.00819672131147541 | 0.03637651038206703
art | 1 | 0.00819672131147541 | 0.023184396345721947
attack | 1 | 0.00819672131147541 | 0.011579042547677398
birthday | 1 | 0.00819672131147541 | 0.02991374513317957
bridg | 2 | 0.01639344262295082 | 0.04572583018073436
build | 1 | 0.00819672131147541 | 0.01190370761403023
campaign | 2 | 0.01639344262295082 | 0.02669723887294558
candid | 3 | 0.02459016393442623 | 0.06127928157926716
canvass | 1 | 0.00819672131147541 | 0.04388709015152732
chines | 1 | 0.00819672131147541 | 0.005247544324476714
choic | 1 | 0.00819672131147541 | 0.023519002858183053
citizen | 1 | 0.00819672131147541 | 0.01702524807782095
claim | 1 | 0.00819672131147541 | 0.013548549380113437
clever | 1 | 0.00819672131147541 | 0.03488207139195265
cloth | 1 | 0.00819672131147541 | 0.01953943059767731
cold | 1 | 0.00819672131147541 | 0.018739115273382914
come | 1 | 0.00819672131147541 | 0.017181380823482383
communist | 1 | 0.00819672131147541 | -0.0008286566956669571
congress | 1 | 0.00819672131147541 | 0.016872033872803307
constitu | 2 | 0.01639344262295082 | 0.057088898714503955
consum | 1 | 0.00819672131147541 | 0.026345564221230015
contest | 1 | 0.00819672131147541 | 0.03069497611518223
cours | 1 | 0.00819672131147541 | 0.014862833397123104
dear | 1 | 0.00819672131147541 | 0.02991374513317957
demand | 1 | 0.00819672131147541 | 0.010395481032252038
describ | 1 | 0.00819672131147541 | 0.020664029954345218
district | 1 | 0.00819672131147541 | 0.026345564221230015
donkey | 1 | 0.00819672131147541 | 0.04388709015152732
dress | 1 | 0.00819672131147541 | 0.023184396345721947
drunk | 1 | 0.00819672131147541 | 0.03361854122943414
elect | 3 | 0.02459016393442623 | 0.019680691152929308
eleph | 1 | 0.00819672131147541 | 0.026345564221230015
faint | 1 | 0.00819672131147541 | 0.03820555588464252
fierc | 1 | 0.00819672131147541 | 0.02991374513317957
folk | 2 | 0.01639344262295082 | 0.06138995223036446
folksiest | 1 | 0.00819672131147541 | 0.049568624418412116
foreign | 1 | 0.00819672131147541 | 0.006017755737741727
free | 1 | 0.00819672131147541 | 0.01334861943647279
funer | 1 | 0.00819672131147541 | 0.03637651038206703
gold | 1 | 0.00819672131147541 | 0.0199709366098529
havent | 1 | 0.00819672131147541 | 0.03361854122943414
heart | 1 | 0.00819672131147541 | 0.01750286207883715
hundr | 1 | 0.00819672131147541 | -0.008485052379582149
illus | 1 | 0.00819672131147541 | 0.03637651038206703
kalinin | 2 | 0.01639344262295082 | 0.07641111176928504
khrushchev | 3 | 0.02459016393442623 | 0.014982611560403671
kremlin | 1 | 0.00819672131147541 | 0.01702524807782095
launch | 1 | 0.00819672131147541 | 0.019752344420654856
life | 1 | 0.00819672131147541 | 0.010747325661080186
loud | 1 | 0.00819672131147541 | 0.03252402161775773
lucki | 1 | 0.00819672131147541 | 0.03361854122943414
manner | 1 | 0.00819672131147541 | 0.02920053712506785
marbl | 1 | 0.00819672131147541 | 0.031558586899262775
marcher | 1 | 0.00819672131147541 | 0.040563605658837446
meet | 1 | 0.00819672131147541 | 0.00900501875957467
mighti | 1 | 0.00819672131147541 | 0.03820555588464252
milk | 1 | 0.00819672131147541 | 0.03252402161775773
mind | 1 | 0.00819672131147541 | 0.016146186353611137
minut | 1 | 0.00819672131147541 | 0.016573938428779744
moscow | 2 | 0.01639344262295082 | 0.011017930678067426
mountain | 1 | 0.00819672131147541 | 0.016428859927964983
natur | 1 | 0.00819672131147541 | 0.02116095308398813
new | 3 | 0.02459016393442623 | -0.00654530821059387
next | 1 | 0.00819672131147541 | 0.009122116769799888
nikita | 4 | 0.03278688524590164 | 0.05185128066858014
nine | 1 | 0.00819672131147541 | -0.0043710406413005835
nineti | 1 | 0.00819672131147541 | 0.016573938428779744
old | 1 | 0.00819672131147541 | 0.0038022612316768764
otherwis | 1 | 0.00819672131147541 | 0.02587705263237798
palac | 1 | 0.00819672131147541 | 0.011579042547677398
parti | 1 | 0.00819672131147541 | -0.000898416447043257
peke | 1 | 0.00819672131147541 | 0.009670801054022096
peopl | 2 | 0.01639344262295082 | 0.0065889390393941046
plumb | 1 | 0.00819672131147541 | 0.049568624418412116
polici | 1 | 0.00819672131147541 | 0.010675738120352687
polit | 1 | 0.00819672131147541 | 0.003352602538627313
presum | 1 | 0.00819672131147541 | 0.022553568139688108
prime | 1 | 0.00819672131147541 | 0.008889570072019432
pro | 1 | 0.00819672131147541 | 0.015103930816846821
probabl | 2 | 0.01639344262295082 | 0.03201684617744553
promis | 4 | 0.03278688524590164 | 0.045685633734057526
puzzl | 1 | 0.00819672131147541 | 0.040563605658837446
qualiti | 1 | 0.00819672131147541 | 0.02991374513317957
rather | 1 | 0.00819672131147541 | 0.019752344420654856
repli | 1 | 0.00819672131147541 | 0.016428859927964983
republ | 1 | 0.00819672131147541 | 0.017181380823482383
river | 3 | 0.02459016393442623 | 0.04843855906083341
run | 1 | 0.00819672131147541 | 0.010675738120352687
russia | 1 | 0.00819672131147541 | 0.008282127677316793
russian | 1 | 0.00819672131147541 | 0.007328529381545074
show | 1 | 0.00819672131147541 | 0.01702524807782095
showi | 1 | 0.00819672131147541 | 0.04388709015152732
slouch | 1 | 0.00819672131147541 | 0.04388709015152732
sort | 2 | 0.01639344262295082 | 0.03950468884130971
sound | 1 | 0.00819672131147541 | 0.01933190758141264
soviet | 2 | 0.01639344262295082 | 0.006416071610269269
speech | 2 | 0.01639344262295082 | 0.0340504961556419
state | 3 | 0.02459016393442623 | -0.020685252799649632
stormi | 1 | 0.00819672131147541 | 0.03637651038206703
stump | 1 | 0.00819672131147541 | 0.040563605658837446
success | 1 | 0.00819672131147541 | 0.014179377586147275
suit | 4 | 0.03278688524590164 | 0.09692884346517909
suprem | 1 | 0.00819672131147541 | 0.03252402161775773
talk | 1 | 0.00819672131147541 | 0.009063358659319457
thousand | 2 | 0.01639344262295082 | -0.03115256380746376
troubl | 1 | 0.00819672131147541 | 0.013857896330792511
tv | 1 | 0.00819672131147541 | 0.021689957355607564
twenti | 1 | 0.00819672131147541 | -0.013067149690284378
typic | 1 | 0.00819672131147541 | 0.02587705263237798
unit | 3 | 0.02459016393442623 | -0.020884970964994278
visag | 1 | 0.00819672131147541 | 0.049568624418412116
vote | 2 | 0.01639344262295082 | 0.023158085095354795
voter | 1 | 0.00819672131147541 | 0.021689957355607564
war | 1 | 0.00819672131147541 | 0.0026272494381891867
wear | 1 | 0.00819672131147541 | 0.018366472862917694
wed | 1 | 0.00819672131147541 | 0.03252402161775773
win | 1 | 0.00819672131147541 | 0.012776523027165067
youd | 1 | 0.00819672131147541 | 0.049568624418412116
youll | 1 | 0.00819672131147541 | 0.04388709015152732
